filename,round,propID,respID,IsPropCustomer,chipsToSend,chipsToReceive,accept,propCurrentScore,respCurrentScore,actualSent,ActualRcvd,propResultingScore,respResultingScore,#ofCustomerMovesInRound,customerRowPositionAfterMovePhase,customerColPositionAfterMovePhase,Player100ChipsAfterMovePhase,Player100ScoreAfterMovePhase,Player200ChipsAfterMovePhase,Player200ScoreAfterMovePhase,Player300ChipsAfterMovePhase,Player300ScoreAfterMovePhase,generosityLevel,ClientReachedGoal
3playersLog_1388320280938.csv,1,530,500,false,{ chips  'CTRed':33 'CTPurple':7 },{ chips  'grey78':11 },TRUE,200,120,{ chips  'CTRed':33 'CTPurple':7 'CTYellow':0 },{ chips  'grey78':11 },55,265,1,(R:5,C:5),{ chips  'CTRed':33 'CTGreen':0 'CTPurple':7 'grey78':1 'CTYellow':11 },260,{ chips  'CTRed':0 'CTGreen':0 'CTPurple':0 'grey78':11 'CTYellow':0 },55,{ chips  'CTRed':33 'CTGreen':0 'CTPurple':7 'grey78':0 'CTYellow':0 },200
3playersLog_1388320280938.csv,2,,,,,,,,,,,,,0,(R:5,C:5),{ chips  'CTRed':33 'CTGreen':0 'CTPurple':7 'grey78':1 'CTYellow':11 },260,{ chips  'CTRed':0 'CTGreen':0 'CTPurple':0 'grey78':11 'CTYellow':0 },55,{ chips  'CTRed':33 'CTGreen':0 'CTPurple':7 'grey78':0 'CTYellow':0 },200
3playersLog_1388320280938.csv,3,530,500,false,{ chips  },{ chips  },FALSE,55,260,,,,,6,(R:1,C:7),{ chips  'CTRed':39 'CTGreen':0 'CTPurple':9 'grey78':1 'CTYellow':0 },245,{ chips  'CTRed':0 'CTGreen':0 'CTPurple':0 'grey78':11 'CTYellow':0 },55,{ chips  'CTRed':27 'CTGreen':0 'CTPurple':4 'grey78':0 'CTYellow':6 },185
3playersLog_1388320280938.csv,3,540,500,false,{ chips  'CTRed':6 'CTPurple':3 },{ chips  'CTYellow':6 },TRUE,200,260,{ chips  'CTRed':6 'CTPurple':3 'CTGreen':0 'grey78':0 'CTYellow':0 },{ chips  'CTRed':0 'CTPurple':0 'CTGreen':0 'grey78':0 'CTYellow':6 },185,275,6,(R:1,C:7),{ chips  'CTRed':39 'CTGreen':0 'CTPurple':9 'grey78':1 'CTYellow':0 },245,{ chips  'CTRed':0 'CTGreen':0 'CTPurple':0 'grey78':11 'CTYellow':0 },55,{ chips  'CTRed':27 'CTGreen':0 'CTPurple':4 'grey78':0 'CTYellow':6 },185
3playersLog_1388320280938.csv,4,500,540,true,{ chips  'CTRed':5 'CTPurple':6 'grey78':1 },{ chips  'CTYellow':3 },FALSE,245,185,,,,,0,(R:1,C:7),{ chips  'CTRed':39 'CTGreen':0 'CTPurple':9 'grey78':1 'CTYellow':0 },245,{ chips  'CTRed':0 'CTGreen':0 'CTPurple':0 'grey78':11 'CTYellow':0 },55,{ chips  'CTRed':27 'CTGreen':0 'CTPurple':4 'grey78':0 'CTYellow':6 },185
3playersLog_1388320280938.csv,5,530,500,false,{ chips  },{ chips  },FALSE,55,245,,,,,7,(R:1,C:0),{ chips  'CTRed':39 'CTGreen':0 'CTPurple':4 'grey78':0 'CTYellow':0 },215,{ chips  'CTRed':0 'CTGreen':0 'CTPurple':0 'grey78':11 'CTYellow':0 },55,{ chips  'CTRed':27 'CTGreen':0 'CTPurple':3 'grey78':0 'CTYellow':6 },180
3playersLog_1388320280938.csv,5,540,500,false,{ chips  'CTPurple':1 },{ chips  },TRUE,185,245,{ chips  'CTRed':0 'CTPurple':1 'CTGreen':0 'grey78':0 'CTYellow':0 },{ chips  'CTRed':0 'CTPurple':0 'CTGreen':0 'grey78':0 'CTYellow':0 },180,250,7,(R:1,C:0),{ chips  'CTRed':39 'CTGreen':0 'CTPurple':4 'grey78':0 'CTYellow':0 },215,{ chips  'CTRed':0 'CTGreen':0 'CTPurple':0 'grey78':11 'CTYellow':0 },55,{ chips  'CTRed':27 'CTGreen':0 'CTPurple':3 'grey78':0 'CTYellow':6 },180
3playersLog_1388320280938.csv,6,500,530,true,{ chips  'CTPurple':3 },{ chips  'grey78':1 },IGNORED,215,55,,,,,0,(R:1,C:0),{ chips  'CTRed':39 'CTGreen':0 'CTPurple':4 'grey78':0 'CTYellow':0 },215,{ chips  'CTRed':0 'CTGreen':0 'CTPurple':0 'grey78':11 'CTYellow':0 },55,{ chips  'CTRed':27 'CTGreen':0 'CTPurple':3 'grey78':0 'CTYellow':6 },180
3playersLog_1388320280938.csv,7,530,500,false,{ chips  },{ chips  },FALSE,55,215,,,,,0,(R:1,C:0),{ chips  'CTRed':41 'CTGreen':0 'CTPurple':4 'grey78':0 'CTYellow':0 },225,{ chips  'CTRed':0 'CTGreen':0 'CTPurple':0 'grey78':11 'CTYellow':0 },55,{ chips  'CTRed':25 'CTGreen':0 'CTPurple':3 'grey78':0 'CTYellow':6 },170
3playersLog_1388320280938.csv,7,540,500,false,{ chips  'CTRed':2 },{ chips  },TRUE,180,215,{ chips  'CTRed':2 'CTPurple':0 'CTGreen':0 'grey78':0 'CTYellow':0 },{ chips  'CTRed':0 'CTPurple':0 'CTGreen':0 'grey78':0 'CTYellow':0 },170,225,0,(R:1,C:0),{ chips  'CTRed':41 'CTGreen':0 'CTPurple':4 'grey78':0 'CTYellow':0 },225,{ chips  'CTRed':0 'CTGreen':0 'CTPurple':0 'grey78':11 'CTYellow':0 },55,{ chips  'CTRed':25 'CTGreen':0 'CTPurple':3 'grey78':0 'CTYellow':6 },170
3playersLog_1388320280938.csv,,,,,,,,,,,,,,,,,,,,,,,,false
