filename,round,propID,respID,IsPropCustomer,chipsToSend,chipsToReceive,accept,propCurrentScore,respCurrentScore,actualSent,ActualRcvd,propResultingScore,respResultingScore,#ofCustomerMovesInRound,customerRowPositionAfterMovePhase,customerColPositionAfterMovePhase,Player100ChipsAfterMovePhase,Player100ScoreAfterMovePhase,Player200ChipsAfterMovePhase,Player200ScoreAfterMovePhase,Player300ChipsAfterMovePhase,Player300ScoreAfterMovePhase,generosityLevel,ClientReachedGoal
3playersLog_1385482559618.csv,1,550,500,false,{ chips  'CTRed':11 'CTPurple':2 },{ chips  'grey78':3 },TRUE,200,120,{ chips  'CTRed':11 'CTPurple':2 'CTYellow':0 },{ chips  'grey78':3 },150,170,0,(R:5,C:4),{ chips  'CTRed':11 'CTGreen':0 'CTPurple':2 'grey78':9 'CTYellow':12 },170,{ chips  'CTRed':22 'CTGreen':0 'CTPurple':5 'grey78':3 'CTYellow':0 },150,{ chips  'CTRed':33 'CTGreen':0 'CTPurple':7 'grey78':0 'CTYellow':0 },200
3playersLog_1385482559618.csv,2,500,550,true,{ chips  'CTRed':2 },{ chips  },TRUE,170,150,{ chips  'CTRed':2 'CTPurple':0 'CTGreen':0 'grey78':0 'CTYellow':0 },{ chips  'CTRed':0 'CTPurple':0 'CTGreen':0 'grey78':0 'CTYellow':0 },160,160,2,(R:4,C:5),{ chips  'CTRed':9 'CTGreen':0 'CTPurple':2 'grey78':9 'CTYellow':10 },150,{ chips  'CTRed':24 'CTGreen':0 'CTPurple':5 'grey78':3 'CTYellow':0 },160,{ chips  'CTRed':33 'CTGreen':0 'CTPurple':7 'grey78':0 'CTYellow':0 },200
3playersLog_1385482559618.csv,3,550,500,false,{ chips  'CTRed':8 'CTPurple':1 },{ chips  'grey78':2 },FALSE,160,150,,,,,0,(R:4,C:5),{ chips  'CTRed':9 'CTGreen':0 'CTPurple':2 'grey78':9 'CTYellow':10 },150,{ chips  'CTRed':24 'CTGreen':0 'CTPurple':5 'grey78':3 'CTYellow':0 },160,{ chips  'CTRed':33 'CTGreen':0 'CTPurple':7 'grey78':0 'CTYellow':0 },200
3playersLog_1385482559618.csv,3,540,500,false,{ chips  'CTPurple':7 },{ chips  'CTYellow':7 },FALSE,200,150,,,,,0,(R:4,C:5),{ chips  'CTRed':9 'CTGreen':0 'CTPurple':2 'grey78':9 'CTYellow':10 },150,{ chips  'CTRed':24 'CTGreen':0 'CTPurple':5 'grey78':3 'CTYellow':0 },160,{ chips  'CTRed':33 'CTGreen':0 'CTPurple':7 'grey78':0 'CTYellow':0 },200
3playersLog_1385482559618.csv,4,500,550,true,{ chips  'CTYellow':1 },{ chips  },TRUE,150,160,{ chips  'CTRed':0 'CTPurple':0 'CTGreen':0 'grey78':0 'CTYellow':1 },{ chips  'CTRed':0 'CTPurple':0 'CTGreen':0 'grey78':0 'CTYellow':0 },145,165,1,(R:4,C:6),{ chips  'CTRed':9 'CTGreen':0 'CTPurple':2 'grey78':9 'CTYellow':8 },140,{ chips  'CTRed':24 'CTGreen':0 'CTPurple':5 'grey78':3 'CTYellow':1 },165,{ chips  'CTRed':33 'CTGreen':0 'CTPurple':7 'grey78':0 'CTYellow':0 },200
3playersLog_1385482559618.csv,5,550,500,false,{ chips  'CTRed':8 'CTPurple':1 },{ chips  'grey78':2 },TRUE,165,140,{ chips  'CTRed':8 'CTPurple':1 'CTYellow':0 },{ chips  'grey78':2 },130,175,0,(R:4,C:6),{ chips  'CTRed':17 'CTGreen':0 'CTPurple':3 'grey78':7 'CTYellow':8 },175,{ chips  'CTRed':16 'CTGreen':0 'CTPurple':4 'grey78':5 'CTYellow':1 },130,{ chips  'CTRed':33 'CTGreen':0 'CTPurple':7 'grey78':0 'CTYellow':0 },200
3playersLog_1385482559618.csv,5,540,500,false,{ chips  'CTRed':7 'CTPurple':4 },{ chips  'CTYellow':6 },IGNORED,200,140,,,,,0,(R:4,C:6),{ chips  'CTRed':17 'CTGreen':0 'CTPurple':3 'grey78':7 'CTYellow':8 },175,{ chips  'CTRed':16 'CTGreen':0 'CTPurple':4 'grey78':5 'CTYellow':1 },130,{ chips  'CTRed':33 'CTGreen':0 'CTPurple':7 'grey78':0 'CTYellow':0 },200
3playersLog_1385482559618.csv,6,500,540,true,{ chips  'CTRed':1 },{ chips  },TRUE,175,130,{ chips  'CTRed':1 'CTPurple':0 'CTGreen':0 'grey78':0 'CTYellow':0 },{ chips  'CTRed':0 'CTPurple':0 'CTGreen':0 'grey78':0 'CTYellow':0 },170,205,0,(R:4,C:6),{ chips  'CTRed':16 'CTGreen':0 'CTPurple':3 'grey78':7 'CTYellow':8 },170,{ chips  'CTRed':16 'CTGreen':0 'CTPurple':4 'grey78':5 'CTYellow':1 },130,{ chips  'CTRed':34 'CTGreen':0 'CTPurple':7 'grey78':0 'CTYellow':0 },205
3playersLog_1385482559618.csv,,,,,,,,,,,,,,,,,,,,,,,,false
