Sun Jul 15 18:35:20 IDT 2012	This is the CT debug logger; svn version 638; sep 27 09
Sun Jul 15 18:35:20 IDT 2012	Sun Jul 15 18:35:20 IDT 2012
Sun Jul 15 18:35:20 IDT 2012	A new Alternative Offers game has began
Sun Jul 15 18:35:20 IDT 2012	ID Number: 40763
Sun Jul 15 18:35:20 IDT 2012	Creating board
Sun Jul 15 18:35:20 IDT 2012	<colors>
Sun Jul 15 18:35:20 IDT 2012	{ GamePalette  'CTRed':0 'CTPurple':1 'CTGreen':2 'grey78':3 }
Sun Jul 15 18:35:20 IDT 2012	<rows>
Sun Jul 15 18:35:20 IDT 2012	7
Sun Jul 15 18:35:20 IDT 2012	<columns>
Sun Jul 15 18:35:20 IDT 2012	5
Sun Jul 15 18:35:20 IDT 2012	<squaresColors>
Sun Jul 15 18:35:20 IDT 2012	CTPurple CTRed CTRed CTGreen CTPurple 
Sun Jul 15 18:35:20 IDT 2012	CTPurple grey78 CTPurple grey78 CTPurple 
Sun Jul 15 18:35:20 IDT 2012	CTPurple CTRed CTPurple CTGreen CTPurple 
Sun Jul 15 18:35:20 IDT 2012	CTPurple grey78 CTPurple grey78 CTPurple 
Sun Jul 15 18:35:20 IDT 2012	CTPurple CTRed CTPurple CTGreen CTPurple 
Sun Jul 15 18:35:20 IDT 2012	CTPurple grey78 CTPurple grey78 CTPurple 
Sun Jul 15 18:35:20 IDT 2012	CTPurple CTRed CTPurple CTGreen CTPurple 
Sun Jul 15 18:35:20 IDT 2012	</squareColors>
Sun Jul 15 18:35:20 IDT 2012	<goalPosition>
Sun Jul 15 18:35:20 IDT 2012	Goal position: (R:0,C:2)
Sun Jul 15 18:35:20 IDT 2012	<numberOfPlayers>
Sun Jul 15 18:35:20 IDT 2012	2
Sun Jul 15 18:35:20 IDT 2012	<firstPlayerChips>
Sun Jul 15 18:35:20 IDT 2012	Setting chips for player: 999 id:0
Sun Jul 15 18:35:20 IDT 2012	{ chips  'CTRed':1 'CTGreen':13 'CTPurple':0 'grey78':10 }
Sun Jul 15 18:35:20 IDT 2012	Player position: (R:6,C:4)
Sun Jul 15 18:35:20 IDT 2012	Setting chips for player: 337 id:1
Sun Jul 15 18:35:20 IDT 2012	{ chips  'CTRed':5 'CTGreen':19 'CTPurple':0 'grey78':0 }
Sun Jul 15 18:35:20 IDT 2012	Player position: (R:6,C:0)
Sun Jul 15 18:35:20 IDT 2012	Protocol: A New Phase Began: Strategy Prep Phase
Sun Jul 15 18:35:20 IDT 2012	Protocol: Strategy Preparation phase, Round: 0
Sun Jul 15 18:35:20 IDT 2012	Maximum number of rounds with no consecutive movement is 3
Sun Jul 15 18:35:20 IDT 2012	In begin comm. phase, set counter offers count to: 0
Sun Jul 15 18:35:20 IDT 2012	In begin comm. phase, get counter offers returned: 0
Sun Jul 15 18:35:40 IDT 2012	A Phase Ended: Strategy Prep Phase
Sun Jul 15 18:35:40 IDT 2012	Protocol: A New Phase Began: Communication Phase
Sun Jul 15 18:35:40 IDT 2012	Protocol: Communication phase, Round: 0
Sun Jul 15 18:35:57 IDT 2012	Received communication message 
Sun Jul 15 18:35:57 IDT 2012	From player: 999
Sun Jul 15 18:35:57 IDT 2012	To player: 337
Sun Jul 15 18:35:57 IDT 2012	Message type: basicproposal
Sun Jul 15 18:35:57 IDT 2012	Chips to send by proposer: { chips  'CTRed':0 'CTPurple':0 'CTGreen':0 'grey78':2 }
Sun Jul 15 18:35:57 IDT 2012	Chips to send by responder: { chips  'CTRed':0 'CTPurple':0 'CTGreen':5 'grey78':0 }
Sun Jul 15 18:36:01 IDT 2012	Received communication message 
Sun Jul 15 18:36:01 IDT 2012	From player: 337
Sun Jul 15 18:36:01 IDT 2012	To player: 999
Sun Jul 15 18:36:01 IDT 2012	Message type: basicproposaldiscussion
Sun Jul 15 18:36:01 IDT 2012	Player 337 rejected offer
Sun Jul 15 18:36:01 IDT 2012	Swaping roles:
Sun Jul 15 18:36:01 IDT 2012	Proposer is: 337
Sun Jul 15 18:36:01 IDT 2012	Responder is: 999
Sun Jul 15 18:36:01 IDT 2012	Prop rejected, set counter offers count to: 1
Sun Jul 15 18:36:01 IDT 2012	Prop rejected, get counter offers returned: 1
Sun Jul 15 18:36:05 IDT 2012	Slept 4 seconds
Sun Jul 15 18:36:05 IDT 2012	Sent role changed msgs
Sun Jul 15 18:36:07 IDT 2012	Received communication message 
Sun Jul 15 18:36:07 IDT 2012	From player: 337
Sun Jul 15 18:36:07 IDT 2012	To player: 999
Sun Jul 15 18:36:07 IDT 2012	Message type: basicproposal
Sun Jul 15 18:36:07 IDT 2012	Chips to send by proposer: { chips  'CTRed':0 'CTPurple':0 'CTGreen':1 'grey78':0 }
Sun Jul 15 18:36:07 IDT 2012	Chips to send by responder: { chips  'CTRed':0 'CTPurple':0 'CTGreen':0 'grey78':2 }
Sun Jul 15 18:36:15 IDT 2012	Received communication message 
Sun Jul 15 18:36:15 IDT 2012	From player: 999
Sun Jul 15 18:36:15 IDT 2012	To player: 337
Sun Jul 15 18:36:15 IDT 2012	Message type: basicproposaldiscussion
Sun Jul 15 18:36:15 IDT 2012	Player 999 rejected offer
Sun Jul 15 18:36:15 IDT 2012	Set counter offers count to: 0
Sun Jul 15 18:36:15 IDT 2012	A Phase Ended: Communication Phase
Sun Jul 15 18:36:15 IDT 2012	Protocol: A New Phase Began: Exchange Phase
Sun Jul 15 18:36:15 IDT 2012	Protocol: Exchange phase, Round: 0
Sun Jul 15 18:36:15 IDT 2012	In begin exch.phase, get counter offers returned: 0
Sun Jul 15 18:36:55 IDT 2012	A Phase Ended: Exchange Phase
Sun Jul 15 18:36:55 IDT 2012	Proposer 337 sent: { chips  }
Sun Jul 15 18:36:55 IDT 2012	Protocol: A New Phase Began: Movement Phase
Sun Jul 15 18:36:55 IDT 2012	Protocol: Movement phase, Round: 0
Sun Jul 15 18:37:15 IDT 2012	A Phase Ended: Movement Phase
Sun Jul 15 18:37:15 IDT 2012	Protocol: A New Phase Began: Feedback Phase
Sun Jul 15 18:37:15 IDT 2012	Protocol: Feedback phase, Round: 0
Sun Jul 15 18:37:15 IDT 2012	Number of consecutive no movements for player 999 is 1
Sun Jul 15 18:37:15 IDT 2012	Number of consecutive no movements for player 337 is 1
Sun Jul 15 18:37:20 IDT 2012	A Phase Ended: Feedback Phase
Sun Jul 15 18:37:20 IDT 2012	Protocol: A New Phase Began: Communication Phase
Sun Jul 15 18:37:20 IDT 2012	Protocol: Communication phase, Round: 1
Sun Jul 15 18:37:21 IDT 2012	Received communication message 
Sun Jul 15 18:37:21 IDT 2012	From player: 337
Sun Jul 15 18:37:21 IDT 2012	To player: 999
Sun Jul 15 18:37:21 IDT 2012	Message type: basicproposal
Sun Jul 15 18:37:21 IDT 2012	Chips to send by proposer: { chips  'CTGreen':1 }
Sun Jul 15 18:37:21 IDT 2012	Chips to send by responder: { chips  'grey78':2 }
Sun Jul 15 18:37:35 IDT 2012	Received communication message 
Sun Jul 15 18:37:35 IDT 2012	From player: 999
Sun Jul 15 18:37:35 IDT 2012	To player: 337
Sun Jul 15 18:37:35 IDT 2012	Message type: basicproposaldiscussion
Sun Jul 15 18:37:35 IDT 2012	Player 999 rejected offer
Sun Jul 15 18:37:35 IDT 2012	Swaping roles:
Sun Jul 15 18:37:35 IDT 2012	Proposer is: 999
Sun Jul 15 18:37:35 IDT 2012	Responder is: 337
Sun Jul 15 18:37:35 IDT 2012	Prop rejected, set counter offers count to: 1
Sun Jul 15 18:37:35 IDT 2012	Prop rejected, get counter offers returned: 1
Sun Jul 15 18:37:39 IDT 2012	Slept 4 seconds
Sun Jul 15 18:37:39 IDT 2012	Sent role changed msgs
Sun Jul 15 18:37:52 IDT 2012	Received communication message 
Sun Jul 15 18:37:52 IDT 2012	From player: 999
Sun Jul 15 18:37:52 IDT 2012	To player: 337
Sun Jul 15 18:37:52 IDT 2012	Message type: basicproposal
Sun Jul 15 18:37:52 IDT 2012	Chips to send by proposer: { chips  'CTRed':0 'CTPurple':0 'CTGreen':0 'grey78':2 }
Sun Jul 15 18:37:52 IDT 2012	Chips to send by responder: { chips  'CTRed':0 'CTPurple':0 'CTGreen':4 'grey78':0 }
Sun Jul 15 18:37:53 IDT 2012	Received communication message 
Sun Jul 15 18:37:53 IDT 2012	From player: 337
Sun Jul 15 18:37:53 IDT 2012	To player: 999
Sun Jul 15 18:37:53 IDT 2012	Message type: basicproposaldiscussion
Sun Jul 15 18:37:53 IDT 2012	Player 337 rejected offer
Sun Jul 15 18:37:53 IDT 2012	Set counter offers count to: 0
Sun Jul 15 18:37:53 IDT 2012	A Phase Ended: Communication Phase
Sun Jul 15 18:37:53 IDT 2012	Protocol: A New Phase Began: Exchange Phase
Sun Jul 15 18:37:53 IDT 2012	Protocol: Exchange phase, Round: 1
Sun Jul 15 18:37:53 IDT 2012	In begin exch.phase, get counter offers returned: 0
Sun Jul 15 18:38:33 IDT 2012	A Phase Ended: Exchange Phase
Sun Jul 15 18:38:33 IDT 2012	Responder 337 sent: { chips  }
Sun Jul 15 18:38:33 IDT 2012	Protocol: A New Phase Began: Movement Phase
Sun Jul 15 18:38:33 IDT 2012	Protocol: Movement phase, Round: 1
Sun Jul 15 18:38:53 IDT 2012	A Phase Ended: Movement Phase
Sun Jul 15 18:38:53 IDT 2012	Protocol: A New Phase Began: Feedback Phase
Sun Jul 15 18:38:53 IDT 2012	Protocol: Feedback phase, Round: 1
Sun Jul 15 18:38:53 IDT 2012	Number of consecutive no movements for player 999 is 2
Sun Jul 15 18:38:53 IDT 2012	Number of consecutive no movements for player 337 is 2
Sun Jul 15 18:38:58 IDT 2012	A Phase Ended: Feedback Phase
Sun Jul 15 18:38:58 IDT 2012	Protocol: A New Phase Began: Communication Phase
Sun Jul 15 18:38:58 IDT 2012	Protocol: Communication phase, Round: 2
Sun Jul 15 18:39:16 IDT 2012	Received communication message 
Sun Jul 15 18:39:16 IDT 2012	From player: 999
Sun Jul 15 18:39:16 IDT 2012	To player: 337
Sun Jul 15 18:39:16 IDT 2012	Message type: basicproposal
Sun Jul 15 18:39:16 IDT 2012	Chips to send by proposer: { chips  'CTRed':0 'CTPurple':0 'CTGreen':0 'grey78':2 }
Sun Jul 15 18:39:16 IDT 2012	Chips to send by responder: { chips  'CTRed':0 'CTPurple':0 'CTGreen':5 'grey78':0 }
Sun Jul 15 18:39:20 IDT 2012	Received communication message 
Sun Jul 15 18:39:20 IDT 2012	From player: 337
Sun Jul 15 18:39:20 IDT 2012	To player: 999
Sun Jul 15 18:39:20 IDT 2012	Message type: basicproposaldiscussion
Sun Jul 15 18:39:20 IDT 2012	Player 337 rejected offer
Sun Jul 15 18:39:20 IDT 2012	Swaping roles:
Sun Jul 15 18:39:20 IDT 2012	Proposer is: 337
Sun Jul 15 18:39:20 IDT 2012	Responder is: 999
Sun Jul 15 18:39:20 IDT 2012	Prop rejected, set counter offers count to: 1
Sun Jul 15 18:39:20 IDT 2012	Prop rejected, get counter offers returned: 1
Sun Jul 15 18:39:24 IDT 2012	Slept 4 seconds
Sun Jul 15 18:39:24 IDT 2012	Sent role changed msgs
Sun Jul 15 18:39:29 IDT 2012	Received communication message 
Sun Jul 15 18:39:29 IDT 2012	From player: 337
Sun Jul 15 18:39:29 IDT 2012	To player: 999
Sun Jul 15 18:39:29 IDT 2012	Message type: basicproposal
Sun Jul 15 18:39:29 IDT 2012	Chips to send by proposer: { chips  'CTRed':0 'CTPurple':0 'CTGreen':1 'grey78':0 }
Sun Jul 15 18:39:29 IDT 2012	Chips to send by responder: { chips  'CTRed':0 'CTPurple':0 'CTGreen':0 'grey78':2 }
Sun Jul 15 18:39:35 IDT 2012	Received communication message 
Sun Jul 15 18:39:35 IDT 2012	From player: 999
Sun Jul 15 18:39:35 IDT 2012	To player: 337
Sun Jul 15 18:39:35 IDT 2012	Message type: basicproposaldiscussion
Sun Jul 15 18:39:35 IDT 2012	Player 999 rejected offer
Sun Jul 15 18:39:35 IDT 2012	Set counter offers count to: 0
Sun Jul 15 18:39:35 IDT 2012	A Phase Ended: Communication Phase
Sun Jul 15 18:39:35 IDT 2012	Protocol: A New Phase Began: Exchange Phase
Sun Jul 15 18:39:35 IDT 2012	Protocol: Exchange phase, Round: 2
Sun Jul 15 18:39:35 IDT 2012	In begin exch.phase, get counter offers returned: 0
Sun Jul 15 18:40:15 IDT 2012	A Phase Ended: Exchange Phase
Sun Jul 15 18:40:15 IDT 2012	Proposer 337 sent: { chips  }
Sun Jul 15 18:40:15 IDT 2012	Protocol: A New Phase Began: Movement Phase
Sun Jul 15 18:40:15 IDT 2012	Protocol: Movement phase, Round: 2
Sun Jul 15 18:40:15 IDT 2012	Player 337 moved to (R:6,C:1)
Sun Jul 15 18:40:35 IDT 2012	A Phase Ended: Movement Phase
Sun Jul 15 18:40:35 IDT 2012	Protocol: A New Phase Began: Feedback Phase
Sun Jul 15 18:40:35 IDT 2012	Protocol: Feedback phase, Round: 2
Sun Jul 15 18:40:35 IDT 2012	Number of consecutive no movements for player 999 is 3
Sun Jul 15 18:40:35 IDT 2012	Number of consecutive no movements for player 337 is 0
Sun Jul 15 18:40:35 IDT 2012	Ending game, all players move as much as they can towards goal
Sun Jul 15 18:40:35 IDT 2012	Player: 337 ,role: Proposer score is: 45
Sun Jul 15 18:40:35 IDT 2012	Player: 999 ,role: Responder score is: 180
