filename,round,propID,respID,IsPropCustomer,chipsToSend,chipsToReceive,accept,propCurrentScore,respCurrentScore,actualSent,ActualRcvd,propResultingScore,respResultingScore,#ofCustomerMovesInRound,customerRowPositionAfterMovePhase,customerColPositionAfterMovePhase,Player100ChipsAfterMovePhase,Player100ScoreAfterMovePhase,Player200ChipsAfterMovePhase,Player200ScoreAfterMovePhase,Player300ChipsAfterMovePhase,Player300ScoreAfterMovePhase,generosityLevel,ClientReachedGoal
3playersLog_1385502513473.csv,1,520,510,false,{ chips  'CTRed':10 },{ chips  },TRUE,200,120,{ chips  'CTRed':10 'CTPurple':0 'CTGreen':0 'grey78':0 'CTYellow':0 },{ chips  'CTRed':0 'CTPurple':0 'CTGreen':0 'grey78':0 'CTYellow':0 },150,170,0,(R:5,C:4),{ chips  'CTRed':10 'CTGreen':0 'CTPurple':0 'grey78':12 'CTYellow':12 },170,{ chips  'CTRed':23 'CTGreen':0 'CTPurple':7 'grey78':0 'CTYellow':0 },150,{ chips  'CTRed':33 'CTGreen':0 'CTPurple':7 'grey78':0 'CTYellow':0 },200
3playersLog_1385502513473.csv,1,540,510,false,{ chips  'CTRed':2 'CTPurple':1 },{ chips  'CTYellow':2 },IGNORED,200,120,,,,,0,(R:5,C:4),{ chips  'CTRed':10 'CTGreen':0 'CTPurple':0 'grey78':12 'CTYellow':12 },170,{ chips  'CTRed':23 'CTGreen':0 'CTPurple':7 'grey78':0 'CTYellow':0 },150,{ chips  'CTRed':33 'CTGreen':0 'CTPurple':7 'grey78':0 'CTYellow':0 },200
3playersLog_1385502513473.csv,2,510,540,true,{ chips  'CTYellow':11 },{ chips  'CTRed':33 'CTPurple':7 },FALSE,170,200,,,,,1,(R:5,C:5),{ chips  'CTRed':10 'CTGreen':0 'CTPurple':0 'grey78':12 'CTYellow':11 },165,{ chips  'CTRed':23 'CTGreen':0 'CTPurple':7 'grey78':0 'CTYellow':0 },150,{ chips  'CTRed':33 'CTGreen':0 'CTPurple':7 'grey78':0 'CTYellow':0 },200
3playersLog_1385502513473.csv,3,520,510,false,{ chips  },{ chips  },FALSE,150,165,,,,,0,(R:5,C:5),{ chips  'CTRed':10 'CTGreen':0 'CTPurple':0 'grey78':12 'CTYellow':11 },165,{ chips  'CTRed':23 'CTGreen':0 'CTPurple':7 'grey78':0 'CTYellow':0 },150,{ chips  'CTRed':33 'CTGreen':0 'CTPurple':7 'grey78':0 'CTYellow':0 },200
3playersLog_1385502513473.csv,3,540,510,false,{ chips  'CTRed':12 'CTPurple':2 },{ chips  'CTYellow':6 },FALSE,200,165,,,,,0,(R:5,C:5),{ chips  'CTRed':10 'CTGreen':0 'CTPurple':0 'grey78':12 'CTYellow':11 },165,{ chips  'CTRed':23 'CTGreen':0 'CTPurple':7 'grey78':0 'CTYellow':0 },150,{ chips  'CTRed':33 'CTGreen':0 'CTPurple':7 'grey78':0 'CTYellow':0 },200
3playersLog_1385502513473.csv,4,510,520,true,{ chips  'grey78':11 },{ chips  'CTRed':23 'CTPurple':7 },FALSE,165,150,,,,,1,(R:4,C:5),{ chips  'CTRed':10 'CTGreen':0 'CTPurple':0 'grey78':12 'CTYellow':10 },160,{ chips  'CTRed':23 'CTGreen':0 'CTPurple':7 'grey78':0 'CTYellow':0 },150,{ chips  'CTRed':33 'CTGreen':0 'CTPurple':7 'grey78':0 'CTYellow':0 },200
3playersLog_1385502513473.csv,5,520,510,false,{ chips  },{ chips  },IGNORED,150,160,,,,,0,(R:4,C:5),{ chips  'CTRed':23 'CTGreen':0 'CTPurple':2 'grey78':12 'CTYellow':5 },210,{ chips  'CTRed':23 'CTGreen':0 'CTPurple':7 'grey78':0 'CTYellow':0 },150,{ chips  'CTRed':20 'CTGreen':0 'CTPurple':5 'grey78':0 'CTYellow':5 },150
3playersLog_1385502513473.csv,5,540,510,false,{ chips  'CTRed':13 'CTPurple':2 },{ chips  'CTYellow':5 },TRUE,200,160,{ chips  'CTRed':13 'CTPurple':2 'CTGreen':0 'grey78':0 'CTYellow':0 },{ chips  'CTRed':0 'CTPurple':0 'CTGreen':0 'grey78':0 'CTYellow':5 },150,210,0,(R:4,C:5),{ chips  'CTRed':23 'CTGreen':0 'CTPurple':2 'grey78':12 'CTYellow':5 },210,{ chips  'CTRed':23 'CTGreen':0 'CTPurple':7 'grey78':0 'CTYellow':0 },150,{ chips  'CTRed':20 'CTGreen':0 'CTPurple':5 'grey78':0 'CTYellow':5 },150
3playersLog_1385502513473.csv,6,510,520,true,{ chips  'grey78':11 },{ chips  'CTRed':23 'CTPurple':7 },TRUE,210,150,{ chips  'grey78':11 },{ chips  'CTRed':23 'CTPurple':7 'CTYellow':0 },305,55,7,(R:0,C:8),{ chips  'CTRed':46 'CTGreen':0 'CTPurple':7 'grey78':1 'CTYellow':0 },420,{ chips  'CTRed':0 'CTGreen':0 'CTPurple':0 'grey78':11 'CTYellow':0 },205,{ chips  'CTRed':20 'CTGreen':0 'CTPurple':5 'grey78':0 'CTYellow':5 },150
3playersLog_1385502513473.csv,,,,,,,,,,,,,,,,,,,,,,,,true
