filename,round,propID,respID,IsPropCustomer,chipsToSend,chipsToReceive,accept,propCurrentScore,respCurrentScore,actualSent,ActualRcvd,propResultingScore,respResultingScore,#ofCustomerMovesInRound,customerRowPositionAfterMovePhase,customerColPositionAfterMovePhase,Player100ChipsAfterMovePhase,Player100ScoreAfterMovePhase,Player200ChipsAfterMovePhase,Player200ScoreAfterMovePhase,Player300ChipsAfterMovePhase,Player300ScoreAfterMovePhase,generosityLevel,ClientReachedGoal
3playersLog_1385497714880.csv,1,520,510,false,{ chips  'CTRed':5 'CTPurple':1 },{ chips  },TRUE,200,120,{ chips  'CTRed':5 'CTPurple':1 'CTGreen':0 'grey78':0 'CTYellow':0 },{ chips  'CTRed':0 'CTPurple':0 'CTGreen':0 'grey78':0 'CTYellow':0 },170,150,0,(R:5,C:4),{ chips  'CTRed':5 'CTGreen':0 'CTPurple':1 'grey78':12 'CTYellow':12 },150,{ chips  'CTRed':28 'CTGreen':0 'CTPurple':6 'grey78':0 'CTYellow':0 },170,{ chips  'CTRed':33 'CTGreen':0 'CTPurple':7 'grey78':0 'CTYellow':0 },200
3playersLog_1385497714880.csv,2,510,520,true,{ chips  'grey78':11 },{ chips  'CTRed':28 'CTPurple':6 },FALSE,150,170,,,,,1,(R:5,C:3),{ chips  'CTRed':5 'CTGreen':0 'CTPurple':1 'grey78':11 'CTYellow':12 },145,{ chips  'CTRed':28 'CTGreen':0 'CTPurple':6 'grey78':0 'CTYellow':0 },170,{ chips  'CTRed':33 'CTGreen':0 'CTPurple':7 'grey78':0 'CTYellow':0 },200
3playersLog_1385497714880.csv,3,520,510,false,{ chips  'CTRed':17 'CTPurple':3 },{ chips  'grey78':7 },TRUE,170,145,{ chips  'CTRed':17 'CTPurple':3 'CTGreen':0 'grey78':0 'CTYellow':0 },{ chips  'CTRed':0 'CTPurple':0 'CTGreen':0 'grey78':7 'CTYellow':0 },105,210,0,(R:5,C:3),{ chips  'CTRed':22 'CTGreen':0 'CTPurple':4 'grey78':4 'CTYellow':12 },210,{ chips  'CTRed':11 'CTGreen':0 'CTPurple':3 'grey78':7 'CTYellow':0 },105,{ chips  'CTRed':33 'CTGreen':0 'CTPurple':7 'grey78':0 'CTYellow':0 },200
3playersLog_1385497714880.csv,3,540,510,false,{ chips  'CTPurple':3 },{ chips  },IGNORED,200,145,,,,,0,(R:5,C:3),{ chips  'CTRed':22 'CTGreen':0 'CTPurple':4 'grey78':4 'CTYellow':12 },210,{ chips  'CTRed':11 'CTGreen':0 'CTPurple':3 'grey78':7 'CTYellow':0 },105,{ chips  'CTRed':33 'CTGreen':0 'CTPurple':7 'grey78':0 'CTYellow':0 },200
3playersLog_1385497714880.csv,4,510,520,true,{ chips  'grey78':2 },{ chips  'CTRed':11 'CTPurple':3 },FALSE,210,105,,,,,1,(R:4,C:3),{ chips  'CTRed':22 'CTGreen':0 'CTPurple':4 'grey78':3 'CTYellow':12 },205,{ chips  'CTRed':11 'CTGreen':0 'CTPurple':3 'grey78':7 'CTYellow':0 },105,{ chips  'CTRed':33 'CTGreen':0 'CTPurple':7 'grey78':0 'CTYellow':0 },200
3playersLog_1385497714880.csv,5,540,510,false,{ chips  'CTPurple':3 },{ chips  'grey78':1 },TRUE,200,205,{ chips  'CTRed':0 'CTPurple':3 'CTGreen':0 'grey78':0 'CTYellow':0 },{ chips  'CTRed':0 'CTPurple':0 'CTGreen':0 'grey78':1 'CTYellow':0 },190,215,0,(R:4,C:3),{ chips  'CTRed':22 'CTGreen':0 'CTPurple':7 'grey78':2 'CTYellow':12 },215,{ chips  'CTRed':11 'CTGreen':0 'CTPurple':3 'grey78':7 'CTYellow':0 },105,{ chips  'CTRed':33 'CTGreen':0 'CTPurple':4 'grey78':1 'CTYellow':0 },190
3playersLog_1385497714880.csv,6,510,520,true,{ chips  'grey78':2 },{ chips  'CTRed':11 'CTPurple':3 },FALSE,215,105,,,,,1,(R:3,C:3),{ chips  'CTRed':22 'CTGreen':0 'CTPurple':6 'grey78':2 'CTYellow':12 },210,{ chips  'CTRed':11 'CTGreen':0 'CTPurple':3 'grey78':7 'CTYellow':0 },105,{ chips  'CTRed':33 'CTGreen':0 'CTPurple':4 'grey78':1 'CTYellow':0 },190
3playersLog_1385497714880.csv,7,520,510,false,{ chips  'CTRed':3 },{ chips  'CTPurple':2 },IGNORED,105,210,,,,,0,(R:3,C:3),{ chips  'CTRed':22 'CTGreen':0 'CTPurple':6 'grey78':2 'CTYellow':12 },210,{ chips  'CTRed':11 'CTGreen':0 'CTPurple':3 'grey78':7 'CTYellow':0 },105,{ chips  'CTRed':33 'CTGreen':0 'CTPurple':4 'grey78':1 'CTYellow':0 },190
3playersLog_1385497714880.csv,8,510,520,true,{ chips  'grey78':2 },{ chips  'CTRed':11 'CTPurple':3 },FALSE,210,105,,,,,1,(R:3,C:4),{ chips  'CTRed':22 'CTGreen':0 'CTPurple':5 'grey78':2 'CTYellow':12 },205,{ chips  'CTRed':11 'CTGreen':0 'CTPurple':3 'grey78':7 'CTYellow':0 },105,{ chips  'CTRed':33 'CTGreen':0 'CTPurple':4 'grey78':1 'CTYellow':0 },190
3playersLog_1385497714880.csv,9,520,510,false,{ chips  'CTRed':4 },{ chips  'CTPurple':2 },FALSE,105,205,,,,,0,(R:3,C:4),{ chips  'CTRed':22 'CTGreen':0 'CTPurple':5 'grey78':2 'CTYellow':12 },205,{ chips  'CTRed':11 'CTGreen':0 'CTPurple':3 'grey78':7 'CTYellow':0 },105,{ chips  'CTRed':33 'CTGreen':0 'CTPurple':4 'grey78':1 'CTYellow':0 },190
3playersLog_1385497714880.csv,9,540,510,false,{ chips  },{ chips  },FALSE,190,205,,,,,0,(R:3,C:4),{ chips  'CTRed':22 'CTGreen':0 'CTPurple':5 'grey78':2 'CTYellow':12 },205,{ chips  'CTRed':11 'CTGreen':0 'CTPurple':3 'grey78':7 'CTYellow':0 },105,{ chips  'CTRed':33 'CTGreen':0 'CTPurple':4 'grey78':1 'CTYellow':0 },190
3playersLog_1385497714880.csv,10,510,520,true,{ chips  'grey78':2 },{ chips  'CTRed':11 'CTPurple':3 },FALSE,205,105,,,,,1,(R:3,C:5),{ chips  'CTRed':22 'CTGreen':0 'CTPurple':4 'grey78':2 'CTYellow':12 },200,{ chips  'CTRed':11 'CTGreen':0 'CTPurple':3 'grey78':7 'CTYellow':0 },105,{ chips  'CTRed':33 'CTGreen':0 'CTPurple':4 'grey78':1 'CTYellow':0 },190
3playersLog_1385497714880.csv,11,520,510,false,{ chips  'CTRed':3 },{ chips  'CTPurple':2 },FALSE,105,200,,,,,0,(R:3,C:5),{ chips  'CTRed':22 'CTGreen':0 'CTPurple':4 'grey78':2 'CTYellow':12 },200,{ chips  'CTRed':11 'CTGreen':0 'CTPurple':3 'grey78':7 'CTYellow':0 },105,{ chips  'CTRed':33 'CTGreen':0 'CTPurple':4 'grey78':1 'CTYellow':0 },190
3playersLog_1385497714880.csv,11,540,510,false,{ chips  },{ chips  },FALSE,190,200,,,,,0,(R:3,C:5),{ chips  'CTRed':22 'CTGreen':0 'CTPurple':4 'grey78':2 'CTYellow':12 },200,{ chips  'CTRed':11 'CTGreen':0 'CTPurple':3 'grey78':7 'CTYellow':0 },105,{ chips  'CTRed':33 'CTGreen':0 'CTPurple':4 'grey78':1 'CTYellow':0 },190
3playersLog_1385497714880.csv,12,510,520,true,{ chips  'grey78':2 },{ chips  'CTRed':11 'CTPurple':3 },FALSE,200,105,,,,,1,(R:3,C:6),{ chips  'CTRed':22 'CTGreen':0 'CTPurple':4 'grey78':2 'CTYellow':11 },195,{ chips  'CTRed':11 'CTGreen':0 'CTPurple':3 'grey78':7 'CTYellow':0 },105,{ chips  'CTRed':33 'CTGreen':0 'CTPurple':4 'grey78':1 'CTYellow':0 },190
3playersLog_1385497714880.csv,13,520,510,false,{ chips  },{ chips  },FALSE,105,195,,,,,0,(R:3,C:6),{ chips  'CTRed':22 'CTGreen':0 'CTPurple':4 'grey78':2 'CTYellow':11 },195,{ chips  'CTRed':11 'CTGreen':0 'CTPurple':3 'grey78':7 'CTYellow':0 },105,{ chips  'CTRed':33 'CTGreen':0 'CTPurple':4 'grey78':1 'CTYellow':0 },190
3playersLog_1385497714880.csv,13,540,510,false,{ chips  },{ chips  'CTPurple':3 'CTYellow':2 },FALSE,190,195,,,,,0,(R:3,C:6),{ chips  'CTRed':22 'CTGreen':0 'CTPurple':4 'grey78':2 'CTYellow':11 },195,{ chips  'CTRed':11 'CTGreen':0 'CTPurple':3 'grey78':7 'CTYellow':0 },105,{ chips  'CTRed':33 'CTGreen':0 'CTPurple':4 'grey78':1 'CTYellow':0 },190
3playersLog_1385497714880.csv,14,510,520,true,{ chips  'grey78':2 },{ chips  'CTRed':11 'CTPurple':3 },FALSE,195,105,,,,,1,(R:3,C:7),{ chips  'CTRed':22 'CTGreen':0 'CTPurple':4 'grey78':2 'CTYellow':10 },190,{ chips  'CTRed':11 'CTGreen':0 'CTPurple':3 'grey78':7 'CTYellow':0 },105,{ chips  'CTRed':33 'CTGreen':0 'CTPurple':4 'grey78':1 'CTYellow':0 },190
3playersLog_1385497714880.csv,15,520,510,false,{ chips  'CTRed':3 },{ chips  'CTPurple':2 },FALSE,105,190,,,,,0,(R:3,C:7),{ chips  'CTRed':22 'CTGreen':0 'CTPurple':4 'grey78':2 'CTYellow':10 },190,{ chips  'CTRed':11 'CTGreen':0 'CTPurple':3 'grey78':7 'CTYellow':0 },105,{ chips  'CTRed':33 'CTGreen':0 'CTPurple':4 'grey78':1 'CTYellow':0 },190
3playersLog_1385497714880.csv,15,540,510,false,{ chips  },{ chips  'CTPurple':3 'CTYellow':2 },FALSE,190,190,,,,,0,(R:3,C:7),{ chips  'CTRed':22 'CTGreen':0 'CTPurple':4 'grey78':2 'CTYellow':10 },190,{ chips  'CTRed':11 'CTGreen':0 'CTPurple':3 'grey78':7 'CTYellow':0 },105,{ chips  'CTRed':33 'CTGreen':0 'CTPurple':4 'grey78':1 'CTYellow':0 },190
3playersLog_1385497714880.csv,16,510,520,true,{ chips  'grey78':2 },{ chips  'CTRed':11 'CTPurple':3 },FALSE,190,105,,,,,1,(R:2,C:7),{ chips  'CTRed':22 'CTGreen':0 'CTPurple':4 'grey78':2 'CTYellow':9 },185,{ chips  'CTRed':11 'CTGreen':0 'CTPurple':3 'grey78':7 'CTYellow':0 },105,{ chips  'CTRed':33 'CTGreen':0 'CTPurple':4 'grey78':1 'CTYellow':0 },190
3playersLog_1385497714880.csv,17,520,510,false,{ chips  'CTRed':4 },{ chips  'CTPurple':2 },FALSE,105,185,,,,,0,(R:2,C:7),{ chips  'CTRed':22 'CTGreen':0 'CTPurple':4 'grey78':2 'CTYellow':9 },185,{ chips  'CTRed':11 'CTGreen':0 'CTPurple':3 'grey78':7 'CTYellow':0 },105,{ chips  'CTRed':33 'CTGreen':0 'CTPurple':4 'grey78':1 'CTYellow':0 },190
3playersLog_1385497714880.csv,17,540,510,false,{ chips  },{ chips  },FALSE,190,185,,,,,0,(R:2,C:7),{ chips  'CTRed':22 'CTGreen':0 'CTPurple':4 'grey78':2 'CTYellow':9 },185,{ chips  'CTRed':11 'CTGreen':0 'CTPurple':3 'grey78':7 'CTYellow':0 },105,{ chips  'CTRed':33 'CTGreen':0 'CTPurple':4 'grey78':1 'CTYellow':0 },190
3playersLog_1385497714880.csv,18,510,520,true,{ chips  'grey78':2 },{ chips  'CTRed':11 'CTPurple':3 },FALSE,185,105,,,,,1,(R:1,C:7),{ chips  'CTRed':22 'CTGreen':0 'CTPurple':3 'grey78':2 'CTYellow':9 },180,{ chips  'CTRed':11 'CTGreen':0 'CTPurple':3 'grey78':7 'CTYellow':0 },105,{ chips  'CTRed':33 'CTGreen':0 'CTPurple':4 'grey78':1 'CTYellow':0 },190
3playersLog_1385497714880.csv,19,520,510,false,{ chips  'CTRed':5 },{ chips  'grey78':2 },FALSE,105,180,,,,,0,(R:1,C:7),{ chips  'CTRed':22 'CTGreen':0 'CTPurple':3 'grey78':2 'CTYellow':9 },180,{ chips  'CTRed':11 'CTGreen':0 'CTPurple':3 'grey78':7 'CTYellow':0 },105,{ chips  'CTRed':33 'CTGreen':0 'CTPurple':4 'grey78':1 'CTYellow':0 },190
3playersLog_1385497714880.csv,19,540,510,false,{ chips  },{ chips  },FALSE,190,180,,,,,0,(R:1,C:7),{ chips  'CTRed':22 'CTGreen':0 'CTPurple':3 'grey78':2 'CTYellow':9 },180,{ chips  'CTRed':11 'CTGreen':0 'CTPurple':3 'grey78':7 'CTYellow':0 },105,{ chips  'CTRed':33 'CTGreen':0 'CTPurple':4 'grey78':1 'CTYellow':0 },190
3playersLog_1385497714880.csv,20,510,520,true,{ chips  'grey78':2 },{ chips  'CTRed':11 'CTPurple':3 },FALSE,180,105,,,,,1,(R:1,C:8),{ chips  'CTRed':22 'CTGreen':0 'CTPurple':3 'grey78':2 'CTYellow':8 },175,{ chips  'CTRed':11 'CTGreen':0 'CTPurple':3 'grey78':7 'CTYellow':0 },105,{ chips  'CTRed':33 'CTGreen':0 'CTPurple':4 'grey78':1 'CTYellow':0 },190
3playersLog_1385497714880.csv,21,520,510,false,{ chips  },{ chips  },IGNORED,105,175,,,,,0,(R:1,C:8),{ chips  'CTRed':23 'CTGreen':0 'CTPurple':3 'grey78':2 'CTYellow':8 },180,{ chips  'CTRed':11 'CTGreen':0 'CTPurple':3 'grey78':7 'CTYellow':0 },105,{ chips  'CTRed':32 'CTGreen':0 'CTPurple':4 'grey78':1 'CTYellow':0 },185
3playersLog_1385497714880.csv,21,540,510,false,{ chips  'CTRed':1 },{ chips  },TRUE,190,175,{ chips  'CTRed':1 'CTPurple':0 'CTGreen':0 'grey78':0 'CTYellow':0 },{ chips  'CTRed':0 'CTPurple':0 'CTGreen':0 'grey78':0 'CTYellow':0 },185,180,0,(R:1,C:8),{ chips  'CTRed':23 'CTGreen':0 'CTPurple':3 'grey78':2 'CTYellow':8 },180,{ chips  'CTRed':11 'CTGreen':0 'CTPurple':3 'grey78':7 'CTYellow':0 },105,{ chips  'CTRed':32 'CTGreen':0 'CTPurple':4 'grey78':1 'CTYellow':0 },185
3playersLog_1385497714880.csv,22,510,520,true,{ chips  'grey78':2 },{ chips  'CTRed':11 'CTPurple':3 },FALSE,180,105,,,,,1,(R:0,C:8),{ chips  'CTRed':23 'CTGreen':0 'CTPurple':3 'grey78':2 'CTYellow':7 },325,{ chips  'CTRed':11 'CTGreen':0 'CTPurple':3 'grey78':7 'CTYellow':0 },255,{ chips  'CTRed':32 'CTGreen':0 'CTPurple':4 'grey78':1 'CTYellow':0 },185
3playersLog_1385497714880.csv,,,,,,,,,,,,,,,,,,,,,,,,true
