filename,round,propID,respID,IsPropCustomer,chipsToSend,chipsToReceive,accept,propCurrentScore,respCurrentScore,actualSent,ActualRcvd,propResultingScore,respResultingScore,#ofCustomerMovesInRound,customerRowPositionAfterMovePhase,customerColPositionAfterMovePhase,Player100ChipsAfterMovePhase,Player100ScoreAfterMovePhase,Player200ChipsAfterMovePhase,Player200ScoreAfterMovePhase,Player300ChipsAfterMovePhase,Player300ScoreAfterMovePhase,generosityLevel,ClientReachedGoal
3playersLog_1388925696454.csv,1,200,100,false,{ chips  'CTRed':2 },{ chips  'grey78':2 },FALSE,200,120,,,,,1,(R:5,C:5),{ chips  'CTRed':10 'CTGreen':0 'CTPurple':4 'grey78':12 'CTYellow':11 },185,{ chips  'CTRed':33 'CTGreen':0 'CTPurple':7 'grey78':0 'CTYellow':0 },200,{ chips  'CTRed':23 'CTGreen':0 'CTPurple':3 'grey78':0 'CTYellow':0 },130
3playersLog_1388925696454.csv,1,300,100,false,{ chips  'CTRed':10 'CTPurple':4 },{ chips  },TRUE,200,120,{ chips  'CTRed':10 'CTPurple':4 'CTGreen':0 'grey78':0 'CTYellow':0 },{ chips  'CTRed':0 'CTPurple':0 'CTGreen':0 'grey78':0 'CTYellow':0 },130,190,1,(R:5,C:5),{ chips  'CTRed':10 'CTGreen':0 'CTPurple':4 'grey78':12 'CTYellow':11 },185,{ chips  'CTRed':33 'CTGreen':0 'CTPurple':7 'grey78':0 'CTYellow':0 },200,{ chips  'CTRed':23 'CTGreen':0 'CTPurple':3 'grey78':0 'CTYellow':0 },130
3playersLog_1388925696454.csv,2,100,200,true,{ chips  'grey78':8 },{ chips  'CTRed':12 },TRUE,185,200,{ chips  'CTRed':0 'CTPurple':0 'CTGreen':0 'grey78':8 'CTYellow':0 },{ chips  'CTRed':12 'CTPurple':0 'CTGreen':0 'grey78':0 'CTYellow':0 },205,180,1,(R:4,C:5),{ chips  'CTRed':22 'CTGreen':0 'CTPurple':4 'grey78':4 'CTYellow':10 },200,{ chips  'CTRed':21 'CTGreen':0 'CTPurple':7 'grey78':8 'CTYellow':0 },180,{ chips  'CTRed':23 'CTGreen':0 'CTPurple':3 'grey78':0 'CTYellow':0 },130
3playersLog_1388925696454.csv,3,200,100,false,{ chips  'CTRed':8 },{ chips  'CTPurple':4 },TRUE,180,200,{ chips  'CTRed':8 'CTPurple':0 'CTGreen':0 'grey78':0 'CTYellow':0 },{ chips  'CTRed':0 'CTPurple':4 'CTGreen':0 'grey78':0 'CTYellow':0 },160,220,1,(R:4,C:6),{ chips  'CTRed':30 'CTGreen':0 'CTPurple':0 'grey78':4 'CTYellow':9 },215,{ chips  'CTRed':13 'CTGreen':0 'CTPurple':11 'grey78':8 'CTYellow':0 },160,{ chips  'CTRed':23 'CTGreen':0 'CTPurple':3 'grey78':0 'CTYellow':0 },130
3playersLog_1388925696454.csv,4,100,300,true,{ chips  'grey78':4 },{ chips  'CTRed':10 },TRUE,215,160,{ chips  'CTRed':0 'CTPurple':0 'CTGreen':0 'grey78':4 'CTYellow':0 },{ chips  'CTRed':10 'CTPurple':0 'CTGreen':0 'grey78':0 'CTYellow':0 },245,100,1,(R:3,C:6),{ chips  'CTRed':40 'CTGreen':0 'CTPurple':0 'grey78':0 'CTYellow':8 },240,{ chips  'CTRed':13 'CTGreen':0 'CTPurple':11 'grey78':8 'CTYellow':0 },160,{ chips  'CTRed':13 'CTGreen':0 'CTPurple':3 'grey78':4 'CTYellow':0 },100
3playersLog_1388925696454.csv,5,300,100,false,{ chips  'CTPurple':3 },{ chips  },TRUE,100,240,{ chips  'CTRed':0 'CTPurple':3 'CTGreen':0 'grey78':0 'CTYellow':0 },{ chips  'CTRed':0 'CTPurple':0 'CTGreen':0 'grey78':0 'CTYellow':0 },85,255,1,(R:3,C:7),{ chips  'CTRed':40 'CTGreen':0 'CTPurple':3 'grey78':0 'CTYellow':7 },250,{ chips  'CTRed':13 'CTGreen':0 'CTPurple':11 'grey78':8 'CTYellow':0 },160,{ chips  'CTRed':13 'CTGreen':0 'CTPurple':0 'grey78':4 'CTYellow':0 },85
3playersLog_1388925696454.csv,6,100,300,true,{ chips  'CTPurple':3 },{ chips  'CTRed':7 },TRUE,250,160,{ chips  'CTRed':0 'CTPurple':3 'CTGreen':0 'grey78':0 'CTYellow':0 },{ chips  'CTRed':7 'CTPurple':0 'CTGreen':0 'grey78':0 'CTYellow':0 },270,65,1,(R:2,C:7),{ chips  'CTRed':47 'CTGreen':0 'CTPurple':0 'grey78':0 'CTYellow':6 },265,{ chips  'CTRed':13 'CTGreen':0 'CTPurple':11 'grey78':8 'CTYellow':0 },160,{ chips  'CTRed':6 'CTGreen':0 'CTPurple':3 'grey78':4 'CTYellow':0 },65
3playersLog_1388925696454.csv,7,300,100,false,{ chips  'grey78':4 },{ chips  },TRUE,65,265,{ chips  'CTRed':0 'CTPurple':0 'CTGreen':0 'grey78':4 'CTYellow':0 },{ chips  'CTRed':0 'CTPurple':0 'CTGreen':0 'grey78':0 'CTYellow':0 },45,285,3,(R:0,C:8),{ chips  'CTRed':47 'CTGreen':0 'CTPurple':0 'grey78':4 'CTYellow':3 },420,{ chips  'CTRed':13 'CTGreen':0 'CTPurple':11 'grey78':8 'CTYellow':0 },310,{ chips  'CTRed':6 'CTGreen':0 'CTPurple':3 'grey78':0 'CTYellow':0 },45
3playersLog_1388925696454.csv,,,,,,,,,,,,,,,,,,,,,,,,true
