filename,round,propID,respID,IsPropCustomer,chipsToSend,chipsToReceive,accept,propCurrentScore,respCurrentScore,actualSent,ActualRcvd,propResultingScore,respResultingScore,#ofCustomerMovesInRound,customerRowPositionAfterMovePhase,customerColPositionAfterMovePhase,Player100ChipsAfterMovePhase,Player100ScoreAfterMovePhase,Player200ChipsAfterMovePhase,Player200ScoreAfterMovePhase,Player300ChipsAfterMovePhase,Player300ScoreAfterMovePhase,generosityLevel,ClientReachedGoal
3playersLog_1378881222697.csv,1,530,500,false,{ chips  'CTRed':33 'CTPurple':7 },{ chips  'grey78':11 },TRUE,200,120,{ chips  'CTRed':33 'CTPurple':7 'CTYellow':0 },{ chips  'grey78':11 },55,265,4,(R:3,C:6),{ chips  'CTRed':33 'CTGreen':0 'CTPurple':7 'grey78':1 'CTYellow':8 },245,{ chips  'CTRed':0 'CTGreen':0 'CTPurple':0 'grey78':11 'CTYellow':0 },55,{ chips  'CTRed':33 'CTGreen':0 'CTPurple':7 'grey78':0 'CTYellow':0 },200
3playersLog_1378881222697.csv,1,540,500,false,{ chips  'CTRed':15 },{ chips  'CTYellow':2 },IGNORED,200,120,,,,,4,(R:3,C:6),{ chips  'CTRed':33 'CTGreen':0 'CTPurple':7 'grey78':1 'CTYellow':8 },245,{ chips  'CTRed':0 'CTGreen':0 'CTPurple':0 'grey78':11 'CTYellow':0 },55,{ chips  'CTRed':33 'CTGreen':0 'CTPurple':7 'grey78':0 'CTYellow':0 },200
3playersLog_1378881222697.csv,2,500,540,true,{ chips  'grey78':1 },{ chips  'CTRed':10 },TRUE,245,55,{ chips  'CTRed':0 'CTPurple':0 'CTGreen':0 'grey78':1 'CTYellow':0 },{ chips  'CTRed':10 'CTPurple':0 'CTGreen':0 'grey78':0 'CTYellow':0 },290,155,2,(R:3,C:4),{ chips  'CTRed':43 'CTGreen':0 'CTPurple':5 'grey78':0 'CTYellow':8 },280,{ chips  'CTRed':0 'CTGreen':0 'CTPurple':0 'grey78':11 'CTYellow':0 },55,{ chips  'CTRed':23 'CTGreen':0 'CTPurple':7 'grey78':1 'CTYellow':0 },155
3playersLog_1378881222697.csv,3,530,500,false,{ chips  },{ chips  },IGNORED,55,280,,,,,0,(R:3,C:4),{ chips  'CTRed':47 'CTGreen':0 'CTPurple':5 'grey78':0 'CTYellow':7 },295,{ chips  'CTRed':0 'CTGreen':0 'CTPurple':0 'grey78':11 'CTYellow':0 },55,{ chips  'CTRed':19 'CTGreen':0 'CTPurple':7 'grey78':1 'CTYellow':1 },140
3playersLog_1378881222697.csv,3,540,500,false,{ chips  'CTRed':4 },{ chips  'CTYellow':1 },TRUE,155,280,{ chips  'CTRed':4 'CTPurple':0 'CTGreen':0 'grey78':0 'CTYellow':0 },{ chips  'CTRed':0 'CTPurple':0 'CTGreen':0 'grey78':0 'CTYellow':1 },140,295,0,(R:3,C:4),{ chips  'CTRed':47 'CTGreen':0 'CTPurple':5 'grey78':0 'CTYellow':7 },295,{ chips  'CTRed':0 'CTGreen':0 'CTPurple':0 'grey78':11 'CTYellow':0 },55,{ chips  'CTRed':19 'CTGreen':0 'CTPurple':7 'grey78':1 'CTYellow':1 },140
3playersLog_1378881222697.csv,4,500,540,true,{ chips  'CTYellow':1 },{ chips  'CTRed':10 },FALSE,295,140,,,,,6,(R:1,C:8),{ chips  'CTRed':47 'CTGreen':0 'CTPurple':4 'grey78':0 'CTYellow':2 },265,{ chips  'CTRed':0 'CTGreen':0 'CTPurple':0 'grey78':11 'CTYellow':0 },55,{ chips  'CTRed':19 'CTGreen':0 'CTPurple':7 'grey78':1 'CTYellow':1 },140
3playersLog_1378881222697.csv,5,530,500,false,{ chips  },{ chips  },IGNORED,55,265,,,,,1,(R:1,C:7),{ chips  'CTRed':53 'CTGreen':0 'CTPurple':3 'grey78':0 'CTYellow':2 },290,{ chips  'CTRed':0 'CTGreen':0 'CTPurple':0 'grey78':11 'CTYellow':0 },55,{ chips  'CTRed':13 'CTGreen':0 'CTPurple':7 'grey78':1 'CTYellow':1 },110
3playersLog_1378881222697.csv,5,540,500,false,{ chips  'CTRed':6 },{ chips  },TRUE,140,265,{ chips  'CTRed':6 'CTPurple':0 'CTGreen':0 'grey78':0 'CTYellow':0 },{ chips  'CTRed':0 'CTPurple':0 'CTGreen':0 'grey78':0 'CTYellow':0 },110,295,1,(R:1,C:7),{ chips  'CTRed':53 'CTGreen':0 'CTPurple':3 'grey78':0 'CTYellow':2 },290,{ chips  'CTRed':0 'CTGreen':0 'CTPurple':0 'grey78':11 'CTYellow':0 },55,{ chips  'CTRed':13 'CTGreen':0 'CTPurple':7 'grey78':1 'CTYellow':1 },110
3playersLog_1378881222697.csv,6,500,540,true,{ chips  },{ chips  'CTRed':7 },FALSE,290,110,,,,,1,(R:1,C:8),{ chips  'CTRed':53 'CTGreen':0 'CTPurple':3 'grey78':0 'CTYellow':1 },285,{ chips  'CTRed':0 'CTGreen':0 'CTPurple':0 'grey78':11 'CTYellow':0 },55,{ chips  'CTRed':13 'CTGreen':0 'CTPurple':7 'grey78':1 'CTYellow':1 },110
3playersLog_1378881222697.csv,7,530,500,false,{ chips  },{ chips  },TRUE,55,285,{ chips  'CTRed':0 'CTPurple':0 'CTYellow':0 },{ chips  'grey78':0 },55,285,1,(R:0,C:8),{ chips  'CTRed':53 'CTGreen':0 'CTPurple':3 'grey78':0 'CTYellow':0 },430,{ chips  'CTRed':0 'CTGreen':0 'CTPurple':0 'grey78':11 'CTYellow':0 },205,{ chips  'CTRed':13 'CTGreen':0 'CTPurple':7 'grey78':1 'CTYellow':1 },110
3playersLog_1378881222697.csv,7,540,500,false,{ chips  'CTPurple':2 },{ chips  'CTRed':8 },FALSE,110,285,,,,,1,(R:0,C:8),{ chips  'CTRed':53 'CTGreen':0 'CTPurple':3 'grey78':0 'CTYellow':0 },430,{ chips  'CTRed':0 'CTGreen':0 'CTPurple':0 'grey78':11 'CTYellow':0 },205,{ chips  'CTRed':13 'CTGreen':0 'CTPurple':7 'grey78':1 'CTYellow':1 },110
3playersLog_1378881222697.csv,,,,,,,,,,,,,,,,,,,,,,,,true
