Tue Jul 17 14:45:17 IDT 2012	This is the CT debug logger; svn version 638; sep 27 09
Tue Jul 17 14:45:17 IDT 2012	Tue Jul 17 14:45:17 IDT 2012
Tue Jul 17 14:45:17 IDT 2012	A new Alternative Offers game has began
Tue Jul 17 14:45:17 IDT 2012	ID Number: 37532
Tue Jul 17 14:45:17 IDT 2012	Creating board
Tue Jul 17 14:45:17 IDT 2012	<colors>
Tue Jul 17 14:45:17 IDT 2012	{ GamePalette  'CTRed':0 'CTPurple':1 'CTGreen':2 'grey78':3 'CTYellow':4 }
Tue Jul 17 14:45:17 IDT 2012	<rows>
Tue Jul 17 14:45:17 IDT 2012	7
Tue Jul 17 14:45:17 IDT 2012	<columns>
Tue Jul 17 14:45:17 IDT 2012	5
Tue Jul 17 14:45:17 IDT 2012	<squaresColors>
Tue Jul 17 14:45:17 IDT 2012	CTPurple CTRed CTRed CTGreen CTPurple 
Tue Jul 17 14:45:17 IDT 2012	CTPurple grey78 CTPurple CTYellow CTPurple 
Tue Jul 17 14:45:17 IDT 2012	CTPurple CTRed CTPurple CTGreen CTPurple 
Tue Jul 17 14:45:17 IDT 2012	CTPurple grey78 CTPurple CTYellow CTPurple 
Tue Jul 17 14:45:17 IDT 2012	CTPurple CTRed CTPurple CTGreen CTPurple 
Tue Jul 17 14:45:17 IDT 2012	CTPurple grey78 CTPurple CTYellow CTPurple 
Tue Jul 17 14:45:17 IDT 2012	CTPurple CTRed CTPurple CTGreen CTPurple 
Tue Jul 17 14:45:17 IDT 2012	</squareColors>
Tue Jul 17 14:45:17 IDT 2012	<goalPosition>
Tue Jul 17 14:45:17 IDT 2012	Goal position: (R:0,C:2)
Tue Jul 17 14:45:17 IDT 2012	<numberOfPlayers>
Tue Jul 17 14:45:17 IDT 2012	2
Tue Jul 17 14:45:17 IDT 2012	<firstPlayerChips>
Tue Jul 17 14:45:17 IDT 2012	Setting chips for player: 999 id:0
Tue Jul 17 14:45:17 IDT 2012	{ chips  'CTRed':5 'CTGreen':10 'CTPurple':0 'grey78':0 'CTYellow':9 }
Tue Jul 17 14:45:17 IDT 2012	Player position: (R:6,C:0)
Tue Jul 17 14:45:17 IDT 2012	Setting chips for player: 337 id:1
Tue Jul 17 14:45:17 IDT 2012	{ chips  'CTRed':1 'CTGreen':13 'CTPurple':0 'grey78':10 'CTYellow':0 }
Tue Jul 17 14:45:17 IDT 2012	Player position: (R:6,C:4)
Tue Jul 17 14:45:17 IDT 2012	Protocol: A New Phase Began: Strategy Prep Phase
Tue Jul 17 14:45:17 IDT 2012	Protocol: Strategy Preparation phase, Round: 0
Tue Jul 17 14:45:17 IDT 2012	Maximum number of rounds with no consecutive movement is 3
Tue Jul 17 14:45:17 IDT 2012	In begin comm. phase, set counter offers count to: 0
Tue Jul 17 14:45:17 IDT 2012	In begin comm. phase, get counter offers returned: 0
Tue Jul 17 14:45:37 IDT 2012	A Phase Ended: Strategy Prep Phase
Tue Jul 17 14:45:37 IDT 2012	Protocol: A New Phase Began: Communication Phase
Tue Jul 17 14:45:37 IDT 2012	Protocol: Communication phase, Round: 0
Tue Jul 17 14:45:54 IDT 2012	Received communication message 
Tue Jul 17 14:45:54 IDT 2012	From player: 999
Tue Jul 17 14:45:54 IDT 2012	To player: 337
Tue Jul 17 14:45:54 IDT 2012	Message type: basicproposal
Tue Jul 17 14:45:54 IDT 2012	Chips to send by proposer: { chips  'CTRed':0 'CTPurple':0 'CTGreen':0 'grey78':0 'CTYellow':2 }
Tue Jul 17 14:45:54 IDT 2012	Chips to send by responder: { chips  'CTRed':0 'CTPurple':0 'CTGreen':0 'grey78':2 'CTYellow':0 }
Tue Jul 17 14:45:58 IDT 2012	Received communication message 
Tue Jul 17 14:45:58 IDT 2012	From player: 337
Tue Jul 17 14:45:58 IDT 2012	To player: 999
Tue Jul 17 14:45:58 IDT 2012	Message type: basicproposaldiscussion
Tue Jul 17 14:45:58 IDT 2012	Player 337 accepted offer
Tue Jul 17 14:45:58 IDT 2012	Prop accepted, set counter offers count to: 0
Tue Jul 17 14:45:58 IDT 2012	Prop accepted, get counter offers returned: 0
Tue Jul 17 14:45:58 IDT 2012	A Phase Ended: Communication Phase
Tue Jul 17 14:45:58 IDT 2012	Protocol: A New Phase Began: Exchange Phase
Tue Jul 17 14:45:58 IDT 2012	Protocol: Exchange phase, Round: 0
Tue Jul 17 14:45:58 IDT 2012	In begin exch.phase, get counter offers returned: 0
Tue Jul 17 14:45:58 IDT 2012	A Phase Ended: Exchange Phase
Tue Jul 17 14:45:58 IDT 2012	Proposer 999 sent: { chips  'CTRed':0 'CTPurple':0 'CTGreen':0 'grey78':0 'CTYellow':2 }
Tue Jul 17 14:45:58 IDT 2012	Responder 337 sent: { chips  'CTRed':0 'CTPurple':0 'CTGreen':0 'grey78':1 'CTYellow':0 }
Tue Jul 17 14:45:58 IDT 2012	Protocol: A New Phase Began: Movement Phase
Tue Jul 17 14:45:58 IDT 2012	Protocol: Movement phase, Round: 0
Tue Jul 17 14:46:17 IDT 2012	A Phase Ended: Movement Phase
Tue Jul 17 14:46:17 IDT 2012	Swaping roles:
Tue Jul 17 14:46:17 IDT 2012	Proposer is: 337
Tue Jul 17 14:46:17 IDT 2012	Responder is: 999
Tue Jul 17 14:46:17 IDT 2012	Protocol: A New Phase Began: Feedback Phase
Tue Jul 17 14:46:17 IDT 2012	Protocol: Feedback phase, Round: 0
Tue Jul 17 14:46:17 IDT 2012	Number of consecutive no movements for player 999 is 1
Tue Jul 17 14:46:17 IDT 2012	Number of consecutive no movements for player 337 is 1
Tue Jul 17 14:46:22 IDT 2012	A Phase Ended: Feedback Phase
Tue Jul 17 14:46:22 IDT 2012	Protocol: A New Phase Began: Communication Phase
Tue Jul 17 14:46:22 IDT 2012	Protocol: Communication phase, Round: 1
Tue Jul 17 14:46:24 IDT 2012	Received communication message 
Tue Jul 17 14:46:24 IDT 2012	From player: 337
Tue Jul 17 14:46:24 IDT 2012	To player: 999
Tue Jul 17 14:46:24 IDT 2012	Message type: basicproposal
Tue Jul 17 14:46:24 IDT 2012	Chips to send by proposer: { chips  'grey78':1 }
Tue Jul 17 14:46:24 IDT 2012	Chips to send by responder: { chips  'CTGreen':1 }
Tue Jul 17 14:46:30 IDT 2012	Received communication message 
Tue Jul 17 14:46:30 IDT 2012	From player: 999
Tue Jul 17 14:46:30 IDT 2012	To player: 337
Tue Jul 17 14:46:30 IDT 2012	Message type: basicproposaldiscussion
Tue Jul 17 14:46:30 IDT 2012	Player 999 rejected offer
Tue Jul 17 14:46:30 IDT 2012	Swaping roles:
Tue Jul 17 14:46:30 IDT 2012	Proposer is: 999
Tue Jul 17 14:46:30 IDT 2012	Responder is: 337
Tue Jul 17 14:46:30 IDT 2012	Prop rejected, set counter offers count to: 1
Tue Jul 17 14:46:30 IDT 2012	Prop rejected, get counter offers returned: 1
Tue Jul 17 14:46:34 IDT 2012	Slept 4 seconds
Tue Jul 17 14:46:34 IDT 2012	Sent role changed msgs
Tue Jul 17 14:46:48 IDT 2012	Received communication message 
Tue Jul 17 14:46:48 IDT 2012	From player: 999
Tue Jul 17 14:46:48 IDT 2012	To player: 337
Tue Jul 17 14:46:48 IDT 2012	Message type: basicproposal
Tue Jul 17 14:46:48 IDT 2012	Chips to send by proposer: { chips  'CTRed':0 'CTPurple':0 'CTGreen':0 'grey78':0 'CTYellow':2 }
Tue Jul 17 14:46:48 IDT 2012	Chips to send by responder: { chips  'CTRed':0 'CTPurple':0 'CTGreen':0 'grey78':2 'CTYellow':0 }
Tue Jul 17 14:46:49 IDT 2012	Received communication message 
Tue Jul 17 14:46:49 IDT 2012	From player: 337
Tue Jul 17 14:46:49 IDT 2012	To player: 999
Tue Jul 17 14:46:49 IDT 2012	Message type: basicproposaldiscussion
Tue Jul 17 14:46:49 IDT 2012	Player 337 rejected offer
Tue Jul 17 14:46:49 IDT 2012	Set counter offers count to: 0
Tue Jul 17 14:46:49 IDT 2012	A Phase Ended: Communication Phase
Tue Jul 17 14:46:49 IDT 2012	Protocol: A New Phase Began: Exchange Phase
Tue Jul 17 14:46:49 IDT 2012	Protocol: Exchange phase, Round: 1
Tue Jul 17 14:46:49 IDT 2012	In begin exch.phase, get counter offers returned: 0
Tue Jul 17 14:47:28 IDT 2012	A Phase Ended: Exchange Phase
Tue Jul 17 14:47:28 IDT 2012	Responder 337 sent: { chips  }
Tue Jul 17 14:47:28 IDT 2012	Protocol: A New Phase Began: Movement Phase
Tue Jul 17 14:47:28 IDT 2012	Protocol: Movement phase, Round: 1
Tue Jul 17 14:47:48 IDT 2012	A Phase Ended: Movement Phase
Tue Jul 17 14:47:48 IDT 2012	Protocol: A New Phase Began: Feedback Phase
Tue Jul 17 14:47:48 IDT 2012	Protocol: Feedback phase, Round: 1
Tue Jul 17 14:47:48 IDT 2012	Number of consecutive no movements for player 999 is 2
Tue Jul 17 14:47:48 IDT 2012	Number of consecutive no movements for player 337 is 2
Tue Jul 17 14:47:53 IDT 2012	A Phase Ended: Feedback Phase
Tue Jul 17 14:47:53 IDT 2012	Protocol: A New Phase Began: Communication Phase
Tue Jul 17 14:47:53 IDT 2012	Protocol: Communication phase, Round: 2
Tue Jul 17 14:48:11 IDT 2012	Received communication message 
Tue Jul 17 14:48:11 IDT 2012	From player: 999
Tue Jul 17 14:48:11 IDT 2012	To player: 337
Tue Jul 17 14:48:11 IDT 2012	Message type: basicproposal
Tue Jul 17 14:48:11 IDT 2012	Chips to send by proposer: { chips  'CTRed':0 'CTPurple':0 'CTGreen':1 'grey78':0 'CTYellow':1 }
Tue Jul 17 14:48:11 IDT 2012	Chips to send by responder: { chips  'CTRed':0 'CTPurple':0 'CTGreen':0 'grey78':2 'CTYellow':0 }
Tue Jul 17 14:48:15 IDT 2012	Received communication message 
Tue Jul 17 14:48:15 IDT 2012	From player: 337
Tue Jul 17 14:48:15 IDT 2012	To player: 999
Tue Jul 17 14:48:15 IDT 2012	Message type: basicproposaldiscussion
Tue Jul 17 14:48:15 IDT 2012	Player 337 accepted offer
Tue Jul 17 14:48:15 IDT 2012	Prop accepted, set counter offers count to: 0
Tue Jul 17 14:48:15 IDT 2012	Prop accepted, get counter offers returned: 0
Tue Jul 17 14:48:15 IDT 2012	A Phase Ended: Communication Phase
Tue Jul 17 14:48:15 IDT 2012	Protocol: A New Phase Began: Exchange Phase
Tue Jul 17 14:48:15 IDT 2012	Protocol: Exchange phase, Round: 2
Tue Jul 17 14:48:15 IDT 2012	In begin exch.phase, get counter offers returned: 0
Tue Jul 17 14:48:15 IDT 2012	A Phase Ended: Exchange Phase
Tue Jul 17 14:48:15 IDT 2012	Proposer 999 sent: { chips  'CTRed':0 'CTPurple':0 'CTGreen':1 'grey78':0 'CTYellow':1 }
Tue Jul 17 14:48:15 IDT 2012	Responder 337 sent: { chips  'CTRed':0 'CTPurple':0 'CTGreen':0 'grey78':0 'CTYellow':0 }
Tue Jul 17 14:48:15 IDT 2012	Protocol: A New Phase Began: Movement Phase
Tue Jul 17 14:48:15 IDT 2012	Protocol: Movement phase, Round: 2
Tue Jul 17 14:48:15 IDT 2012	Player 337 moved to (R:6,C:3)
Tue Jul 17 14:48:15 IDT 2012	Player 999 moved to (R:6,C:1)
Tue Jul 17 14:48:35 IDT 2012	A Phase Ended: Movement Phase
Tue Jul 17 14:48:35 IDT 2012	Swaping roles:
Tue Jul 17 14:48:35 IDT 2012	Proposer is: 337
Tue Jul 17 14:48:35 IDT 2012	Responder is: 999
Tue Jul 17 14:48:35 IDT 2012	Protocol: A New Phase Began: Feedback Phase
Tue Jul 17 14:48:35 IDT 2012	Protocol: Feedback phase, Round: 2
Tue Jul 17 14:48:35 IDT 2012	Number of consecutive no movements for player 999 is 0
Tue Jul 17 14:48:35 IDT 2012	Number of consecutive no movements for player 337 is 0
Tue Jul 17 14:48:40 IDT 2012	A Phase Ended: Feedback Phase
Tue Jul 17 14:48:40 IDT 2012	Protocol: A New Phase Began: Communication Phase
Tue Jul 17 14:48:40 IDT 2012	Protocol: Communication phase, Round: 3
Tue Jul 17 14:48:42 IDT 2012	Received communication message 
Tue Jul 17 14:48:42 IDT 2012	From player: 337
Tue Jul 17 14:48:42 IDT 2012	To player: 999
Tue Jul 17 14:48:42 IDT 2012	Message type: basicproposal
Tue Jul 17 14:48:42 IDT 2012	Chips to send by proposer: { chips  'grey78':1 }
Tue Jul 17 14:48:42 IDT 2012	Chips to send by responder: { chips  'CTGreen':1 'CTYellow':1 }
Tue Jul 17 14:48:55 IDT 2012	Received communication message 
Tue Jul 17 14:48:55 IDT 2012	From player: 999
Tue Jul 17 14:48:55 IDT 2012	To player: 337
Tue Jul 17 14:48:55 IDT 2012	Message type: basicproposaldiscussion
Tue Jul 17 14:48:55 IDT 2012	Player 999 accepted offer
Tue Jul 17 14:48:55 IDT 2012	Prop accepted, set counter offers count to: 0
Tue Jul 17 14:48:55 IDT 2012	Prop accepted, get counter offers returned: 0
Tue Jul 17 14:48:55 IDT 2012	A Phase Ended: Communication Phase
Tue Jul 17 14:48:55 IDT 2012	Protocol: A New Phase Began: Exchange Phase
Tue Jul 17 14:48:55 IDT 2012	Protocol: Exchange phase, Round: 3
Tue Jul 17 14:48:55 IDT 2012	In begin exch.phase, get counter offers returned: 0
Tue Jul 17 14:49:35 IDT 2012	A Phase Ended: Exchange Phase
Tue Jul 17 14:49:35 IDT 2012	Proposer 337 sent: { chips  'CTRed':0 'CTPurple':0 'CTGreen':0 'grey78':0 'CTYellow':0 }
Tue Jul 17 14:49:35 IDT 2012	Protocol: A New Phase Began: Movement Phase
Tue Jul 17 14:49:35 IDT 2012	Protocol: Movement phase, Round: 3
Tue Jul 17 14:49:55 IDT 2012	A Phase Ended: Movement Phase
Tue Jul 17 14:49:55 IDT 2012	Swaping roles:
Tue Jul 17 14:49:55 IDT 2012	Proposer is: 999
Tue Jul 17 14:49:55 IDT 2012	Responder is: 337
Tue Jul 17 14:49:55 IDT 2012	Protocol: A New Phase Began: Feedback Phase
Tue Jul 17 14:49:55 IDT 2012	Protocol: Feedback phase, Round: 3
Tue Jul 17 14:49:55 IDT 2012	Number of consecutive no movements for player 999 is 1
Tue Jul 17 14:49:55 IDT 2012	Number of consecutive no movements for player 337 is 1
Tue Jul 17 14:50:00 IDT 2012	A Phase Ended: Feedback Phase
Tue Jul 17 14:50:00 IDT 2012	Protocol: A New Phase Began: Communication Phase
Tue Jul 17 14:50:00 IDT 2012	Protocol: Communication phase, Round: 4
Tue Jul 17 14:50:18 IDT 2012	Received communication message 
Tue Jul 17 14:50:18 IDT 2012	From player: 999
Tue Jul 17 14:50:18 IDT 2012	To player: 337
Tue Jul 17 14:50:18 IDT 2012	Message type: basicproposal
Tue Jul 17 14:50:18 IDT 2012	Chips to send by proposer: { chips  'CTRed':0 'CTPurple':0 'CTGreen':2 'grey78':0 'CTYellow':2 }
Tue Jul 17 14:50:18 IDT 2012	Chips to send by responder: { chips  'CTRed':0 'CTPurple':0 'CTGreen':0 'grey78':2 'CTYellow':0 }
Tue Jul 17 14:50:19 IDT 2012	Received communication message 
Tue Jul 17 14:50:19 IDT 2012	From player: 337
Tue Jul 17 14:50:19 IDT 2012	To player: 999
Tue Jul 17 14:50:19 IDT 2012	Message type: basicproposaldiscussion
Tue Jul 17 14:50:19 IDT 2012	Player 337 rejected offer
Tue Jul 17 14:50:19 IDT 2012	Swaping roles:
Tue Jul 17 14:50:19 IDT 2012	Proposer is: 337
Tue Jul 17 14:50:19 IDT 2012	Responder is: 999
Tue Jul 17 14:50:19 IDT 2012	Prop rejected, set counter offers count to: 1
Tue Jul 17 14:50:19 IDT 2012	Prop rejected, get counter offers returned: 1
Tue Jul 17 14:50:23 IDT 2012	Slept 4 seconds
Tue Jul 17 14:50:23 IDT 2012	Sent role changed msgs
Tue Jul 17 14:50:24 IDT 2012	Received communication message 
Tue Jul 17 14:50:24 IDT 2012	From player: 337
Tue Jul 17 14:50:24 IDT 2012	To player: 999
Tue Jul 17 14:50:24 IDT 2012	Message type: basicproposal
Tue Jul 17 14:50:24 IDT 2012	Chips to send by proposer: { chips  'CTRed':0 'CTPurple':0 'CTGreen':0 'grey78':1 'CTYellow':0 }
Tue Jul 17 14:50:24 IDT 2012	Chips to send by responder: { chips  'CTRed':0 'CTPurple':0 'CTGreen':1 'grey78':0 'CTYellow':1 }
Tue Jul 17 14:50:33 IDT 2012	Received communication message 
Tue Jul 17 14:50:33 IDT 2012	From player: 999
Tue Jul 17 14:50:33 IDT 2012	To player: 337
Tue Jul 17 14:50:33 IDT 2012	Message type: basicproposaldiscussion
Tue Jul 17 14:50:33 IDT 2012	Player 999 accepted offer
Tue Jul 17 14:50:33 IDT 2012	Prop accepted, set counter offers count to: 0
Tue Jul 17 14:50:33 IDT 2012	Prop accepted, get counter offers returned: 0
Tue Jul 17 14:50:33 IDT 2012	A Phase Ended: Communication Phase
Tue Jul 17 14:50:33 IDT 2012	Protocol: A New Phase Began: Exchange Phase
Tue Jul 17 14:50:33 IDT 2012	Protocol: Exchange phase, Round: 4
Tue Jul 17 14:50:33 IDT 2012	In begin exch.phase, get counter offers returned: 0
Tue Jul 17 14:50:33 IDT 2012	A Phase Ended: Exchange Phase
Tue Jul 17 14:50:33 IDT 2012	Proposer 337 sent: { chips  'CTRed':0 'CTPurple':0 'CTGreen':0 'grey78':0 'CTYellow':0 }
Tue Jul 17 14:50:33 IDT 2012	Responder 999 sent: { chips  'CTRed':0 'CTPurple':0 'CTGreen':1 'grey78':0 'CTYellow':1 }
Tue Jul 17 14:50:33 IDT 2012	Protocol: A New Phase Began: Movement Phase
Tue Jul 17 14:50:33 IDT 2012	Protocol: Movement phase, Round: 4
Tue Jul 17 14:50:53 IDT 2012	A Phase Ended: Movement Phase
Tue Jul 17 14:50:53 IDT 2012	Protocol: A New Phase Began: Feedback Phase
Tue Jul 17 14:50:53 IDT 2012	Protocol: Feedback phase, Round: 4
Tue Jul 17 14:50:53 IDT 2012	Number of consecutive no movements for player 999 is 2
Tue Jul 17 14:50:53 IDT 2012	Number of consecutive no movements for player 337 is 2
Tue Jul 17 14:50:58 IDT 2012	A Phase Ended: Feedback Phase
Tue Jul 17 14:50:58 IDT 2012	Protocol: A New Phase Began: Communication Phase
Tue Jul 17 14:50:58 IDT 2012	Protocol: Communication phase, Round: 5
Tue Jul 17 14:51:02 IDT 2012	Received communication message 
Tue Jul 17 14:51:02 IDT 2012	From player: 337
Tue Jul 17 14:51:02 IDT 2012	To player: 999
Tue Jul 17 14:51:02 IDT 2012	Message type: basicproposal
Tue Jul 17 14:51:02 IDT 2012	Chips to send by proposer: { chips  'grey78':1 }
Tue Jul 17 14:51:02 IDT 2012	Chips to send by responder: { chips  'CTYellow':2 }
Tue Jul 17 14:51:15 IDT 2012	Received communication message 
Tue Jul 17 14:51:15 IDT 2012	From player: 999
Tue Jul 17 14:51:15 IDT 2012	To player: 337
Tue Jul 17 14:51:15 IDT 2012	Message type: basicproposaldiscussion
Tue Jul 17 14:51:15 IDT 2012	Player 999 accepted offer
Tue Jul 17 14:51:15 IDT 2012	Prop accepted, set counter offers count to: 0
Tue Jul 17 14:51:15 IDT 2012	Prop accepted, get counter offers returned: 0
Tue Jul 17 14:51:15 IDT 2012	A Phase Ended: Communication Phase
Tue Jul 17 14:51:15 IDT 2012	Protocol: A New Phase Began: Exchange Phase
Tue Jul 17 14:51:15 IDT 2012	Protocol: Exchange phase, Round: 5
Tue Jul 17 14:51:15 IDT 2012	In begin exch.phase, get counter offers returned: 0
Tue Jul 17 14:51:55 IDT 2012	A Phase Ended: Exchange Phase
Tue Jul 17 14:51:55 IDT 2012	Proposer 337 sent: { chips  'CTRed':0 'CTPurple':0 'CTGreen':0 'grey78':0 'CTYellow':0 }
Tue Jul 17 14:51:55 IDT 2012	Protocol: A New Phase Began: Movement Phase
Tue Jul 17 14:51:55 IDT 2012	Protocol: Movement phase, Round: 5
Tue Jul 17 14:51:55 IDT 2012	Player 999 moved to (R:5,C:1)
Tue Jul 17 14:51:55 IDT 2012	Player 337 moved to (R:5,C:3)
Tue Jul 17 14:52:15 IDT 2012	A Phase Ended: Movement Phase
Tue Jul 17 14:52:15 IDT 2012	Swaping roles:
Tue Jul 17 14:52:15 IDT 2012	Proposer is: 999
Tue Jul 17 14:52:15 IDT 2012	Responder is: 337
Tue Jul 17 14:52:15 IDT 2012	Protocol: A New Phase Began: Feedback Phase
Tue Jul 17 14:52:15 IDT 2012	Protocol: Feedback phase, Round: 5
Tue Jul 17 14:52:15 IDT 2012	Number of consecutive no movements for player 999 is 0
Tue Jul 17 14:52:15 IDT 2012	Number of consecutive no movements for player 337 is 0
Tue Jul 17 14:52:20 IDT 2012	A Phase Ended: Feedback Phase
Tue Jul 17 14:52:20 IDT 2012	Protocol: A New Phase Began: Communication Phase
Tue Jul 17 14:52:20 IDT 2012	Protocol: Communication phase, Round: 6
Tue Jul 17 14:52:38 IDT 2012	Received communication message 
Tue Jul 17 14:52:38 IDT 2012	From player: 999
Tue Jul 17 14:52:38 IDT 2012	To player: 337
Tue Jul 17 14:52:38 IDT 2012	Message type: basicproposal
Tue Jul 17 14:52:38 IDT 2012	Chips to send by proposer: { chips  'CTRed':0 'CTPurple':0 'CTGreen':2 'grey78':0 'CTYellow':2 }
Tue Jul 17 14:52:38 IDT 2012	Chips to send by responder: { chips  'CTRed':0 'CTPurple':0 'CTGreen':0 'grey78':2 'CTYellow':0 }
Tue Jul 17 14:52:40 IDT 2012	Received communication message 
Tue Jul 17 14:52:40 IDT 2012	From player: 337
Tue Jul 17 14:52:40 IDT 2012	To player: 999
Tue Jul 17 14:52:40 IDT 2012	Message type: basicproposaldiscussion
Tue Jul 17 14:52:40 IDT 2012	Player 337 rejected offer
Tue Jul 17 14:52:40 IDT 2012	Swaping roles:
Tue Jul 17 14:52:40 IDT 2012	Proposer is: 337
Tue Jul 17 14:52:40 IDT 2012	Responder is: 999
Tue Jul 17 14:52:40 IDT 2012	Prop rejected, set counter offers count to: 1
Tue Jul 17 14:52:40 IDT 2012	Prop rejected, get counter offers returned: 1
Tue Jul 17 14:52:44 IDT 2012	Slept 4 seconds
Tue Jul 17 14:52:44 IDT 2012	Sent role changed msgs
Tue Jul 17 14:52:47 IDT 2012	Received communication message 
Tue Jul 17 14:52:47 IDT 2012	From player: 337
Tue Jul 17 14:52:47 IDT 2012	To player: 999
Tue Jul 17 14:52:47 IDT 2012	Message type: basicproposal
Tue Jul 17 14:52:47 IDT 2012	Chips to send by proposer: { chips  'CTRed':0 'CTPurple':0 'CTGreen':0 'grey78':1 'CTYellow':0 }
Tue Jul 17 14:52:47 IDT 2012	Chips to send by responder: { chips  'CTRed':0 'CTPurple':0 'CTGreen':1 'grey78':0 'CTYellow':1 }
Tue Jul 17 14:52:54 IDT 2012	Received communication message 
Tue Jul 17 14:52:54 IDT 2012	From player: 999
Tue Jul 17 14:52:54 IDT 2012	To player: 337
Tue Jul 17 14:52:54 IDT 2012	Message type: basicproposaldiscussion
Tue Jul 17 14:52:54 IDT 2012	Player 999 accepted offer
Tue Jul 17 14:52:54 IDT 2012	Prop accepted, set counter offers count to: 0
Tue Jul 17 14:52:54 IDT 2012	Prop accepted, get counter offers returned: 0
Tue Jul 17 14:52:54 IDT 2012	A Phase Ended: Communication Phase
Tue Jul 17 14:52:54 IDT 2012	Protocol: A New Phase Began: Exchange Phase
Tue Jul 17 14:52:54 IDT 2012	Protocol: Exchange phase, Round: 6
Tue Jul 17 14:52:54 IDT 2012	In begin exch.phase, get counter offers returned: 0
Tue Jul 17 14:52:54 IDT 2012	A Phase Ended: Exchange Phase
Tue Jul 17 14:52:54 IDT 2012	Proposer 337 sent: { chips  'CTRed':0 'CTPurple':0 'CTGreen':0 'grey78':0 'CTYellow':0 }
Tue Jul 17 14:52:54 IDT 2012	Responder 999 sent: { chips  'CTRed':0 'CTPurple':0 'CTGreen':1 'grey78':0 'CTYellow':1 }
Tue Jul 17 14:52:54 IDT 2012	Protocol: A New Phase Began: Movement Phase
Tue Jul 17 14:52:54 IDT 2012	Protocol: Movement phase, Round: 6
Tue Jul 17 14:53:13 IDT 2012	A Phase Ended: Movement Phase
Tue Jul 17 14:53:13 IDT 2012	Protocol: A New Phase Began: Feedback Phase
Tue Jul 17 14:53:13 IDT 2012	Protocol: Feedback phase, Round: 6
Tue Jul 17 14:53:13 IDT 2012	Number of consecutive no movements for player 999 is 1
Tue Jul 17 14:53:13 IDT 2012	Number of consecutive no movements for player 337 is 1
Tue Jul 17 14:53:18 IDT 2012	A Phase Ended: Feedback Phase
Tue Jul 17 14:53:18 IDT 2012	Protocol: A New Phase Began: Communication Phase
Tue Jul 17 14:53:18 IDT 2012	Protocol: Communication phase, Round: 7
Tue Jul 17 14:53:20 IDT 2012	Received communication message 
Tue Jul 17 14:53:20 IDT 2012	From player: 337
Tue Jul 17 14:53:20 IDT 2012	To player: 999
Tue Jul 17 14:53:20 IDT 2012	Message type: basicproposal
Tue Jul 17 14:53:20 IDT 2012	Chips to send by proposer: { chips  'grey78':1 }
Tue Jul 17 14:53:20 IDT 2012	Chips to send by responder: { chips  'CTYellow':2 }
Tue Jul 17 14:53:31 IDT 2012	Received communication message 
Tue Jul 17 14:53:31 IDT 2012	From player: 999
Tue Jul 17 14:53:31 IDT 2012	To player: 337
Tue Jul 17 14:53:31 IDT 2012	Message type: basicproposaldiscussion
Tue Jul 17 14:53:31 IDT 2012	Player 999 accepted offer
Tue Jul 17 14:53:31 IDT 2012	Prop accepted, set counter offers count to: 0
Tue Jul 17 14:53:31 IDT 2012	Prop accepted, get counter offers returned: 0
Tue Jul 17 14:53:31 IDT 2012	A Phase Ended: Communication Phase
Tue Jul 17 14:53:31 IDT 2012	Protocol: A New Phase Began: Exchange Phase
Tue Jul 17 14:53:31 IDT 2012	Protocol: Exchange phase, Round: 7
Tue Jul 17 14:53:31 IDT 2012	In begin exch.phase, get counter offers returned: 0
Tue Jul 17 14:54:10 IDT 2012	A Phase Ended: Exchange Phase
Tue Jul 17 14:54:10 IDT 2012	Proposer 337 sent: { chips  'CTRed':0 'CTPurple':0 'CTGreen':0 'grey78':0 'CTYellow':0 }
Tue Jul 17 14:54:10 IDT 2012	Protocol: A New Phase Began: Movement Phase
Tue Jul 17 14:54:10 IDT 2012	Protocol: Movement phase, Round: 7
Tue Jul 17 14:54:30 IDT 2012	A Phase Ended: Movement Phase
Tue Jul 17 14:54:30 IDT 2012	Swaping roles:
Tue Jul 17 14:54:30 IDT 2012	Proposer is: 999
Tue Jul 17 14:54:30 IDT 2012	Responder is: 337
Tue Jul 17 14:54:30 IDT 2012	Protocol: A New Phase Began: Feedback Phase
Tue Jul 17 14:54:30 IDT 2012	Protocol: Feedback phase, Round: 7
Tue Jul 17 14:54:30 IDT 2012	Number of consecutive no movements for player 999 is 2
Tue Jul 17 14:54:30 IDT 2012	Number of consecutive no movements for player 337 is 2
Tue Jul 17 14:54:35 IDT 2012	A Phase Ended: Feedback Phase
Tue Jul 17 14:54:35 IDT 2012	Protocol: A New Phase Began: Communication Phase
Tue Jul 17 14:54:35 IDT 2012	Protocol: Communication phase, Round: 8
Tue Jul 17 14:54:47 IDT 2012	Received communication message 
Tue Jul 17 14:54:47 IDT 2012	From player: 999
Tue Jul 17 14:54:47 IDT 2012	To player: 337
Tue Jul 17 14:54:47 IDT 2012	Message type: basicproposal
Tue Jul 17 14:54:47 IDT 2012	Chips to send by proposer: { chips  'CTRed':0 'CTPurple':0 'CTGreen':2 'grey78':0 'CTYellow':2 }
Tue Jul 17 14:54:47 IDT 2012	Chips to send by responder: { chips  'CTRed':0 'CTPurple':0 'CTGreen':0 'grey78':2 'CTYellow':0 }
Tue Jul 17 14:54:51 IDT 2012	Received communication message 
Tue Jul 17 14:54:51 IDT 2012	From player: 337
Tue Jul 17 14:54:51 IDT 2012	To player: 999
Tue Jul 17 14:54:51 IDT 2012	Message type: basicproposaldiscussion
Tue Jul 17 14:54:51 IDT 2012	Player 337 accepted offer
Tue Jul 17 14:54:51 IDT 2012	Prop accepted, set counter offers count to: 0
Tue Jul 17 14:54:51 IDT 2012	Prop accepted, get counter offers returned: 0
Tue Jul 17 14:54:51 IDT 2012	A Phase Ended: Communication Phase
Tue Jul 17 14:54:51 IDT 2012	Protocol: A New Phase Began: Exchange Phase
Tue Jul 17 14:54:51 IDT 2012	Protocol: Exchange phase, Round: 8
Tue Jul 17 14:54:51 IDT 2012	In begin exch.phase, get counter offers returned: 0
Tue Jul 17 14:54:51 IDT 2012	A Phase Ended: Exchange Phase
Tue Jul 17 14:54:51 IDT 2012	Proposer 999 sent: { chips  'CTRed':0 'CTPurple':0 'CTGreen':2 'grey78':0 'CTYellow':2 }
Tue Jul 17 14:54:51 IDT 2012	Responder 337 sent: { chips  'CTRed':0 'CTPurple':0 'CTGreen':0 'grey78':1 'CTYellow':0 }
Tue Jul 17 14:54:51 IDT 2012	Protocol: A New Phase Began: Movement Phase
Tue Jul 17 14:54:51 IDT 2012	Protocol: Movement phase, Round: 8
Tue Jul 17 14:54:51 IDT 2012	Player 337 moved to (R:4,C:3)
Tue Jul 17 14:54:51 IDT 2012	Player 999 moved to (R:4,C:1)
Tue Jul 17 14:55:10 IDT 2012	A Phase Ended: Movement Phase
Tue Jul 17 14:55:10 IDT 2012	Swaping roles:
Tue Jul 17 14:55:10 IDT 2012	Proposer is: 337
Tue Jul 17 14:55:10 IDT 2012	Responder is: 999
Tue Jul 17 14:55:10 IDT 2012	Protocol: A New Phase Began: Feedback Phase
Tue Jul 17 14:55:10 IDT 2012	Protocol: Feedback phase, Round: 8
Tue Jul 17 14:55:10 IDT 2012	Number of consecutive no movements for player 999 is 0
Tue Jul 17 14:55:10 IDT 2012	Number of consecutive no movements for player 337 is 0
Tue Jul 17 14:55:15 IDT 2012	A Phase Ended: Feedback Phase
Tue Jul 17 14:55:15 IDT 2012	Protocol: A New Phase Began: Communication Phase
Tue Jul 17 14:55:15 IDT 2012	Protocol: Communication phase, Round: 9
Tue Jul 17 14:55:18 IDT 2012	Received communication message 
Tue Jul 17 14:55:18 IDT 2012	From player: 337
Tue Jul 17 14:55:18 IDT 2012	To player: 999
Tue Jul 17 14:55:18 IDT 2012	Message type: basicproposal
Tue Jul 17 14:55:18 IDT 2012	Chips to send by proposer: { chips  'grey78':1 }
Tue Jul 17 14:55:18 IDT 2012	Chips to send by responder: { chips  'CTGreen':2 }
Tue Jul 17 14:55:26 IDT 2012	Received communication message 
Tue Jul 17 14:55:26 IDT 2012	From player: 999
Tue Jul 17 14:55:26 IDT 2012	To player: 337
Tue Jul 17 14:55:26 IDT 2012	Message type: basicproposaldiscussion
Tue Jul 17 14:55:26 IDT 2012	Player 999 accepted offer
Tue Jul 17 14:55:26 IDT 2012	Prop accepted, set counter offers count to: 0
Tue Jul 17 14:55:26 IDT 2012	Prop accepted, get counter offers returned: 0
Tue Jul 17 14:55:26 IDT 2012	A Phase Ended: Communication Phase
Tue Jul 17 14:55:26 IDT 2012	Protocol: A New Phase Began: Exchange Phase
Tue Jul 17 14:55:26 IDT 2012	Protocol: Exchange phase, Round: 9
Tue Jul 17 14:55:26 IDT 2012	In begin exch.phase, get counter offers returned: 0
Tue Jul 17 14:55:26 IDT 2012	A Phase Ended: Exchange Phase
Tue Jul 17 14:55:26 IDT 2012	Proposer 337 sent: { chips  'CTRed':0 'CTPurple':0 'CTGreen':0 'grey78':0 'CTYellow':0 }
Tue Jul 17 14:55:26 IDT 2012	Responder 999 sent: { chips  'CTGreen':2 }
Tue Jul 17 14:55:26 IDT 2012	Protocol: A New Phase Began: Movement Phase
Tue Jul 17 14:55:26 IDT 2012	Protocol: Movement phase, Round: 9
Tue Jul 17 14:55:45 IDT 2012	A Phase Ended: Movement Phase
Tue Jul 17 14:55:45 IDT 2012	Swaping roles:
Tue Jul 17 14:55:45 IDT 2012	Proposer is: 999
Tue Jul 17 14:55:45 IDT 2012	Responder is: 337
Tue Jul 17 14:55:45 IDT 2012	Protocol: A New Phase Began: Feedback Phase
Tue Jul 17 14:55:45 IDT 2012	Protocol: Feedback phase, Round: 9
Tue Jul 17 14:55:45 IDT 2012	Number of consecutive no movements for player 999 is 1
Tue Jul 17 14:55:45 IDT 2012	Number of consecutive no movements for player 337 is 1
Tue Jul 17 14:55:50 IDT 2012	A Phase Ended: Feedback Phase
Tue Jul 17 14:55:50 IDT 2012	Protocol: A New Phase Began: Communication Phase
Tue Jul 17 14:55:50 IDT 2012	Protocol: Communication phase, Round: 10
Tue Jul 17 14:56:03 IDT 2012	Received communication message 
Tue Jul 17 14:56:03 IDT 2012	From player: 999
Tue Jul 17 14:56:03 IDT 2012	To player: 337
Tue Jul 17 14:56:03 IDT 2012	Message type: basicproposal
Tue Jul 17 14:56:03 IDT 2012	Chips to send by proposer: { chips  'CTRed':0 'CTPurple':0 'CTGreen':0 'grey78':0 'CTYellow':0 }
Tue Jul 17 14:56:03 IDT 2012	Chips to send by responder: { chips  'CTRed':0 'CTPurple':0 'CTGreen':0 'grey78':0 'CTYellow':0 }
Tue Jul 17 14:56:04 IDT 2012	Received communication message 
Tue Jul 17 14:56:04 IDT 2012	From player: 337
Tue Jul 17 14:56:04 IDT 2012	To player: 999
Tue Jul 17 14:56:04 IDT 2012	Message type: basicproposaldiscussion
Tue Jul 17 14:56:04 IDT 2012	Player 337 accepted offer
Tue Jul 17 14:56:04 IDT 2012	Prop accepted, set counter offers count to: 0
Tue Jul 17 14:56:04 IDT 2012	Prop accepted, get counter offers returned: 0
Tue Jul 17 14:56:04 IDT 2012	A Phase Ended: Communication Phase
Tue Jul 17 14:56:04 IDT 2012	Protocol: A New Phase Began: Exchange Phase
Tue Jul 17 14:56:04 IDT 2012	Protocol: Exchange phase, Round: 10
Tue Jul 17 14:56:04 IDT 2012	In begin exch.phase, get counter offers returned: 0
Tue Jul 17 14:56:43 IDT 2012	A Phase Ended: Exchange Phase
Tue Jul 17 14:56:43 IDT 2012	Responder 337 sent: { chips  'CTRed':0 'CTPurple':0 'CTGreen':0 'grey78':0 'CTYellow':0 }
Tue Jul 17 14:56:43 IDT 2012	Protocol: A New Phase Began: Movement Phase
Tue Jul 17 14:56:43 IDT 2012	Protocol: Movement phase, Round: 10
Tue Jul 17 14:57:03 IDT 2012	A Phase Ended: Movement Phase
Tue Jul 17 14:57:03 IDT 2012	Swaping roles:
Tue Jul 17 14:57:03 IDT 2012	Proposer is: 337
Tue Jul 17 14:57:03 IDT 2012	Responder is: 999
Tue Jul 17 14:57:03 IDT 2012	Protocol: A New Phase Began: Feedback Phase
Tue Jul 17 14:57:03 IDT 2012	Protocol: Feedback phase, Round: 10
Tue Jul 17 14:57:03 IDT 2012	Number of consecutive no movements for player 999 is 2
Tue Jul 17 14:57:03 IDT 2012	Number of consecutive no movements for player 337 is 2
Tue Jul 17 14:57:08 IDT 2012	A Phase Ended: Feedback Phase
Tue Jul 17 14:57:08 IDT 2012	Protocol: A New Phase Began: Communication Phase
Tue Jul 17 14:57:08 IDT 2012	Protocol: Communication phase, Round: 11
Tue Jul 17 14:57:13 IDT 2012	Received communication message 
Tue Jul 17 14:57:13 IDT 2012	From player: 337
Tue Jul 17 14:57:13 IDT 2012	To player: 999
Tue Jul 17 14:57:13 IDT 2012	Message type: basicproposal
Tue Jul 17 14:57:13 IDT 2012	Chips to send by proposer: { chips  'grey78':2 }
Tue Jul 17 14:57:13 IDT 2012	Chips to send by responder: { chips  'CTGreen':1 }
Tue Jul 17 14:57:21 IDT 2012	Received communication message 
Tue Jul 17 14:57:21 IDT 2012	From player: 999
Tue Jul 17 14:57:21 IDT 2012	To player: 337
Tue Jul 17 14:57:21 IDT 2012	Message type: basicproposaldiscussion
Tue Jul 17 14:57:21 IDT 2012	Player 999 accepted offer
Tue Jul 17 14:57:21 IDT 2012	Prop accepted, set counter offers count to: 0
Tue Jul 17 14:57:21 IDT 2012	Prop accepted, get counter offers returned: 0
Tue Jul 17 14:57:21 IDT 2012	A Phase Ended: Communication Phase
Tue Jul 17 14:57:21 IDT 2012	Protocol: A New Phase Began: Exchange Phase
Tue Jul 17 14:57:21 IDT 2012	Protocol: Exchange phase, Round: 11
Tue Jul 17 14:57:21 IDT 2012	In begin exch.phase, get counter offers returned: 0
Tue Jul 17 14:57:21 IDT 2012	A Phase Ended: Exchange Phase
Tue Jul 17 14:57:21 IDT 2012	Proposer 337 sent: { chips  'CTRed':0 'CTPurple':0 'CTGreen':0 'grey78':0 'CTYellow':0 }
Tue Jul 17 14:57:21 IDT 2012	Responder 999 sent: { chips  'CTGreen':1 }
Tue Jul 17 14:57:21 IDT 2012	Protocol: A New Phase Began: Movement Phase
Tue Jul 17 14:57:21 IDT 2012	Protocol: Movement phase, Round: 11
Tue Jul 17 14:57:21 IDT 2012	Player 337 moved to (R:3,C:3)
Tue Jul 17 14:57:21 IDT 2012	Player 999 moved to (R:3,C:1)
Tue Jul 17 14:57:40 IDT 2012	A Phase Ended: Movement Phase
Tue Jul 17 14:57:40 IDT 2012	Swaping roles:
Tue Jul 17 14:57:40 IDT 2012	Proposer is: 999
Tue Jul 17 14:57:40 IDT 2012	Responder is: 337
Tue Jul 17 14:57:41 IDT 2012	Protocol: A New Phase Began: Feedback Phase
Tue Jul 17 14:57:41 IDT 2012	Protocol: Feedback phase, Round: 11
Tue Jul 17 14:57:41 IDT 2012	Number of consecutive no movements for player 999 is 0
Tue Jul 17 14:57:41 IDT 2012	Number of consecutive no movements for player 337 is 0
Tue Jul 17 14:57:45 IDT 2012	A Phase Ended: Feedback Phase
Tue Jul 17 14:57:45 IDT 2012	Protocol: A New Phase Began: Communication Phase
Tue Jul 17 14:57:45 IDT 2012	Protocol: Communication phase, Round: 12
Tue Jul 17 14:57:57 IDT 2012	Received communication message 
Tue Jul 17 14:57:57 IDT 2012	From player: 999
Tue Jul 17 14:57:58 IDT 2012	To player: 337
Tue Jul 17 14:57:58 IDT 2012	Message type: basicproposal
Tue Jul 17 14:57:58 IDT 2012	Chips to send by proposer: { chips  'CTRed':0 'CTPurple':0 'CTGreen':0 'grey78':0 'CTYellow':0 }
Tue Jul 17 14:57:58 IDT 2012	Chips to send by responder: { chips  'CTRed':0 'CTPurple':0 'CTGreen':0 'grey78':0 'CTYellow':0 }
Tue Jul 17 14:58:00 IDT 2012	Received communication message 
Tue Jul 17 14:58:00 IDT 2012	From player: 337
Tue Jul 17 14:58:00 IDT 2012	To player: 999
Tue Jul 17 14:58:00 IDT 2012	Message type: basicproposaldiscussion
Tue Jul 17 14:58:00 IDT 2012	Player 337 accepted offer
Tue Jul 17 14:58:00 IDT 2012	Prop accepted, set counter offers count to: 0
Tue Jul 17 14:58:00 IDT 2012	Prop accepted, get counter offers returned: 0
Tue Jul 17 14:58:00 IDT 2012	A Phase Ended: Communication Phase
Tue Jul 17 14:58:00 IDT 2012	Protocol: A New Phase Began: Exchange Phase
Tue Jul 17 14:58:00 IDT 2012	Protocol: Exchange phase, Round: 12
Tue Jul 17 14:58:00 IDT 2012	In begin exch.phase, get counter offers returned: 0
Tue Jul 17 14:58:40 IDT 2012	A Phase Ended: Exchange Phase
Tue Jul 17 14:58:40 IDT 2012	Responder 337 sent: { chips  'CTRed':0 'CTPurple':0 'CTGreen':0 'grey78':0 'CTYellow':0 }
Tue Jul 17 14:58:40 IDT 2012	Protocol: A New Phase Began: Movement Phase
Tue Jul 17 14:58:40 IDT 2012	Protocol: Movement phase, Round: 12
Tue Jul 17 14:59:00 IDT 2012	A Phase Ended: Movement Phase
Tue Jul 17 14:59:00 IDT 2012	Swaping roles:
Tue Jul 17 14:59:00 IDT 2012	Proposer is: 337
Tue Jul 17 14:59:00 IDT 2012	Responder is: 999
Tue Jul 17 14:59:00 IDT 2012	Protocol: A New Phase Began: Feedback Phase
Tue Jul 17 14:59:00 IDT 2012	Protocol: Feedback phase, Round: 12
Tue Jul 17 14:59:00 IDT 2012	Number of consecutive no movements for player 999 is 1
Tue Jul 17 14:59:00 IDT 2012	Number of consecutive no movements for player 337 is 1
Tue Jul 17 14:59:05 IDT 2012	A Phase Ended: Feedback Phase
Tue Jul 17 14:59:05 IDT 2012	Protocol: A New Phase Began: Communication Phase
Tue Jul 17 14:59:05 IDT 2012	Protocol: Communication phase, Round: 13
Tue Jul 17 14:59:06 IDT 2012	Received communication message 
Tue Jul 17 14:59:06 IDT 2012	From player: 337
Tue Jul 17 14:59:06 IDT 2012	To player: 999
Tue Jul 17 14:59:06 IDT 2012	Message type: basicproposal
Tue Jul 17 14:59:06 IDT 2012	Chips to send by proposer: { chips  'grey78':1 }
Tue Jul 17 14:59:06 IDT 2012	Chips to send by responder: { chips  'CTGreen':2 }
Tue Jul 17 14:59:15 IDT 2012	Received communication message 
Tue Jul 17 14:59:15 IDT 2012	From player: 999
Tue Jul 17 14:59:15 IDT 2012	To player: 337
Tue Jul 17 14:59:15 IDT 2012	Message type: basicproposaldiscussion
Tue Jul 17 14:59:15 IDT 2012	Player 999 accepted offer
Tue Jul 17 14:59:15 IDT 2012	Prop accepted, set counter offers count to: 0
Tue Jul 17 14:59:15 IDT 2012	Prop accepted, get counter offers returned: 0
Tue Jul 17 14:59:15 IDT 2012	A Phase Ended: Communication Phase
Tue Jul 17 14:59:15 IDT 2012	Protocol: A New Phase Began: Exchange Phase
Tue Jul 17 14:59:15 IDT 2012	Protocol: Exchange phase, Round: 13
Tue Jul 17 14:59:15 IDT 2012	In begin exch.phase, get counter offers returned: 0
Tue Jul 17 14:59:15 IDT 2012	A Phase Ended: Exchange Phase
Tue Jul 17 14:59:15 IDT 2012	Proposer 337 sent: { chips  'CTRed':0 'CTPurple':0 'CTGreen':0 'grey78':0 'CTYellow':0 }
Tue Jul 17 14:59:15 IDT 2012	Responder 999 sent: { chips  'CTGreen':2 }
Tue Jul 17 14:59:15 IDT 2012	Protocol: A New Phase Began: Movement Phase
Tue Jul 17 14:59:15 IDT 2012	Protocol: Movement phase, Round: 13
Tue Jul 17 14:59:35 IDT 2012	A Phase Ended: Movement Phase
Tue Jul 17 14:59:35 IDT 2012	Swaping roles:
Tue Jul 17 14:59:35 IDT 2012	Proposer is: 999
Tue Jul 17 14:59:35 IDT 2012	Responder is: 337
Tue Jul 17 14:59:35 IDT 2012	Protocol: A New Phase Began: Feedback Phase
Tue Jul 17 14:59:35 IDT 2012	Protocol: Feedback phase, Round: 13
Tue Jul 17 14:59:35 IDT 2012	Number of consecutive no movements for player 999 is 2
Tue Jul 17 14:59:35 IDT 2012	Number of consecutive no movements for player 337 is 2
Tue Jul 17 14:59:40 IDT 2012	A Phase Ended: Feedback Phase
Tue Jul 17 14:59:40 IDT 2012	Protocol: A New Phase Began: Communication Phase
Tue Jul 17 14:59:40 IDT 2012	Protocol: Communication phase, Round: 14
Tue Jul 17 14:59:58 IDT 2012	Received communication message 
Tue Jul 17 14:59:58 IDT 2012	From player: 999
Tue Jul 17 14:59:58 IDT 2012	To player: 337
Tue Jul 17 14:59:58 IDT 2012	Message type: basicproposal
Tue Jul 17 14:59:58 IDT 2012	Chips to send by proposer: { chips  'CTRed':0 'CTPurple':0 'CTGreen':0 'grey78':0 'CTYellow':0 }
Tue Jul 17 14:59:58 IDT 2012	Chips to send by responder: { chips  'CTRed':0 'CTPurple':0 'CTGreen':0 'grey78':0 'CTYellow':0 }
Tue Jul 17 15:00:01 IDT 2012	Received communication message 
Tue Jul 17 15:00:01 IDT 2012	From player: 337
Tue Jul 17 15:00:01 IDT 2012	To player: 999
Tue Jul 17 15:00:01 IDT 2012	Message type: basicproposaldiscussion
Tue Jul 17 15:00:01 IDT 2012	Player 337 accepted offer
Tue Jul 17 15:00:01 IDT 2012	Prop accepted, set counter offers count to: 0
Tue Jul 17 15:00:01 IDT 2012	Prop accepted, get counter offers returned: 0
Tue Jul 17 15:00:01 IDT 2012	A Phase Ended: Communication Phase
Tue Jul 17 15:00:01 IDT 2012	Protocol: A New Phase Began: Exchange Phase
Tue Jul 17 15:00:01 IDT 2012	Protocol: Exchange phase, Round: 14
Tue Jul 17 15:00:01 IDT 2012	In begin exch.phase, get counter offers returned: 0
Tue Jul 17 15:00:41 IDT 2012	A Phase Ended: Exchange Phase
Tue Jul 17 15:00:41 IDT 2012	Responder 337 sent: { chips  'CTRed':0 'CTPurple':0 'CTGreen':0 'grey78':0 'CTYellow':0 }
Tue Jul 17 15:00:41 IDT 2012	Protocol: A New Phase Began: Movement Phase
Tue Jul 17 15:00:41 IDT 2012	Protocol: Movement phase, Round: 14
Tue Jul 17 15:00:41 IDT 2012	Player 337 moved to (R:2,C:3)
Tue Jul 17 15:00:41 IDT 2012	Player 999 moved to (R:2,C:1)
Tue Jul 17 15:01:01 IDT 2012	A Phase Ended: Movement Phase
Tue Jul 17 15:01:01 IDT 2012	Swaping roles:
Tue Jul 17 15:01:01 IDT 2012	Proposer is: 337
Tue Jul 17 15:01:01 IDT 2012	Responder is: 999
Tue Jul 17 15:01:01 IDT 2012	Protocol: A New Phase Began: Feedback Phase
Tue Jul 17 15:01:01 IDT 2012	Protocol: Feedback phase, Round: 14
Tue Jul 17 15:01:01 IDT 2012	Number of consecutive no movements for player 999 is 0
Tue Jul 17 15:01:01 IDT 2012	Number of consecutive no movements for player 337 is 0
Tue Jul 17 15:01:06 IDT 2012	A Phase Ended: Feedback Phase
Tue Jul 17 15:01:06 IDT 2012	Protocol: A New Phase Began: Communication Phase
Tue Jul 17 15:01:06 IDT 2012	Protocol: Communication phase, Round: 15
Tue Jul 17 15:01:08 IDT 2012	Received communication message 
Tue Jul 17 15:01:08 IDT 2012	From player: 337
Tue Jul 17 15:01:08 IDT 2012	To player: 999
Tue Jul 17 15:01:08 IDT 2012	Message type: basicproposal
Tue Jul 17 15:01:08 IDT 2012	Chips to send by proposer: { chips  'grey78':1 }
Tue Jul 17 15:01:08 IDT 2012	Chips to send by responder: { chips  'CTYellow':2 }
Tue Jul 17 15:01:17 IDT 2012	Received communication message 
Tue Jul 17 15:01:17 IDT 2012	From player: 999
Tue Jul 17 15:01:17 IDT 2012	To player: 337
Tue Jul 17 15:01:17 IDT 2012	Message type: basicproposaldiscussion
Tue Jul 17 15:01:17 IDT 2012	Player 999 accepted offer
Tue Jul 17 15:01:17 IDT 2012	Prop accepted, set counter offers count to: 0
Tue Jul 17 15:01:17 IDT 2012	Prop accepted, get counter offers returned: 0
Tue Jul 17 15:01:17 IDT 2012	A Phase Ended: Communication Phase
Tue Jul 17 15:01:17 IDT 2012	Protocol: A New Phase Began: Exchange Phase
Tue Jul 17 15:01:17 IDT 2012	Protocol: Exchange phase, Round: 15
Tue Jul 17 15:01:17 IDT 2012	In begin exch.phase, get counter offers returned: 0
Tue Jul 17 15:01:17 IDT 2012	A Phase Ended: Exchange Phase
Tue Jul 17 15:01:17 IDT 2012	Proposer 337 sent: { chips  'CTRed':0 'CTPurple':0 'CTGreen':0 'grey78':0 'CTYellow':0 }
Tue Jul 17 15:01:17 IDT 2012	Responder 999 sent: { chips  'CTYellow':2 }
Tue Jul 17 15:01:17 IDT 2012	Protocol: A New Phase Began: Movement Phase
Tue Jul 17 15:01:17 IDT 2012	Protocol: Movement phase, Round: 15
Tue Jul 17 15:01:37 IDT 2012	A Phase Ended: Movement Phase
Tue Jul 17 15:01:37 IDT 2012	Swaping roles:
Tue Jul 17 15:01:37 IDT 2012	Proposer is: 999
Tue Jul 17 15:01:37 IDT 2012	Responder is: 337
Tue Jul 17 15:01:37 IDT 2012	Protocol: A New Phase Began: Feedback Phase
Tue Jul 17 15:01:37 IDT 2012	Protocol: Feedback phase, Round: 15
Tue Jul 17 15:01:37 IDT 2012	Number of consecutive no movements for player 999 is 1
Tue Jul 17 15:01:37 IDT 2012	Number of consecutive no movements for player 337 is 1
Tue Jul 17 15:01:42 IDT 2012	A Phase Ended: Feedback Phase
Tue Jul 17 15:01:42 IDT 2012	Protocol: A New Phase Began: Communication Phase
Tue Jul 17 15:01:42 IDT 2012	Protocol: Communication phase, Round: 16
Tue Jul 17 15:01:56 IDT 2012	Received communication message 
Tue Jul 17 15:01:56 IDT 2012	From player: 999
Tue Jul 17 15:01:56 IDT 2012	To player: 337
Tue Jul 17 15:01:56 IDT 2012	Message type: basicproposal
Tue Jul 17 15:01:56 IDT 2012	Chips to send by proposer: { chips  'CTRed':0 'CTPurple':0 'CTGreen':0 'grey78':0 'CTYellow':0 }
Tue Jul 17 15:01:56 IDT 2012	Chips to send by responder: { chips  'CTRed':0 'CTPurple':0 'CTGreen':0 'grey78':0 'CTYellow':0 }
Tue Jul 17 15:01:57 IDT 2012	Received communication message 
Tue Jul 17 15:01:57 IDT 2012	From player: 337
Tue Jul 17 15:01:57 IDT 2012	To player: 999
Tue Jul 17 15:01:57 IDT 2012	Message type: basicproposaldiscussion
Tue Jul 17 15:01:57 IDT 2012	Player 337 accepted offer
Tue Jul 17 15:01:57 IDT 2012	Prop accepted, set counter offers count to: 0
Tue Jul 17 15:01:57 IDT 2012	Prop accepted, get counter offers returned: 0
Tue Jul 17 15:01:57 IDT 2012	A Phase Ended: Communication Phase
Tue Jul 17 15:01:57 IDT 2012	Protocol: A New Phase Began: Exchange Phase
Tue Jul 17 15:01:57 IDT 2012	Protocol: Exchange phase, Round: 16
Tue Jul 17 15:01:57 IDT 2012	In begin exch.phase, get counter offers returned: 0
Tue Jul 17 15:02:36 IDT 2012	A Phase Ended: Exchange Phase
Tue Jul 17 15:02:36 IDT 2012	Responder 337 sent: { chips  'CTRed':0 'CTPurple':0 'CTGreen':0 'grey78':0 'CTYellow':0 }
Tue Jul 17 15:02:36 IDT 2012	Protocol: A New Phase Began: Movement Phase
Tue Jul 17 15:02:36 IDT 2012	Protocol: Movement phase, Round: 16
Tue Jul 17 15:02:56 IDT 2012	A Phase Ended: Movement Phase
Tue Jul 17 15:02:56 IDT 2012	Swaping roles:
Tue Jul 17 15:02:56 IDT 2012	Proposer is: 337
Tue Jul 17 15:02:56 IDT 2012	Responder is: 999
Tue Jul 17 15:02:56 IDT 2012	Protocol: A New Phase Began: Feedback Phase
Tue Jul 17 15:02:56 IDT 2012	Protocol: Feedback phase, Round: 16
Tue Jul 17 15:02:56 IDT 2012	Number of consecutive no movements for player 999 is 2
Tue Jul 17 15:02:56 IDT 2012	Number of consecutive no movements for player 337 is 2
Tue Jul 17 15:03:01 IDT 2012	A Phase Ended: Feedback Phase
Tue Jul 17 15:03:01 IDT 2012	Protocol: A New Phase Began: Communication Phase
Tue Jul 17 15:03:01 IDT 2012	Protocol: Communication phase, Round: 17
Tue Jul 17 15:08:01 IDT 2012	A Phase Ended: Communication Phase
Tue Jul 17 15:08:01 IDT 2012	Protocol: A New Phase Began: Exchange Phase
Tue Jul 17 15:08:01 IDT 2012	Protocol: Exchange phase, Round: 17
Tue Jul 17 15:08:01 IDT 2012	In begin exch.phase, get counter offers returned: 0
Tue Jul 17 15:08:42 IDT 2012	A Phase Ended: Exchange Phase
Tue Jul 17 15:08:42 IDT 2012	Proposer 337 sent: { chips  }
Tue Jul 17 15:08:42 IDT 2012	Protocol: A New Phase Began: Movement Phase
Tue Jul 17 15:08:42 IDT 2012	Protocol: Movement phase, Round: 17
Tue Jul 17 15:08:42 IDT 2012	Player 337 moved to (R:1,C:3)
Tue Jul 17 15:09:02 IDT 2012	A Phase Ended: Movement Phase
Tue Jul 17 15:09:02 IDT 2012	Swaping roles:
Tue Jul 17 15:09:02 IDT 2012	Proposer is: 999
Tue Jul 17 15:09:02 IDT 2012	Responder is: 337
Tue Jul 17 15:09:02 IDT 2012	Protocol: A New Phase Began: Feedback Phase
Tue Jul 17 15:09:02 IDT 2012	Protocol: Feedback phase, Round: 17
Tue Jul 17 15:09:02 IDT 2012	Number of consecutive no movements for player 999 is 3
Tue Jul 17 15:09:02 IDT 2012	Number of consecutive no movements for player 337 is 0
Tue Jul 17 15:09:02 IDT 2012	Ending game, all players move as much as they can towards goal
Tue Jul 17 15:09:02 IDT 2012	Player: 337 ,role: Responder score is: 265
Tue Jul 17 15:09:02 IDT 2012	Player: 999 ,role: Proposer score is: -20
