Thu Jul 19 04:27:13 IDT 2012	This is the CT debug logger; svn version 638; sep 27 09
Thu Jul 19 04:27:13 IDT 2012	Thu Jul 19 04:27:13 IDT 2012
Thu Jul 19 04:27:13 IDT 2012	A new Alternative Offers game has began
Thu Jul 19 04:27:13 IDT 2012	ID Number: 33948
Thu Jul 19 04:27:13 IDT 2012	Creating board
Thu Jul 19 04:27:13 IDT 2012	<colors>
Thu Jul 19 04:27:13 IDT 2012	{ GamePalette  'CTRed':0 'CTPurple':1 'CTGreen':2 'grey78':3 'CTYellow':4 }
Thu Jul 19 04:27:13 IDT 2012	<rows>
Thu Jul 19 04:27:13 IDT 2012	7
Thu Jul 19 04:27:13 IDT 2012	<columns>
Thu Jul 19 04:27:13 IDT 2012	5
Thu Jul 19 04:27:13 IDT 2012	<squaresColors>
Thu Jul 19 04:27:13 IDT 2012	CTPurple CTRed CTRed CTGreen CTPurple 
Thu Jul 19 04:27:13 IDT 2012	CTPurple grey78 CTPurple CTYellow CTPurple 
Thu Jul 19 04:27:13 IDT 2012	CTPurple CTRed CTPurple CTGreen CTPurple 
Thu Jul 19 04:27:13 IDT 2012	CTPurple grey78 CTPurple CTYellow CTPurple 
Thu Jul 19 04:27:13 IDT 2012	CTPurple CTRed CTPurple CTGreen CTPurple 
Thu Jul 19 04:27:13 IDT 2012	CTPurple grey78 CTPurple CTYellow CTPurple 
Thu Jul 19 04:27:13 IDT 2012	CTPurple CTRed CTPurple CTGreen CTPurple 
Thu Jul 19 04:27:13 IDT 2012	</squareColors>
Thu Jul 19 04:27:13 IDT 2012	<goalPosition>
Thu Jul 19 04:27:13 IDT 2012	Goal position: (R:0,C:2)
Thu Jul 19 04:27:13 IDT 2012	<numberOfPlayers>
Thu Jul 19 04:27:13 IDT 2012	2
Thu Jul 19 04:27:13 IDT 2012	<firstPlayerChips>
Thu Jul 19 04:27:13 IDT 2012	Setting chips for player: 999 id:0
Thu Jul 19 04:27:14 IDT 2012	{ chips  'CTRed':5 'CTGreen':10 'CTPurple':0 'grey78':0 'CTYellow':9 }
Thu Jul 19 04:27:14 IDT 2012	Player position: (R:6,C:0)
Thu Jul 19 04:27:14 IDT 2012	Setting chips for player: 337 id:1
Thu Jul 19 04:27:14 IDT 2012	{ chips  'CTRed':1 'CTGreen':13 'CTPurple':0 'grey78':10 'CTYellow':0 }
Thu Jul 19 04:27:14 IDT 2012	Player position: (R:6,C:4)
Thu Jul 19 04:27:14 IDT 2012	Protocol: A New Phase Began: Strategy Prep Phase
Thu Jul 19 04:27:14 IDT 2012	Protocol: Strategy Preparation phase, Round: 0
Thu Jul 19 04:27:14 IDT 2012	Maximum number of rounds with no consecutive movement is 3
Thu Jul 19 04:27:14 IDT 2012	In begin comm. phase, set counter offers count to: 0
Thu Jul 19 04:27:14 IDT 2012	In begin comm. phase, get counter offers returned: 0
Thu Jul 19 04:27:34 IDT 2012	A Phase Ended: Strategy Prep Phase
Thu Jul 19 04:27:34 IDT 2012	Protocol: A New Phase Began: Communication Phase
Thu Jul 19 04:27:34 IDT 2012	Protocol: Communication phase, Round: 0
Thu Jul 19 04:27:54 IDT 2012	Received communication message 
Thu Jul 19 04:27:54 IDT 2012	From player: 999
Thu Jul 19 04:27:54 IDT 2012	To player: 337
Thu Jul 19 04:27:54 IDT 2012	Message type: basicproposal
Thu Jul 19 04:27:54 IDT 2012	Chips to send by proposer: { chips  'CTRed':0 'CTPurple':0 'CTGreen':0 'grey78':0 'CTYellow':2 }
Thu Jul 19 04:27:54 IDT 2012	Chips to send by responder: { chips  'CTRed':0 'CTPurple':0 'CTGreen':0 'grey78':2 'CTYellow':0 }
Thu Jul 19 04:27:58 IDT 2012	Received communication message 
Thu Jul 19 04:27:58 IDT 2012	From player: 337
Thu Jul 19 04:27:58 IDT 2012	To player: 999
Thu Jul 19 04:27:58 IDT 2012	Message type: basicproposaldiscussion
Thu Jul 19 04:27:58 IDT 2012	Player 337 accepted offer
Thu Jul 19 04:27:58 IDT 2012	Prop accepted, set counter offers count to: 0
Thu Jul 19 04:27:58 IDT 2012	Prop accepted, get counter offers returned: 0
Thu Jul 19 04:27:58 IDT 2012	A Phase Ended: Communication Phase
Thu Jul 19 04:27:58 IDT 2012	Protocol: A New Phase Began: Exchange Phase
Thu Jul 19 04:27:58 IDT 2012	Protocol: Exchange phase, Round: 0
Thu Jul 19 04:27:58 IDT 2012	In begin exch.phase, get counter offers returned: 0
Thu Jul 19 04:27:58 IDT 2012	A Phase Ended: Exchange Phase
Thu Jul 19 04:27:58 IDT 2012	Proposer 999 sent: { chips  'CTRed':0 'CTPurple':0 'CTGreen':0 'grey78':0 'CTYellow':2 }
Thu Jul 19 04:27:58 IDT 2012	Responder 337 sent: { chips  'CTRed':0 'CTPurple':0 'CTGreen':0 'grey78':1 'CTYellow':0 }
Thu Jul 19 04:27:58 IDT 2012	Protocol: A New Phase Began: Movement Phase
Thu Jul 19 04:27:58 IDT 2012	Protocol: Movement phase, Round: 0
Thu Jul 19 04:28:17 IDT 2012	A Phase Ended: Movement Phase
Thu Jul 19 04:28:18 IDT 2012	Swaping roles:
Thu Jul 19 04:28:18 IDT 2012	Proposer is: 337
Thu Jul 19 04:28:18 IDT 2012	Responder is: 999
Thu Jul 19 04:28:18 IDT 2012	Protocol: A New Phase Began: Feedback Phase
Thu Jul 19 04:28:18 IDT 2012	Protocol: Feedback phase, Round: 0
Thu Jul 19 04:28:18 IDT 2012	Number of consecutive no movements for player 999 is 1
Thu Jul 19 04:28:18 IDT 2012	Number of consecutive no movements for player 337 is 1
Thu Jul 19 04:28:23 IDT 2012	A Phase Ended: Feedback Phase
Thu Jul 19 04:28:23 IDT 2012	Protocol: A New Phase Began: Communication Phase
Thu Jul 19 04:28:23 IDT 2012	Protocol: Communication phase, Round: 1
Thu Jul 19 04:28:24 IDT 2012	Received communication message 
Thu Jul 19 04:28:24 IDT 2012	From player: 337
Thu Jul 19 04:28:24 IDT 2012	To player: 999
Thu Jul 19 04:28:24 IDT 2012	Message type: basicproposal
Thu Jul 19 04:28:24 IDT 2012	Chips to send by proposer: { chips  'grey78':1 }
Thu Jul 19 04:28:24 IDT 2012	Chips to send by responder: { chips  'CTYellow':2 }
Thu Jul 19 04:28:35 IDT 2012	Received communication message 
Thu Jul 19 04:28:35 IDT 2012	From player: 999
Thu Jul 19 04:28:35 IDT 2012	To player: 337
Thu Jul 19 04:28:35 IDT 2012	Message type: basicproposaldiscussion
Thu Jul 19 04:28:35 IDT 2012	Player 999 rejected offer
Thu Jul 19 04:28:35 IDT 2012	Swaping roles:
Thu Jul 19 04:28:35 IDT 2012	Proposer is: 999
Thu Jul 19 04:28:35 IDT 2012	Responder is: 337
Thu Jul 19 04:28:35 IDT 2012	Prop rejected, set counter offers count to: 1
Thu Jul 19 04:28:35 IDT 2012	Prop rejected, get counter offers returned: 1
Thu Jul 19 04:28:39 IDT 2012	Slept 4 seconds
Thu Jul 19 04:28:39 IDT 2012	Sent role changed msgs
Thu Jul 19 04:28:58 IDT 2012	Received communication message 
Thu Jul 19 04:28:58 IDT 2012	From player: 999
Thu Jul 19 04:28:58 IDT 2012	To player: 337
Thu Jul 19 04:28:58 IDT 2012	Message type: basicproposal
Thu Jul 19 04:28:58 IDT 2012	Chips to send by proposer: { chips  'CTRed':0 'CTPurple':0 'CTGreen':0 'grey78':0 'CTYellow':2 }
Thu Jul 19 04:28:58 IDT 2012	Chips to send by responder: { chips  'CTRed':0 'CTPurple':0 'CTGreen':0 'grey78':2 'CTYellow':0 }
Thu Jul 19 04:28:59 IDT 2012	Received communication message 
Thu Jul 19 04:28:59 IDT 2012	From player: 337
Thu Jul 19 04:28:59 IDT 2012	To player: 999
Thu Jul 19 04:28:59 IDT 2012	Message type: basicproposaldiscussion
Thu Jul 19 04:28:59 IDT 2012	Player 337 accepted offer
Thu Jul 19 04:28:59 IDT 2012	Prop accepted, set counter offers count to: 0
Thu Jul 19 04:28:59 IDT 2012	Prop accepted, get counter offers returned: 0
Thu Jul 19 04:28:59 IDT 2012	A Phase Ended: Communication Phase
Thu Jul 19 04:28:59 IDT 2012	Protocol: A New Phase Began: Exchange Phase
Thu Jul 19 04:28:59 IDT 2012	Protocol: Exchange phase, Round: 1
Thu Jul 19 04:28:59 IDT 2012	In begin exch.phase, get counter offers returned: 0
Thu Jul 19 04:28:59 IDT 2012	A Phase Ended: Exchange Phase
Thu Jul 19 04:28:59 IDT 2012	Proposer 999 sent: { chips  'CTRed':0 'CTPurple':0 'CTGreen':0 'grey78':0 'CTYellow':2 }
Thu Jul 19 04:28:59 IDT 2012	Responder 337 sent: { chips  'CTRed':0 'CTPurple':0 'CTGreen':0 'grey78':0 'CTYellow':0 }
Thu Jul 19 04:28:59 IDT 2012	Protocol: A New Phase Began: Movement Phase
Thu Jul 19 04:28:59 IDT 2012	Protocol: Movement phase, Round: 1
Thu Jul 19 04:29:19 IDT 2012	A Phase Ended: Movement Phase
Thu Jul 19 04:29:19 IDT 2012	Protocol: A New Phase Began: Feedback Phase
Thu Jul 19 04:29:19 IDT 2012	Protocol: Feedback phase, Round: 1
Thu Jul 19 04:29:19 IDT 2012	Number of consecutive no movements for player 999 is 2
Thu Jul 19 04:29:19 IDT 2012	Number of consecutive no movements for player 337 is 2
Thu Jul 19 04:29:24 IDT 2012	A Phase Ended: Feedback Phase
Thu Jul 19 04:29:24 IDT 2012	Protocol: A New Phase Began: Communication Phase
Thu Jul 19 04:29:24 IDT 2012	Protocol: Communication phase, Round: 2
Thu Jul 19 04:29:43 IDT 2012	Received communication message 
Thu Jul 19 04:29:43 IDT 2012	From player: 999
Thu Jul 19 04:29:43 IDT 2012	To player: 337
Thu Jul 19 04:29:43 IDT 2012	Message type: basicproposal
Thu Jul 19 04:29:44 IDT 2012	Chips to send by proposer: { chips  'CTRed':0 'CTPurple':0 'CTGreen':1 'grey78':0 'CTYellow':0 }
Thu Jul 19 04:29:44 IDT 2012	Chips to send by responder: { chips  'CTRed':0 'CTPurple':0 'CTGreen':0 'grey78':2 'CTYellow':0 }
Thu Jul 19 04:29:48 IDT 2012	Received communication message 
Thu Jul 19 04:29:48 IDT 2012	From player: 337
Thu Jul 19 04:29:48 IDT 2012	To player: 999
Thu Jul 19 04:29:48 IDT 2012	Message type: basicproposaldiscussion
Thu Jul 19 04:29:48 IDT 2012	Player 337 accepted offer
Thu Jul 19 04:29:48 IDT 2012	Prop accepted, set counter offers count to: 0
Thu Jul 19 04:29:48 IDT 2012	Prop accepted, get counter offers returned: 0
Thu Jul 19 04:29:48 IDT 2012	A Phase Ended: Communication Phase
Thu Jul 19 04:29:48 IDT 2012	Protocol: A New Phase Began: Exchange Phase
Thu Jul 19 04:29:48 IDT 2012	Protocol: Exchange phase, Round: 2
Thu Jul 19 04:29:48 IDT 2012	In begin exch.phase, get counter offers returned: 0
Thu Jul 19 04:30:27 IDT 2012	A Phase Ended: Exchange Phase
Thu Jul 19 04:30:27 IDT 2012	Responder 337 sent: { chips  'CTRed':0 'CTPurple':0 'CTGreen':0 'grey78':0 'CTYellow':0 }
Thu Jul 19 04:30:27 IDT 2012	Player 337 moved to (R:6,C:3)
Thu Jul 19 04:30:27 IDT 2012	Protocol: A New Phase Began: Movement Phase
Thu Jul 19 04:30:27 IDT 2012	Protocol: Movement phase, Round: 2
Thu Jul 19 04:30:27 IDT 2012	Player 999 moved to (R:6,C:1)
Thu Jul 19 04:30:48 IDT 2012	A Phase Ended: Movement Phase
Thu Jul 19 04:30:48 IDT 2012	Swaping roles:
Thu Jul 19 04:30:48 IDT 2012	Proposer is: 337
Thu Jul 19 04:30:48 IDT 2012	Responder is: 999
Thu Jul 19 04:30:48 IDT 2012	Protocol: A New Phase Began: Feedback Phase
Thu Jul 19 04:30:48 IDT 2012	Protocol: Feedback phase, Round: 2
Thu Jul 19 04:30:48 IDT 2012	Number of consecutive no movements for player 999 is 0
Thu Jul 19 04:30:48 IDT 2012	Number of consecutive no movements for player 337 is 0
Thu Jul 19 04:30:53 IDT 2012	A Phase Ended: Feedback Phase
Thu Jul 19 04:30:53 IDT 2012	Protocol: A New Phase Began: Communication Phase
Thu Jul 19 04:30:53 IDT 2012	Protocol: Communication phase, Round: 3
Thu Jul 19 04:30:55 IDT 2012	Received communication message 
Thu Jul 19 04:30:55 IDT 2012	From player: 337
Thu Jul 19 04:30:55 IDT 2012	To player: 999
Thu Jul 19 04:30:55 IDT 2012	Message type: basicproposal
Thu Jul 19 04:30:55 IDT 2012	Chips to send by proposer: { chips  'grey78':1 }
Thu Jul 19 04:30:55 IDT 2012	Chips to send by responder: { chips  'CTGreen':1 'CTYellow':1 }
Thu Jul 19 04:31:02 IDT 2012	Received communication message 
Thu Jul 19 04:31:02 IDT 2012	From player: 999
Thu Jul 19 04:31:02 IDT 2012	To player: 337
Thu Jul 19 04:31:02 IDT 2012	Message type: basicproposaldiscussion
Thu Jul 19 04:31:02 IDT 2012	Player 999 accepted offer
Thu Jul 19 04:31:02 IDT 2012	Prop accepted, set counter offers count to: 0
Thu Jul 19 04:31:02 IDT 2012	Prop accepted, get counter offers returned: 0
Thu Jul 19 04:31:02 IDT 2012	A Phase Ended: Communication Phase
Thu Jul 19 04:31:02 IDT 2012	Protocol: A New Phase Began: Exchange Phase
Thu Jul 19 04:31:02 IDT 2012	Protocol: Exchange phase, Round: 3
Thu Jul 19 04:31:02 IDT 2012	In begin exch.phase, get counter offers returned: 0
Thu Jul 19 04:31:02 IDT 2012	A Phase Ended: Exchange Phase
Thu Jul 19 04:31:02 IDT 2012	Proposer 337 sent: { chips  'CTRed':0 'CTPurple':0 'CTGreen':0 'grey78':0 'CTYellow':0 }
Thu Jul 19 04:31:02 IDT 2012	Responder 999 sent: { chips  'CTGreen':1 'CTYellow':1 }
Thu Jul 19 04:31:02 IDT 2012	Protocol: A New Phase Began: Movement Phase
Thu Jul 19 04:31:02 IDT 2012	Protocol: Movement phase, Round: 3
Thu Jul 19 04:31:22 IDT 2012	A Phase Ended: Movement Phase
Thu Jul 19 04:31:22 IDT 2012	Swaping roles:
Thu Jul 19 04:31:22 IDT 2012	Proposer is: 999
Thu Jul 19 04:31:22 IDT 2012	Responder is: 337
Thu Jul 19 04:31:22 IDT 2012	Protocol: A New Phase Began: Feedback Phase
Thu Jul 19 04:31:22 IDT 2012	Protocol: Feedback phase, Round: 3
Thu Jul 19 04:31:22 IDT 2012	Number of consecutive no movements for player 999 is 1
Thu Jul 19 04:31:22 IDT 2012	Number of consecutive no movements for player 337 is 1
Thu Jul 19 04:31:27 IDT 2012	A Phase Ended: Feedback Phase
Thu Jul 19 04:31:27 IDT 2012	Protocol: A New Phase Began: Communication Phase
Thu Jul 19 04:31:27 IDT 2012	Protocol: Communication phase, Round: 4
Thu Jul 19 04:31:41 IDT 2012	Received communication message 
Thu Jul 19 04:31:41 IDT 2012	From player: 999
Thu Jul 19 04:31:41 IDT 2012	To player: 337
Thu Jul 19 04:31:41 IDT 2012	Message type: basicproposal
Thu Jul 19 04:31:41 IDT 2012	Chips to send by proposer: { chips  'CTRed':0 'CTPurple':0 'CTGreen':1 'grey78':0 'CTYellow':0 }
Thu Jul 19 04:31:41 IDT 2012	Chips to send by responder: { chips  'CTRed':0 'CTPurple':0 'CTGreen':0 'grey78':2 'CTYellow':0 }
Thu Jul 19 04:31:42 IDT 2012	Received communication message 
Thu Jul 19 04:31:42 IDT 2012	From player: 337
Thu Jul 19 04:31:42 IDT 2012	To player: 999
Thu Jul 19 04:31:42 IDT 2012	Message type: basicproposaldiscussion
Thu Jul 19 04:31:42 IDT 2012	Player 337 rejected offer
Thu Jul 19 04:31:42 IDT 2012	Swaping roles:
Thu Jul 19 04:31:42 IDT 2012	Proposer is: 337
Thu Jul 19 04:31:42 IDT 2012	Responder is: 999
Thu Jul 19 04:31:42 IDT 2012	Prop rejected, set counter offers count to: 1
Thu Jul 19 04:31:42 IDT 2012	Prop rejected, get counter offers returned: 1
Thu Jul 19 04:31:46 IDT 2012	Slept 4 seconds
Thu Jul 19 04:31:46 IDT 2012	Sent role changed msgs
Thu Jul 19 04:31:47 IDT 2012	Received communication message 
Thu Jul 19 04:31:47 IDT 2012	From player: 337
Thu Jul 19 04:31:47 IDT 2012	To player: 999
Thu Jul 19 04:31:47 IDT 2012	Message type: basicproposal
Thu Jul 19 04:31:47 IDT 2012	Chips to send by proposer: { chips  'CTRed':0 'CTPurple':0 'CTGreen':0 'grey78':1 'CTYellow':0 }
Thu Jul 19 04:31:47 IDT 2012	Chips to send by responder: { chips  'CTRed':0 'CTPurple':0 'CTGreen':0 'grey78':0 'CTYellow':2 }
Thu Jul 19 04:31:58 IDT 2012	Received communication message 
Thu Jul 19 04:31:58 IDT 2012	From player: 999
Thu Jul 19 04:31:58 IDT 2012	To player: 337
Thu Jul 19 04:31:58 IDT 2012	Message type: basicproposaldiscussion
Thu Jul 19 04:31:58 IDT 2012	Player 999 accepted offer
Thu Jul 19 04:31:58 IDT 2012	Prop accepted, set counter offers count to: 0
Thu Jul 19 04:31:58 IDT 2012	Prop accepted, get counter offers returned: 0
Thu Jul 19 04:31:58 IDT 2012	A Phase Ended: Communication Phase
Thu Jul 19 04:31:58 IDT 2012	Protocol: A New Phase Began: Exchange Phase
Thu Jul 19 04:31:58 IDT 2012	Protocol: Exchange phase, Round: 4
Thu Jul 19 04:31:58 IDT 2012	In begin exch.phase, get counter offers returned: 0
Thu Jul 19 04:32:38 IDT 2012	A Phase Ended: Exchange Phase
Thu Jul 19 04:32:38 IDT 2012	Proposer 337 sent: { chips  'CTRed':0 'CTPurple':0 'CTGreen':0 'grey78':0 'CTYellow':0 }
Thu Jul 19 04:32:38 IDT 2012	Protocol: A New Phase Began: Movement Phase
Thu Jul 19 04:32:38 IDT 2012	Protocol: Movement phase, Round: 4
Thu Jul 19 04:32:58 IDT 2012	A Phase Ended: Movement Phase
Thu Jul 19 04:32:58 IDT 2012	Protocol: A New Phase Began: Feedback Phase
Thu Jul 19 04:32:58 IDT 2012	Protocol: Feedback phase, Round: 4
Thu Jul 19 04:32:58 IDT 2012	Number of consecutive no movements for player 999 is 2
Thu Jul 19 04:32:58 IDT 2012	Number of consecutive no movements for player 337 is 2
Thu Jul 19 04:33:03 IDT 2012	A Phase Ended: Feedback Phase
Thu Jul 19 04:33:03 IDT 2012	Protocol: A New Phase Began: Communication Phase
Thu Jul 19 04:33:03 IDT 2012	Protocol: Communication phase, Round: 5
Thu Jul 19 04:33:08 IDT 2012	Received communication message 
Thu Jul 19 04:33:08 IDT 2012	From player: 337
Thu Jul 19 04:33:08 IDT 2012	To player: 999
Thu Jul 19 04:33:08 IDT 2012	Message type: basicproposal
Thu Jul 19 04:33:08 IDT 2012	Chips to send by proposer: { chips  'grey78':1 }
Thu Jul 19 04:33:08 IDT 2012	Chips to send by responder: { chips  'CTGreen':2 }
Thu Jul 19 04:33:15 IDT 2012	Received communication message 
Thu Jul 19 04:33:15 IDT 2012	From player: 999
Thu Jul 19 04:33:15 IDT 2012	To player: 337
Thu Jul 19 04:33:15 IDT 2012	Message type: basicproposaldiscussion
Thu Jul 19 04:33:15 IDT 2012	Player 999 accepted offer
Thu Jul 19 04:33:15 IDT 2012	Prop accepted, set counter offers count to: 0
Thu Jul 19 04:33:15 IDT 2012	Prop accepted, get counter offers returned: 0
Thu Jul 19 04:33:15 IDT 2012	A Phase Ended: Communication Phase
Thu Jul 19 04:33:15 IDT 2012	Protocol: A New Phase Began: Exchange Phase
Thu Jul 19 04:33:15 IDT 2012	Protocol: Exchange phase, Round: 5
Thu Jul 19 04:33:15 IDT 2012	In begin exch.phase, get counter offers returned: 0
Thu Jul 19 04:33:15 IDT 2012	A Phase Ended: Exchange Phase
Thu Jul 19 04:33:15 IDT 2012	Proposer 337 sent: { chips  'CTRed':0 'CTPurple':0 'CTGreen':0 'grey78':0 'CTYellow':0 }
Thu Jul 19 04:33:15 IDT 2012	Responder 999 sent: { chips  'CTGreen':2 }
Thu Jul 19 04:33:15 IDT 2012	Protocol: A New Phase Began: Movement Phase
Thu Jul 19 04:33:15 IDT 2012	Protocol: Movement phase, Round: 5
Thu Jul 19 04:33:15 IDT 2012	Player 337 moved to (R:5,C:3)
Thu Jul 19 04:33:15 IDT 2012	Player 999 moved to (R:5,C:1)
Thu Jul 19 04:33:35 IDT 2012	A Phase Ended: Movement Phase
Thu Jul 19 04:33:35 IDT 2012	Swaping roles:
Thu Jul 19 04:33:35 IDT 2012	Proposer is: 999
Thu Jul 19 04:33:35 IDT 2012	Responder is: 337
Thu Jul 19 04:33:35 IDT 2012	Protocol: A New Phase Began: Feedback Phase
Thu Jul 19 04:33:35 IDT 2012	Protocol: Feedback phase, Round: 5
Thu Jul 19 04:33:35 IDT 2012	Number of consecutive no movements for player 999 is 0
Thu Jul 19 04:33:35 IDT 2012	Number of consecutive no movements for player 337 is 0
Thu Jul 19 04:33:40 IDT 2012	A Phase Ended: Feedback Phase
Thu Jul 19 04:33:40 IDT 2012	Protocol: A New Phase Began: Communication Phase
Thu Jul 19 04:33:40 IDT 2012	Protocol: Communication phase, Round: 6
Thu Jul 19 04:33:56 IDT 2012	Received communication message 
Thu Jul 19 04:33:56 IDT 2012	From player: 999
Thu Jul 19 04:33:56 IDT 2012	To player: 337
Thu Jul 19 04:33:56 IDT 2012	Message type: basicproposal
Thu Jul 19 04:33:56 IDT 2012	Chips to send by proposer: { chips  'CTRed':0 'CTPurple':0 'CTGreen':1 'grey78':0 'CTYellow':0 }
Thu Jul 19 04:33:56 IDT 2012	Chips to send by responder: { chips  'CTRed':0 'CTPurple':0 'CTGreen':0 'grey78':2 'CTYellow':0 }
Thu Jul 19 04:33:58 IDT 2012	Received communication message 
Thu Jul 19 04:33:58 IDT 2012	From player: 337
Thu Jul 19 04:33:58 IDT 2012	To player: 999
Thu Jul 19 04:33:58 IDT 2012	Message type: basicproposaldiscussion
Thu Jul 19 04:33:58 IDT 2012	Player 337 rejected offer
Thu Jul 19 04:33:58 IDT 2012	Swaping roles:
Thu Jul 19 04:33:58 IDT 2012	Proposer is: 337
Thu Jul 19 04:33:58 IDT 2012	Responder is: 999
Thu Jul 19 04:33:58 IDT 2012	Prop rejected, set counter offers count to: 1
Thu Jul 19 04:33:58 IDT 2012	Prop rejected, get counter offers returned: 1
Thu Jul 19 04:34:02 IDT 2012	Slept 4 seconds
Thu Jul 19 04:34:02 IDT 2012	Sent role changed msgs
Thu Jul 19 04:34:05 IDT 2012	Received communication message 
Thu Jul 19 04:34:05 IDT 2012	From player: 337
Thu Jul 19 04:34:05 IDT 2012	To player: 999
Thu Jul 19 04:34:05 IDT 2012	Message type: basicproposal
Thu Jul 19 04:34:05 IDT 2012	Chips to send by proposer: { chips  'CTRed':0 'CTPurple':0 'CTGreen':0 'grey78':1 'CTYellow':0 }
Thu Jul 19 04:34:05 IDT 2012	Chips to send by responder: { chips  'CTRed':0 'CTPurple':0 'CTGreen':0 'grey78':0 'CTYellow':2 }
Thu Jul 19 04:34:19 IDT 2012	Received communication message 
Thu Jul 19 04:34:19 IDT 2012	From player: 999
Thu Jul 19 04:34:19 IDT 2012	To player: 337
Thu Jul 19 04:34:19 IDT 2012	Message type: basicproposaldiscussion
Thu Jul 19 04:34:19 IDT 2012	Player 999 accepted offer
Thu Jul 19 04:34:19 IDT 2012	Prop accepted, set counter offers count to: 0
Thu Jul 19 04:34:19 IDT 2012	Prop accepted, get counter offers returned: 0
Thu Jul 19 04:34:19 IDT 2012	A Phase Ended: Communication Phase
Thu Jul 19 04:34:19 IDT 2012	Protocol: A New Phase Began: Exchange Phase
Thu Jul 19 04:34:19 IDT 2012	Protocol: Exchange phase, Round: 6
Thu Jul 19 04:34:19 IDT 2012	In begin exch.phase, get counter offers returned: 0
Thu Jul 19 04:34:59 IDT 2012	A Phase Ended: Exchange Phase
Thu Jul 19 04:34:59 IDT 2012	Proposer 337 sent: { chips  'CTRed':0 'CTPurple':0 'CTGreen':0 'grey78':0 'CTYellow':0 }
Thu Jul 19 04:34:59 IDT 2012	Protocol: A New Phase Began: Movement Phase
Thu Jul 19 04:34:59 IDT 2012	Protocol: Movement phase, Round: 6
Thu Jul 19 04:35:19 IDT 2012	A Phase Ended: Movement Phase
Thu Jul 19 04:35:19 IDT 2012	Protocol: A New Phase Began: Feedback Phase
Thu Jul 19 04:35:19 IDT 2012	Protocol: Feedback phase, Round: 6
Thu Jul 19 04:35:19 IDT 2012	Number of consecutive no movements for player 999 is 1
Thu Jul 19 04:35:19 IDT 2012	Number of consecutive no movements for player 337 is 1
Thu Jul 19 04:35:24 IDT 2012	A Phase Ended: Feedback Phase
Thu Jul 19 04:35:24 IDT 2012	Protocol: A New Phase Began: Communication Phase
Thu Jul 19 04:35:24 IDT 2012	Protocol: Communication phase, Round: 7
Thu Jul 19 04:35:26 IDT 2012	Received communication message 
Thu Jul 19 04:35:26 IDT 2012	From player: 337
Thu Jul 19 04:35:26 IDT 2012	To player: 999
Thu Jul 19 04:35:26 IDT 2012	Message type: basicproposal
Thu Jul 19 04:35:26 IDT 2012	Chips to send by proposer: { chips  'grey78':1 }
Thu Jul 19 04:35:26 IDT 2012	Chips to send by responder: { chips  'CTGreen':2 }
Thu Jul 19 04:35:39 IDT 2012	Received communication message 
Thu Jul 19 04:35:39 IDT 2012	From player: 999
Thu Jul 19 04:35:39 IDT 2012	To player: 337
Thu Jul 19 04:35:39 IDT 2012	Message type: basicproposaldiscussion
Thu Jul 19 04:35:39 IDT 2012	Player 999 accepted offer
Thu Jul 19 04:35:39 IDT 2012	Prop accepted, set counter offers count to: 0
Thu Jul 19 04:35:39 IDT 2012	Prop accepted, get counter offers returned: 0
Thu Jul 19 04:35:39 IDT 2012	A Phase Ended: Communication Phase
Thu Jul 19 04:35:39 IDT 2012	Protocol: A New Phase Began: Exchange Phase
Thu Jul 19 04:35:39 IDT 2012	Protocol: Exchange phase, Round: 7
Thu Jul 19 04:35:39 IDT 2012	In begin exch.phase, get counter offers returned: 0
Thu Jul 19 04:35:39 IDT 2012	A Phase Ended: Exchange Phase
Thu Jul 19 04:35:39 IDT 2012	Proposer 337 sent: { chips  'CTRed':0 'CTPurple':0 'CTGreen':0 'grey78':0 'CTYellow':0 }
Thu Jul 19 04:35:39 IDT 2012	Responder 999 sent: { chips  'CTGreen':2 }
Thu Jul 19 04:35:39 IDT 2012	Protocol: A New Phase Began: Movement Phase
Thu Jul 19 04:35:39 IDT 2012	Protocol: Movement phase, Round: 7
Thu Jul 19 04:35:59 IDT 2012	A Phase Ended: Movement Phase
Thu Jul 19 04:35:59 IDT 2012	Swaping roles:
Thu Jul 19 04:35:59 IDT 2012	Proposer is: 999
Thu Jul 19 04:35:59 IDT 2012	Responder is: 337
Thu Jul 19 04:35:59 IDT 2012	Protocol: A New Phase Began: Feedback Phase
Thu Jul 19 04:35:59 IDT 2012	Protocol: Feedback phase, Round: 7
Thu Jul 19 04:35:59 IDT 2012	Number of consecutive no movements for player 999 is 2
Thu Jul 19 04:35:59 IDT 2012	Number of consecutive no movements for player 337 is 2
Thu Jul 19 04:36:04 IDT 2012	A Phase Ended: Feedback Phase
Thu Jul 19 04:36:04 IDT 2012	Protocol: A New Phase Began: Communication Phase
Thu Jul 19 04:36:04 IDT 2012	Protocol: Communication phase, Round: 8
Thu Jul 19 04:36:20 IDT 2012	Received communication message 
Thu Jul 19 04:36:20 IDT 2012	From player: 999
Thu Jul 19 04:36:20 IDT 2012	To player: 337
Thu Jul 19 04:36:20 IDT 2012	Message type: basicproposal
Thu Jul 19 04:36:20 IDT 2012	Chips to send by proposer: { chips  'CTRed':0 'CTPurple':0 'CTGreen':1 'grey78':0 'CTYellow':0 }
Thu Jul 19 04:36:20 IDT 2012	Chips to send by responder: { chips  'CTRed':0 'CTPurple':0 'CTGreen':0 'grey78':2 'CTYellow':0 }
Thu Jul 19 04:36:24 IDT 2012	Received communication message 
Thu Jul 19 04:36:24 IDT 2012	From player: 337
Thu Jul 19 04:36:24 IDT 2012	To player: 999
Thu Jul 19 04:36:24 IDT 2012	Message type: basicproposaldiscussion
Thu Jul 19 04:36:24 IDT 2012	Player 337 rejected offer
Thu Jul 19 04:36:24 IDT 2012	Swaping roles:
Thu Jul 19 04:36:24 IDT 2012	Proposer is: 337
Thu Jul 19 04:36:24 IDT 2012	Responder is: 999
Thu Jul 19 04:36:24 IDT 2012	Prop rejected, set counter offers count to: 1
Thu Jul 19 04:36:24 IDT 2012	Prop rejected, get counter offers returned: 1
Thu Jul 19 04:36:28 IDT 2012	Slept 4 seconds
Thu Jul 19 04:36:28 IDT 2012	Sent role changed msgs
Thu Jul 19 04:36:32 IDT 2012	Received communication message 
Thu Jul 19 04:36:32 IDT 2012	From player: 337
Thu Jul 19 04:36:32 IDT 2012	To player: 999
Thu Jul 19 04:36:32 IDT 2012	Message type: basicproposal
Thu Jul 19 04:36:32 IDT 2012	Chips to send by proposer: { chips  'CTRed':0 'CTPurple':0 'CTGreen':0 'grey78':1 'CTYellow':0 }
Thu Jul 19 04:36:32 IDT 2012	Chips to send by responder: { chips  'CTRed':0 'CTPurple':0 'CTGreen':2 'grey78':0 'CTYellow':0 }
Thu Jul 19 04:36:46 IDT 2012	Received communication message 
Thu Jul 19 04:36:46 IDT 2012	From player: 999
Thu Jul 19 04:36:46 IDT 2012	To player: 337
Thu Jul 19 04:36:46 IDT 2012	Message type: basicproposaldiscussion
Thu Jul 19 04:36:46 IDT 2012	Player 999 accepted offer
Thu Jul 19 04:36:46 IDT 2012	Prop accepted, set counter offers count to: 0
Thu Jul 19 04:36:46 IDT 2012	Prop accepted, get counter offers returned: 0
Thu Jul 19 04:36:46 IDT 2012	A Phase Ended: Communication Phase
Thu Jul 19 04:36:46 IDT 2012	Protocol: A New Phase Began: Exchange Phase
Thu Jul 19 04:36:46 IDT 2012	Protocol: Exchange phase, Round: 8
Thu Jul 19 04:36:46 IDT 2012	In begin exch.phase, get counter offers returned: 0
Thu Jul 19 04:37:26 IDT 2012	A Phase Ended: Exchange Phase
Thu Jul 19 04:37:26 IDT 2012	Proposer 337 sent: { chips  'CTRed':0 'CTPurple':0 'CTGreen':0 'grey78':0 'CTYellow':0 }
Thu Jul 19 04:37:26 IDT 2012	Protocol: A New Phase Began: Movement Phase
Thu Jul 19 04:37:26 IDT 2012	Protocol: Movement phase, Round: 8
Thu Jul 19 04:37:26 IDT 2012	Player 337 moved to (R:4,C:3)
Thu Jul 19 04:37:26 IDT 2012	Player 999 moved to (R:4,C:1)
Thu Jul 19 04:37:46 IDT 2012	A Phase Ended: Movement Phase
Thu Jul 19 04:37:46 IDT 2012	Protocol: A New Phase Began: Feedback Phase
Thu Jul 19 04:37:46 IDT 2012	Protocol: Feedback phase, Round: 8
Thu Jul 19 04:37:46 IDT 2012	Number of consecutive no movements for player 999 is 0
Thu Jul 19 04:37:46 IDT 2012	Number of consecutive no movements for player 337 is 0
Thu Jul 19 04:37:51 IDT 2012	A Phase Ended: Feedback Phase
Thu Jul 19 04:37:51 IDT 2012	Protocol: A New Phase Began: Communication Phase
Thu Jul 19 04:37:51 IDT 2012	Protocol: Communication phase, Round: 9
Thu Jul 19 04:37:54 IDT 2012	Received communication message 
Thu Jul 19 04:37:54 IDT 2012	From player: 337
Thu Jul 19 04:37:54 IDT 2012	To player: 999
Thu Jul 19 04:37:54 IDT 2012	Message type: basicproposal
Thu Jul 19 04:37:54 IDT 2012	Chips to send by proposer: { chips  'grey78':1 }
Thu Jul 19 04:37:54 IDT 2012	Chips to send by responder: { chips  'CTGreen':1 'CTYellow':1 }
Thu Jul 19 04:38:07 IDT 2012	Received communication message 
Thu Jul 19 04:38:07 IDT 2012	From player: 999
Thu Jul 19 04:38:07 IDT 2012	To player: 337
Thu Jul 19 04:38:07 IDT 2012	Message type: basicproposaldiscussion
Thu Jul 19 04:38:07 IDT 2012	Player 999 accepted offer
Thu Jul 19 04:38:07 IDT 2012	Prop accepted, set counter offers count to: 0
Thu Jul 19 04:38:07 IDT 2012	Prop accepted, get counter offers returned: 0
Thu Jul 19 04:38:07 IDT 2012	A Phase Ended: Communication Phase
Thu Jul 19 04:38:07 IDT 2012	Protocol: A New Phase Began: Exchange Phase
Thu Jul 19 04:38:07 IDT 2012	Protocol: Exchange phase, Round: 9
Thu Jul 19 04:38:07 IDT 2012	In begin exch.phase, get counter offers returned: 0
Thu Jul 19 04:38:07 IDT 2012	A Phase Ended: Exchange Phase
Thu Jul 19 04:38:07 IDT 2012	Proposer 337 sent: { chips  'CTRed':0 'CTPurple':0 'CTGreen':0 'grey78':0 'CTYellow':0 }
Thu Jul 19 04:38:07 IDT 2012	Responder 999 sent: { chips  'CTGreen':1 'CTYellow':1 }
Thu Jul 19 04:38:07 IDT 2012	Protocol: A New Phase Began: Movement Phase
Thu Jul 19 04:38:07 IDT 2012	Protocol: Movement phase, Round: 9
Thu Jul 19 04:38:27 IDT 2012	A Phase Ended: Movement Phase
Thu Jul 19 04:38:27 IDT 2012	Swaping roles:
Thu Jul 19 04:38:27 IDT 2012	Proposer is: 999
Thu Jul 19 04:38:27 IDT 2012	Responder is: 337
Thu Jul 19 04:38:27 IDT 2012	Protocol: A New Phase Began: Feedback Phase
Thu Jul 19 04:38:27 IDT 2012	Protocol: Feedback phase, Round: 9
Thu Jul 19 04:38:27 IDT 2012	Number of consecutive no movements for player 999 is 1
Thu Jul 19 04:38:27 IDT 2012	Number of consecutive no movements for player 337 is 1
Thu Jul 19 04:38:32 IDT 2012	A Phase Ended: Feedback Phase
Thu Jul 19 04:38:32 IDT 2012	Protocol: A New Phase Began: Communication Phase
Thu Jul 19 04:38:32 IDT 2012	Protocol: Communication phase, Round: 10
Thu Jul 19 04:38:51 IDT 2012	Received communication message 
Thu Jul 19 04:38:51 IDT 2012	From player: 999
Thu Jul 19 04:38:51 IDT 2012	To player: 337
Thu Jul 19 04:38:51 IDT 2012	Message type: basicproposal
Thu Jul 19 04:38:51 IDT 2012	Chips to send by proposer: { chips  'CTRed':0 'CTPurple':0 'CTGreen':0 'grey78':0 'CTYellow':1 }
Thu Jul 19 04:38:51 IDT 2012	Chips to send by responder: { chips  'CTRed':0 'CTPurple':0 'CTGreen':0 'grey78':2 'CTYellow':0 }
Thu Jul 19 04:38:52 IDT 2012	Received communication message 
Thu Jul 19 04:38:52 IDT 2012	From player: 337
Thu Jul 19 04:38:52 IDT 2012	To player: 999
Thu Jul 19 04:38:52 IDT 2012	Message type: basicproposaldiscussion
Thu Jul 19 04:38:52 IDT 2012	Player 337 rejected offer
Thu Jul 19 04:38:52 IDT 2012	Swaping roles:
Thu Jul 19 04:38:52 IDT 2012	Proposer is: 337
Thu Jul 19 04:38:52 IDT 2012	Responder is: 999
Thu Jul 19 04:38:52 IDT 2012	Prop rejected, set counter offers count to: 1
Thu Jul 19 04:38:52 IDT 2012	Prop rejected, get counter offers returned: 1
Thu Jul 19 04:38:56 IDT 2012	Slept 4 seconds
Thu Jul 19 04:38:56 IDT 2012	Sent role changed msgs
Thu Jul 19 04:38:57 IDT 2012	Received communication message 
Thu Jul 19 04:38:57 IDT 2012	From player: 337
Thu Jul 19 04:38:57 IDT 2012	To player: 999
Thu Jul 19 04:38:57 IDT 2012	Message type: basicproposal
Thu Jul 19 04:38:57 IDT 2012	Chips to send by proposer: { chips  'CTRed':0 'CTPurple':0 'CTGreen':0 'grey78':1 'CTYellow':0 }
Thu Jul 19 04:38:57 IDT 2012	Chips to send by responder: { chips  'CTRed':0 'CTPurple':0 'CTGreen':1 'grey78':0 'CTYellow':0 }
Thu Jul 19 04:39:09 IDT 2012	Received communication message 
Thu Jul 19 04:39:09 IDT 2012	From player: 999
Thu Jul 19 04:39:09 IDT 2012	To player: 337
Thu Jul 19 04:39:09 IDT 2012	Message type: basicproposaldiscussion
Thu Jul 19 04:39:09 IDT 2012	Player 999 accepted offer
Thu Jul 19 04:39:09 IDT 2012	Prop accepted, set counter offers count to: 0
Thu Jul 19 04:39:09 IDT 2012	Prop accepted, get counter offers returned: 0
Thu Jul 19 04:39:09 IDT 2012	A Phase Ended: Communication Phase
Thu Jul 19 04:39:09 IDT 2012	Protocol: A New Phase Began: Exchange Phase
Thu Jul 19 04:39:09 IDT 2012	Protocol: Exchange phase, Round: 10
Thu Jul 19 04:39:09 IDT 2012	In begin exch.phase, get counter offers returned: 0
Thu Jul 19 04:39:49 IDT 2012	A Phase Ended: Exchange Phase
Thu Jul 19 04:39:49 IDT 2012	Proposer 337 sent: { chips  'CTRed':0 'CTPurple':0 'CTGreen':0 'grey78':0 'CTYellow':0 }
Thu Jul 19 04:39:49 IDT 2012	Protocol: A New Phase Began: Movement Phase
Thu Jul 19 04:39:49 IDT 2012	Protocol: Movement phase, Round: 10
Thu Jul 19 04:40:09 IDT 2012	A Phase Ended: Movement Phase
Thu Jul 19 04:40:09 IDT 2012	Protocol: A New Phase Began: Feedback Phase
Thu Jul 19 04:40:09 IDT 2012	Protocol: Feedback phase, Round: 10
Thu Jul 19 04:40:09 IDT 2012	Number of consecutive no movements for player 999 is 2
Thu Jul 19 04:40:09 IDT 2012	Number of consecutive no movements for player 337 is 2
Thu Jul 19 04:40:14 IDT 2012	A Phase Ended: Feedback Phase
Thu Jul 19 04:40:14 IDT 2012	Protocol: A New Phase Began: Communication Phase
Thu Jul 19 04:40:14 IDT 2012	Protocol: Communication phase, Round: 11
Thu Jul 19 04:40:23 IDT 2012	Received communication message 
Thu Jul 19 04:40:23 IDT 2012	From player: 337
Thu Jul 19 04:40:23 IDT 2012	To player: 999
Thu Jul 19 04:40:23 IDT 2012	Message type: basicproposal
Thu Jul 19 04:40:23 IDT 2012	Chips to send by proposer: { chips  'grey78':1 }
Thu Jul 19 04:40:23 IDT 2012	Chips to send by responder: { chips  'CTGreen':1 }
Thu Jul 19 04:40:33 IDT 2012	Received communication message 
Thu Jul 19 04:40:33 IDT 2012	From player: 999
Thu Jul 19 04:40:33 IDT 2012	To player: 337
Thu Jul 19 04:40:33 IDT 2012	Message type: basicproposaldiscussion
Thu Jul 19 04:40:33 IDT 2012	Player 999 accepted offer
Thu Jul 19 04:40:33 IDT 2012	Prop accepted, set counter offers count to: 0
Thu Jul 19 04:40:33 IDT 2012	Prop accepted, get counter offers returned: 0
Thu Jul 19 04:40:33 IDT 2012	A Phase Ended: Communication Phase
Thu Jul 19 04:40:33 IDT 2012	Protocol: A New Phase Began: Exchange Phase
Thu Jul 19 04:40:33 IDT 2012	Protocol: Exchange phase, Round: 11
Thu Jul 19 04:40:33 IDT 2012	In begin exch.phase, get counter offers returned: 0
Thu Jul 19 04:40:33 IDT 2012	A Phase Ended: Exchange Phase
Thu Jul 19 04:40:33 IDT 2012	Proposer 337 sent: { chips  'CTRed':0 'CTPurple':0 'CTGreen':0 'grey78':0 'CTYellow':0 }
Thu Jul 19 04:40:33 IDT 2012	Responder 999 sent: { chips  'CTGreen':1 }
Thu Jul 19 04:40:33 IDT 2012	Protocol: A New Phase Began: Movement Phase
Thu Jul 19 04:40:33 IDT 2012	Protocol: Movement phase, Round: 11
Thu Jul 19 04:40:33 IDT 2012	Player 337 moved to (R:3,C:3)
Thu Jul 19 04:40:53 IDT 2012	A Phase Ended: Movement Phase
Thu Jul 19 04:40:53 IDT 2012	Swaping roles:
Thu Jul 19 04:40:53 IDT 2012	Proposer is: 999
Thu Jul 19 04:40:53 IDT 2012	Responder is: 337
Thu Jul 19 04:40:53 IDT 2012	Protocol: A New Phase Began: Feedback Phase
Thu Jul 19 04:40:53 IDT 2012	Protocol: Feedback phase, Round: 11
Thu Jul 19 04:40:53 IDT 2012	Number of consecutive no movements for player 999 is 3
Thu Jul 19 04:40:53 IDT 2012	Number of consecutive no movements for player 337 is 0
Thu Jul 19 04:40:53 IDT 2012	Ending game, all players move as much as they can towards goal
Thu Jul 19 04:40:53 IDT 2012	Player: 337 ,role: Responder score is: 240
Thu Jul 19 04:40:53 IDT 2012	Player: 999 ,role: Proposer score is: -5
