Thu Jul 19 09:24:25 IDT 2012	This is the CT debug logger; svn version 638; sep 27 09
Thu Jul 19 09:24:25 IDT 2012	Thu Jul 19 09:24:25 IDT 2012
Thu Jul 19 09:24:25 IDT 2012	A new Alternative Offers game has began
Thu Jul 19 09:24:25 IDT 2012	ID Number: 35612
Thu Jul 19 09:24:25 IDT 2012	Creating board
Thu Jul 19 09:24:25 IDT 2012	<colors>
Thu Jul 19 09:24:25 IDT 2012	{ GamePalette  'CTRed':0 'CTPurple':1 'CTGreen':2 'grey78':3 'CTYellow':4 }
Thu Jul 19 09:24:25 IDT 2012	<rows>
Thu Jul 19 09:24:25 IDT 2012	7
Thu Jul 19 09:24:25 IDT 2012	<columns>
Thu Jul 19 09:24:25 IDT 2012	5
Thu Jul 19 09:24:25 IDT 2012	<squaresColors>
Thu Jul 19 09:24:25 IDT 2012	CTPurple CTRed CTRed CTGreen CTPurple 
Thu Jul 19 09:24:25 IDT 2012	CTPurple grey78 CTPurple CTYellow CTPurple 
Thu Jul 19 09:24:25 IDT 2012	CTPurple CTRed CTPurple CTGreen CTPurple 
Thu Jul 19 09:24:25 IDT 2012	CTPurple grey78 CTPurple CTYellow CTPurple 
Thu Jul 19 09:24:25 IDT 2012	CTPurple CTRed CTPurple CTGreen CTPurple 
Thu Jul 19 09:24:25 IDT 2012	CTPurple grey78 CTPurple CTYellow CTPurple 
Thu Jul 19 09:24:25 IDT 2012	CTPurple CTRed CTPurple CTGreen CTPurple 
Thu Jul 19 09:24:25 IDT 2012	</squareColors>
Thu Jul 19 09:24:25 IDT 2012	<goalPosition>
Thu Jul 19 09:24:25 IDT 2012	Goal position: (R:0,C:2)
Thu Jul 19 09:24:25 IDT 2012	<numberOfPlayers>
Thu Jul 19 09:24:25 IDT 2012	2
Thu Jul 19 09:24:25 IDT 2012	<firstPlayerChips>
Thu Jul 19 09:24:25 IDT 2012	Setting chips for player: 999 id:0
Thu Jul 19 09:24:25 IDT 2012	{ chips  'CTRed':5 'CTGreen':10 'CTPurple':0 'grey78':0 'CTYellow':9 }
Thu Jul 19 09:24:25 IDT 2012	Player position: (R:6,C:0)
Thu Jul 19 09:24:25 IDT 2012	Setting chips for player: 337 id:1
Thu Jul 19 09:24:25 IDT 2012	{ chips  'CTRed':1 'CTGreen':13 'CTPurple':0 'grey78':10 'CTYellow':0 }
Thu Jul 19 09:24:25 IDT 2012	Player position: (R:6,C:4)
Thu Jul 19 09:24:25 IDT 2012	Protocol: A New Phase Began: Strategy Prep Phase
Thu Jul 19 09:24:25 IDT 2012	Protocol: Strategy Preparation phase, Round: 0
Thu Jul 19 09:24:25 IDT 2012	Maximum number of rounds with no consecutive movement is 3
Thu Jul 19 09:24:25 IDT 2012	In begin comm. phase, set counter offers count to: 0
Thu Jul 19 09:24:25 IDT 2012	In begin comm. phase, get counter offers returned: 0
Thu Jul 19 09:24:46 IDT 2012	A Phase Ended: Strategy Prep Phase
Thu Jul 19 09:24:46 IDT 2012	Protocol: A New Phase Began: Communication Phase
Thu Jul 19 09:24:46 IDT 2012	Protocol: Communication phase, Round: 0
Thu Jul 19 09:25:04 IDT 2012	Received communication message 
Thu Jul 19 09:25:04 IDT 2012	From player: 999
Thu Jul 19 09:25:04 IDT 2012	To player: 337
Thu Jul 19 09:25:04 IDT 2012	Message type: basicproposal
Thu Jul 19 09:25:04 IDT 2012	Chips to send by proposer: { chips  'CTRed':0 'CTPurple':0 'CTGreen':0 'grey78':0 'CTYellow':2 }
Thu Jul 19 09:25:04 IDT 2012	Chips to send by responder: { chips  'CTRed':0 'CTPurple':0 'CTGreen':0 'grey78':2 'CTYellow':0 }
Thu Jul 19 09:25:08 IDT 2012	Received communication message 
Thu Jul 19 09:25:08 IDT 2012	From player: 337
Thu Jul 19 09:25:08 IDT 2012	To player: 999
Thu Jul 19 09:25:08 IDT 2012	Message type: basicproposaldiscussion
Thu Jul 19 09:25:08 IDT 2012	Player 337 accepted offer
Thu Jul 19 09:25:08 IDT 2012	Prop accepted, set counter offers count to: 0
Thu Jul 19 09:25:08 IDT 2012	Prop accepted, get counter offers returned: 0
Thu Jul 19 09:25:08 IDT 2012	A Phase Ended: Communication Phase
Thu Jul 19 09:25:08 IDT 2012	Protocol: A New Phase Began: Exchange Phase
Thu Jul 19 09:25:08 IDT 2012	Protocol: Exchange phase, Round: 0
Thu Jul 19 09:25:08 IDT 2012	In begin exch.phase, get counter offers returned: 0
Thu Jul 19 09:25:08 IDT 2012	A Phase Ended: Exchange Phase
Thu Jul 19 09:25:08 IDT 2012	Proposer 999 sent: { chips  'CTRed':0 'CTPurple':0 'CTGreen':0 'grey78':0 'CTYellow':2 }
Thu Jul 19 09:25:08 IDT 2012	Responder 337 sent: { chips  'CTRed':0 'CTPurple':0 'CTGreen':0 'grey78':1 'CTYellow':0 }
Thu Jul 19 09:25:08 IDT 2012	Protocol: A New Phase Began: Movement Phase
Thu Jul 19 09:25:08 IDT 2012	Protocol: Movement phase, Round: 0
Thu Jul 19 09:25:27 IDT 2012	A Phase Ended: Movement Phase
Thu Jul 19 09:25:27 IDT 2012	Swaping roles:
Thu Jul 19 09:25:27 IDT 2012	Proposer is: 337
Thu Jul 19 09:25:27 IDT 2012	Responder is: 999
Thu Jul 19 09:25:27 IDT 2012	Protocol: A New Phase Began: Feedback Phase
Thu Jul 19 09:25:27 IDT 2012	Protocol: Feedback phase, Round: 0
Thu Jul 19 09:25:27 IDT 2012	Number of consecutive no movements for player 999 is 1
Thu Jul 19 09:25:27 IDT 2012	Number of consecutive no movements for player 337 is 1
Thu Jul 19 09:25:32 IDT 2012	A Phase Ended: Feedback Phase
Thu Jul 19 09:25:32 IDT 2012	Protocol: A New Phase Began: Communication Phase
Thu Jul 19 09:25:32 IDT 2012	Protocol: Communication phase, Round: 1
Thu Jul 19 09:25:34 IDT 2012	Received communication message 
Thu Jul 19 09:25:34 IDT 2012	From player: 337
Thu Jul 19 09:25:34 IDT 2012	To player: 999
Thu Jul 19 09:25:34 IDT 2012	Message type: basicproposal
Thu Jul 19 09:25:34 IDT 2012	Chips to send by proposer: { chips  'grey78':1 }
Thu Jul 19 09:25:34 IDT 2012	Chips to send by responder: { chips  'CTYellow':2 }
Thu Jul 19 09:25:47 IDT 2012	Received communication message 
Thu Jul 19 09:25:47 IDT 2012	From player: 999
Thu Jul 19 09:25:47 IDT 2012	To player: 337
Thu Jul 19 09:25:47 IDT 2012	Message type: basicproposaldiscussion
Thu Jul 19 09:25:47 IDT 2012	Player 999 rejected offer
Thu Jul 19 09:25:47 IDT 2012	Swaping roles:
Thu Jul 19 09:25:47 IDT 2012	Proposer is: 999
Thu Jul 19 09:25:47 IDT 2012	Responder is: 337
Thu Jul 19 09:25:47 IDT 2012	Prop rejected, set counter offers count to: 1
Thu Jul 19 09:25:47 IDT 2012	Prop rejected, get counter offers returned: 1
Thu Jul 19 09:25:51 IDT 2012	Slept 4 seconds
Thu Jul 19 09:25:51 IDT 2012	Sent role changed msgs
Thu Jul 19 09:26:11 IDT 2012	Received communication message 
Thu Jul 19 09:26:11 IDT 2012	From player: 999
Thu Jul 19 09:26:11 IDT 2012	To player: 337
Thu Jul 19 09:26:11 IDT 2012	Message type: basicproposal
Thu Jul 19 09:26:11 IDT 2012	Chips to send by proposer: { chips  'CTRed':0 'CTPurple':0 'CTGreen':1 'grey78':0 'CTYellow':1 }
Thu Jul 19 09:26:11 IDT 2012	Chips to send by responder: { chips  'CTRed':0 'CTPurple':0 'CTGreen':0 'grey78':2 'CTYellow':0 }
Thu Jul 19 09:26:12 IDT 2012	Received communication message 
Thu Jul 19 09:26:12 IDT 2012	From player: 337
Thu Jul 19 09:26:12 IDT 2012	To player: 999
Thu Jul 19 09:26:12 IDT 2012	Message type: basicproposaldiscussion
Thu Jul 19 09:26:12 IDT 2012	Player 337 accepted offer
Thu Jul 19 09:26:12 IDT 2012	Prop accepted, set counter offers count to: 0
Thu Jul 19 09:26:12 IDT 2012	Prop accepted, get counter offers returned: 0
Thu Jul 19 09:26:12 IDT 2012	A Phase Ended: Communication Phase
Thu Jul 19 09:26:12 IDT 2012	Protocol: A New Phase Began: Exchange Phase
Thu Jul 19 09:26:12 IDT 2012	Protocol: Exchange phase, Round: 1
Thu Jul 19 09:26:12 IDT 2012	In begin exch.phase, get counter offers returned: 0
Thu Jul 19 09:26:12 IDT 2012	A Phase Ended: Exchange Phase
Thu Jul 19 09:26:12 IDT 2012	Proposer 999 sent: { chips  'CTRed':0 'CTPurple':0 'CTGreen':1 'grey78':0 'CTYellow':1 }
Thu Jul 19 09:26:12 IDT 2012	Responder 337 sent: { chips  'CTRed':0 'CTPurple':0 'CTGreen':0 'grey78':0 'CTYellow':0 }
Thu Jul 19 09:26:12 IDT 2012	Protocol: A New Phase Began: Movement Phase
Thu Jul 19 09:26:12 IDT 2012	Protocol: Movement phase, Round: 1
Thu Jul 19 09:26:32 IDT 2012	A Phase Ended: Movement Phase
Thu Jul 19 09:26:32 IDT 2012	Protocol: A New Phase Began: Feedback Phase
Thu Jul 19 09:26:32 IDT 2012	Protocol: Feedback phase, Round: 1
Thu Jul 19 09:26:32 IDT 2012	Number of consecutive no movements for player 999 is 2
Thu Jul 19 09:26:32 IDT 2012	Number of consecutive no movements for player 337 is 2
Thu Jul 19 09:26:37 IDT 2012	A Phase Ended: Feedback Phase
Thu Jul 19 09:26:37 IDT 2012	Protocol: A New Phase Began: Communication Phase
Thu Jul 19 09:26:37 IDT 2012	Protocol: Communication phase, Round: 2
Thu Jul 19 09:26:56 IDT 2012	Received communication message 
Thu Jul 19 09:26:56 IDT 2012	From player: 999
Thu Jul 19 09:26:56 IDT 2012	To player: 337
Thu Jul 19 09:26:56 IDT 2012	Message type: basicproposal
Thu Jul 19 09:26:56 IDT 2012	Chips to send by proposer: { chips  'CTRed':0 'CTPurple':0 'CTGreen':1 'grey78':0 'CTYellow':0 }
Thu Jul 19 09:26:56 IDT 2012	Chips to send by responder: { chips  'CTRed':0 'CTPurple':0 'CTGreen':0 'grey78':2 'CTYellow':0 }
Thu Jul 19 09:27:00 IDT 2012	Received communication message 
Thu Jul 19 09:27:00 IDT 2012	From player: 337
Thu Jul 19 09:27:00 IDT 2012	To player: 999
Thu Jul 19 09:27:00 IDT 2012	Message type: basicproposaldiscussion
Thu Jul 19 09:27:00 IDT 2012	Player 337 accepted offer
Thu Jul 19 09:27:00 IDT 2012	Prop accepted, set counter offers count to: 0
Thu Jul 19 09:27:00 IDT 2012	Prop accepted, get counter offers returned: 0
Thu Jul 19 09:27:00 IDT 2012	A Phase Ended: Communication Phase
Thu Jul 19 09:27:00 IDT 2012	Protocol: A New Phase Began: Exchange Phase
Thu Jul 19 09:27:00 IDT 2012	Protocol: Exchange phase, Round: 2
Thu Jul 19 09:27:00 IDT 2012	In begin exch.phase, get counter offers returned: 0
Thu Jul 19 09:27:40 IDT 2012	A Phase Ended: Exchange Phase
Thu Jul 19 09:27:40 IDT 2012	Responder 337 sent: { chips  'CTRed':0 'CTPurple':0 'CTGreen':0 'grey78':0 'CTYellow':0 }
Thu Jul 19 09:27:40 IDT 2012	Player 337 moved to (R:6,C:3)
Thu Jul 19 09:27:40 IDT 2012	Protocol: A New Phase Began: Movement Phase
Thu Jul 19 09:27:40 IDT 2012	Protocol: Movement phase, Round: 2
Thu Jul 19 09:27:40 IDT 2012	Player 999 moved to (R:6,C:1)
Thu Jul 19 09:28:00 IDT 2012	A Phase Ended: Movement Phase
Thu Jul 19 09:28:00 IDT 2012	Swaping roles:
Thu Jul 19 09:28:00 IDT 2012	Proposer is: 337
Thu Jul 19 09:28:00 IDT 2012	Responder is: 999
Thu Jul 19 09:28:00 IDT 2012	Protocol: A New Phase Began: Feedback Phase
Thu Jul 19 09:28:00 IDT 2012	Protocol: Feedback phase, Round: 2
Thu Jul 19 09:28:00 IDT 2012	Number of consecutive no movements for player 999 is 0
Thu Jul 19 09:28:00 IDT 2012	Number of consecutive no movements for player 337 is 0
Thu Jul 19 09:28:05 IDT 2012	A Phase Ended: Feedback Phase
Thu Jul 19 09:28:05 IDT 2012	Protocol: A New Phase Began: Communication Phase
Thu Jul 19 09:28:05 IDT 2012	Protocol: Communication phase, Round: 3
Thu Jul 19 09:28:08 IDT 2012	Received communication message 
Thu Jul 19 09:28:08 IDT 2012	From player: 337
Thu Jul 19 09:28:08 IDT 2012	To player: 999
Thu Jul 19 09:28:08 IDT 2012	Message type: basicproposal
Thu Jul 19 09:28:08 IDT 2012	Chips to send by proposer: { chips  'grey78':1 }
Thu Jul 19 09:28:08 IDT 2012	Chips to send by responder: { chips  'CTGreen':1 'CTYellow':1 }
Thu Jul 19 09:28:18 IDT 2012	Received communication message 
Thu Jul 19 09:28:18 IDT 2012	From player: 999
Thu Jul 19 09:28:18 IDT 2012	To player: 337
Thu Jul 19 09:28:18 IDT 2012	Message type: basicproposaldiscussion
Thu Jul 19 09:28:18 IDT 2012	Player 999 accepted offer
Thu Jul 19 09:28:18 IDT 2012	Prop accepted, set counter offers count to: 0
Thu Jul 19 09:28:18 IDT 2012	Prop accepted, get counter offers returned: 0
Thu Jul 19 09:28:18 IDT 2012	A Phase Ended: Communication Phase
Thu Jul 19 09:28:18 IDT 2012	Protocol: A New Phase Began: Exchange Phase
Thu Jul 19 09:28:18 IDT 2012	Protocol: Exchange phase, Round: 3
Thu Jul 19 09:28:18 IDT 2012	In begin exch.phase, get counter offers returned: 0
Thu Jul 19 09:28:18 IDT 2012	A Phase Ended: Exchange Phase
Thu Jul 19 09:28:18 IDT 2012	Proposer 337 sent: { chips  'CTRed':0 'CTPurple':0 'CTGreen':0 'grey78':0 'CTYellow':0 }
Thu Jul 19 09:28:18 IDT 2012	Responder 999 sent: { chips  'CTGreen':1 'CTYellow':1 }
Thu Jul 19 09:28:18 IDT 2012	Protocol: A New Phase Began: Movement Phase
Thu Jul 19 09:28:18 IDT 2012	Protocol: Movement phase, Round: 3
Thu Jul 19 09:28:38 IDT 2012	A Phase Ended: Movement Phase
Thu Jul 19 09:28:38 IDT 2012	Swaping roles:
Thu Jul 19 09:28:38 IDT 2012	Proposer is: 999
Thu Jul 19 09:28:38 IDT 2012	Responder is: 337
Thu Jul 19 09:28:38 IDT 2012	Protocol: A New Phase Began: Feedback Phase
Thu Jul 19 09:28:38 IDT 2012	Protocol: Feedback phase, Round: 3
Thu Jul 19 09:28:38 IDT 2012	Number of consecutive no movements for player 999 is 1
Thu Jul 19 09:28:38 IDT 2012	Number of consecutive no movements for player 337 is 1
Thu Jul 19 09:28:43 IDT 2012	A Phase Ended: Feedback Phase
Thu Jul 19 09:28:43 IDT 2012	Protocol: A New Phase Began: Communication Phase
Thu Jul 19 09:28:43 IDT 2012	Protocol: Communication phase, Round: 4
Thu Jul 19 09:28:59 IDT 2012	Received communication message 
Thu Jul 19 09:28:59 IDT 2012	From player: 999
Thu Jul 19 09:28:59 IDT 2012	To player: 337
Thu Jul 19 09:28:59 IDT 2012	Message type: basicproposal
Thu Jul 19 09:28:59 IDT 2012	Chips to send by proposer: { chips  'CTRed':0 'CTPurple':0 'CTGreen':1 'grey78':0 'CTYellow':0 }
Thu Jul 19 09:28:59 IDT 2012	Chips to send by responder: { chips  'CTRed':0 'CTPurple':0 'CTGreen':0 'grey78':2 'CTYellow':0 }
Thu Jul 19 09:29:00 IDT 2012	Received communication message 
Thu Jul 19 09:29:00 IDT 2012	From player: 337
Thu Jul 19 09:29:00 IDT 2012	To player: 999
Thu Jul 19 09:29:00 IDT 2012	Message type: basicproposaldiscussion
Thu Jul 19 09:29:00 IDT 2012	Player 337 rejected offer
Thu Jul 19 09:29:00 IDT 2012	Swaping roles:
Thu Jul 19 09:29:00 IDT 2012	Proposer is: 337
Thu Jul 19 09:29:00 IDT 2012	Responder is: 999
Thu Jul 19 09:29:00 IDT 2012	Prop rejected, set counter offers count to: 1
Thu Jul 19 09:29:00 IDT 2012	Prop rejected, get counter offers returned: 1
Thu Jul 19 09:29:04 IDT 2012	Slept 4 seconds
Thu Jul 19 09:29:04 IDT 2012	Sent role changed msgs
Thu Jul 19 09:29:05 IDT 2012	Received communication message 
Thu Jul 19 09:29:05 IDT 2012	From player: 337
Thu Jul 19 09:29:05 IDT 2012	To player: 999
Thu Jul 19 09:29:05 IDT 2012	Message type: basicproposal
Thu Jul 19 09:29:05 IDT 2012	Chips to send by proposer: { chips  'CTRed':0 'CTPurple':0 'CTGreen':0 'grey78':1 'CTYellow':0 }
Thu Jul 19 09:29:05 IDT 2012	Chips to send by responder: { chips  'CTRed':0 'CTPurple':0 'CTGreen':1 'grey78':0 'CTYellow':1 }
Thu Jul 19 09:29:12 IDT 2012	Received communication message 
Thu Jul 19 09:29:12 IDT 2012	From player: 999
Thu Jul 19 09:29:12 IDT 2012	To player: 337
Thu Jul 19 09:29:12 IDT 2012	Message type: basicproposaldiscussion
Thu Jul 19 09:29:12 IDT 2012	Player 999 accepted offer
Thu Jul 19 09:29:12 IDT 2012	Prop accepted, set counter offers count to: 0
Thu Jul 19 09:29:12 IDT 2012	Prop accepted, get counter offers returned: 0
Thu Jul 19 09:29:12 IDT 2012	A Phase Ended: Communication Phase
Thu Jul 19 09:29:12 IDT 2012	Protocol: A New Phase Began: Exchange Phase
Thu Jul 19 09:29:12 IDT 2012	Protocol: Exchange phase, Round: 4
Thu Jul 19 09:29:12 IDT 2012	In begin exch.phase, get counter offers returned: 0
Thu Jul 19 09:29:52 IDT 2012	A Phase Ended: Exchange Phase
Thu Jul 19 09:29:52 IDT 2012	Proposer 337 sent: { chips  'CTRed':0 'CTPurple':0 'CTGreen':0 'grey78':0 'CTYellow':0 }
Thu Jul 19 09:29:52 IDT 2012	Protocol: A New Phase Began: Movement Phase
Thu Jul 19 09:29:52 IDT 2012	Protocol: Movement phase, Round: 4
Thu Jul 19 09:30:12 IDT 2012	A Phase Ended: Movement Phase
Thu Jul 19 09:30:12 IDT 2012	Protocol: A New Phase Began: Feedback Phase
Thu Jul 19 09:30:12 IDT 2012	Protocol: Feedback phase, Round: 4
Thu Jul 19 09:30:12 IDT 2012	Number of consecutive no movements for player 999 is 2
Thu Jul 19 09:30:12 IDT 2012	Number of consecutive no movements for player 337 is 2
Thu Jul 19 09:30:17 IDT 2012	A Phase Ended: Feedback Phase
Thu Jul 19 09:30:17 IDT 2012	Protocol: A New Phase Began: Communication Phase
Thu Jul 19 09:30:17 IDT 2012	Protocol: Communication phase, Round: 5
Thu Jul 19 09:30:21 IDT 2012	Received communication message 
Thu Jul 19 09:30:21 IDT 2012	From player: 337
Thu Jul 19 09:30:21 IDT 2012	To player: 999
Thu Jul 19 09:30:21 IDT 2012	Message type: basicproposal
Thu Jul 19 09:30:21 IDT 2012	Chips to send by proposer: { chips  'grey78':1 }
Thu Jul 19 09:30:21 IDT 2012	Chips to send by responder: { chips  'CTGreen':2 }
Thu Jul 19 09:30:32 IDT 2012	Received communication message 
Thu Jul 19 09:30:32 IDT 2012	From player: 999
Thu Jul 19 09:30:32 IDT 2012	To player: 337
Thu Jul 19 09:30:32 IDT 2012	Message type: basicproposaldiscussion
Thu Jul 19 09:30:32 IDT 2012	Player 999 accepted offer
Thu Jul 19 09:30:32 IDT 2012	Prop accepted, set counter offers count to: 0
Thu Jul 19 09:30:32 IDT 2012	Prop accepted, get counter offers returned: 0
Thu Jul 19 09:30:32 IDT 2012	A Phase Ended: Communication Phase
Thu Jul 19 09:30:32 IDT 2012	Protocol: A New Phase Began: Exchange Phase
Thu Jul 19 09:30:32 IDT 2012	Protocol: Exchange phase, Round: 5
Thu Jul 19 09:30:32 IDT 2012	In begin exch.phase, get counter offers returned: 0
Thu Jul 19 09:30:32 IDT 2012	A Phase Ended: Exchange Phase
Thu Jul 19 09:30:32 IDT 2012	Proposer 337 sent: { chips  'CTRed':0 'CTPurple':0 'CTGreen':0 'grey78':0 'CTYellow':0 }
Thu Jul 19 09:30:32 IDT 2012	Responder 999 sent: { chips  'CTGreen':2 }
Thu Jul 19 09:30:32 IDT 2012	Protocol: A New Phase Began: Movement Phase
Thu Jul 19 09:30:32 IDT 2012	Protocol: Movement phase, Round: 5
Thu Jul 19 09:30:32 IDT 2012	Player 337 moved to (R:5,C:3)
Thu Jul 19 09:30:32 IDT 2012	Player 999 moved to (R:5,C:1)
Thu Jul 19 09:30:52 IDT 2012	A Phase Ended: Movement Phase
Thu Jul 19 09:30:52 IDT 2012	Swaping roles:
Thu Jul 19 09:30:52 IDT 2012	Proposer is: 999
Thu Jul 19 09:30:52 IDT 2012	Responder is: 337
Thu Jul 19 09:30:52 IDT 2012	Protocol: A New Phase Began: Feedback Phase
Thu Jul 19 09:30:52 IDT 2012	Protocol: Feedback phase, Round: 5
Thu Jul 19 09:30:52 IDT 2012	Number of consecutive no movements for player 999 is 0
Thu Jul 19 09:30:52 IDT 2012	Number of consecutive no movements for player 337 is 0
Thu Jul 19 09:30:57 IDT 2012	A Phase Ended: Feedback Phase
Thu Jul 19 09:30:57 IDT 2012	Protocol: A New Phase Began: Communication Phase
Thu Jul 19 09:30:57 IDT 2012	Protocol: Communication phase, Round: 6
Thu Jul 19 09:31:13 IDT 2012	Received communication message 
Thu Jul 19 09:31:13 IDT 2012	From player: 999
Thu Jul 19 09:31:13 IDT 2012	To player: 337
Thu Jul 19 09:31:13 IDT 2012	Message type: basicproposal
Thu Jul 19 09:31:13 IDT 2012	Chips to send by proposer: { chips  'CTRed':0 'CTPurple':0 'CTGreen':0 'grey78':0 'CTYellow':1 }
Thu Jul 19 09:31:13 IDT 2012	Chips to send by responder: { chips  'CTRed':0 'CTPurple':0 'CTGreen':0 'grey78':2 'CTYellow':0 }
Thu Jul 19 09:31:15 IDT 2012	Received communication message 
Thu Jul 19 09:31:15 IDT 2012	From player: 337
Thu Jul 19 09:31:15 IDT 2012	To player: 999
Thu Jul 19 09:31:15 IDT 2012	Message type: basicproposaldiscussion
Thu Jul 19 09:31:15 IDT 2012	Player 337 rejected offer
Thu Jul 19 09:31:15 IDT 2012	Swaping roles:
Thu Jul 19 09:31:15 IDT 2012	Proposer is: 337
Thu Jul 19 09:31:15 IDT 2012	Responder is: 999
Thu Jul 19 09:31:15 IDT 2012	Prop rejected, set counter offers count to: 1
Thu Jul 19 09:31:15 IDT 2012	Prop rejected, get counter offers returned: 1
Thu Jul 19 09:31:19 IDT 2012	Slept 4 seconds
Thu Jul 19 09:31:19 IDT 2012	Sent role changed msgs
Thu Jul 19 09:31:21 IDT 2012	Received communication message 
Thu Jul 19 09:31:21 IDT 2012	From player: 337
Thu Jul 19 09:31:21 IDT 2012	To player: 999
Thu Jul 19 09:31:21 IDT 2012	Message type: basicproposal
Thu Jul 19 09:31:21 IDT 2012	Chips to send by proposer: { chips  'CTRed':0 'CTPurple':0 'CTGreen':0 'grey78':1 'CTYellow':0 }
Thu Jul 19 09:31:21 IDT 2012	Chips to send by responder: { chips  'CTRed':0 'CTPurple':0 'CTGreen':0 'grey78':0 'CTYellow':2 }
Thu Jul 19 09:31:28 IDT 2012	Received communication message 
Thu Jul 19 09:31:28 IDT 2012	From player: 999
Thu Jul 19 09:31:28 IDT 2012	To player: 337
Thu Jul 19 09:31:28 IDT 2012	Message type: basicproposaldiscussion
Thu Jul 19 09:31:28 IDT 2012	Player 999 accepted offer
Thu Jul 19 09:31:28 IDT 2012	Prop accepted, set counter offers count to: 0
Thu Jul 19 09:31:28 IDT 2012	Prop accepted, get counter offers returned: 0
Thu Jul 19 09:31:28 IDT 2012	A Phase Ended: Communication Phase
Thu Jul 19 09:31:28 IDT 2012	Protocol: A New Phase Began: Exchange Phase
Thu Jul 19 09:31:28 IDT 2012	Protocol: Exchange phase, Round: 6
Thu Jul 19 09:31:28 IDT 2012	In begin exch.phase, get counter offers returned: 0
Thu Jul 19 09:32:09 IDT 2012	A Phase Ended: Exchange Phase
Thu Jul 19 09:32:09 IDT 2012	Proposer 337 sent: { chips  'CTRed':0 'CTPurple':0 'CTGreen':0 'grey78':0 'CTYellow':0 }
Thu Jul 19 09:32:09 IDT 2012	Protocol: A New Phase Began: Movement Phase
Thu Jul 19 09:32:09 IDT 2012	Protocol: Movement phase, Round: 6
Thu Jul 19 09:32:29 IDT 2012	A Phase Ended: Movement Phase
Thu Jul 19 09:32:29 IDT 2012	Protocol: A New Phase Began: Feedback Phase
Thu Jul 19 09:32:29 IDT 2012	Protocol: Feedback phase, Round: 6
Thu Jul 19 09:32:29 IDT 2012	Number of consecutive no movements for player 999 is 1
Thu Jul 19 09:32:29 IDT 2012	Number of consecutive no movements for player 337 is 1
Thu Jul 19 09:32:34 IDT 2012	A Phase Ended: Feedback Phase
Thu Jul 19 09:32:34 IDT 2012	Protocol: A New Phase Began: Communication Phase
Thu Jul 19 09:32:34 IDT 2012	Protocol: Communication phase, Round: 7
Thu Jul 19 09:32:35 IDT 2012	Received communication message 
Thu Jul 19 09:32:35 IDT 2012	From player: 337
Thu Jul 19 09:32:35 IDT 2012	To player: 999
Thu Jul 19 09:32:35 IDT 2012	Message type: basicproposal
Thu Jul 19 09:32:35 IDT 2012	Chips to send by proposer: { chips  'grey78':1 }
Thu Jul 19 09:32:35 IDT 2012	Chips to send by responder: { chips  'CTGreen':1 'CTYellow':1 }
Thu Jul 19 09:32:45 IDT 2012	Received communication message 
Thu Jul 19 09:32:45 IDT 2012	From player: 999
Thu Jul 19 09:32:45 IDT 2012	To player: 337
Thu Jul 19 09:32:45 IDT 2012	Message type: basicproposaldiscussion
Thu Jul 19 09:32:45 IDT 2012	Player 999 accepted offer
Thu Jul 19 09:32:45 IDT 2012	Prop accepted, set counter offers count to: 0
Thu Jul 19 09:32:45 IDT 2012	Prop accepted, get counter offers returned: 0
Thu Jul 19 09:32:45 IDT 2012	A Phase Ended: Communication Phase
Thu Jul 19 09:32:45 IDT 2012	Protocol: A New Phase Began: Exchange Phase
Thu Jul 19 09:32:45 IDT 2012	Protocol: Exchange phase, Round: 7
Thu Jul 19 09:32:45 IDT 2012	In begin exch.phase, get counter offers returned: 0
Thu Jul 19 09:32:45 IDT 2012	A Phase Ended: Exchange Phase
Thu Jul 19 09:32:45 IDT 2012	Proposer 337 sent: { chips  'CTRed':0 'CTPurple':0 'CTGreen':0 'grey78':0 'CTYellow':0 }
Thu Jul 19 09:32:45 IDT 2012	Responder 999 sent: { chips  'CTGreen':1 'CTYellow':1 }
Thu Jul 19 09:32:45 IDT 2012	Protocol: A New Phase Began: Movement Phase
Thu Jul 19 09:32:45 IDT 2012	Protocol: Movement phase, Round: 7
Thu Jul 19 09:33:04 IDT 2012	A Phase Ended: Movement Phase
Thu Jul 19 09:33:04 IDT 2012	Swaping roles:
Thu Jul 19 09:33:04 IDT 2012	Proposer is: 999
Thu Jul 19 09:33:04 IDT 2012	Responder is: 337
Thu Jul 19 09:33:04 IDT 2012	Protocol: A New Phase Began: Feedback Phase
Thu Jul 19 09:33:04 IDT 2012	Protocol: Feedback phase, Round: 7
Thu Jul 19 09:33:04 IDT 2012	Number of consecutive no movements for player 999 is 2
Thu Jul 19 09:33:04 IDT 2012	Number of consecutive no movements for player 337 is 2
Thu Jul 19 09:33:09 IDT 2012	A Phase Ended: Feedback Phase
Thu Jul 19 09:33:09 IDT 2012	Protocol: A New Phase Began: Communication Phase
Thu Jul 19 09:33:09 IDT 2012	Protocol: Communication phase, Round: 8
Thu Jul 19 09:33:24 IDT 2012	Received communication message 
Thu Jul 19 09:33:24 IDT 2012	From player: 999
Thu Jul 19 09:33:24 IDT 2012	To player: 337
Thu Jul 19 09:33:24 IDT 2012	Message type: basicproposal
Thu Jul 19 09:33:24 IDT 2012	Chips to send by proposer: { chips  'CTRed':0 'CTPurple':0 'CTGreen':1 'grey78':0 'CTYellow':0 }
Thu Jul 19 09:33:24 IDT 2012	Chips to send by responder: { chips  'CTRed':0 'CTPurple':0 'CTGreen':0 'grey78':2 'CTYellow':0 }
Thu Jul 19 09:33:27 IDT 2012	Received communication message 
Thu Jul 19 09:33:27 IDT 2012	From player: 337
Thu Jul 19 09:33:27 IDT 2012	To player: 999
Thu Jul 19 09:33:27 IDT 2012	Message type: basicproposaldiscussion
Thu Jul 19 09:33:27 IDT 2012	Player 337 accepted offer
Thu Jul 19 09:33:27 IDT 2012	Prop accepted, set counter offers count to: 0
Thu Jul 19 09:33:27 IDT 2012	Prop accepted, get counter offers returned: 0
Thu Jul 19 09:33:27 IDT 2012	A Phase Ended: Communication Phase
Thu Jul 19 09:33:27 IDT 2012	Protocol: A New Phase Began: Exchange Phase
Thu Jul 19 09:33:27 IDT 2012	Protocol: Exchange phase, Round: 8
Thu Jul 19 09:33:27 IDT 2012	In begin exch.phase, get counter offers returned: 0
Thu Jul 19 09:34:07 IDT 2012	A Phase Ended: Exchange Phase
Thu Jul 19 09:34:07 IDT 2012	Responder 337 sent: { chips  'CTRed':0 'CTPurple':0 'CTGreen':0 'grey78':2 'CTYellow':0 }
Thu Jul 19 09:34:07 IDT 2012	Protocol: A New Phase Began: Movement Phase
Thu Jul 19 09:34:07 IDT 2012	Protocol: Movement phase, Round: 8
Thu Jul 19 09:34:07 IDT 2012	Player 337 moved to (R:4,C:3)
Thu Jul 19 09:34:07 IDT 2012	Player 999 moved to (R:4,C:1)
Thu Jul 19 09:34:28 IDT 2012	A Phase Ended: Movement Phase
Thu Jul 19 09:34:28 IDT 2012	Swaping roles:
Thu Jul 19 09:34:28 IDT 2012	Proposer is: 337
Thu Jul 19 09:34:28 IDT 2012	Responder is: 999
Thu Jul 19 09:34:28 IDT 2012	Protocol: A New Phase Began: Feedback Phase
Thu Jul 19 09:34:28 IDT 2012	Protocol: Feedback phase, Round: 8
Thu Jul 19 09:34:28 IDT 2012	Number of consecutive no movements for player 999 is 0
Thu Jul 19 09:34:28 IDT 2012	Number of consecutive no movements for player 337 is 0
Thu Jul 19 09:34:28 IDT 2012	All players have all needed chips to get to goal, end the game
Thu Jul 19 09:34:28 IDT 2012	Player: 999 ,role: Responder score is: 145
Thu Jul 19 09:34:28 IDT 2012	Player: 337 ,role: Proposer score is: 215
