Wed Jul 18 11:19:03 IDT 2012	This is the CT debug logger; svn version 638; sep 27 09
Wed Jul 18 11:19:03 IDT 2012	Wed Jul 18 11:19:03 IDT 2012
Wed Jul 18 11:19:03 IDT 2012	A new Alternative Offers game has began
Wed Jul 18 11:19:03 IDT 2012	ID Number: 33191
Wed Jul 18 11:19:03 IDT 2012	Creating board
Wed Jul 18 11:19:03 IDT 2012	<colors>
Wed Jul 18 11:19:03 IDT 2012	{ GamePalette  'CTRed':0 'CTPurple':1 'CTGreen':2 'grey78':3 'CTYellow':4 }
Wed Jul 18 11:19:03 IDT 2012	<rows>
Wed Jul 18 11:19:03 IDT 2012	7
Wed Jul 18 11:19:03 IDT 2012	<columns>
Wed Jul 18 11:19:03 IDT 2012	5
Wed Jul 18 11:19:03 IDT 2012	<squaresColors>
Wed Jul 18 11:19:03 IDT 2012	CTPurple CTRed CTRed CTGreen CTPurple 
Wed Jul 18 11:19:03 IDT 2012	CTPurple grey78 CTPurple CTYellow CTPurple 
Wed Jul 18 11:19:03 IDT 2012	CTPurple CTRed CTPurple CTGreen CTPurple 
Wed Jul 18 11:19:03 IDT 2012	CTPurple grey78 CTPurple CTYellow CTPurple 
Wed Jul 18 11:19:03 IDT 2012	CTPurple CTRed CTPurple CTGreen CTPurple 
Wed Jul 18 11:19:03 IDT 2012	CTPurple grey78 CTPurple CTYellow CTPurple 
Wed Jul 18 11:19:03 IDT 2012	CTPurple CTRed CTPurple CTGreen CTPurple 
Wed Jul 18 11:19:03 IDT 2012	</squareColors>
Wed Jul 18 11:19:03 IDT 2012	<goalPosition>
Wed Jul 18 11:19:03 IDT 2012	Goal position: (R:0,C:2)
Wed Jul 18 11:19:03 IDT 2012	<numberOfPlayers>
Wed Jul 18 11:19:03 IDT 2012	2
Wed Jul 18 11:19:03 IDT 2012	<firstPlayerChips>
Wed Jul 18 11:19:03 IDT 2012	Setting chips for player: 999 id:0
Wed Jul 18 11:19:03 IDT 2012	{ chips  'CTRed':5 'CTGreen':10 'CTPurple':0 'grey78':0 'CTYellow':9 }
Wed Jul 18 11:19:03 IDT 2012	Player position: (R:6,C:0)
Wed Jul 18 11:19:03 IDT 2012	Setting chips for player: 337 id:1
Wed Jul 18 11:19:03 IDT 2012	{ chips  'CTRed':1 'CTGreen':13 'CTPurple':0 'grey78':10 'CTYellow':0 }
Wed Jul 18 11:19:03 IDT 2012	Player position: (R:6,C:4)
Wed Jul 18 11:19:03 IDT 2012	Protocol: A New Phase Began: Strategy Prep Phase
Wed Jul 18 11:19:03 IDT 2012	Protocol: Strategy Preparation phase, Round: 0
Wed Jul 18 11:19:03 IDT 2012	Maximum number of rounds with no consecutive movement is 3
Wed Jul 18 11:19:03 IDT 2012	In begin comm. phase, set counter offers count to: 0
Wed Jul 18 11:19:03 IDT 2012	In begin comm. phase, get counter offers returned: 0
Wed Jul 18 11:19:23 IDT 2012	A Phase Ended: Strategy Prep Phase
Wed Jul 18 11:19:23 IDT 2012	Protocol: A New Phase Began: Communication Phase
Wed Jul 18 11:19:23 IDT 2012	Protocol: Communication phase, Round: 0
Wed Jul 18 11:19:43 IDT 2012	Received communication message 
Wed Jul 18 11:19:43 IDT 2012	From player: 999
Wed Jul 18 11:19:43 IDT 2012	To player: 337
Wed Jul 18 11:19:43 IDT 2012	Message type: basicproposal
Wed Jul 18 11:19:43 IDT 2012	Chips to send by proposer: { chips  'CTRed':0 'CTPurple':0 'CTGreen':0 'grey78':0 'CTYellow':2 }
Wed Jul 18 11:19:43 IDT 2012	Chips to send by responder: { chips  'CTRed':0 'CTPurple':0 'CTGreen':0 'grey78':2 'CTYellow':0 }
Wed Jul 18 11:19:47 IDT 2012	Received communication message 
Wed Jul 18 11:19:47 IDT 2012	From player: 337
Wed Jul 18 11:19:47 IDT 2012	To player: 999
Wed Jul 18 11:19:47 IDT 2012	Message type: basicproposaldiscussion
Wed Jul 18 11:19:47 IDT 2012	Player 337 accepted offer
Wed Jul 18 11:19:47 IDT 2012	Prop accepted, set counter offers count to: 0
Wed Jul 18 11:19:47 IDT 2012	Prop accepted, get counter offers returned: 0
Wed Jul 18 11:19:47 IDT 2012	A Phase Ended: Communication Phase
Wed Jul 18 11:19:47 IDT 2012	Protocol: A New Phase Began: Exchange Phase
Wed Jul 18 11:19:47 IDT 2012	Protocol: Exchange phase, Round: 0
Wed Jul 18 11:19:47 IDT 2012	In begin exch.phase, get counter offers returned: 0
Wed Jul 18 11:19:47 IDT 2012	A Phase Ended: Exchange Phase
Wed Jul 18 11:19:47 IDT 2012	Proposer 999 sent: { chips  'CTRed':0 'CTPurple':0 'CTGreen':0 'grey78':0 'CTYellow':2 }
Wed Jul 18 11:19:47 IDT 2012	Responder 337 sent: { chips  'CTRed':0 'CTPurple':0 'CTGreen':0 'grey78':0 'CTYellow':0 }
Wed Jul 18 11:19:47 IDT 2012	Protocol: A New Phase Began: Movement Phase
Wed Jul 18 11:19:47 IDT 2012	Protocol: Movement phase, Round: 0
Wed Jul 18 11:20:06 IDT 2012	A Phase Ended: Movement Phase
Wed Jul 18 11:20:06 IDT 2012	Swaping roles:
Wed Jul 18 11:20:06 IDT 2012	Proposer is: 337
Wed Jul 18 11:20:06 IDT 2012	Responder is: 999
Wed Jul 18 11:20:06 IDT 2012	Protocol: A New Phase Began: Feedback Phase
Wed Jul 18 11:20:06 IDT 2012	Protocol: Feedback phase, Round: 0
Wed Jul 18 11:20:06 IDT 2012	Number of consecutive no movements for player 999 is 1
Wed Jul 18 11:20:06 IDT 2012	Number of consecutive no movements for player 337 is 1
Wed Jul 18 11:20:11 IDT 2012	A Phase Ended: Feedback Phase
Wed Jul 18 11:20:11 IDT 2012	Protocol: A New Phase Began: Communication Phase
Wed Jul 18 11:20:11 IDT 2012	Protocol: Communication phase, Round: 1
Wed Jul 18 11:20:13 IDT 2012	Received communication message 
Wed Jul 18 11:20:13 IDT 2012	From player: 337
Wed Jul 18 11:20:13 IDT 2012	To player: 999
Wed Jul 18 11:20:13 IDT 2012	Message type: basicproposal
Wed Jul 18 11:20:13 IDT 2012	Chips to send by proposer: { chips  'grey78':1 }
Wed Jul 18 11:20:13 IDT 2012	Chips to send by responder: { chips  'CTGreen':2 }
Wed Jul 18 11:20:20 IDT 2012	Received communication message 
Wed Jul 18 11:20:20 IDT 2012	From player: 999
Wed Jul 18 11:20:20 IDT 2012	To player: 337
Wed Jul 18 11:20:20 IDT 2012	Message type: basicproposaldiscussion
Wed Jul 18 11:20:20 IDT 2012	Player 999 rejected offer
Wed Jul 18 11:20:20 IDT 2012	Swaping roles:
Wed Jul 18 11:20:20 IDT 2012	Proposer is: 999
Wed Jul 18 11:20:20 IDT 2012	Responder is: 337
Wed Jul 18 11:20:20 IDT 2012	Prop rejected, set counter offers count to: 1
Wed Jul 18 11:20:20 IDT 2012	Prop rejected, get counter offers returned: 1
Wed Jul 18 11:20:24 IDT 2012	Slept 4 seconds
Wed Jul 18 11:20:24 IDT 2012	Sent role changed msgs
Wed Jul 18 11:20:43 IDT 2012	Received communication message 
Wed Jul 18 11:20:43 IDT 2012	From player: 999
Wed Jul 18 11:20:43 IDT 2012	To player: 337
Wed Jul 18 11:20:43 IDT 2012	Message type: basicproposal
Wed Jul 18 11:20:43 IDT 2012	Chips to send by proposer: { chips  'CTRed':0 'CTPurple':0 'CTGreen':2 'grey78':0 'CTYellow':1 }
Wed Jul 18 11:20:43 IDT 2012	Chips to send by responder: { chips  'CTRed':0 'CTPurple':0 'CTGreen':0 'grey78':3 'CTYellow':0 }
Wed Jul 18 11:20:44 IDT 2012	Received communication message 
Wed Jul 18 11:20:44 IDT 2012	From player: 337
Wed Jul 18 11:20:44 IDT 2012	To player: 999
Wed Jul 18 11:20:44 IDT 2012	Message type: basicproposaldiscussion
Wed Jul 18 11:20:44 IDT 2012	Player 337 rejected offer
Wed Jul 18 11:20:44 IDT 2012	Set counter offers count to: 0
Wed Jul 18 11:20:44 IDT 2012	A Phase Ended: Communication Phase
Wed Jul 18 11:20:44 IDT 2012	Protocol: A New Phase Began: Exchange Phase
Wed Jul 18 11:20:44 IDT 2012	Protocol: Exchange phase, Round: 1
Wed Jul 18 11:20:44 IDT 2012	In begin exch.phase, get counter offers returned: 0
Wed Jul 18 11:21:23 IDT 2012	A Phase Ended: Exchange Phase
Wed Jul 18 11:21:23 IDT 2012	Responder 337 sent: { chips  }
Wed Jul 18 11:21:23 IDT 2012	Protocol: A New Phase Began: Movement Phase
Wed Jul 18 11:21:23 IDT 2012	Protocol: Movement phase, Round: 1
Wed Jul 18 11:21:43 IDT 2012	A Phase Ended: Movement Phase
Wed Jul 18 11:21:43 IDT 2012	Protocol: A New Phase Began: Feedback Phase
Wed Jul 18 11:21:43 IDT 2012	Protocol: Feedback phase, Round: 1
Wed Jul 18 11:21:43 IDT 2012	Number of consecutive no movements for player 999 is 2
Wed Jul 18 11:21:43 IDT 2012	Number of consecutive no movements for player 337 is 2
Wed Jul 18 11:21:48 IDT 2012	A Phase Ended: Feedback Phase
Wed Jul 18 11:21:48 IDT 2012	Protocol: A New Phase Began: Communication Phase
Wed Jul 18 11:21:48 IDT 2012	Protocol: Communication phase, Round: 2
Wed Jul 18 11:22:06 IDT 2012	Received communication message 
Wed Jul 18 11:22:06 IDT 2012	From player: 999
Wed Jul 18 11:22:06 IDT 2012	To player: 337
Wed Jul 18 11:22:06 IDT 2012	Message type: basicproposal
Wed Jul 18 11:22:06 IDT 2012	Chips to send by proposer: { chips  'CTRed':0 'CTPurple':0 'CTGreen':1 'grey78':0 'CTYellow':2 }
Wed Jul 18 11:22:06 IDT 2012	Chips to send by responder: { chips  'CTRed':0 'CTPurple':0 'CTGreen':0 'grey78':3 'CTYellow':0 }
Wed Jul 18 11:22:11 IDT 2012	Received communication message 
Wed Jul 18 11:22:11 IDT 2012	From player: 337
Wed Jul 18 11:22:11 IDT 2012	To player: 999
Wed Jul 18 11:22:11 IDT 2012	Message type: basicproposaldiscussion
Wed Jul 18 11:22:11 IDT 2012	Player 337 accepted offer
Wed Jul 18 11:22:11 IDT 2012	Prop accepted, set counter offers count to: 0
Wed Jul 18 11:22:11 IDT 2012	Prop accepted, get counter offers returned: 0
Wed Jul 18 11:22:11 IDT 2012	A Phase Ended: Communication Phase
Wed Jul 18 11:22:11 IDT 2012	Protocol: A New Phase Began: Exchange Phase
Wed Jul 18 11:22:11 IDT 2012	Protocol: Exchange phase, Round: 2
Wed Jul 18 11:22:11 IDT 2012	In begin exch.phase, get counter offers returned: 0
Wed Jul 18 11:22:50 IDT 2012	A Phase Ended: Exchange Phase
Wed Jul 18 11:22:50 IDT 2012	Responder 337 sent: { chips  'CTRed':0 'CTPurple':0 'CTGreen':0 'grey78':0 'CTYellow':0 }
Wed Jul 18 11:22:50 IDT 2012	Protocol: A New Phase Began: Movement Phase
Wed Jul 18 11:22:50 IDT 2012	Protocol: Movement phase, Round: 2
Wed Jul 18 11:22:50 IDT 2012	Player 337 moved to (R:6,C:3)
Wed Jul 18 11:22:50 IDT 2012	Player 999 moved to (R:6,C:1)
Wed Jul 18 11:23:10 IDT 2012	A Phase Ended: Movement Phase
Wed Jul 18 11:23:10 IDT 2012	Swaping roles:
Wed Jul 18 11:23:10 IDT 2012	Proposer is: 337
Wed Jul 18 11:23:10 IDT 2012	Responder is: 999
Wed Jul 18 11:23:10 IDT 2012	Protocol: A New Phase Began: Feedback Phase
Wed Jul 18 11:23:10 IDT 2012	Protocol: Feedback phase, Round: 2
Wed Jul 18 11:23:10 IDT 2012	Number of consecutive no movements for player 999 is 0
Wed Jul 18 11:23:10 IDT 2012	Number of consecutive no movements for player 337 is 0
Wed Jul 18 11:23:15 IDT 2012	A Phase Ended: Feedback Phase
Wed Jul 18 11:23:15 IDT 2012	Protocol: A New Phase Began: Communication Phase
Wed Jul 18 11:23:15 IDT 2012	Protocol: Communication phase, Round: 3
Wed Jul 18 11:23:18 IDT 2012	Received communication message 
Wed Jul 18 11:23:18 IDT 2012	From player: 337
Wed Jul 18 11:23:18 IDT 2012	To player: 999
Wed Jul 18 11:23:18 IDT 2012	Message type: basicproposal
Wed Jul 18 11:23:18 IDT 2012	Chips to send by proposer: { chips  'grey78':1 }
Wed Jul 18 11:23:18 IDT 2012	Chips to send by responder: { chips  'CTYellow':2 }
Wed Jul 18 11:23:31 IDT 2012	Received communication message 
Wed Jul 18 11:23:31 IDT 2012	From player: 999
Wed Jul 18 11:23:31 IDT 2012	To player: 337
Wed Jul 18 11:23:31 IDT 2012	Message type: basicproposaldiscussion
Wed Jul 18 11:23:31 IDT 2012	Player 999 rejected offer
Wed Jul 18 11:23:31 IDT 2012	Swaping roles:
Wed Jul 18 11:23:31 IDT 2012	Proposer is: 999
Wed Jul 18 11:23:31 IDT 2012	Responder is: 337
Wed Jul 18 11:23:31 IDT 2012	Prop rejected, set counter offers count to: 1
Wed Jul 18 11:23:31 IDT 2012	Prop rejected, get counter offers returned: 1
Wed Jul 18 11:23:35 IDT 2012	Slept 4 seconds
Wed Jul 18 11:23:35 IDT 2012	Sent role changed msgs
Wed Jul 18 11:23:52 IDT 2012	Received communication message 
Wed Jul 18 11:23:52 IDT 2012	From player: 999
Wed Jul 18 11:23:52 IDT 2012	To player: 337
Wed Jul 18 11:23:52 IDT 2012	Message type: basicproposal
Wed Jul 18 11:23:52 IDT 2012	Chips to send by proposer: { chips  'CTRed':0 'CTPurple':0 'CTGreen':1 'grey78':0 'CTYellow':2 }
Wed Jul 18 11:23:52 IDT 2012	Chips to send by responder: { chips  'CTRed':0 'CTPurple':0 'CTGreen':0 'grey78':3 'CTYellow':0 }
Wed Jul 18 11:23:54 IDT 2012	Received communication message 
Wed Jul 18 11:23:54 IDT 2012	From player: 337
Wed Jul 18 11:23:54 IDT 2012	To player: 999
Wed Jul 18 11:23:54 IDT 2012	Message type: basicproposaldiscussion
Wed Jul 18 11:23:54 IDT 2012	Player 337 rejected offer
Wed Jul 18 11:23:54 IDT 2012	Set counter offers count to: 0
Wed Jul 18 11:23:54 IDT 2012	A Phase Ended: Communication Phase
Wed Jul 18 11:23:54 IDT 2012	Protocol: A New Phase Began: Exchange Phase
Wed Jul 18 11:23:54 IDT 2012	Protocol: Exchange phase, Round: 3
Wed Jul 18 11:23:54 IDT 2012	In begin exch.phase, get counter offers returned: 0
Wed Jul 18 11:24:33 IDT 2012	A Phase Ended: Exchange Phase
Wed Jul 18 11:24:33 IDT 2012	Responder 337 sent: { chips  }
Wed Jul 18 11:24:33 IDT 2012	Protocol: A New Phase Began: Movement Phase
Wed Jul 18 11:24:33 IDT 2012	Protocol: Movement phase, Round: 3
Wed Jul 18 11:24:53 IDT 2012	A Phase Ended: Movement Phase
Wed Jul 18 11:24:53 IDT 2012	Protocol: A New Phase Began: Feedback Phase
Wed Jul 18 11:24:53 IDT 2012	Protocol: Feedback phase, Round: 3
Wed Jul 18 11:24:53 IDT 2012	Number of consecutive no movements for player 999 is 1
Wed Jul 18 11:24:53 IDT 2012	Number of consecutive no movements for player 337 is 1
Wed Jul 18 11:24:58 IDT 2012	A Phase Ended: Feedback Phase
Wed Jul 18 11:24:58 IDT 2012	Protocol: A New Phase Began: Communication Phase
Wed Jul 18 11:24:58 IDT 2012	Protocol: Communication phase, Round: 4
Wed Jul 18 11:25:12 IDT 2012	Received communication message 
Wed Jul 18 11:25:12 IDT 2012	From player: 999
Wed Jul 18 11:25:12 IDT 2012	To player: 337
Wed Jul 18 11:25:12 IDT 2012	Message type: basicproposal
Wed Jul 18 11:25:12 IDT 2012	Chips to send by proposer: { chips  'CTRed':0 'CTPurple':0 'CTGreen':2 'grey78':0 'CTYellow':1 }
Wed Jul 18 11:25:12 IDT 2012	Chips to send by responder: { chips  'CTRed':0 'CTPurple':0 'CTGreen':0 'grey78':3 'CTYellow':0 }
Wed Jul 18 11:25:13 IDT 2012	Received communication message 
Wed Jul 18 11:25:13 IDT 2012	From player: 337
Wed Jul 18 11:25:13 IDT 2012	To player: 999
Wed Jul 18 11:25:13 IDT 2012	Message type: basicproposaldiscussion
Wed Jul 18 11:25:13 IDT 2012	Player 337 rejected offer
Wed Jul 18 11:25:13 IDT 2012	Swaping roles:
Wed Jul 18 11:25:13 IDT 2012	Proposer is: 337
Wed Jul 18 11:25:13 IDT 2012	Responder is: 999
Wed Jul 18 11:25:13 IDT 2012	Prop rejected, set counter offers count to: 1
Wed Jul 18 11:25:13 IDT 2012	Prop rejected, get counter offers returned: 1
Wed Jul 18 11:25:17 IDT 2012	Slept 4 seconds
Wed Jul 18 11:25:17 IDT 2012	Sent role changed msgs
Wed Jul 18 11:25:18 IDT 2012	Received communication message 
Wed Jul 18 11:25:18 IDT 2012	From player: 337
Wed Jul 18 11:25:18 IDT 2012	To player: 999
Wed Jul 18 11:25:18 IDT 2012	Message type: basicproposal
Wed Jul 18 11:25:18 IDT 2012	Chips to send by proposer: { chips  'CTRed':0 'CTPurple':0 'CTGreen':0 'grey78':1 'CTYellow':0 }
Wed Jul 18 11:25:18 IDT 2012	Chips to send by responder: { chips  'CTRed':0 'CTPurple':0 'CTGreen':1 'grey78':0 'CTYellow':1 }
Wed Jul 18 11:25:25 IDT 2012	Received communication message 
Wed Jul 18 11:25:25 IDT 2012	From player: 999
Wed Jul 18 11:25:25 IDT 2012	To player: 337
Wed Jul 18 11:25:25 IDT 2012	Message type: basicproposaldiscussion
Wed Jul 18 11:25:25 IDT 2012	Player 999 rejected offer
Wed Jul 18 11:25:25 IDT 2012	Set counter offers count to: 0
Wed Jul 18 11:25:25 IDT 2012	A Phase Ended: Communication Phase
Wed Jul 18 11:25:25 IDT 2012	Protocol: A New Phase Began: Exchange Phase
Wed Jul 18 11:25:25 IDT 2012	Protocol: Exchange phase, Round: 4
Wed Jul 18 11:25:25 IDT 2012	In begin exch.phase, get counter offers returned: 0
Wed Jul 18 11:26:05 IDT 2012	A Phase Ended: Exchange Phase
Wed Jul 18 11:26:05 IDT 2012	Proposer 337 sent: { chips  }
Wed Jul 18 11:26:05 IDT 2012	Protocol: A New Phase Began: Movement Phase
Wed Jul 18 11:26:05 IDT 2012	Protocol: Movement phase, Round: 4
Wed Jul 18 11:26:25 IDT 2012	A Phase Ended: Movement Phase
Wed Jul 18 11:26:25 IDT 2012	Protocol: A New Phase Began: Feedback Phase
Wed Jul 18 11:26:25 IDT 2012	Protocol: Feedback phase, Round: 4
Wed Jul 18 11:26:25 IDT 2012	Number of consecutive no movements for player 999 is 2
Wed Jul 18 11:26:25 IDT 2012	Number of consecutive no movements for player 337 is 2
Wed Jul 18 11:26:30 IDT 2012	A Phase Ended: Feedback Phase
Wed Jul 18 11:26:30 IDT 2012	Protocol: A New Phase Began: Communication Phase
Wed Jul 18 11:26:30 IDT 2012	Protocol: Communication phase, Round: 5
Wed Jul 18 11:26:41 IDT 2012	Received communication message 
Wed Jul 18 11:26:41 IDT 2012	From player: 337
Wed Jul 18 11:26:41 IDT 2012	To player: 999
Wed Jul 18 11:26:41 IDT 2012	Message type: basicproposal
Wed Jul 18 11:26:41 IDT 2012	Chips to send by proposer: { chips  'grey78':1 }
Wed Jul 18 11:26:41 IDT 2012	Chips to send by responder: { chips  'CTYellow':1 }
Wed Jul 18 11:26:52 IDT 2012	Received communication message 
Wed Jul 18 11:26:52 IDT 2012	From player: 999
Wed Jul 18 11:26:52 IDT 2012	To player: 337
Wed Jul 18 11:26:52 IDT 2012	Message type: basicproposaldiscussion
Wed Jul 18 11:26:52 IDT 2012	Player 999 accepted offer
Wed Jul 18 11:26:52 IDT 2012	Prop accepted, set counter offers count to: 0
Wed Jul 18 11:26:52 IDT 2012	Prop accepted, get counter offers returned: 0
Wed Jul 18 11:26:52 IDT 2012	A Phase Ended: Communication Phase
Wed Jul 18 11:26:52 IDT 2012	Protocol: A New Phase Began: Exchange Phase
Wed Jul 18 11:26:52 IDT 2012	Protocol: Exchange phase, Round: 5
Wed Jul 18 11:26:52 IDT 2012	In begin exch.phase, get counter offers returned: 0
Wed Jul 18 11:27:32 IDT 2012	A Phase Ended: Exchange Phase
Wed Jul 18 11:27:32 IDT 2012	Proposer 337 sent: { chips  'CTRed':0 'CTPurple':0 'CTGreen':0 'grey78':0 'CTYellow':0 }
Wed Jul 18 11:27:32 IDT 2012	Protocol: A New Phase Began: Movement Phase
Wed Jul 18 11:27:32 IDT 2012	Protocol: Movement phase, Round: 5
Wed Jul 18 11:27:32 IDT 2012	Player 337 moved to (R:5,C:3)
Wed Jul 18 11:27:52 IDT 2012	A Phase Ended: Movement Phase
Wed Jul 18 11:27:52 IDT 2012	Swaping roles:
Wed Jul 18 11:27:52 IDT 2012	Proposer is: 999
Wed Jul 18 11:27:52 IDT 2012	Responder is: 337
Wed Jul 18 11:27:52 IDT 2012	Protocol: A New Phase Began: Feedback Phase
Wed Jul 18 11:27:52 IDT 2012	Protocol: Feedback phase, Round: 5
Wed Jul 18 11:27:52 IDT 2012	Number of consecutive no movements for player 999 is 3
Wed Jul 18 11:27:52 IDT 2012	Number of consecutive no movements for player 337 is 0
Wed Jul 18 11:27:52 IDT 2012	Ending game, all players move as much as they can towards goal
Wed Jul 18 11:27:52 IDT 2012	Player: 999 ,role: Proposer score is: 35
Wed Jul 18 11:27:52 IDT 2012	Player: 337 ,role: Responder score is: 75
