Wed Jul 18 11:51:12 IDT 2012	This is the CT debug logger; svn version 638; sep 27 09
Wed Jul 18 11:51:12 IDT 2012	Wed Jul 18 11:51:12 IDT 2012
Wed Jul 18 11:51:12 IDT 2012	A new Alternative Offers game has began
Wed Jul 18 11:51:12 IDT 2012	ID Number: 32595
Wed Jul 18 11:51:12 IDT 2012	Creating board
Wed Jul 18 11:51:12 IDT 2012	<colors>
Wed Jul 18 11:51:12 IDT 2012	{ GamePalette  'CTRed':0 'CTPurple':1 'CTGreen':2 'grey78':3 'CTYellow':4 }
Wed Jul 18 11:51:12 IDT 2012	<rows>
Wed Jul 18 11:51:12 IDT 2012	7
Wed Jul 18 11:51:12 IDT 2012	<columns>
Wed Jul 18 11:51:12 IDT 2012	5
Wed Jul 18 11:51:12 IDT 2012	<squaresColors>
Wed Jul 18 11:51:12 IDT 2012	CTPurple CTRed CTRed CTGreen CTPurple 
Wed Jul 18 11:51:12 IDT 2012	CTPurple grey78 CTPurple CTYellow CTPurple 
Wed Jul 18 11:51:12 IDT 2012	CTPurple CTRed CTPurple CTGreen CTPurple 
Wed Jul 18 11:51:12 IDT 2012	CTPurple grey78 CTPurple CTYellow CTPurple 
Wed Jul 18 11:51:12 IDT 2012	CTPurple CTRed CTPurple CTGreen CTPurple 
Wed Jul 18 11:51:12 IDT 2012	CTPurple grey78 CTPurple CTYellow CTPurple 
Wed Jul 18 11:51:12 IDT 2012	CTPurple CTRed CTPurple CTGreen CTPurple 
Wed Jul 18 11:51:12 IDT 2012	</squareColors>
Wed Jul 18 11:51:12 IDT 2012	<goalPosition>
Wed Jul 18 11:51:12 IDT 2012	Goal position: (R:0,C:2)
Wed Jul 18 11:51:12 IDT 2012	<numberOfPlayers>
Wed Jul 18 11:51:12 IDT 2012	2
Wed Jul 18 11:51:12 IDT 2012	<firstPlayerChips>
Wed Jul 18 11:51:12 IDT 2012	Setting chips for player: 999 id:0
Wed Jul 18 11:51:12 IDT 2012	{ chips  'CTRed':5 'CTGreen':10 'CTPurple':0 'grey78':0 'CTYellow':9 }
Wed Jul 18 11:51:12 IDT 2012	Player position: (R:6,C:0)
Wed Jul 18 11:51:12 IDT 2012	Setting chips for player: 337 id:1
Wed Jul 18 11:51:12 IDT 2012	{ chips  'CTRed':1 'CTGreen':13 'CTPurple':0 'grey78':10 'CTYellow':0 }
Wed Jul 18 11:51:12 IDT 2012	Player position: (R:6,C:4)
Wed Jul 18 11:51:12 IDT 2012	Protocol: A New Phase Began: Strategy Prep Phase
Wed Jul 18 11:51:12 IDT 2012	Protocol: Strategy Preparation phase, Round: 0
Wed Jul 18 11:51:12 IDT 2012	Maximum number of rounds with no consecutive movement is 3
Wed Jul 18 11:51:12 IDT 2012	In begin comm. phase, set counter offers count to: 0
Wed Jul 18 11:51:12 IDT 2012	In begin comm. phase, get counter offers returned: 0
Wed Jul 18 11:51:32 IDT 2012	A Phase Ended: Strategy Prep Phase
Wed Jul 18 11:51:32 IDT 2012	Protocol: A New Phase Began: Communication Phase
Wed Jul 18 11:51:32 IDT 2012	Protocol: Communication phase, Round: 0
Wed Jul 18 11:51:51 IDT 2012	Received communication message 
Wed Jul 18 11:51:51 IDT 2012	From player: 999
Wed Jul 18 11:51:51 IDT 2012	To player: 337
Wed Jul 18 11:51:51 IDT 2012	Message type: basicproposal
Wed Jul 18 11:51:51 IDT 2012	Chips to send by proposer: { chips  'CTRed':0 'CTPurple':0 'CTGreen':0 'grey78':0 'CTYellow':2 }
Wed Jul 18 11:51:51 IDT 2012	Chips to send by responder: { chips  'CTRed':0 'CTPurple':0 'CTGreen':0 'grey78':2 'CTYellow':0 }
Wed Jul 18 11:51:55 IDT 2012	Received communication message 
Wed Jul 18 11:51:55 IDT 2012	From player: 337
Wed Jul 18 11:51:55 IDT 2012	To player: 999
Wed Jul 18 11:51:55 IDT 2012	Message type: basicproposaldiscussion
Wed Jul 18 11:51:55 IDT 2012	Player 337 accepted offer
Wed Jul 18 11:51:55 IDT 2012	Prop accepted, set counter offers count to: 0
Wed Jul 18 11:51:55 IDT 2012	Prop accepted, get counter offers returned: 0
Wed Jul 18 11:51:55 IDT 2012	A Phase Ended: Communication Phase
Wed Jul 18 11:51:55 IDT 2012	Protocol: A New Phase Began: Exchange Phase
Wed Jul 18 11:51:55 IDT 2012	Protocol: Exchange phase, Round: 0
Wed Jul 18 11:51:55 IDT 2012	In begin exch.phase, get counter offers returned: 0
Wed Jul 18 11:51:55 IDT 2012	A Phase Ended: Exchange Phase
Wed Jul 18 11:51:55 IDT 2012	Proposer 999 sent: { chips  'CTRed':0 'CTPurple':0 'CTGreen':0 'grey78':0 'CTYellow':2 }
Wed Jul 18 11:51:55 IDT 2012	Responder 337 sent: { chips  'CTRed':0 'CTPurple':0 'CTGreen':0 'grey78':1 'CTYellow':0 }
Wed Jul 18 11:51:55 IDT 2012	Protocol: A New Phase Began: Movement Phase
Wed Jul 18 11:51:55 IDT 2012	Protocol: Movement phase, Round: 0
Wed Jul 18 11:52:14 IDT 2012	A Phase Ended: Movement Phase
Wed Jul 18 11:52:14 IDT 2012	Swaping roles:
Wed Jul 18 11:52:14 IDT 2012	Proposer is: 337
Wed Jul 18 11:52:14 IDT 2012	Responder is: 999
Wed Jul 18 11:52:14 IDT 2012	Protocol: A New Phase Began: Feedback Phase
Wed Jul 18 11:52:14 IDT 2012	Protocol: Feedback phase, Round: 0
Wed Jul 18 11:52:14 IDT 2012	Number of consecutive no movements for player 999 is 1
Wed Jul 18 11:52:14 IDT 2012	Number of consecutive no movements for player 337 is 1
Wed Jul 18 11:52:19 IDT 2012	A Phase Ended: Feedback Phase
Wed Jul 18 11:52:19 IDT 2012	Protocol: A New Phase Began: Communication Phase
Wed Jul 18 11:52:19 IDT 2012	Protocol: Communication phase, Round: 1
Wed Jul 18 11:52:21 IDT 2012	Received communication message 
Wed Jul 18 11:52:21 IDT 2012	From player: 337
Wed Jul 18 11:52:21 IDT 2012	To player: 999
Wed Jul 18 11:52:21 IDT 2012	Message type: basicproposal
Wed Jul 18 11:52:21 IDT 2012	Chips to send by proposer: { chips  'grey78':1 }
Wed Jul 18 11:52:21 IDT 2012	Chips to send by responder: { chips  'CTGreen':1 'CTYellow':1 }
Wed Jul 18 11:52:28 IDT 2012	Received communication message 
Wed Jul 18 11:52:28 IDT 2012	From player: 999
Wed Jul 18 11:52:28 IDT 2012	To player: 337
Wed Jul 18 11:52:28 IDT 2012	Message type: basicproposaldiscussion
Wed Jul 18 11:52:28 IDT 2012	Player 999 rejected offer
Wed Jul 18 11:52:28 IDT 2012	Swaping roles:
Wed Jul 18 11:52:28 IDT 2012	Proposer is: 999
Wed Jul 18 11:52:28 IDT 2012	Responder is: 337
Wed Jul 18 11:52:28 IDT 2012	Prop rejected, set counter offers count to: 1
Wed Jul 18 11:52:28 IDT 2012	Prop rejected, get counter offers returned: 1
Wed Jul 18 11:52:32 IDT 2012	Slept 4 seconds
Wed Jul 18 11:52:32 IDT 2012	Sent role changed msgs
Wed Jul 18 11:52:45 IDT 2012	Received communication message 
Wed Jul 18 11:52:45 IDT 2012	From player: 999
Wed Jul 18 11:52:45 IDT 2012	To player: 337
Wed Jul 18 11:52:45 IDT 2012	Message type: basicproposal
Wed Jul 18 11:52:45 IDT 2012	Chips to send by proposer: { chips  'CTRed':0 'CTPurple':0 'CTGreen':0 'grey78':0 'CTYellow':2 }
Wed Jul 18 11:52:45 IDT 2012	Chips to send by responder: { chips  'CTRed':0 'CTPurple':0 'CTGreen':0 'grey78':2 'CTYellow':0 }
Wed Jul 18 11:52:46 IDT 2012	Received communication message 
Wed Jul 18 11:52:46 IDT 2012	From player: 337
Wed Jul 18 11:52:46 IDT 2012	To player: 999
Wed Jul 18 11:52:46 IDT 2012	Message type: basicproposaldiscussion
Wed Jul 18 11:52:46 IDT 2012	Player 337 rejected offer
Wed Jul 18 11:52:46 IDT 2012	Set counter offers count to: 0
Wed Jul 18 11:52:46 IDT 2012	A Phase Ended: Communication Phase
Wed Jul 18 11:52:46 IDT 2012	Protocol: A New Phase Began: Exchange Phase
Wed Jul 18 11:52:46 IDT 2012	Protocol: Exchange phase, Round: 1
Wed Jul 18 11:52:46 IDT 2012	In begin exch.phase, get counter offers returned: 0
Wed Jul 18 11:53:25 IDT 2012	A Phase Ended: Exchange Phase
Wed Jul 18 11:53:25 IDT 2012	Responder 337 sent: { chips  }
Wed Jul 18 11:53:26 IDT 2012	Protocol: A New Phase Began: Movement Phase
Wed Jul 18 11:53:26 IDT 2012	Protocol: Movement phase, Round: 1
Wed Jul 18 11:53:46 IDT 2012	A Phase Ended: Movement Phase
Wed Jul 18 11:53:46 IDT 2012	Protocol: A New Phase Began: Feedback Phase
Wed Jul 18 11:53:46 IDT 2012	Protocol: Feedback phase, Round: 1
Wed Jul 18 11:53:46 IDT 2012	Number of consecutive no movements for player 999 is 2
Wed Jul 18 11:53:46 IDT 2012	Number of consecutive no movements for player 337 is 2
Wed Jul 18 11:53:51 IDT 2012	A Phase Ended: Feedback Phase
Wed Jul 18 11:53:51 IDT 2012	Protocol: A New Phase Began: Communication Phase
Wed Jul 18 11:53:51 IDT 2012	Protocol: Communication phase, Round: 2
Wed Jul 18 11:54:04 IDT 2012	Received communication message 
Wed Jul 18 11:54:04 IDT 2012	From player: 999
Wed Jul 18 11:54:04 IDT 2012	To player: 337
Wed Jul 18 11:54:04 IDT 2012	Message type: basicproposal
Wed Jul 18 11:54:04 IDT 2012	Chips to send by proposer: { chips  'CTRed':0 'CTPurple':0 'CTGreen':0 'grey78':0 'CTYellow':2 }
Wed Jul 18 11:54:04 IDT 2012	Chips to send by responder: { chips  'CTRed':0 'CTPurple':0 'CTGreen':0 'grey78':2 'CTYellow':0 }
Wed Jul 18 11:54:08 IDT 2012	Received communication message 
Wed Jul 18 11:54:08 IDT 2012	From player: 337
Wed Jul 18 11:54:08 IDT 2012	To player: 999
Wed Jul 18 11:54:08 IDT 2012	Message type: basicproposaldiscussion
Wed Jul 18 11:54:08 IDT 2012	Player 337 accepted offer
Wed Jul 18 11:54:08 IDT 2012	Prop accepted, set counter offers count to: 0
Wed Jul 18 11:54:08 IDT 2012	Prop accepted, get counter offers returned: 0
Wed Jul 18 11:54:08 IDT 2012	A Phase Ended: Communication Phase
Wed Jul 18 11:54:08 IDT 2012	Protocol: A New Phase Began: Exchange Phase
Wed Jul 18 11:54:08 IDT 2012	Protocol: Exchange phase, Round: 2
Wed Jul 18 11:54:08 IDT 2012	In begin exch.phase, get counter offers returned: 0
Wed Jul 18 11:54:08 IDT 2012	A Phase Ended: Exchange Phase
Wed Jul 18 11:54:08 IDT 2012	Proposer 999 sent: { chips  'CTRed':0 'CTPurple':0 'CTGreen':0 'grey78':0 'CTYellow':2 }
Wed Jul 18 11:54:08 IDT 2012	Responder 337 sent: { chips  'CTRed':0 'CTPurple':0 'CTGreen':0 'grey78':1 'CTYellow':0 }
Wed Jul 18 11:54:08 IDT 2012	Protocol: A New Phase Began: Movement Phase
Wed Jul 18 11:54:08 IDT 2012	Protocol: Movement phase, Round: 2
Wed Jul 18 11:54:08 IDT 2012	Player 337 moved to (R:6,C:3)
Wed Jul 18 11:54:08 IDT 2012	Player 999 moved to (R:6,C:1)
Wed Jul 18 11:54:28 IDT 2012	A Phase Ended: Movement Phase
Wed Jul 18 11:54:28 IDT 2012	Swaping roles:
Wed Jul 18 11:54:28 IDT 2012	Proposer is: 337
Wed Jul 18 11:54:28 IDT 2012	Responder is: 999
Wed Jul 18 11:54:28 IDT 2012	Protocol: A New Phase Began: Feedback Phase
Wed Jul 18 11:54:28 IDT 2012	Protocol: Feedback phase, Round: 2
Wed Jul 18 11:54:28 IDT 2012	Number of consecutive no movements for player 999 is 0
Wed Jul 18 11:54:28 IDT 2012	Number of consecutive no movements for player 337 is 0
Wed Jul 18 11:54:33 IDT 2012	A Phase Ended: Feedback Phase
Wed Jul 18 11:54:33 IDT 2012	Protocol: A New Phase Began: Communication Phase
Wed Jul 18 11:54:33 IDT 2012	Protocol: Communication phase, Round: 3
Wed Jul 18 11:54:35 IDT 2012	Received communication message 
Wed Jul 18 11:54:35 IDT 2012	From player: 337
Wed Jul 18 11:54:35 IDT 2012	To player: 999
Wed Jul 18 11:54:35 IDT 2012	Message type: basicproposal
Wed Jul 18 11:54:35 IDT 2012	Chips to send by proposer: { chips  'grey78':1 }
Wed Jul 18 11:54:35 IDT 2012	Chips to send by responder: { chips  'CTYellow':2 }
Wed Jul 18 11:54:47 IDT 2012	Received communication message 
Wed Jul 18 11:54:47 IDT 2012	From player: 999
Wed Jul 18 11:54:47 IDT 2012	To player: 337
Wed Jul 18 11:54:47 IDT 2012	Message type: basicproposaldiscussion
Wed Jul 18 11:54:47 IDT 2012	Player 999 accepted offer
Wed Jul 18 11:54:47 IDT 2012	Prop accepted, set counter offers count to: 0
Wed Jul 18 11:54:47 IDT 2012	Prop accepted, get counter offers returned: 0
Wed Jul 18 11:54:47 IDT 2012	A Phase Ended: Communication Phase
Wed Jul 18 11:54:47 IDT 2012	Protocol: A New Phase Began: Exchange Phase
Wed Jul 18 11:54:47 IDT 2012	Protocol: Exchange phase, Round: 3
Wed Jul 18 11:54:47 IDT 2012	In begin exch.phase, get counter offers returned: 0
Wed Jul 18 11:54:47 IDT 2012	A Phase Ended: Exchange Phase
Wed Jul 18 11:54:47 IDT 2012	Proposer 337 sent: { chips  'CTRed':0 'CTPurple':0 'CTGreen':0 'grey78':0 'CTYellow':0 }
Wed Jul 18 11:54:47 IDT 2012	Responder 999 sent: { chips  'CTYellow':2 }
Wed Jul 18 11:54:47 IDT 2012	Protocol: A New Phase Began: Movement Phase
Wed Jul 18 11:54:47 IDT 2012	Protocol: Movement phase, Round: 3
Wed Jul 18 11:55:07 IDT 2012	A Phase Ended: Movement Phase
Wed Jul 18 11:55:07 IDT 2012	Swaping roles:
Wed Jul 18 11:55:07 IDT 2012	Proposer is: 999
Wed Jul 18 11:55:07 IDT 2012	Responder is: 337
Wed Jul 18 11:55:07 IDT 2012	Protocol: A New Phase Began: Feedback Phase
Wed Jul 18 11:55:07 IDT 2012	Protocol: Feedback phase, Round: 3
Wed Jul 18 11:55:07 IDT 2012	Number of consecutive no movements for player 999 is 1
Wed Jul 18 11:55:07 IDT 2012	Number of consecutive no movements for player 337 is 1
Wed Jul 18 11:55:12 IDT 2012	A Phase Ended: Feedback Phase
Wed Jul 18 11:55:12 IDT 2012	Protocol: A New Phase Began: Communication Phase
Wed Jul 18 11:55:12 IDT 2012	Protocol: Communication phase, Round: 4
Wed Jul 18 11:55:26 IDT 2012	Received communication message 
Wed Jul 18 11:55:26 IDT 2012	From player: 999
Wed Jul 18 11:55:26 IDT 2012	To player: 337
Wed Jul 18 11:55:26 IDT 2012	Message type: basicproposal
Wed Jul 18 11:55:26 IDT 2012	Chips to send by proposer: { chips  'CTRed':0 'CTPurple':0 'CTGreen':0 'grey78':0 'CTYellow':0 }
Wed Jul 18 11:55:26 IDT 2012	Chips to send by responder: { chips  'CTRed':0 'CTPurple':0 'CTGreen':0 'grey78':0 'CTYellow':0 }
Wed Jul 18 11:55:27 IDT 2012	Received communication message 
Wed Jul 18 11:55:27 IDT 2012	From player: 337
Wed Jul 18 11:55:27 IDT 2012	To player: 999
Wed Jul 18 11:55:27 IDT 2012	Message type: basicproposaldiscussion
Wed Jul 18 11:55:27 IDT 2012	Player 337 accepted offer
Wed Jul 18 11:55:27 IDT 2012	Prop accepted, set counter offers count to: 0
Wed Jul 18 11:55:27 IDT 2012	Prop accepted, get counter offers returned: 0
Wed Jul 18 11:55:27 IDT 2012	A Phase Ended: Communication Phase
Wed Jul 18 11:55:27 IDT 2012	Protocol: A New Phase Began: Exchange Phase
Wed Jul 18 11:55:27 IDT 2012	Protocol: Exchange phase, Round: 4
Wed Jul 18 11:55:27 IDT 2012	In begin exch.phase, get counter offers returned: 0
Wed Jul 18 11:56:07 IDT 2012	A Phase Ended: Exchange Phase
Wed Jul 18 11:56:07 IDT 2012	Responder 337 sent: { chips  'CTRed':0 'CTPurple':0 'CTGreen':0 'grey78':0 'CTYellow':0 }
Wed Jul 18 11:56:07 IDT 2012	Protocol: A New Phase Began: Movement Phase
Wed Jul 18 11:56:07 IDT 2012	Protocol: Movement phase, Round: 4
Wed Jul 18 11:56:27 IDT 2012	A Phase Ended: Movement Phase
Wed Jul 18 11:56:27 IDT 2012	Swaping roles:
Wed Jul 18 11:56:27 IDT 2012	Proposer is: 337
Wed Jul 18 11:56:27 IDT 2012	Responder is: 999
Wed Jul 18 11:56:27 IDT 2012	Protocol: A New Phase Began: Feedback Phase
Wed Jul 18 11:56:27 IDT 2012	Protocol: Feedback phase, Round: 4
Wed Jul 18 11:56:27 IDT 2012	Number of consecutive no movements for player 999 is 2
Wed Jul 18 11:56:27 IDT 2012	Number of consecutive no movements for player 337 is 2
Wed Jul 18 11:56:32 IDT 2012	A Phase Ended: Feedback Phase
Wed Jul 18 11:56:32 IDT 2012	Protocol: A New Phase Began: Communication Phase
Wed Jul 18 11:56:32 IDT 2012	Protocol: Communication phase, Round: 5
Wed Jul 18 11:56:36 IDT 2012	Received communication message 
Wed Jul 18 11:56:36 IDT 2012	From player: 337
Wed Jul 18 11:56:36 IDT 2012	To player: 999
Wed Jul 18 11:56:36 IDT 2012	Message type: basicproposal
Wed Jul 18 11:56:36 IDT 2012	Chips to send by proposer: { chips  'grey78':1 }
Wed Jul 18 11:56:36 IDT 2012	Chips to send by responder: { chips  'CTGreen':1 'CTYellow':1 }
Wed Jul 18 11:56:47 IDT 2012	Received communication message 
Wed Jul 18 11:56:47 IDT 2012	From player: 999
Wed Jul 18 11:56:47 IDT 2012	To player: 337
Wed Jul 18 11:56:47 IDT 2012	Message type: basicproposaldiscussion
Wed Jul 18 11:56:47 IDT 2012	Player 999 accepted offer
Wed Jul 18 11:56:47 IDT 2012	Prop accepted, set counter offers count to: 0
Wed Jul 18 11:56:47 IDT 2012	Prop accepted, get counter offers returned: 0
Wed Jul 18 11:56:47 IDT 2012	A Phase Ended: Communication Phase
Wed Jul 18 11:56:47 IDT 2012	Protocol: A New Phase Began: Exchange Phase
Wed Jul 18 11:56:47 IDT 2012	Protocol: Exchange phase, Round: 5
Wed Jul 18 11:56:47 IDT 2012	In begin exch.phase, get counter offers returned: 0
Wed Jul 18 11:56:47 IDT 2012	A Phase Ended: Exchange Phase
Wed Jul 18 11:56:47 IDT 2012	Proposer 337 sent: { chips  'CTRed':0 'CTPurple':0 'CTGreen':0 'grey78':0 'CTYellow':0 }
Wed Jul 18 11:56:47 IDT 2012	Responder 999 sent: { chips  'CTGreen':1 'CTYellow':1 }
Wed Jul 18 11:56:47 IDT 2012	Protocol: A New Phase Began: Movement Phase
Wed Jul 18 11:56:47 IDT 2012	Protocol: Movement phase, Round: 5
Wed Jul 18 11:56:47 IDT 2012	Player 337 moved to (R:5,C:3)
Wed Jul 18 11:56:47 IDT 2012	Player 999 moved to (R:5,C:1)
Wed Jul 18 11:57:07 IDT 2012	A Phase Ended: Movement Phase
Wed Jul 18 11:57:07 IDT 2012	Swaping roles:
Wed Jul 18 11:57:07 IDT 2012	Proposer is: 999
Wed Jul 18 11:57:07 IDT 2012	Responder is: 337
Wed Jul 18 11:57:07 IDT 2012	Protocol: A New Phase Began: Feedback Phase
Wed Jul 18 11:57:07 IDT 2012	Protocol: Feedback phase, Round: 5
Wed Jul 18 11:57:07 IDT 2012	Number of consecutive no movements for player 999 is 0
Wed Jul 18 11:57:07 IDT 2012	Number of consecutive no movements for player 337 is 0
Wed Jul 18 11:57:12 IDT 2012	A Phase Ended: Feedback Phase
Wed Jul 18 11:57:12 IDT 2012	Protocol: A New Phase Began: Communication Phase
Wed Jul 18 11:57:12 IDT 2012	Protocol: Communication phase, Round: 6
Wed Jul 18 11:57:30 IDT 2012	Received communication message 
Wed Jul 18 11:57:30 IDT 2012	From player: 999
Wed Jul 18 11:57:30 IDT 2012	To player: 337
Wed Jul 18 11:57:30 IDT 2012	Message type: basicproposal
Wed Jul 18 11:57:30 IDT 2012	Chips to send by proposer: { chips  'CTRed':0 'CTPurple':0 'CTGreen':0 'grey78':0 'CTYellow':0 }
Wed Jul 18 11:57:30 IDT 2012	Chips to send by responder: { chips  'CTRed':0 'CTPurple':0 'CTGreen':0 'grey78':0 'CTYellow':0 }
Wed Jul 18 11:57:32 IDT 2012	Received communication message 
Wed Jul 18 11:57:32 IDT 2012	From player: 337
Wed Jul 18 11:57:32 IDT 2012	To player: 999
Wed Jul 18 11:57:32 IDT 2012	Message type: basicproposaldiscussion
Wed Jul 18 11:57:32 IDT 2012	Player 337 accepted offer
Wed Jul 18 11:57:32 IDT 2012	Prop accepted, set counter offers count to: 0
Wed Jul 18 11:57:32 IDT 2012	Prop accepted, get counter offers returned: 0
Wed Jul 18 11:57:32 IDT 2012	A Phase Ended: Communication Phase
Wed Jul 18 11:57:32 IDT 2012	Protocol: A New Phase Began: Exchange Phase
Wed Jul 18 11:57:32 IDT 2012	Protocol: Exchange phase, Round: 6
Wed Jul 18 11:57:32 IDT 2012	In begin exch.phase, get counter offers returned: 0
Wed Jul 18 11:58:12 IDT 2012	A Phase Ended: Exchange Phase
Wed Jul 18 11:58:12 IDT 2012	Responder 337 sent: { chips  'CTRed':0 'CTPurple':0 'CTGreen':0 'grey78':0 'CTYellow':0 }
Wed Jul 18 11:58:12 IDT 2012	Protocol: A New Phase Began: Movement Phase
Wed Jul 18 11:58:12 IDT 2012	Protocol: Movement phase, Round: 6
Wed Jul 18 11:58:32 IDT 2012	A Phase Ended: Movement Phase
Wed Jul 18 11:58:32 IDT 2012	Swaping roles:
Wed Jul 18 11:58:32 IDT 2012	Proposer is: 337
Wed Jul 18 11:58:32 IDT 2012	Responder is: 999
Wed Jul 18 11:58:32 IDT 2012	Protocol: A New Phase Began: Feedback Phase
Wed Jul 18 11:58:32 IDT 2012	Protocol: Feedback phase, Round: 6
Wed Jul 18 11:58:32 IDT 2012	Number of consecutive no movements for player 999 is 1
Wed Jul 18 11:58:32 IDT 2012	Number of consecutive no movements for player 337 is 1
Wed Jul 18 11:58:37 IDT 2012	A Phase Ended: Feedback Phase
Wed Jul 18 11:58:37 IDT 2012	Protocol: A New Phase Began: Communication Phase
Wed Jul 18 11:58:37 IDT 2012	Protocol: Communication phase, Round: 7
Wed Jul 18 11:58:39 IDT 2012	Received communication message 
Wed Jul 18 11:58:39 IDT 2012	From player: 337
Wed Jul 18 11:58:39 IDT 2012	To player: 999
Wed Jul 18 11:58:39 IDT 2012	Message type: basicproposal
Wed Jul 18 11:58:39 IDT 2012	Chips to send by proposer: { chips  'grey78':1 }
Wed Jul 18 11:58:39 IDT 2012	Chips to send by responder: { chips  'CTYellow':2 }
Wed Jul 18 11:58:48 IDT 2012	Received communication message 
Wed Jul 18 11:58:48 IDT 2012	From player: 999
Wed Jul 18 11:58:48 IDT 2012	To player: 337
Wed Jul 18 11:58:48 IDT 2012	Message type: basicproposaldiscussion
Wed Jul 18 11:58:48 IDT 2012	Player 999 accepted offer
Wed Jul 18 11:58:48 IDT 2012	Prop accepted, set counter offers count to: 0
Wed Jul 18 11:58:48 IDT 2012	Prop accepted, get counter offers returned: 0
Wed Jul 18 11:58:48 IDT 2012	A Phase Ended: Communication Phase
Wed Jul 18 11:58:48 IDT 2012	Protocol: A New Phase Began: Exchange Phase
Wed Jul 18 11:58:48 IDT 2012	Protocol: Exchange phase, Round: 7
Wed Jul 18 11:58:48 IDT 2012	In begin exch.phase, get counter offers returned: 0
Wed Jul 18 11:58:48 IDT 2012	A Phase Ended: Exchange Phase
Wed Jul 18 11:58:48 IDT 2012	Proposer 337 sent: { chips  'CTRed':0 'CTPurple':0 'CTGreen':0 'grey78':0 'CTYellow':0 }
Wed Jul 18 11:58:48 IDT 2012	Responder 999 sent: { chips  'CTYellow':2 }
Wed Jul 18 11:58:48 IDT 2012	Protocol: A New Phase Began: Movement Phase
Wed Jul 18 11:58:48 IDT 2012	Protocol: Movement phase, Round: 7
Wed Jul 18 11:59:07 IDT 2012	A Phase Ended: Movement Phase
Wed Jul 18 11:59:07 IDT 2012	Swaping roles:
Wed Jul 18 11:59:07 IDT 2012	Proposer is: 999
Wed Jul 18 11:59:07 IDT 2012	Responder is: 337
Wed Jul 18 11:59:07 IDT 2012	Protocol: A New Phase Began: Feedback Phase
Wed Jul 18 11:59:07 IDT 2012	Protocol: Feedback phase, Round: 7
Wed Jul 18 11:59:07 IDT 2012	Number of consecutive no movements for player 999 is 2
Wed Jul 18 11:59:07 IDT 2012	Number of consecutive no movements for player 337 is 2
Wed Jul 18 11:59:12 IDT 2012	A Phase Ended: Feedback Phase
Wed Jul 18 11:59:12 IDT 2012	Protocol: A New Phase Began: Communication Phase
Wed Jul 18 11:59:12 IDT 2012	Protocol: Communication phase, Round: 8
Wed Jul 18 11:59:29 IDT 2012	Received communication message 
Wed Jul 18 11:59:29 IDT 2012	From player: 999
Wed Jul 18 11:59:29 IDT 2012	To player: 337
Wed Jul 18 11:59:29 IDT 2012	Message type: basicproposal
Wed Jul 18 11:59:29 IDT 2012	Chips to send by proposer: { chips  'CTRed':0 'CTPurple':0 'CTGreen':0 'grey78':0 'CTYellow':0 }
Wed Jul 18 11:59:29 IDT 2012	Chips to send by responder: { chips  'CTRed':0 'CTPurple':0 'CTGreen':0 'grey78':0 'CTYellow':0 }
Wed Jul 18 11:59:33 IDT 2012	Received communication message 
Wed Jul 18 11:59:33 IDT 2012	From player: 337
Wed Jul 18 11:59:33 IDT 2012	To player: 999
Wed Jul 18 11:59:33 IDT 2012	Message type: basicproposaldiscussion
Wed Jul 18 11:59:33 IDT 2012	Player 337 accepted offer
Wed Jul 18 11:59:33 IDT 2012	Prop accepted, set counter offers count to: 0
Wed Jul 18 11:59:33 IDT 2012	Prop accepted, get counter offers returned: 0
Wed Jul 18 11:59:33 IDT 2012	A Phase Ended: Communication Phase
Wed Jul 18 11:59:33 IDT 2012	Protocol: A New Phase Began: Exchange Phase
Wed Jul 18 11:59:33 IDT 2012	Protocol: Exchange phase, Round: 8
Wed Jul 18 11:59:33 IDT 2012	In begin exch.phase, get counter offers returned: 0
Wed Jul 18 12:00:12 IDT 2012	A Phase Ended: Exchange Phase
Wed Jul 18 12:00:12 IDT 2012	Responder 337 sent: { chips  'CTRed':0 'CTPurple':0 'CTGreen':0 'grey78':0 'CTYellow':0 }
Wed Jul 18 12:00:12 IDT 2012	Protocol: A New Phase Began: Movement Phase
Wed Jul 18 12:00:12 IDT 2012	Protocol: Movement phase, Round: 8
Wed Jul 18 12:00:12 IDT 2012	Player 337 moved to (R:4,C:3)
Wed Jul 18 12:00:12 IDT 2012	Player 999 moved to (R:4,C:1)
Wed Jul 18 12:00:32 IDT 2012	A Phase Ended: Movement Phase
Wed Jul 18 12:00:32 IDT 2012	Swaping roles:
Wed Jul 18 12:00:32 IDT 2012	Proposer is: 337
Wed Jul 18 12:00:32 IDT 2012	Responder is: 999
Wed Jul 18 12:00:32 IDT 2012	Protocol: A New Phase Began: Feedback Phase
Wed Jul 18 12:00:32 IDT 2012	Protocol: Feedback phase, Round: 8
Wed Jul 18 12:00:32 IDT 2012	Number of consecutive no movements for player 999 is 0
Wed Jul 18 12:00:32 IDT 2012	Number of consecutive no movements for player 337 is 0
Wed Jul 18 12:00:37 IDT 2012	A Phase Ended: Feedback Phase
Wed Jul 18 12:00:37 IDT 2012	Protocol: A New Phase Began: Communication Phase
Wed Jul 18 12:00:37 IDT 2012	Protocol: Communication phase, Round: 9
Wed Jul 18 12:00:40 IDT 2012	Received communication message 
Wed Jul 18 12:00:40 IDT 2012	From player: 337
Wed Jul 18 12:00:40 IDT 2012	To player: 999
Wed Jul 18 12:00:40 IDT 2012	Message type: basicproposal
Wed Jul 18 12:00:40 IDT 2012	Chips to send by proposer: { chips  'grey78':1 }
Wed Jul 18 12:00:40 IDT 2012	Chips to send by responder: { chips  'CTGreen':2 }
Wed Jul 18 12:00:54 IDT 2012	Received communication message 
Wed Jul 18 12:00:54 IDT 2012	From player: 999
Wed Jul 18 12:00:54 IDT 2012	To player: 337
Wed Jul 18 12:00:54 IDT 2012	Message type: basicproposaldiscussion
Wed Jul 18 12:00:54 IDT 2012	Player 999 accepted offer
Wed Jul 18 12:00:54 IDT 2012	Prop accepted, set counter offers count to: 0
Wed Jul 18 12:00:54 IDT 2012	Prop accepted, get counter offers returned: 0
Wed Jul 18 12:00:54 IDT 2012	A Phase Ended: Communication Phase
Wed Jul 18 12:00:54 IDT 2012	Protocol: A New Phase Began: Exchange Phase
Wed Jul 18 12:00:54 IDT 2012	Protocol: Exchange phase, Round: 9
Wed Jul 18 12:00:54 IDT 2012	In begin exch.phase, get counter offers returned: 0
Wed Jul 18 12:00:54 IDT 2012	A Phase Ended: Exchange Phase
Wed Jul 18 12:00:54 IDT 2012	Proposer 337 sent: { chips  'CTRed':0 'CTPurple':0 'CTGreen':0 'grey78':0 'CTYellow':0 }
Wed Jul 18 12:00:54 IDT 2012	Responder 999 sent: { chips  'CTGreen':2 }
Wed Jul 18 12:00:54 IDT 2012	Protocol: A New Phase Began: Movement Phase
Wed Jul 18 12:00:54 IDT 2012	Protocol: Movement phase, Round: 9
Wed Jul 18 12:01:13 IDT 2012	A Phase Ended: Movement Phase
Wed Jul 18 12:01:13 IDT 2012	Swaping roles:
Wed Jul 18 12:01:13 IDT 2012	Proposer is: 999
Wed Jul 18 12:01:13 IDT 2012	Responder is: 337
Wed Jul 18 12:01:13 IDT 2012	Protocol: A New Phase Began: Feedback Phase
Wed Jul 18 12:01:13 IDT 2012	Protocol: Feedback phase, Round: 9
Wed Jul 18 12:01:13 IDT 2012	Number of consecutive no movements for player 999 is 1
Wed Jul 18 12:01:13 IDT 2012	Number of consecutive no movements for player 337 is 1
Wed Jul 18 12:01:18 IDT 2012	A Phase Ended: Feedback Phase
Wed Jul 18 12:01:18 IDT 2012	Protocol: A New Phase Began: Communication Phase
Wed Jul 18 12:01:18 IDT 2012	Protocol: Communication phase, Round: 10
Wed Jul 18 12:01:35 IDT 2012	Received communication message 
Wed Jul 18 12:01:35 IDT 2012	From player: 999
Wed Jul 18 12:01:35 IDT 2012	To player: 337
Wed Jul 18 12:01:35 IDT 2012	Message type: basicproposal
Wed Jul 18 12:01:35 IDT 2012	Chips to send by proposer: { chips  'CTRed':0 'CTPurple':0 'CTGreen':0 'grey78':0 'CTYellow':0 }
Wed Jul 18 12:01:35 IDT 2012	Chips to send by responder: { chips  'CTRed':0 'CTPurple':0 'CTGreen':0 'grey78':0 'CTYellow':0 }
Wed Jul 18 12:01:36 IDT 2012	Received communication message 
Wed Jul 18 12:01:36 IDT 2012	From player: 337
Wed Jul 18 12:01:36 IDT 2012	To player: 999
Wed Jul 18 12:01:36 IDT 2012	Message type: basicproposaldiscussion
Wed Jul 18 12:01:36 IDT 2012	Player 337 accepted offer
Wed Jul 18 12:01:36 IDT 2012	Prop accepted, set counter offers count to: 0
Wed Jul 18 12:01:36 IDT 2012	Prop accepted, get counter offers returned: 0
Wed Jul 18 12:01:36 IDT 2012	A Phase Ended: Communication Phase
Wed Jul 18 12:01:36 IDT 2012	Protocol: A New Phase Began: Exchange Phase
Wed Jul 18 12:01:36 IDT 2012	Protocol: Exchange phase, Round: 10
Wed Jul 18 12:01:36 IDT 2012	In begin exch.phase, get counter offers returned: 0
Wed Jul 18 12:02:15 IDT 2012	A Phase Ended: Exchange Phase
Wed Jul 18 12:02:15 IDT 2012	Responder 337 sent: { chips  'CTRed':0 'CTPurple':0 'CTGreen':0 'grey78':0 'CTYellow':0 }
Wed Jul 18 12:02:15 IDT 2012	Protocol: A New Phase Began: Movement Phase
Wed Jul 18 12:02:15 IDT 2012	Protocol: Movement phase, Round: 10
Wed Jul 18 12:02:35 IDT 2012	A Phase Ended: Movement Phase
Wed Jul 18 12:02:35 IDT 2012	Swaping roles:
Wed Jul 18 12:02:35 IDT 2012	Proposer is: 337
Wed Jul 18 12:02:35 IDT 2012	Responder is: 999
Wed Jul 18 12:02:35 IDT 2012	Protocol: A New Phase Began: Feedback Phase
Wed Jul 18 12:02:35 IDT 2012	Protocol: Feedback phase, Round: 10
Wed Jul 18 12:02:35 IDT 2012	Number of consecutive no movements for player 999 is 2
Wed Jul 18 12:02:35 IDT 2012	Number of consecutive no movements for player 337 is 2
Wed Jul 18 12:02:40 IDT 2012	A Phase Ended: Feedback Phase
Wed Jul 18 12:02:40 IDT 2012	Protocol: A New Phase Began: Communication Phase
Wed Jul 18 12:02:40 IDT 2012	Protocol: Communication phase, Round: 11
Wed Jul 18 12:02:45 IDT 2012	Received communication message 
Wed Jul 18 12:02:45 IDT 2012	From player: 337
Wed Jul 18 12:02:45 IDT 2012	To player: 999
Wed Jul 18 12:02:45 IDT 2012	Message type: basicproposal
Wed Jul 18 12:02:45 IDT 2012	Chips to send by proposer: { chips  'grey78':1 }
Wed Jul 18 12:02:45 IDT 2012	Chips to send by responder: { chips  'CTGreen':2 }
Wed Jul 18 12:02:59 IDT 2012	Received communication message 
Wed Jul 18 12:02:59 IDT 2012	From player: 999
Wed Jul 18 12:02:59 IDT 2012	To player: 337
Wed Jul 18 12:02:59 IDT 2012	Message type: basicproposaldiscussion
Wed Jul 18 12:02:59 IDT 2012	Player 999 accepted offer
Wed Jul 18 12:02:59 IDT 2012	Prop accepted, set counter offers count to: 0
Wed Jul 18 12:02:59 IDT 2012	Prop accepted, get counter offers returned: 0
Wed Jul 18 12:02:59 IDT 2012	A Phase Ended: Communication Phase
Wed Jul 18 12:02:59 IDT 2012	Protocol: A New Phase Began: Exchange Phase
Wed Jul 18 12:02:59 IDT 2012	Protocol: Exchange phase, Round: 11
Wed Jul 18 12:02:59 IDT 2012	In begin exch.phase, get counter offers returned: 0
Wed Jul 18 12:02:59 IDT 2012	A Phase Ended: Exchange Phase
Wed Jul 18 12:02:59 IDT 2012	Proposer 337 sent: { chips  'CTRed':0 'CTPurple':0 'CTGreen':0 'grey78':0 'CTYellow':0 }
Wed Jul 18 12:02:59 IDT 2012	Responder 999 sent: { chips  'CTGreen':2 }
Wed Jul 18 12:02:59 IDT 2012	Protocol: A New Phase Began: Movement Phase
Wed Jul 18 12:02:59 IDT 2012	Protocol: Movement phase, Round: 11
Wed Jul 18 12:02:59 IDT 2012	Player 337 moved to (R:3,C:3)
Wed Jul 18 12:02:59 IDT 2012	Player 999 moved to (R:3,C:1)
Wed Jul 18 12:03:19 IDT 2012	A Phase Ended: Movement Phase
Wed Jul 18 12:03:19 IDT 2012	Swaping roles:
Wed Jul 18 12:03:19 IDT 2012	Proposer is: 999
Wed Jul 18 12:03:19 IDT 2012	Responder is: 337
Wed Jul 18 12:03:19 IDT 2012	Protocol: A New Phase Began: Feedback Phase
Wed Jul 18 12:03:19 IDT 2012	Protocol: Feedback phase, Round: 11
Wed Jul 18 12:03:19 IDT 2012	Number of consecutive no movements for player 999 is 0
Wed Jul 18 12:03:19 IDT 2012	Number of consecutive no movements for player 337 is 0
Wed Jul 18 12:03:24 IDT 2012	A Phase Ended: Feedback Phase
Wed Jul 18 12:03:24 IDT 2012	Protocol: A New Phase Began: Communication Phase
Wed Jul 18 12:03:24 IDT 2012	Protocol: Communication phase, Round: 12
Wed Jul 18 12:03:41 IDT 2012	Received communication message 
Wed Jul 18 12:03:41 IDT 2012	From player: 999
Wed Jul 18 12:03:41 IDT 2012	To player: 337
Wed Jul 18 12:03:41 IDT 2012	Message type: basicproposal
Wed Jul 18 12:03:41 IDT 2012	Chips to send by proposer: { chips  'CTRed':0 'CTPurple':0 'CTGreen':0 'grey78':0 'CTYellow':0 }
Wed Jul 18 12:03:41 IDT 2012	Chips to send by responder: { chips  'CTRed':0 'CTPurple':0 'CTGreen':0 'grey78':0 'CTYellow':0 }
Wed Jul 18 12:03:43 IDT 2012	Received communication message 
Wed Jul 18 12:03:43 IDT 2012	From player: 337
Wed Jul 18 12:03:43 IDT 2012	To player: 999
Wed Jul 18 12:03:43 IDT 2012	Message type: basicproposaldiscussion
Wed Jul 18 12:03:43 IDT 2012	Player 337 accepted offer
Wed Jul 18 12:03:43 IDT 2012	Prop accepted, set counter offers count to: 0
Wed Jul 18 12:03:43 IDT 2012	Prop accepted, get counter offers returned: 0
Wed Jul 18 12:03:43 IDT 2012	A Phase Ended: Communication Phase
Wed Jul 18 12:03:43 IDT 2012	Protocol: A New Phase Began: Exchange Phase
Wed Jul 18 12:03:43 IDT 2012	Protocol: Exchange phase, Round: 12
Wed Jul 18 12:03:43 IDT 2012	In begin exch.phase, get counter offers returned: 0
Wed Jul 18 12:04:23 IDT 2012	A Phase Ended: Exchange Phase
Wed Jul 18 12:04:23 IDT 2012	Responder 337 sent: { chips  'CTRed':0 'CTPurple':0 'CTGreen':0 'grey78':0 'CTYellow':0 }
Wed Jul 18 12:04:23 IDT 2012	Protocol: A New Phase Began: Movement Phase
Wed Jul 18 12:04:23 IDT 2012	Protocol: Movement phase, Round: 12
Wed Jul 18 12:04:43 IDT 2012	A Phase Ended: Movement Phase
Wed Jul 18 12:04:43 IDT 2012	Swaping roles:
Wed Jul 18 12:04:43 IDT 2012	Proposer is: 337
Wed Jul 18 12:04:43 IDT 2012	Responder is: 999
Wed Jul 18 12:04:43 IDT 2012	Protocol: A New Phase Began: Feedback Phase
Wed Jul 18 12:04:43 IDT 2012	Protocol: Feedback phase, Round: 12
Wed Jul 18 12:04:43 IDT 2012	Number of consecutive no movements for player 999 is 1
Wed Jul 18 12:04:43 IDT 2012	Number of consecutive no movements for player 337 is 1
Wed Jul 18 12:04:48 IDT 2012	A Phase Ended: Feedback Phase
Wed Jul 18 12:04:48 IDT 2012	Protocol: A New Phase Began: Communication Phase
Wed Jul 18 12:04:48 IDT 2012	Protocol: Communication phase, Round: 13
Wed Jul 18 12:04:49 IDT 2012	Received communication message 
Wed Jul 18 12:04:49 IDT 2012	From player: 337
Wed Jul 18 12:04:49 IDT 2012	To player: 999
Wed Jul 18 12:04:49 IDT 2012	Message type: basicproposal
Wed Jul 18 12:04:49 IDT 2012	Chips to send by proposer: { chips  'grey78':1 }
Wed Jul 18 12:04:49 IDT 2012	Chips to send by responder: { chips  'CTGreen':2 }
Wed Jul 18 12:04:58 IDT 2012	Received communication message 
Wed Jul 18 12:04:58 IDT 2012	From player: 999
Wed Jul 18 12:04:58 IDT 2012	To player: 337
Wed Jul 18 12:04:58 IDT 2012	Message type: basicproposaldiscussion
Wed Jul 18 12:04:58 IDT 2012	Player 999 accepted offer
Wed Jul 18 12:04:58 IDT 2012	Prop accepted, set counter offers count to: 0
Wed Jul 18 12:04:58 IDT 2012	Prop accepted, get counter offers returned: 0
Wed Jul 18 12:04:58 IDT 2012	A Phase Ended: Communication Phase
Wed Jul 18 12:04:58 IDT 2012	Protocol: A New Phase Began: Exchange Phase
Wed Jul 18 12:04:58 IDT 2012	Protocol: Exchange phase, Round: 13
Wed Jul 18 12:04:58 IDT 2012	In begin exch.phase, get counter offers returned: 0
Wed Jul 18 12:04:58 IDT 2012	A Phase Ended: Exchange Phase
Wed Jul 18 12:04:58 IDT 2012	Proposer 337 sent: { chips  'CTRed':0 'CTPurple':0 'CTGreen':0 'grey78':0 'CTYellow':0 }
Wed Jul 18 12:04:58 IDT 2012	Responder 999 sent: { chips  'CTGreen':2 }
Wed Jul 18 12:04:58 IDT 2012	Protocol: A New Phase Began: Movement Phase
Wed Jul 18 12:04:58 IDT 2012	Protocol: Movement phase, Round: 13
Wed Jul 18 12:05:18 IDT 2012	A Phase Ended: Movement Phase
Wed Jul 18 12:05:18 IDT 2012	Swaping roles:
Wed Jul 18 12:05:18 IDT 2012	Proposer is: 999
Wed Jul 18 12:05:18 IDT 2012	Responder is: 337
Wed Jul 18 12:05:18 IDT 2012	Protocol: A New Phase Began: Feedback Phase
Wed Jul 18 12:05:18 IDT 2012	Protocol: Feedback phase, Round: 13
Wed Jul 18 12:05:18 IDT 2012	Number of consecutive no movements for player 999 is 2
Wed Jul 18 12:05:18 IDT 2012	Number of consecutive no movements for player 337 is 2
Wed Jul 18 12:05:23 IDT 2012	A Phase Ended: Feedback Phase
Wed Jul 18 12:05:23 IDT 2012	Protocol: A New Phase Began: Communication Phase
Wed Jul 18 12:05:23 IDT 2012	Protocol: Communication phase, Round: 14
Wed Jul 18 12:05:39 IDT 2012	Received communication message 
Wed Jul 18 12:05:39 IDT 2012	From player: 999
Wed Jul 18 12:05:39 IDT 2012	To player: 337
Wed Jul 18 12:05:39 IDT 2012	Message type: basicproposal
Wed Jul 18 12:05:39 IDT 2012	Chips to send by proposer: { chips  'CTRed':0 'CTPurple':0 'CTGreen':0 'grey78':0 'CTYellow':0 }
Wed Jul 18 12:05:39 IDT 2012	Chips to send by responder: { chips  'CTRed':0 'CTPurple':0 'CTGreen':0 'grey78':0 'CTYellow':0 }
Wed Jul 18 12:05:43 IDT 2012	Received communication message 
Wed Jul 18 12:05:43 IDT 2012	From player: 337
Wed Jul 18 12:05:43 IDT 2012	To player: 999
Wed Jul 18 12:05:43 IDT 2012	Message type: basicproposaldiscussion
Wed Jul 18 12:05:43 IDT 2012	Player 337 accepted offer
Wed Jul 18 12:05:43 IDT 2012	Prop accepted, set counter offers count to: 0
Wed Jul 18 12:05:43 IDT 2012	Prop accepted, get counter offers returned: 0
Wed Jul 18 12:05:43 IDT 2012	A Phase Ended: Communication Phase
Wed Jul 18 12:05:43 IDT 2012	Protocol: A New Phase Began: Exchange Phase
Wed Jul 18 12:05:43 IDT 2012	Protocol: Exchange phase, Round: 14
Wed Jul 18 12:05:43 IDT 2012	In begin exch.phase, get counter offers returned: 0
Wed Jul 18 12:06:22 IDT 2012	A Phase Ended: Exchange Phase
Wed Jul 18 12:06:22 IDT 2012	Responder 337 sent: { chips  'CTRed':0 'CTPurple':0 'CTGreen':0 'grey78':0 'CTYellow':0 }
Wed Jul 18 12:06:22 IDT 2012	Player 337 moved to (R:2,C:3)
Wed Jul 18 12:06:22 IDT 2012	Player 999 moved to (R:2,C:1)
Wed Jul 18 12:06:22 IDT 2012	Protocol: A New Phase Began: Movement Phase
Wed Jul 18 12:06:22 IDT 2012	Protocol: Movement phase, Round: 14
Wed Jul 18 12:06:42 IDT 2012	A Phase Ended: Movement Phase
Wed Jul 18 12:06:42 IDT 2012	Swaping roles:
Wed Jul 18 12:06:42 IDT 2012	Proposer is: 337
Wed Jul 18 12:06:42 IDT 2012	Responder is: 999
Wed Jul 18 12:06:42 IDT 2012	Protocol: A New Phase Began: Feedback Phase
Wed Jul 18 12:06:42 IDT 2012	Protocol: Feedback phase, Round: 14
Wed Jul 18 12:06:42 IDT 2012	Number of consecutive no movements for player 999 is 0
Wed Jul 18 12:06:42 IDT 2012	Number of consecutive no movements for player 337 is 0
Wed Jul 18 12:06:47 IDT 2012	A Phase Ended: Feedback Phase
Wed Jul 18 12:06:47 IDT 2012	Protocol: A New Phase Began: Communication Phase
Wed Jul 18 12:06:47 IDT 2012	Protocol: Communication phase, Round: 15
Wed Jul 18 12:06:49 IDT 2012	Received communication message 
Wed Jul 18 12:06:49 IDT 2012	From player: 337
Wed Jul 18 12:06:49 IDT 2012	To player: 999
Wed Jul 18 12:06:49 IDT 2012	Message type: basicproposal
Wed Jul 18 12:06:49 IDT 2012	Chips to send by proposer: { chips  'grey78':1 }
Wed Jul 18 12:06:49 IDT 2012	Chips to send by responder: { chips  'CTGreen':2 }
Wed Jul 18 12:07:03 IDT 2012	Received communication message 
Wed Jul 18 12:07:03 IDT 2012	From player: 999
Wed Jul 18 12:07:03 IDT 2012	To player: 337
Wed Jul 18 12:07:03 IDT 2012	Message type: basicproposaldiscussion
Wed Jul 18 12:07:03 IDT 2012	Player 999 accepted offer
Wed Jul 18 12:07:03 IDT 2012	Prop accepted, set counter offers count to: 0
Wed Jul 18 12:07:03 IDT 2012	Prop accepted, get counter offers returned: 0
Wed Jul 18 12:07:03 IDT 2012	A Phase Ended: Communication Phase
Wed Jul 18 12:07:03 IDT 2012	Protocol: A New Phase Began: Exchange Phase
Wed Jul 18 12:07:03 IDT 2012	Protocol: Exchange phase, Round: 15
Wed Jul 18 12:07:03 IDT 2012	In begin exch.phase, get counter offers returned: 0
Wed Jul 18 12:07:03 IDT 2012	A Phase Ended: Exchange Phase
Wed Jul 18 12:07:03 IDT 2012	Proposer 337 sent: { chips  'CTRed':0 'CTPurple':0 'CTGreen':0 'grey78':0 'CTYellow':0 }
Wed Jul 18 12:07:03 IDT 2012	Responder 999 sent: { chips  'CTGreen':2 }
Wed Jul 18 12:07:03 IDT 2012	Protocol: A New Phase Began: Movement Phase
Wed Jul 18 12:07:03 IDT 2012	Protocol: Movement phase, Round: 15
Wed Jul 18 12:07:23 IDT 2012	A Phase Ended: Movement Phase
Wed Jul 18 12:07:23 IDT 2012	Swaping roles:
Wed Jul 18 12:07:23 IDT 2012	Proposer is: 999
Wed Jul 18 12:07:23 IDT 2012	Responder is: 337
Wed Jul 18 12:07:23 IDT 2012	Protocol: A New Phase Began: Feedback Phase
Wed Jul 18 12:07:23 IDT 2012	Protocol: Feedback phase, Round: 15
Wed Jul 18 12:07:23 IDT 2012	Number of consecutive no movements for player 999 is 1
Wed Jul 18 12:07:23 IDT 2012	Number of consecutive no movements for player 337 is 1
Wed Jul 18 12:07:28 IDT 2012	A Phase Ended: Feedback Phase
Wed Jul 18 12:07:28 IDT 2012	Protocol: A New Phase Began: Communication Phase
Wed Jul 18 12:07:28 IDT 2012	Protocol: Communication phase, Round: 16
Wed Jul 18 12:07:47 IDT 2012	Received communication message 
Wed Jul 18 12:07:47 IDT 2012	From player: 999
Wed Jul 18 12:07:47 IDT 2012	To player: 337
Wed Jul 18 12:07:47 IDT 2012	Message type: basicproposal
Wed Jul 18 12:07:47 IDT 2012	Chips to send by proposer: { chips  'CTRed':0 'CTPurple':0 'CTGreen':0 'grey78':0 'CTYellow':0 }
Wed Jul 18 12:07:47 IDT 2012	Chips to send by responder: { chips  'CTRed':0 'CTPurple':0 'CTGreen':0 'grey78':0 'CTYellow':0 }
Wed Jul 18 12:07:48 IDT 2012	Received communication message 
Wed Jul 18 12:07:48 IDT 2012	From player: 337
Wed Jul 18 12:07:48 IDT 2012	To player: 999
Wed Jul 18 12:07:48 IDT 2012	Message type: basicproposaldiscussion
Wed Jul 18 12:07:48 IDT 2012	Player 337 accepted offer
Wed Jul 18 12:07:48 IDT 2012	Prop accepted, set counter offers count to: 0
Wed Jul 18 12:07:48 IDT 2012	Prop accepted, get counter offers returned: 0
Wed Jul 18 12:07:48 IDT 2012	A Phase Ended: Communication Phase
Wed Jul 18 12:07:48 IDT 2012	Protocol: A New Phase Began: Exchange Phase
Wed Jul 18 12:07:48 IDT 2012	Protocol: Exchange phase, Round: 16
Wed Jul 18 12:07:48 IDT 2012	In begin exch.phase, get counter offers returned: 0
Wed Jul 18 12:08:27 IDT 2012	A Phase Ended: Exchange Phase
Wed Jul 18 12:08:27 IDT 2012	Responder 337 sent: { chips  'CTRed':0 'CTPurple':0 'CTGreen':0 'grey78':0 'CTYellow':0 }
Wed Jul 18 12:08:27 IDT 2012	Protocol: A New Phase Began: Movement Phase
Wed Jul 18 12:08:27 IDT 2012	Protocol: Movement phase, Round: 16
Wed Jul 18 12:08:47 IDT 2012	A Phase Ended: Movement Phase
Wed Jul 18 12:08:47 IDT 2012	Swaping roles:
Wed Jul 18 12:08:47 IDT 2012	Proposer is: 337
Wed Jul 18 12:08:47 IDT 2012	Responder is: 999
Wed Jul 18 12:08:47 IDT 2012	Protocol: A New Phase Began: Feedback Phase
Wed Jul 18 12:08:47 IDT 2012	Protocol: Feedback phase, Round: 16
Wed Jul 18 12:08:47 IDT 2012	Number of consecutive no movements for player 999 is 2
Wed Jul 18 12:08:47 IDT 2012	Number of consecutive no movements for player 337 is 2
Wed Jul 18 12:08:52 IDT 2012	A Phase Ended: Feedback Phase
Wed Jul 18 12:08:52 IDT 2012	Protocol: A New Phase Began: Communication Phase
Wed Jul 18 12:08:52 IDT 2012	Protocol: Communication phase, Round: 17
Wed Jul 18 12:08:58 IDT 2012	Received communication message 
Wed Jul 18 12:08:58 IDT 2012	From player: 337
Wed Jul 18 12:08:58 IDT 2012	To player: 999
Wed Jul 18 12:08:58 IDT 2012	Message type: basicproposal
Wed Jul 18 12:08:58 IDT 2012	Chips to send by proposer: { chips  'grey78':1 }
Wed Jul 18 12:08:58 IDT 2012	Chips to send by responder: { chips  'CTGreen':1 }
Wed Jul 18 12:09:06 IDT 2012	Received communication message 
Wed Jul 18 12:09:06 IDT 2012	From player: 999
Wed Jul 18 12:09:06 IDT 2012	To player: 337
Wed Jul 18 12:09:06 IDT 2012	Message type: basicproposaldiscussion
Wed Jul 18 12:09:06 IDT 2012	Player 999 accepted offer
Wed Jul 18 12:09:06 IDT 2012	Prop accepted, set counter offers count to: 0
Wed Jul 18 12:09:06 IDT 2012	Prop accepted, get counter offers returned: 0
Wed Jul 18 12:09:06 IDT 2012	A Phase Ended: Communication Phase
Wed Jul 18 12:09:06 IDT 2012	Protocol: A New Phase Began: Exchange Phase
Wed Jul 18 12:09:06 IDT 2012	Protocol: Exchange phase, Round: 17
Wed Jul 18 12:09:06 IDT 2012	In begin exch.phase, get counter offers returned: 0
Wed Jul 18 12:09:06 IDT 2012	A Phase Ended: Exchange Phase
Wed Jul 18 12:09:06 IDT 2012	Proposer 337 sent: { chips  'CTRed':0 'CTPurple':0 'CTGreen':0 'grey78':0 'CTYellow':0 }
Wed Jul 18 12:09:06 IDT 2012	Responder 999 sent: { chips  'CTGreen':1 }
Wed Jul 18 12:09:06 IDT 2012	Protocol: A New Phase Began: Movement Phase
Wed Jul 18 12:09:06 IDT 2012	Protocol: Movement phase, Round: 17
Wed Jul 18 12:09:06 IDT 2012	Player 337 moved to (R:1,C:3)
Wed Jul 18 12:09:25 IDT 2012	A Phase Ended: Movement Phase
Wed Jul 18 12:09:25 IDT 2012	Swaping roles:
Wed Jul 18 12:09:25 IDT 2012	Proposer is: 999
Wed Jul 18 12:09:25 IDT 2012	Responder is: 337
Wed Jul 18 12:09:25 IDT 2012	Protocol: A New Phase Began: Feedback Phase
Wed Jul 18 12:09:25 IDT 2012	Protocol: Feedback phase, Round: 17
Wed Jul 18 12:09:25 IDT 2012	Number of consecutive no movements for player 999 is 3
Wed Jul 18 12:09:25 IDT 2012	Number of consecutive no movements for player 337 is 0
Wed Jul 18 12:09:25 IDT 2012	Ending game, all players move as much as they can towards goal
Wed Jul 18 12:09:25 IDT 2012	Player: 999 ,role: Proposer score is: -20
Wed Jul 18 12:09:25 IDT 2012	Player: 337 ,role: Responder score is: 265
