Mon Jul 16 22:33:01 IDT 2012	This is the CT debug logger; svn version 638; sep 27 09
Mon Jul 16 22:33:01 IDT 2012	Mon Jul 16 22:33:01 IDT 2012
Mon Jul 16 22:33:01 IDT 2012	A new Alternative Offers game has began
Mon Jul 16 22:33:01 IDT 2012	ID Number: 31827
Mon Jul 16 22:33:01 IDT 2012	Creating board
Mon Jul 16 22:33:01 IDT 2012	<colors>
Mon Jul 16 22:33:01 IDT 2012	{ GamePalette  'CTRed':0 'CTPurple':1 'CTGreen':2 'grey78':3 'CTYellow':4 }
Mon Jul 16 22:33:01 IDT 2012	<rows>
Mon Jul 16 22:33:01 IDT 2012	7
Mon Jul 16 22:33:01 IDT 2012	<columns>
Mon Jul 16 22:33:01 IDT 2012	5
Mon Jul 16 22:33:01 IDT 2012	<squaresColors>
Mon Jul 16 22:33:01 IDT 2012	CTPurple CTRed CTRed CTGreen CTPurple 
Mon Jul 16 22:33:01 IDT 2012	CTPurple grey78 CTPurple CTYellow CTPurple 
Mon Jul 16 22:33:01 IDT 2012	CTPurple CTRed CTPurple CTGreen CTPurple 
Mon Jul 16 22:33:01 IDT 2012	CTPurple grey78 CTPurple CTYellow CTPurple 
Mon Jul 16 22:33:01 IDT 2012	CTPurple CTRed CTPurple CTGreen CTPurple 
Mon Jul 16 22:33:01 IDT 2012	CTPurple grey78 CTPurple CTYellow CTPurple 
Mon Jul 16 22:33:01 IDT 2012	CTPurple CTRed CTPurple CTGreen CTPurple 
Mon Jul 16 22:33:01 IDT 2012	</squareColors>
Mon Jul 16 22:33:01 IDT 2012	<goalPosition>
Mon Jul 16 22:33:01 IDT 2012	Goal position: (R:0,C:2)
Mon Jul 16 22:33:01 IDT 2012	<numberOfPlayers>
Mon Jul 16 22:33:01 IDT 2012	2
Mon Jul 16 22:33:01 IDT 2012	<firstPlayerChips>
Mon Jul 16 22:33:01 IDT 2012	Setting chips for player: 999 id:0
Mon Jul 16 22:33:01 IDT 2012	{ chips  'CTRed':5 'CTGreen':10 'CTPurple':0 'grey78':0 'CTYellow':9 }
Mon Jul 16 22:33:01 IDT 2012	Player position: (R:6,C:0)
Mon Jul 16 22:33:01 IDT 2012	Setting chips for player: 337 id:1
Mon Jul 16 22:33:01 IDT 2012	{ chips  'CTRed':1 'CTGreen':13 'CTPurple':0 'grey78':10 'CTYellow':0 }
Mon Jul 16 22:33:01 IDT 2012	Player position: (R:6,C:4)
Mon Jul 16 22:33:01 IDT 2012	Protocol: A New Phase Began: Strategy Prep Phase
Mon Jul 16 22:33:01 IDT 2012	Protocol: Strategy Preparation phase, Round: 0
Mon Jul 16 22:33:01 IDT 2012	Maximum number of rounds with no consecutive movement is 3
Mon Jul 16 22:33:01 IDT 2012	In begin comm. phase, set counter offers count to: 0
Mon Jul 16 22:33:01 IDT 2012	In begin comm. phase, get counter offers returned: 0
Mon Jul 16 22:33:21 IDT 2012	A Phase Ended: Strategy Prep Phase
Mon Jul 16 22:33:21 IDT 2012	Protocol: A New Phase Began: Communication Phase
Mon Jul 16 22:33:21 IDT 2012	Protocol: Communication phase, Round: 0
Mon Jul 16 22:33:35 IDT 2012	Received communication message 
Mon Jul 16 22:33:35 IDT 2012	From player: 999
Mon Jul 16 22:33:35 IDT 2012	To player: 337
Mon Jul 16 22:33:35 IDT 2012	Message type: basicproposal
Mon Jul 16 22:33:35 IDT 2012	Chips to send by proposer: { chips  'CTRed':0 'CTPurple':0 'CTGreen':0 'grey78':0 'CTYellow':2 }
Mon Jul 16 22:33:35 IDT 2012	Chips to send by responder: { chips  'CTRed':0 'CTPurple':0 'CTGreen':0 'grey78':2 'CTYellow':0 }
Mon Jul 16 22:33:38 IDT 2012	Received communication message 
Mon Jul 16 22:33:38 IDT 2012	From player: 337
Mon Jul 16 22:33:38 IDT 2012	To player: 999
Mon Jul 16 22:33:38 IDT 2012	Message type: basicproposaldiscussion
Mon Jul 16 22:33:38 IDT 2012	Player 337 accepted offer
Mon Jul 16 22:33:38 IDT 2012	Prop accepted, set counter offers count to: 0
Mon Jul 16 22:33:38 IDT 2012	Prop accepted, get counter offers returned: 0
Mon Jul 16 22:33:38 IDT 2012	A Phase Ended: Communication Phase
Mon Jul 16 22:33:38 IDT 2012	Protocol: A New Phase Began: Exchange Phase
Mon Jul 16 22:33:38 IDT 2012	Protocol: Exchange phase, Round: 0
Mon Jul 16 22:33:38 IDT 2012	In begin exch.phase, get counter offers returned: 0
Mon Jul 16 22:33:38 IDT 2012	A Phase Ended: Exchange Phase
Mon Jul 16 22:33:39 IDT 2012	Proposer 999 sent: { chips  'CTRed':0 'CTPurple':0 'CTGreen':0 'grey78':0 'CTYellow':2 }
Mon Jul 16 22:33:39 IDT 2012	Responder 337 sent: { chips  'CTRed':0 'CTPurple':0 'CTGreen':0 'grey78':1 'CTYellow':0 }
Mon Jul 16 22:33:39 IDT 2012	Protocol: A New Phase Began: Movement Phase
Mon Jul 16 22:33:39 IDT 2012	Protocol: Movement phase, Round: 0
Mon Jul 16 22:33:58 IDT 2012	A Phase Ended: Movement Phase
Mon Jul 16 22:33:58 IDT 2012	Swaping roles:
Mon Jul 16 22:33:58 IDT 2012	Proposer is: 337
Mon Jul 16 22:33:58 IDT 2012	Responder is: 999
Mon Jul 16 22:33:58 IDT 2012	Protocol: A New Phase Began: Feedback Phase
Mon Jul 16 22:33:58 IDT 2012	Protocol: Feedback phase, Round: 0
Mon Jul 16 22:33:58 IDT 2012	Number of consecutive no movements for player 999 is 1
Mon Jul 16 22:33:58 IDT 2012	Number of consecutive no movements for player 337 is 1
Mon Jul 16 22:34:03 IDT 2012	A Phase Ended: Feedback Phase
Mon Jul 16 22:34:03 IDT 2012	Protocol: A New Phase Began: Communication Phase
Mon Jul 16 22:34:03 IDT 2012	Protocol: Communication phase, Round: 1
Mon Jul 16 22:34:04 IDT 2012	Received communication message 
Mon Jul 16 22:34:04 IDT 2012	From player: 337
Mon Jul 16 22:34:04 IDT 2012	To player: 999
Mon Jul 16 22:34:04 IDT 2012	Message type: basicproposal
Mon Jul 16 22:34:04 IDT 2012	Chips to send by proposer: { chips  'grey78':1 }
Mon Jul 16 22:34:04 IDT 2012	Chips to send by responder: { chips  'CTGreen':1 }
Mon Jul 16 22:34:15 IDT 2012	Received communication message 
Mon Jul 16 22:34:15 IDT 2012	From player: 999
Mon Jul 16 22:34:15 IDT 2012	To player: 337
Mon Jul 16 22:34:15 IDT 2012	Message type: basicproposaldiscussion
Mon Jul 16 22:34:15 IDT 2012	Player 999 rejected offer
Mon Jul 16 22:34:15 IDT 2012	Swaping roles:
Mon Jul 16 22:34:15 IDT 2012	Proposer is: 999
Mon Jul 16 22:34:15 IDT 2012	Responder is: 337
Mon Jul 16 22:34:15 IDT 2012	Prop rejected, set counter offers count to: 1
Mon Jul 16 22:34:15 IDT 2012	Prop rejected, get counter offers returned: 1
Mon Jul 16 22:34:19 IDT 2012	Slept 4 seconds
Mon Jul 16 22:34:19 IDT 2012	Sent role changed msgs
Mon Jul 16 22:34:37 IDT 2012	Received communication message 
Mon Jul 16 22:34:37 IDT 2012	From player: 999
Mon Jul 16 22:34:37 IDT 2012	To player: 337
Mon Jul 16 22:34:37 IDT 2012	Message type: basicproposal
Mon Jul 16 22:34:37 IDT 2012	Chips to send by proposer: { chips  'CTRed':0 'CTPurple':0 'CTGreen':1 'grey78':0 'CTYellow':1 }
Mon Jul 16 22:34:37 IDT 2012	Chips to send by responder: { chips  'CTRed':0 'CTPurple':0 'CTGreen':0 'grey78':2 'CTYellow':0 }
Mon Jul 16 22:34:37 IDT 2012	Received communication message 
Mon Jul 16 22:34:37 IDT 2012	From player: 337
Mon Jul 16 22:34:37 IDT 2012	To player: 999
Mon Jul 16 22:34:37 IDT 2012	Message type: basicproposaldiscussion
Mon Jul 16 22:34:37 IDT 2012	Player 337 rejected offer
Mon Jul 16 22:34:37 IDT 2012	Set counter offers count to: 0
Mon Jul 16 22:34:37 IDT 2012	A Phase Ended: Communication Phase
Mon Jul 16 22:34:37 IDT 2012	Protocol: A New Phase Began: Exchange Phase
Mon Jul 16 22:34:37 IDT 2012	Protocol: Exchange phase, Round: 1
Mon Jul 16 22:34:37 IDT 2012	In begin exch.phase, get counter offers returned: 0
Mon Jul 16 22:35:17 IDT 2012	A Phase Ended: Exchange Phase
Mon Jul 16 22:35:17 IDT 2012	Responder 337 sent: { chips  }
Mon Jul 16 22:35:17 IDT 2012	Protocol: A New Phase Began: Movement Phase
Mon Jul 16 22:35:17 IDT 2012	Protocol: Movement phase, Round: 1
Mon Jul 16 22:35:37 IDT 2012	A Phase Ended: Movement Phase
Mon Jul 16 22:35:37 IDT 2012	Protocol: A New Phase Began: Feedback Phase
Mon Jul 16 22:35:37 IDT 2012	Protocol: Feedback phase, Round: 1
Mon Jul 16 22:35:37 IDT 2012	Number of consecutive no movements for player 999 is 2
Mon Jul 16 22:35:37 IDT 2012	Number of consecutive no movements for player 337 is 2
Mon Jul 16 22:35:42 IDT 2012	A Phase Ended: Feedback Phase
Mon Jul 16 22:35:42 IDT 2012	Protocol: A New Phase Began: Communication Phase
Mon Jul 16 22:35:42 IDT 2012	Protocol: Communication phase, Round: 2
Mon Jul 16 22:36:00 IDT 2012	Received communication message 
Mon Jul 16 22:36:00 IDT 2012	From player: 999
Mon Jul 16 22:36:00 IDT 2012	To player: 337
Mon Jul 16 22:36:00 IDT 2012	Message type: basicproposal
Mon Jul 16 22:36:00 IDT 2012	Chips to send by proposer: { chips  'CTRed':0 'CTPurple':0 'CTGreen':0 'grey78':0 'CTYellow':2 }
Mon Jul 16 22:36:00 IDT 2012	Chips to send by responder: { chips  'CTRed':0 'CTPurple':0 'CTGreen':0 'grey78':2 'CTYellow':0 }
Mon Jul 16 22:36:04 IDT 2012	Received communication message 
Mon Jul 16 22:36:04 IDT 2012	From player: 337
Mon Jul 16 22:36:04 IDT 2012	To player: 999
Mon Jul 16 22:36:04 IDT 2012	Message type: basicproposaldiscussion
Mon Jul 16 22:36:04 IDT 2012	Player 337 accepted offer
Mon Jul 16 22:36:04 IDT 2012	Prop accepted, set counter offers count to: 0
Mon Jul 16 22:36:04 IDT 2012	Prop accepted, get counter offers returned: 0
Mon Jul 16 22:36:04 IDT 2012	A Phase Ended: Communication Phase
Mon Jul 16 22:36:04 IDT 2012	Protocol: A New Phase Began: Exchange Phase
Mon Jul 16 22:36:04 IDT 2012	Protocol: Exchange phase, Round: 2
Mon Jul 16 22:36:04 IDT 2012	In begin exch.phase, get counter offers returned: 0
Mon Jul 16 22:36:04 IDT 2012	A Phase Ended: Exchange Phase
Mon Jul 16 22:36:04 IDT 2012	Proposer 999 sent: { chips  'CTYellow':1 }
Mon Jul 16 22:36:04 IDT 2012	Responder 337 sent: { chips  'CTRed':0 'CTPurple':0 'CTGreen':0 'grey78':1 'CTYellow':0 }
Mon Jul 16 22:36:04 IDT 2012	Protocol: A New Phase Began: Movement Phase
Mon Jul 16 22:36:04 IDT 2012	Protocol: Movement phase, Round: 2
Mon Jul 16 22:36:04 IDT 2012	Player 337 moved to (R:6,C:3)
Mon Jul 16 22:36:04 IDT 2012	Player 999 moved to (R:6,C:1)
Mon Jul 16 22:36:24 IDT 2012	A Phase Ended: Movement Phase
Mon Jul 16 22:36:24 IDT 2012	Swaping roles:
Mon Jul 16 22:36:24 IDT 2012	Proposer is: 337
Mon Jul 16 22:36:24 IDT 2012	Responder is: 999
Mon Jul 16 22:36:24 IDT 2012	Protocol: A New Phase Began: Feedback Phase
Mon Jul 16 22:36:24 IDT 2012	Protocol: Feedback phase, Round: 2
Mon Jul 16 22:36:24 IDT 2012	Number of consecutive no movements for player 999 is 0
Mon Jul 16 22:36:24 IDT 2012	Number of consecutive no movements for player 337 is 0
Mon Jul 16 22:36:29 IDT 2012	A Phase Ended: Feedback Phase
Mon Jul 16 22:36:29 IDT 2012	Protocol: A New Phase Began: Communication Phase
Mon Jul 16 22:36:29 IDT 2012	Protocol: Communication phase, Round: 3
Mon Jul 16 22:36:32 IDT 2012	Received communication message 
Mon Jul 16 22:36:32 IDT 2012	From player: 337
Mon Jul 16 22:36:32 IDT 2012	To player: 999
Mon Jul 16 22:36:32 IDT 2012	Message type: basicproposal
Mon Jul 16 22:36:32 IDT 2012	Chips to send by proposer: { chips  'grey78':1 }
Mon Jul 16 22:36:32 IDT 2012	Chips to send by responder: { chips  'CTGreen':1 'CTYellow':1 }
Mon Jul 16 22:36:44 IDT 2012	Received communication message 
Mon Jul 16 22:36:44 IDT 2012	From player: 999
Mon Jul 16 22:36:44 IDT 2012	To player: 337
Mon Jul 16 22:36:44 IDT 2012	Message type: basicproposaldiscussion
Mon Jul 16 22:36:44 IDT 2012	Player 999 accepted offer
Mon Jul 16 22:36:44 IDT 2012	Prop accepted, set counter offers count to: 0
Mon Jul 16 22:36:44 IDT 2012	Prop accepted, get counter offers returned: 0
Mon Jul 16 22:36:44 IDT 2012	A Phase Ended: Communication Phase
Mon Jul 16 22:36:44 IDT 2012	Protocol: A New Phase Began: Exchange Phase
Mon Jul 16 22:36:44 IDT 2012	Protocol: Exchange phase, Round: 3
Mon Jul 16 22:36:44 IDT 2012	In begin exch.phase, get counter offers returned: 0
Mon Jul 16 22:36:44 IDT 2012	A Phase Ended: Exchange Phase
Mon Jul 16 22:36:44 IDT 2012	Proposer 337 sent: { chips  'CTRed':0 'CTPurple':0 'CTGreen':0 'grey78':0 'CTYellow':0 }
Mon Jul 16 22:36:44 IDT 2012	Responder 999 sent: { chips  'CTGreen':1 'CTYellow':1 }
Mon Jul 16 22:36:44 IDT 2012	Protocol: A New Phase Began: Movement Phase
Mon Jul 16 22:36:44 IDT 2012	Protocol: Movement phase, Round: 3
Mon Jul 16 22:37:03 IDT 2012	A Phase Ended: Movement Phase
Mon Jul 16 22:37:03 IDT 2012	Swaping roles:
Mon Jul 16 22:37:03 IDT 2012	Proposer is: 999
Mon Jul 16 22:37:03 IDT 2012	Responder is: 337
Mon Jul 16 22:37:03 IDT 2012	Protocol: A New Phase Began: Feedback Phase
Mon Jul 16 22:37:03 IDT 2012	Protocol: Feedback phase, Round: 3
Mon Jul 16 22:37:03 IDT 2012	Number of consecutive no movements for player 999 is 1
Mon Jul 16 22:37:03 IDT 2012	Number of consecutive no movements for player 337 is 1
Mon Jul 16 22:37:08 IDT 2012	A Phase Ended: Feedback Phase
Mon Jul 16 22:37:08 IDT 2012	Protocol: A New Phase Began: Communication Phase
Mon Jul 16 22:37:08 IDT 2012	Protocol: Communication phase, Round: 4
Mon Jul 16 22:37:22 IDT 2012	Received communication message 
Mon Jul 16 22:37:22 IDT 2012	From player: 999
Mon Jul 16 22:37:22 IDT 2012	To player: 337
Mon Jul 16 22:37:22 IDT 2012	Message type: basicproposal
Mon Jul 16 22:37:22 IDT 2012	Chips to send by proposer: { chips  'CTRed':0 'CTPurple':0 'CTGreen':2 'grey78':0 'CTYellow':2 }
Mon Jul 16 22:37:22 IDT 2012	Chips to send by responder: { chips  'CTRed':0 'CTPurple':0 'CTGreen':0 'grey78':1 'CTYellow':0 }
Mon Jul 16 22:37:23 IDT 2012	Received communication message 
Mon Jul 16 22:37:23 IDT 2012	From player: 337
Mon Jul 16 22:37:23 IDT 2012	To player: 999
Mon Jul 16 22:37:23 IDT 2012	Message type: basicproposaldiscussion
Mon Jul 16 22:37:23 IDT 2012	Player 337 accepted offer
Mon Jul 16 22:37:23 IDT 2012	Prop accepted, set counter offers count to: 0
Mon Jul 16 22:37:23 IDT 2012	Prop accepted, get counter offers returned: 0
Mon Jul 16 22:37:23 IDT 2012	A Phase Ended: Communication Phase
Mon Jul 16 22:37:23 IDT 2012	Protocol: A New Phase Began: Exchange Phase
Mon Jul 16 22:37:23 IDT 2012	Protocol: Exchange phase, Round: 4
Mon Jul 16 22:37:23 IDT 2012	In begin exch.phase, get counter offers returned: 0
Mon Jul 16 22:38:03 IDT 2012	A Phase Ended: Exchange Phase
Mon Jul 16 22:38:03 IDT 2012	Responder 337 sent: { chips  'CTRed':0 'CTPurple':0 'CTGreen':0 'grey78':0 'CTYellow':0 }
Mon Jul 16 22:38:03 IDT 2012	Protocol: A New Phase Began: Movement Phase
Mon Jul 16 22:38:03 IDT 2012	Protocol: Movement phase, Round: 4
Mon Jul 16 22:38:23 IDT 2012	A Phase Ended: Movement Phase
Mon Jul 16 22:38:23 IDT 2012	Swaping roles:
Mon Jul 16 22:38:23 IDT 2012	Proposer is: 337
Mon Jul 16 22:38:23 IDT 2012	Responder is: 999
Mon Jul 16 22:38:23 IDT 2012	Protocol: A New Phase Began: Feedback Phase
Mon Jul 16 22:38:23 IDT 2012	Protocol: Feedback phase, Round: 4
Mon Jul 16 22:38:23 IDT 2012	Number of consecutive no movements for player 999 is 2
Mon Jul 16 22:38:23 IDT 2012	Number of consecutive no movements for player 337 is 2
Mon Jul 16 22:38:28 IDT 2012	A Phase Ended: Feedback Phase
Mon Jul 16 22:38:28 IDT 2012	Protocol: A New Phase Began: Communication Phase
Mon Jul 16 22:38:28 IDT 2012	Protocol: Communication phase, Round: 5
Mon Jul 16 22:38:32 IDT 2012	Received communication message 
Mon Jul 16 22:38:32 IDT 2012	From player: 337
Mon Jul 16 22:38:32 IDT 2012	To player: 999
Mon Jul 16 22:38:32 IDT 2012	Message type: basicproposal
Mon Jul 16 22:38:32 IDT 2012	Chips to send by proposer: { chips  'grey78':1 }
Mon Jul 16 22:38:32 IDT 2012	Chips to send by responder: { chips  'CTYellow':2 }
Mon Jul 16 22:38:42 IDT 2012	Received communication message 
Mon Jul 16 22:38:42 IDT 2012	From player: 999
Mon Jul 16 22:38:42 IDT 2012	To player: 337
Mon Jul 16 22:38:42 IDT 2012	Message type: basicproposaldiscussion
Mon Jul 16 22:38:42 IDT 2012	Player 999 accepted offer
Mon Jul 16 22:38:42 IDT 2012	Prop accepted, set counter offers count to: 0
Mon Jul 16 22:38:42 IDT 2012	Prop accepted, get counter offers returned: 0
Mon Jul 16 22:38:42 IDT 2012	A Phase Ended: Communication Phase
Mon Jul 16 22:38:42 IDT 2012	Protocol: A New Phase Began: Exchange Phase
Mon Jul 16 22:38:42 IDT 2012	Protocol: Exchange phase, Round: 5
Mon Jul 16 22:38:42 IDT 2012	In begin exch.phase, get counter offers returned: 0
Mon Jul 16 22:38:42 IDT 2012	A Phase Ended: Exchange Phase
Mon Jul 16 22:38:42 IDT 2012	Proposer 337 sent: { chips  'CTRed':0 'CTPurple':0 'CTGreen':0 'grey78':0 'CTYellow':0 }
Mon Jul 16 22:38:42 IDT 2012	Responder 999 sent: { chips  'CTYellow':2 }
Mon Jul 16 22:38:42 IDT 2012	Protocol: A New Phase Began: Movement Phase
Mon Jul 16 22:38:42 IDT 2012	Protocol: Movement phase, Round: 5
Mon Jul 16 22:38:42 IDT 2012	Player 999 moved to (R:5,C:1)
Mon Jul 16 22:38:42 IDT 2012	Player 337 moved to (R:5,C:3)
Mon Jul 16 22:39:01 IDT 2012	A Phase Ended: Movement Phase
Mon Jul 16 22:39:01 IDT 2012	Swaping roles:
Mon Jul 16 22:39:01 IDT 2012	Proposer is: 999
Mon Jul 16 22:39:01 IDT 2012	Responder is: 337
Mon Jul 16 22:39:01 IDT 2012	Protocol: A New Phase Began: Feedback Phase
Mon Jul 16 22:39:01 IDT 2012	Protocol: Feedback phase, Round: 5
Mon Jul 16 22:39:01 IDT 2012	Number of consecutive no movements for player 999 is 0
Mon Jul 16 22:39:01 IDT 2012	Number of consecutive no movements for player 337 is 0
Mon Jul 16 22:39:06 IDT 2012	A Phase Ended: Feedback Phase
Mon Jul 16 22:39:06 IDT 2012	Protocol: A New Phase Began: Communication Phase
Mon Jul 16 22:39:06 IDT 2012	Protocol: Communication phase, Round: 6
Mon Jul 16 22:39:19 IDT 2012	Received communication message 
Mon Jul 16 22:39:19 IDT 2012	From player: 999
Mon Jul 16 22:39:19 IDT 2012	To player: 337
Mon Jul 16 22:39:19 IDT 2012	Message type: basicproposal
Mon Jul 16 22:39:19 IDT 2012	Chips to send by proposer: { chips  'CTRed':0 'CTPurple':0 'CTGreen':3 'grey78':0 'CTYellow':0 }
Mon Jul 16 22:39:19 IDT 2012	Chips to send by responder: { chips  'CTRed':0 'CTPurple':0 'CTGreen':0 'grey78':1 'CTYellow':0 }
Mon Jul 16 22:39:21 IDT 2012	Received communication message 
Mon Jul 16 22:39:21 IDT 2012	From player: 337
Mon Jul 16 22:39:21 IDT 2012	To player: 999
Mon Jul 16 22:39:21 IDT 2012	Message type: basicproposaldiscussion
Mon Jul 16 22:39:21 IDT 2012	Player 337 accepted offer
Mon Jul 16 22:39:21 IDT 2012	Prop accepted, set counter offers count to: 0
Mon Jul 16 22:39:21 IDT 2012	Prop accepted, get counter offers returned: 0
Mon Jul 16 22:39:21 IDT 2012	A Phase Ended: Communication Phase
Mon Jul 16 22:39:21 IDT 2012	Protocol: A New Phase Began: Exchange Phase
Mon Jul 16 22:39:21 IDT 2012	Protocol: Exchange phase, Round: 6
Mon Jul 16 22:39:21 IDT 2012	In begin exch.phase, get counter offers returned: 0
Mon Jul 16 22:40:01 IDT 2012	A Phase Ended: Exchange Phase
Mon Jul 16 22:40:01 IDT 2012	Responder 337 sent: { chips  'CTRed':0 'CTPurple':0 'CTGreen':0 'grey78':1 'CTYellow':0 }
Mon Jul 16 22:40:01 IDT 2012	Player 999 moved to (R:4,C:1)
Mon Jul 16 22:40:01 IDT 2012	Protocol: A New Phase Began: Movement Phase
Mon Jul 16 22:40:01 IDT 2012	Protocol: Movement phase, Round: 6
Mon Jul 16 22:40:21 IDT 2012	A Phase Ended: Movement Phase
Mon Jul 16 22:40:21 IDT 2012	Swaping roles:
Mon Jul 16 22:40:21 IDT 2012	Proposer is: 337
Mon Jul 16 22:40:21 IDT 2012	Responder is: 999
Mon Jul 16 22:40:21 IDT 2012	Protocol: A New Phase Began: Feedback Phase
Mon Jul 16 22:40:21 IDT 2012	Protocol: Feedback phase, Round: 6
Mon Jul 16 22:40:21 IDT 2012	Number of consecutive no movements for player 999 is 0
Mon Jul 16 22:40:21 IDT 2012	Number of consecutive no movements for player 337 is 1
Mon Jul 16 22:40:21 IDT 2012	All players have all needed chips to get to goal, end the game
Mon Jul 16 22:40:21 IDT 2012	Player: 999 ,role: Responder score is: 160
Mon Jul 16 22:40:21 IDT 2012	Player: 337 ,role: Proposer score is: 200
