@relation LogsAnalysys_GUI_TI_offers_PAL_Transfer_Model-weka.filters.unsupervised.attribute.Remove-R1-3-weka.filters.unsupervised.attribute.Remove-R11

@attribute playerI_WPR numeric
@attribute playerJ_WPR numeric
@attribute playerI_CS numeric
@attribute playerI_RS numeric
@attribute playerJ_CS numeric
@attribute playerJ_RS numeric
@attribute playerINeededchips numeric
@attribute playerIOtherchips numeric
@attribute playerJNeededchips numeric
@attribute playerJOtherchips numeric
@attribute playerJTransfer {0,1}

@data
0.776,0.601,45,60,180,185,2,0,0,3,1
0.466133,0.8803,70,170,175,190,1,0,0,4,0
0.776,0.601,45,55,180,180,1,0,0,1,1
0.9328,0.8803,55,60,180,185,1,0,0,2,0
0.27984,0.26409,55,60,180,185,1,0,0,2,1
0.776,0.601,45,50,180,195,2,0,0,5,1
0.5128,0.8803,65,165,180,195,1,0,0,4,0
0.776,0.601,45,50,180,185,1,0,0,2,1
0.5828,0.8803,55,175,180,185,2,0,0,3,0
0.776,0.601,45,55,180,190,2,0,0,4,1
0.4078,0.8803,70,170,175,190,1,1,0,5,0
0.776,0.601,45,50,180,195,2,0,0,5,1
0.5128,0.8803,65,160,180,200,1,0,0,5,0
0.15384,0.293257,70,160,175,200,1,0,0,6,0
0.776,0.601,45,55,180,190,2,0,0,4,1
0.9328,0.8803,55,165,190,195,1,0,0,2,1
0.776,0.601,45,50,180,195,2,0,0,5,1
0.9328,0.8803,50,160,195,200,1,0,0,2,1
0.776,0.601,45,50,180,195,2,0,0,5,1
0.9328,0.8803,50,150,195,210,1,0,0,4,0
0.97984,0.26409,30,140,215,220,1,0,0,2,1
0.776,0.601,45,45,180,200,2,0,0,6,1
0.9328,0.8803,45,140,200,220,1,0,0,5,1
0.776,0.601,45,50,180,195,2,0,0,5,1
0.9328,0.8803,50,150,195,210,1,0,0,4,1
0.776,0.601,45,50,180,185,1,0,0,2,1
0.776,0.601,45,50,180,195,2,0,0,5,1
0.9328,0.8803,50,160,195,200,1,0,0,2,1
0.776,0.601,45,50,180,195,2,0,0,5,0
0.776,0.601,45,90,180,135,3,9,0,0,0
0.776,0.601,45,50,180,195,2,0,0,5,1
0.9328,0.8803,50,155,195,205,1,2,0,5,1
0.776,0.601,45,50,180,195,2,0,0,5,1
0.9328,0.8803,50,140,195,220,1,2,0,8,1
0.776,0.601,45,45,180,200,2,0,0,6,1
0.776,0.601,45,50,180,195,2,0,0,5,1
0.9328,0.8803,50,145,195,215,1,0,0,5,1
0.776,0.601,45,50,180,195,2,0,0,5,1
0.9328,0.8803,50,150,195,210,1,0,0,4,1
0.776,0.601,45,55,180,190,2,0,0,4,1
0.9328,0.8803,55,150,190,210,1,2,0,7,1
0.776,0.601,45,50,180,185,1,0,0,2,1
0.776,0.601,45,55,180,190,2,0,0,4,1
0.9328,0.8803,55,145,190,215,1,2,0,8,1
0.776,0.601,45,45,180,200,2,0,0,6,1
0.9328,0.8803,45,140,200,220,1,0,0,5,1
0.776,0.601,45,50,180,195,2,0,0,5,1
0.9328,0.8803,50,145,195,215,1,0,0,5,1
0.776,0.601,45,50,180,185,1,0,0,2,1
0.776,0.601,45,50,180,185,1,0,0,2,1
0.776,0.601,45,50,180,195,2,0,0,5,1
0.9328,0.8803,50,140,195,220,1,0,0,6,1
0.776,0.601,45,135,180,225,3,0,0,12,1
0.776,0.601,45,55,180,190,2,0,0,4,1
0.776,0.601,45,45,180,200,2,0,0,6,1
0.9328,0.8803,45,140,200,220,1,0,0,5,1
0.776,0.601,45,150,180,210,3,0,0,9,1
0.776,0.601,45,60,180,185,2,0,0,3,0
0.776,0.601,45,50,180,195,2,0,0,5,1
0.9328,0.8803,50,150,195,210,1,0,0,4,1
0.776,0.601,45,40,180,205,2,0,0,7,1
0.776,0.601,45,55,180,190,2,0,0,4,1
0.7578,0.8803,60,165,185,195,1,1,0,4,0
0.776,0.601,45,55,180,190,2,0,0,4,1
0.7578,0.8803,60,160,185,200,1,0,0,4,0
0.22734,0.322423,70,180,175,180,1,0,0,2,1
0.776,0.601,45,45,180,200,2,0,0,6,1
0.776,0.601,45,50,180,195,2,0,0,5,1
0.9328,0.8803,50,145,195,215,1,2,0,7,1
0.776,0.601,45,45,180,200,2,0,0,6,1
0.9328,0.8803,45,135,200,225,1,3,0,9,1
0.776,0.601,45,140,180,220,3,2,0,13,1
0.776,0.601,45,55,180,190,2,0,0,4,1
0.9328,0.8803,55,155,190,205,1,0,0,4,1
0.776,0.601,45,50,180,195,2,0,0,5,1
0.9328,0.8803,50,150,195,210,1,0,0,4,1
0.776,0.601,45,50,180,185,1,0,0,2,1
0.776,0.601,45,40,180,205,2,0,0,7,1
0.776,0.601,45,50,180,195,2,0,0,5,1
0.3728,0.8803,70,170,175,190,1,0,0,4,0
0.776,0.601,45,55,180,190,2,0,0,4,1
0.4078,0.8803,70,165,175,195,1,0,0,5,0
0.776,0.601,45,60,180,185,2,0,0,3,1
0.699467,0.8803,65,170,180,190,1,0,0,3,1
0.776,0.601,45,50,180,185,1,0,0,2,1
0.5828,0.8803,55,170,180,190,2,0,0,4,0