Sun Dec 29 20:23:49 CST 2013	This is the CT debug logger; svn version 638; sep 27 09
Sun Dec 29 20:23:49 CST 2013	Sun Dec 29 20:23:49 CST 2013
Sun Dec 29 20:23:49 CST 2013	ID Number: 69109
Sun Dec 29 20:23:49 CST 2013	Creating board
Sun Dec 29 20:23:49 CST 2013	<colors>
Sun Dec 29 20:23:49 CST 2013	{ GamePalette  'CTPurple':0 'CTRed':1 'CTGreen':2 'grey78':3 'CTYellow':4 }
Sun Dec 29 20:23:49 CST 2013	<rows>
Sun Dec 29 20:23:49 CST 2013	6
Sun Dec 29 20:23:49 CST 2013	<columns>
Sun Dec 29 20:23:49 CST 2013	9
Sun Dec 29 20:23:49 CST 2013	<squaresColors>
Sun Dec 29 20:23:49 CST 2013	grey78 CTGreen CTGreen CTGreen CTGreen CTGreen CTGreen CTGreen CTYellow 
Sun Dec 29 20:23:49 CST 2013	grey78 CTPurple CTPurple CTPurple CTPurple CTPurple CTPurple CTPurple CTYellow 
Sun Dec 29 20:23:49 CST 2013	grey78 grey78 CTGreen CTGreen CTGreen CTGreen CTGreen CTYellow CTYellow 
Sun Dec 29 20:23:49 CST 2013	CTGreen grey78 grey78 CTPurple CTPurple CTPurple CTYellow CTYellow CTGreen 
Sun Dec 29 20:23:49 CST 2013	CTGreen CTGreen grey78 grey78 CTGreen CTYellow CTYellow CTGreen CTGreen 
Sun Dec 29 20:23:49 CST 2013	CTGreen CTGreen CTGreen grey78 CTGreen CTYellow CTGreen CTGreen CTGreen 
Sun Dec 29 20:23:49 CST 2013	</squareColors>
Sun Dec 29 20:23:49 CST 2013	<goalPosition>
Sun Dec 29 20:23:49 CST 2013	Goal position: (R:0,C:0)
Sun Dec 29 20:23:49 CST 2013	<goalPosition>
Sun Dec 29 20:23:49 CST 2013	Goal position: (R:0,C:0)
Sun Dec 29 20:23:49 CST 2013	<firstPlayerPossibleGoal1>
Sun Dec 29 20:23:49 CST 2013	0.5
Sun Dec 29 20:23:49 CST 2013	0
Sun Dec 29 20:23:49 CST 2013	0
Sun Dec 29 20:23:49 CST 2013	</firstPlayerPossibleGoal1>
Sun Dec 29 20:23:49 CST 2013	<firstPlayerPossibleGoal2>
Sun Dec 29 20:23:49 CST 2013	0.5
Sun Dec 29 20:23:49 CST 2013	0
Sun Dec 29 20:23:49 CST 2013	8
Sun Dec 29 20:23:49 CST 2013	</firstPlayerPossibleGoal2>
Sun Dec 29 20:23:49 CST 2013	<numberOfPlayers>
Sun Dec 29 20:23:49 CST 2013	3
Sun Dec 29 20:23:49 CST 2013	<firstPlayerChips>
Sun Dec 29 20:23:49 CST 2013	Setting chips for player: 500 id:0
Sun Dec 29 20:23:49 CST 2013	{ chips  'CTRed':0 'CTGreen':0 'CTPurple':0 'grey78':12 'CTYellow':12 }
Sun Dec 29 20:23:49 CST 2013	Player position: (R:5,C:4)
Sun Dec 29 20:23:49 CST 2013	Setting chips for player: 530 id:1
Sun Dec 29 20:23:49 CST 2013	{ chips  'CTRed':33 'CTGreen':0 'CTPurple':7 'grey78':0 'CTYellow':0 }
Sun Dec 29 20:23:49 CST 2013	Player position: (R:0,C:8)
Sun Dec 29 20:23:49 CST 2013	Setting chips for player: 540 id:2
Sun Dec 29 20:23:49 CST 2013	{ chips  'CTRed':33 'CTGreen':0 'CTPurple':7 'grey78':0 'CTYellow':0 }
Sun Dec 29 20:23:49 CST 2013	Player position: (R:0,C:0)
Sun Dec 29 20:23:49 CST 2013	Protocol: A New Phase Began: Strategy Prep Phase. loop is true
Sun Dec 29 20:23:49 CST 2013	---------- Beginning Strategy Prep Phase at round 0 ----------
Sun Dec 29 20:24:49 CST 2013	A Phase Ended: Strategy Prep Phase
Sun Dec 29 20:24:49 CST 2013	Protocol: A New Phase Began: Communication Phase. loop is true
Sun Dec 29 20:24:49 CST 2013	---------- Beginning Communication Phase at round 1 ----------
Sun Dec 29 20:24:54 CST 2013	Received communication message 
Sun Dec 29 20:24:54 CST 2013	From player: 530
Sun Dec 29 20:24:54 CST 2013	To player: 500
Sun Dec 29 20:24:54 CST 2013	Chips to send by proposer: { chips  'CTRed':33 'CTPurple':7 'CTYellow':0 }
Sun Dec 29 20:24:54 CST 2013	Chips to send by responder: { chips  'grey78':11 }
Sun Dec 29 20:25:46 CST 2013	Received communication message 
Sun Dec 29 20:25:46 CST 2013	Proposer 0 accepted? true
Sun Dec 29 20:25:46 CST 2013	A Phase Ended: Communication Phase
Sun Dec 29 20:25:46 CST 2013	Protocol: A New Phase Began: Movement Phase. loop is true
Sun Dec 29 20:25:46 CST 2013	---------- Beginning Movement Phase at round 1 ----------
Sun Dec 29 20:25:46 CST 2013	remove strategy phase. 
Sun Dec 29 20:26:31 CST 2013	A Phase Ended: Movement Phase
Sun Dec 29 20:26:31 CST 2013	Protocol: A New Phase Began: Feedback Phase. loop is true
Sun Dec 29 20:26:31 CST 2013	---------- Beginning Feedback Phase at round 1 ----------
Sun Dec 29 20:26:31 CST 2013	Number of consecutive no movements for player 500 is 0
Sun Dec 29 20:26:31 CST 2013	TDPlayerPosition is(R:3,C:6)goal location 0(R:0,C:0)goal location 1(R:0,C:8)
Sun Dec 29 20:26:31 CST 2013	ended is false
Sun Dec 29 20:26:36 CST 2013	A Phase Ended: Feedback Phase
Sun Dec 29 20:26:36 CST 2013	 numberofMoves in round 1 is 4
Sun Dec 29 20:26:36 CST 2013	Swaping roles:
Sun Dec 29 20:26:36 CST 2013	Protocol: A New Phase Began: Communication Phase. loop is true
Sun Dec 29 20:26:36 CST 2013	---------- Beginning Communication Phase at round 2 ----------
Sun Dec 29 20:28:08 CST 2013	Received communication message 
Sun Dec 29 20:28:08 CST 2013	From player: 500
Sun Dec 29 20:28:08 CST 2013	To player: 540
Sun Dec 29 20:28:08 CST 2013	Chips to send by proposer: { chips  'CTRed':1 'CTPurple':1 'CTGreen':0 'grey78':0 'CTYellow':2 }
Sun Dec 29 20:28:08 CST 2013	Chips to send by responder: { chips  'CTRed':3 'CTPurple':0 'CTGreen':0 'grey78':0 'CTYellow':0 }
Sun Dec 29 20:28:56 CST 2013	Received communication message 
Sun Dec 29 20:28:56 CST 2013	Proposer 1 accepted? false
Sun Dec 29 20:28:56 CST 2013	case that we had one reject, and one accept
Sun Dec 29 20:28:56 CST 2013	A Phase Ended: Communication Phase
Sun Dec 29 20:28:56 CST 2013	Protocol: A New Phase Began: Movement Phase. loop is true
Sun Dec 29 20:28:56 CST 2013	---------- Beginning Movement Phase at round 2 ----------
Sun Dec 29 20:29:40 CST 2013	A Phase Ended: Movement Phase
Sun Dec 29 20:29:40 CST 2013	Protocol: A New Phase Began: Feedback Phase. loop is true
Sun Dec 29 20:29:40 CST 2013	---------- Beginning Feedback Phase at round 2 ----------
Sun Dec 29 20:29:40 CST 2013	Number of consecutive no movements for player 500 is 0
Sun Dec 29 20:29:40 CST 2013	TDPlayerPosition is(R:2,C:8)goal location 0(R:0,C:0)goal location 1(R:0,C:8)
Sun Dec 29 20:29:40 CST 2013	ended is false
Sun Dec 29 20:29:45 CST 2013	A Phase Ended: Feedback Phase
Sun Dec 29 20:29:45 CST 2013	 numberofMoves in round 2 is 3
Sun Dec 29 20:29:45 CST 2013	Swaping roles:
Sun Dec 29 20:29:45 CST 2013	Protocol: A New Phase Began: Communication Phase. loop is true
Sun Dec 29 20:29:45 CST 2013	---------- Beginning Communication Phase at round 3 ----------
Sun Dec 29 20:29:45 CST 2013	Received communication message 
Sun Dec 29 20:29:45 CST 2013	From player: 530
Sun Dec 29 20:29:45 CST 2013	To player: 500
Sun Dec 29 20:29:45 CST 2013	Chips to send by proposer: { chips  'CTRed':0 'CTPurple':0 'CTYellow':0 }
Sun Dec 29 20:29:45 CST 2013	Chips to send by responder: { chips  'grey78':0 }
Sun Dec 29 20:29:59 CST 2013	Received communication message 
Sun Dec 29 20:29:59 CST 2013	Proposer 0 accepted? false
Sun Dec 29 20:29:59 CST 2013	case that we had one reject, and one accept
Sun Dec 29 20:32:45 CST 2013	A Phase Ended: Communication Phase
Sun Dec 29 20:32:45 CST 2013	Protocol: A New Phase Began: Movement Phase. loop is true
Sun Dec 29 20:32:45 CST 2013	---------- Beginning Movement Phase at round 3 ----------
Sun Dec 29 20:33:30 CST 2013	A Phase Ended: Movement Phase
Sun Dec 29 20:33:30 CST 2013	Protocol: A New Phase Began: Feedback Phase. loop is true
Sun Dec 29 20:33:30 CST 2013	---------- Beginning Feedback Phase at round 3 ----------
Sun Dec 29 20:33:30 CST 2013	The TD player reached the goal, end the game
Sun Dec 29 20:33:30 CST 2013	ended is true
Sun Dec 29 20:33:35 CST 2013	A Phase Ended: Feedback Phase
Sun Dec 29 20:33:35 CST 2013	 numberofMoves in round 3 is 2
Sun Dec 29 20:33:35 CST 2013	Loop status: false
Sun Dec 29 20:33:35 CST 2013	Player: 540 ,role: Proposer score is: 200
Sun Dec 29 20:33:35 CST 2013	Player: 540Game Ended
Sun Dec 29 20:33:35 CST 2013	Player: 530 ,role: Proposer score is: 205
Sun Dec 29 20:33:35 CST 2013	Player: 530Game Ended
Sun Dec 29 20:33:35 CST 2013	Player: 500 ,role: Responder score is: 370
Sun Dec 29 20:33:35 CST 2013	Player: 500Game Ended
Sun Dec 29 20:33:35 CST 2013	Protocol: A New Phase Began: Communication Phase. loop is false
Sun Dec 29 20:33:35 CST 2013	---------- Beginning Communication Phase at round 3 ----------
Sun Dec 29 20:36:35 CST 2013	A Phase Ended: Communication Phase
Sun Dec 29 20:36:35 CST 2013	Protocol: A New Phase Began: Movement Phase. loop is false
Sun Dec 29 20:36:35 CST 2013	---------- Beginning Movement Phase at round 3 ----------
Sun Dec 29 20:37:20 CST 2013	A Phase Ended: Movement Phase
Sun Dec 29 20:37:20 CST 2013	Protocol: A New Phase Began: Feedback Phase. loop is false
Sun Dec 29 20:37:20 CST 2013	---------- Beginning Feedback Phase at round 3 ----------
Sun Dec 29 20:37:20 CST 2013	The TD player reached the goal, end the game
Sun Dec 29 20:37:20 CST 2013	ended is true
Sun Dec 29 20:37:25 CST 2013	A Phase Ended: Feedback Phase
Sun Dec 29 20:37:25 CST 2013	 numberofMoves in round 3 is 0
Sun Dec 29 20:37:25 CST 2013	Loop status: false
Sun Dec 29 20:37:25 CST 2013	Player: 540 ,role: GameEnded score is: 200
Sun Dec 29 20:37:25 CST 2013	Player: 540Game Ended
Sun Dec 29 20:37:25 CST 2013	Player: 530 ,role: GameEnded score is: 205
Sun Dec 29 20:37:25 CST 2013	Player: 530Game Ended
Sun Dec 29 20:37:25 CST 2013	Player: 500 ,role: GameEnded score is: 370
Sun Dec 29 20:37:25 CST 2013	Player: 500Game Ended
