Sun Dec 09 08:04:13 IST 2012	This is the CT debug logger; svn version 638; sep 27 09
Sun Dec 09 08:04:13 IST 2012	Sun Dec 09 08:04:13 IST 2012
Sun Dec 09 08:04:13 IST 2012	A new Alternative Offers game has began
Sun Dec 09 08:04:13 IST 2012	ID Number: 63767
Sun Dec 09 08:04:13 IST 2012	Creating board
Sun Dec 09 08:04:13 IST 2012	<colors>
Sun Dec 09 08:04:13 IST 2012	{ GamePalette  'CTRed':0 'CTPurple':1 'CTGreen':2 'grey78':3 }
Sun Dec 09 08:04:13 IST 2012	<rows>
Sun Dec 09 08:04:13 IST 2012	7
Sun Dec 09 08:04:13 IST 2012	<columns>
Sun Dec 09 08:04:13 IST 2012	5
Sun Dec 09 08:04:13 IST 2012	<squaresColors>
Sun Dec 09 08:04:13 IST 2012	CTPurple CTRed CTRed CTGreen CTPurple 
Sun Dec 09 08:04:13 IST 2012	CTPurple grey78 CTPurple grey78 CTPurple 
Sun Dec 09 08:04:13 IST 2012	CTPurple CTRed CTPurple CTGreen CTPurple 
Sun Dec 09 08:04:13 IST 2012	CTPurple grey78 CTPurple grey78 CTPurple 
Sun Dec 09 08:04:13 IST 2012	CTPurple CTRed CTPurple CTGreen CTPurple 
Sun Dec 09 08:04:13 IST 2012	CTPurple grey78 CTPurple grey78 CTPurple 
Sun Dec 09 08:04:13 IST 2012	CTPurple CTRed CTPurple CTGreen CTPurple 
Sun Dec 09 08:04:13 IST 2012	</squareColors>
Sun Dec 09 08:04:13 IST 2012	<goalPosition>
Sun Dec 09 08:04:13 IST 2012	Goal position: (R:0,C:2)
Sun Dec 09 08:04:13 IST 2012	<numberOfPlayers>
Sun Dec 09 08:04:13 IST 2012	2
Sun Dec 09 08:04:13 IST 2012	<firstPlayerChips>
Sun Dec 09 08:04:13 IST 2012	Setting chips for player: 337 id:0
Sun Dec 09 08:04:13 IST 2012	{ chips  'CTRed':5 'CTGreen':19 'CTPurple':0 'grey78':0 }
Sun Dec 09 08:04:13 IST 2012	Player position: (R:6,C:0)
Sun Dec 09 08:04:13 IST 2012	Setting chips for player: 510 id:1
Sun Dec 09 08:04:13 IST 2012	{ chips  'CTRed':1 'CTGreen':13 'CTPurple':0 'grey78':10 }
Sun Dec 09 08:04:13 IST 2012	Player position: (R:6,C:4)
Sun Dec 09 08:04:13 IST 2012	Protocol: A New Phase Began: Strategy Prep Phase
Sun Dec 09 08:04:13 IST 2012	Protocol: Strategy Preparation phase, Round: 0
Sun Dec 09 08:04:13 IST 2012	Maximum number of rounds with no consecutive movement is 3
Sun Dec 09 08:04:13 IST 2012	In begin comm. phase, set counter offers count to: 0
Sun Dec 09 08:04:13 IST 2012	In begin comm. phase, get counter offers returned: 0
Sun Dec 09 08:04:34 IST 2012	A Phase Ended: Strategy Prep Phase
Sun Dec 09 08:04:34 IST 2012	Protocol: A New Phase Began: Communication Phase
Sun Dec 09 08:04:34 IST 2012	Protocol: Communication phase, Round: 0
Sun Dec 09 08:05:34 IST 2012	Received communication message 
Sun Dec 09 08:05:34 IST 2012	From player: 337
Sun Dec 09 08:05:34 IST 2012	To player: 510
Sun Dec 09 08:05:34 IST 2012	Message type: basicproposal
Sun Dec 09 08:05:34 IST 2012	Chips to send by proposer: { chips  'CTGreen':1 }
Sun Dec 09 08:05:34 IST 2012	Chips to send by responder: { chips  'grey78':2 }
Sun Dec 09 08:05:41 IST 2012	Received communication message 
Sun Dec 09 08:05:41 IST 2012	From player: 510
Sun Dec 09 08:05:41 IST 2012	To player: 337
Sun Dec 09 08:05:41 IST 2012	Message type: basicproposaldiscussion
Sun Dec 09 08:05:41 IST 2012	Player 510 accepted offer
Sun Dec 09 08:05:41 IST 2012	Prop accepted, set counter offers count to: 0
Sun Dec 09 08:05:41 IST 2012	Prop accepted, get counter offers returned: 0
Sun Dec 09 08:05:41 IST 2012	A Phase Ended: Communication Phase
Sun Dec 09 08:05:41 IST 2012	Protocol: A New Phase Began: Exchange Phase
Sun Dec 09 08:05:41 IST 2012	Protocol: Exchange phase, Round: 0
Sun Dec 09 08:05:41 IST 2012	In begin exch.phase, get counter offers returned: 0
Sun Dec 09 08:06:10 IST 2012	A Phase Ended: Exchange Phase
Sun Dec 09 08:06:10 IST 2012	Proposer 337 sent: { chips  'CTRed':0 'CTPurple':0 'CTGreen':1 'grey78':0 }
Sun Dec 09 08:06:10 IST 2012	Responder 510 sent: { chips  }
Sun Dec 09 08:06:10 IST 2012	Protocol: A New Phase Began: Movement Phase
Sun Dec 09 08:06:10 IST 2012	Protocol: Movement phase, Round: 0
Sun Dec 09 08:06:10 IST 2012	Player 510 moved to (R:6,C:3)
Sun Dec 09 08:06:30 IST 2012	A Phase Ended: Movement Phase
Sun Dec 09 08:06:30 IST 2012	Swaping roles:
Sun Dec 09 08:06:30 IST 2012	Proposer is: 510
Sun Dec 09 08:06:30 IST 2012	Responder is: 337
Sun Dec 09 08:06:30 IST 2012	Protocol: A New Phase Began: Feedback Phase
Sun Dec 09 08:06:30 IST 2012	Protocol: Feedback phase, Round: 0
Sun Dec 09 08:06:30 IST 2012	Number of consecutive no movements for player 337 is 1
Sun Dec 09 08:06:30 IST 2012	Number of consecutive no movements for player 510 is 0
Sun Dec 09 08:06:35 IST 2012	A Phase Ended: Feedback Phase
Sun Dec 09 08:06:35 IST 2012	Protocol: A New Phase Began: Communication Phase
Sun Dec 09 08:06:35 IST 2012	Protocol: Communication phase, Round: 1
Sun Dec 09 08:06:52 IST 2012	Received communication message 
Sun Dec 09 08:06:52 IST 2012	From player: 510
Sun Dec 09 08:06:52 IST 2012	To player: 337
Sun Dec 09 08:06:52 IST 2012	Message type: basicproposal
Sun Dec 09 08:06:52 IST 2012	Chips to send by proposer: { chips  'CTRed':0 'CTPurple':0 'CTGreen':0 'grey78':1 }
Sun Dec 09 08:06:52 IST 2012	Chips to send by responder: { chips  'CTRed':0 'CTPurple':0 'CTGreen':4 'grey78':0 }
Sun Dec 09 08:07:30 IST 2012	Received communication message 
Sun Dec 09 08:07:30 IST 2012	From player: 337
Sun Dec 09 08:07:30 IST 2012	To player: 510
Sun Dec 09 08:07:30 IST 2012	Message type: basicproposaldiscussion
Sun Dec 09 08:07:30 IST 2012	Player 337 accepted offer
Sun Dec 09 08:07:30 IST 2012	Prop accepted, set counter offers count to: 0
Sun Dec 09 08:07:30 IST 2012	Prop accepted, get counter offers returned: 0
Sun Dec 09 08:07:30 IST 2012	A Phase Ended: Communication Phase
Sun Dec 09 08:07:30 IST 2012	Protocol: A New Phase Began: Exchange Phase
Sun Dec 09 08:07:30 IST 2012	Protocol: Exchange phase, Round: 1
Sun Dec 09 08:07:30 IST 2012	In begin exch.phase, get counter offers returned: 0
Sun Dec 09 08:07:59 IST 2012	A Phase Ended: Exchange Phase
Sun Dec 09 08:07:59 IST 2012	Proposer 510 sent: { chips  'CTRed':0 'CTPurple':0 'CTGreen':0 'grey78':1 }
Sun Dec 09 08:07:59 IST 2012	Responder 337 sent: { chips  'CTRed':0 'CTPurple':0 'CTGreen':0 'grey78':0 }
Sun Dec 09 08:07:59 IST 2012	Protocol: A New Phase Began: Movement Phase
Sun Dec 09 08:07:59 IST 2012	Protocol: Movement phase, Round: 1
Sun Dec 09 08:07:59 IST 2012	Player 510 moved to (R:5,C:3)
Sun Dec 09 08:08:19 IST 2012	A Phase Ended: Movement Phase
Sun Dec 09 08:08:19 IST 2012	Swaping roles:
Sun Dec 09 08:08:19 IST 2012	Proposer is: 337
Sun Dec 09 08:08:19 IST 2012	Responder is: 510
Sun Dec 09 08:08:19 IST 2012	Protocol: A New Phase Began: Feedback Phase
Sun Dec 09 08:08:19 IST 2012	Protocol: Feedback phase, Round: 1
Sun Dec 09 08:08:19 IST 2012	Number of consecutive no movements for player 337 is 2
Sun Dec 09 08:08:19 IST 2012	Number of consecutive no movements for player 510 is 0
Sun Dec 09 08:08:24 IST 2012	A Phase Ended: Feedback Phase
Sun Dec 09 08:08:24 IST 2012	Protocol: A New Phase Began: Communication Phase
Sun Dec 09 08:08:24 IST 2012	Protocol: Communication phase, Round: 2
Sun Dec 09 08:09:24 IST 2012	Received communication message 
Sun Dec 09 08:09:24 IST 2012	From player: 337
Sun Dec 09 08:09:24 IST 2012	To player: 510
Sun Dec 09 08:09:24 IST 2012	Message type: basicproposal
Sun Dec 09 08:09:24 IST 2012	Chips to send by proposer: { chips  'CTGreen':1 }
Sun Dec 09 08:09:24 IST 2012	Chips to send by responder: { chips  'grey78':1 }
Sun Dec 09 08:09:34 IST 2012	Received communication message 
Sun Dec 09 08:09:34 IST 2012	From player: 510
Sun Dec 09 08:09:34 IST 2012	To player: 337
Sun Dec 09 08:09:34 IST 2012	Message type: basicproposaldiscussion
Sun Dec 09 08:09:34 IST 2012	Player 510 accepted offer
Sun Dec 09 08:09:34 IST 2012	Prop accepted, set counter offers count to: 0
Sun Dec 09 08:09:34 IST 2012	Prop accepted, get counter offers returned: 0
Sun Dec 09 08:09:34 IST 2012	A Phase Ended: Communication Phase
Sun Dec 09 08:09:34 IST 2012	Protocol: A New Phase Began: Exchange Phase
Sun Dec 09 08:09:34 IST 2012	Protocol: Exchange phase, Round: 2
Sun Dec 09 08:09:34 IST 2012	In begin exch.phase, get counter offers returned: 0
Sun Dec 09 08:10:03 IST 2012	A Phase Ended: Exchange Phase
Sun Dec 09 08:10:03 IST 2012	Proposer 337 sent: { chips  'CTRed':0 'CTPurple':0 'CTGreen':1 'grey78':0 }
Sun Dec 09 08:10:03 IST 2012	Responder 510 sent: { chips  'CTRed':0 'CTPurple':0 'CTGreen':0 'grey78':1 }
Sun Dec 09 08:10:03 IST 2012	Protocol: A New Phase Began: Movement Phase
Sun Dec 09 08:10:03 IST 2012	Protocol: Movement phase, Round: 2
Sun Dec 09 08:10:03 IST 2012	Player 337 moved to (R:6,C:1)
Sun Dec 09 08:10:03 IST 2012	Player 510 moved to (R:4,C:3)
Sun Dec 09 08:10:22 IST 2012	A Phase Ended: Movement Phase
Sun Dec 09 08:10:22 IST 2012	Swaping roles:
Sun Dec 09 08:10:22 IST 2012	Proposer is: 510
Sun Dec 09 08:10:22 IST 2012	Responder is: 337
Sun Dec 09 08:10:22 IST 2012	Protocol: A New Phase Began: Feedback Phase
Sun Dec 09 08:10:22 IST 2012	Protocol: Feedback phase, Round: 2
Sun Dec 09 08:10:22 IST 2012	Number of consecutive no movements for player 337 is 0
Sun Dec 09 08:10:22 IST 2012	Number of consecutive no movements for player 510 is 0
Sun Dec 09 08:10:28 IST 2012	A Phase Ended: Feedback Phase
Sun Dec 09 08:10:28 IST 2012	Protocol: A New Phase Began: Communication Phase
Sun Dec 09 08:10:28 IST 2012	Protocol: Communication phase, Round: 3
Sun Dec 09 08:10:44 IST 2012	Received communication message 
Sun Dec 09 08:10:44 IST 2012	From player: 510
Sun Dec 09 08:10:44 IST 2012	To player: 337
Sun Dec 09 08:10:44 IST 2012	Message type: basicproposal
Sun Dec 09 08:10:44 IST 2012	Chips to send by proposer: { chips  'CTRed':0 'CTPurple':0 'CTGreen':0 'grey78':1 }
Sun Dec 09 08:10:44 IST 2012	Chips to send by responder: { chips  'CTRed':0 'CTPurple':0 'CTGreen':3 'grey78':0 }
Sun Dec 09 08:11:40 IST 2012	Received communication message 
Sun Dec 09 08:11:40 IST 2012	From player: 337
Sun Dec 09 08:11:40 IST 2012	To player: 510
Sun Dec 09 08:11:40 IST 2012	Message type: basicproposaldiscussion
Sun Dec 09 08:11:40 IST 2012	Player 337 accepted offer
Sun Dec 09 08:11:40 IST 2012	Prop accepted, set counter offers count to: 0
Sun Dec 09 08:11:40 IST 2012	Prop accepted, get counter offers returned: 0
Sun Dec 09 08:11:40 IST 2012	A Phase Ended: Communication Phase
Sun Dec 09 08:11:40 IST 2012	Protocol: A New Phase Began: Exchange Phase
Sun Dec 09 08:11:40 IST 2012	Protocol: Exchange phase, Round: 3
Sun Dec 09 08:11:40 IST 2012	In begin exch.phase, get counter offers returned: 0
Sun Dec 09 08:12:09 IST 2012	A Phase Ended: Exchange Phase
Sun Dec 09 08:12:09 IST 2012	Proposer 510 sent: { chips  }
Sun Dec 09 08:12:09 IST 2012	Responder 337 sent: { chips  'CTRed':0 'CTPurple':0 'CTGreen':3 'grey78':0 }
Sun Dec 09 08:12:09 IST 2012	Protocol: A New Phase Began: Movement Phase
Sun Dec 09 08:12:09 IST 2012	Protocol: Movement phase, Round: 3
Sun Dec 09 08:12:09 IST 2012	Player 510 moved to (R:3,C:3)
Sun Dec 09 08:12:29 IST 2012	A Phase Ended: Movement Phase
Sun Dec 09 08:12:29 IST 2012	Swaping roles:
Sun Dec 09 08:12:29 IST 2012	Proposer is: 337
Sun Dec 09 08:12:29 IST 2012	Responder is: 510
Sun Dec 09 08:12:29 IST 2012	Protocol: A New Phase Began: Feedback Phase
Sun Dec 09 08:12:29 IST 2012	Protocol: Feedback phase, Round: 3
Sun Dec 09 08:12:29 IST 2012	Number of consecutive no movements for player 337 is 1
Sun Dec 09 08:12:29 IST 2012	Number of consecutive no movements for player 510 is 0
Sun Dec 09 08:12:34 IST 2012	A Phase Ended: Feedback Phase
Sun Dec 09 08:12:34 IST 2012	Protocol: A New Phase Began: Communication Phase
Sun Dec 09 08:12:34 IST 2012	Protocol: Communication phase, Round: 4
Sun Dec 09 08:13:34 IST 2012	Received communication message 
Sun Dec 09 08:13:34 IST 2012	From player: 337
Sun Dec 09 08:13:34 IST 2012	To player: 510
Sun Dec 09 08:13:34 IST 2012	Message type: basicproposal
Sun Dec 09 08:13:34 IST 2012	Chips to send by proposer: { chips  'CTGreen':2 }
Sun Dec 09 08:13:34 IST 2012	Chips to send by responder: { chips  'grey78':1 }
Sun Dec 09 08:13:46 IST 2012	Received communication message 
Sun Dec 09 08:13:46 IST 2012	From player: 510
Sun Dec 09 08:13:46 IST 2012	To player: 337
Sun Dec 09 08:13:46 IST 2012	Message type: basicproposaldiscussion
Sun Dec 09 08:13:46 IST 2012	Player 510 accepted offer
Sun Dec 09 08:13:46 IST 2012	Prop accepted, set counter offers count to: 0
Sun Dec 09 08:13:46 IST 2012	Prop accepted, get counter offers returned: 0
Sun Dec 09 08:13:46 IST 2012	A Phase Ended: Communication Phase
Sun Dec 09 08:13:46 IST 2012	Protocol: A New Phase Began: Exchange Phase
Sun Dec 09 08:13:46 IST 2012	Protocol: Exchange phase, Round: 4
Sun Dec 09 08:13:46 IST 2012	In begin exch.phase, get counter offers returned: 0
Sun Dec 09 08:14:15 IST 2012	A Phase Ended: Exchange Phase
Sun Dec 09 08:14:15 IST 2012	Proposer 337 sent: { chips  'CTRed':0 'CTPurple':0 'CTGreen':2 'grey78':0 }
Sun Dec 09 08:14:15 IST 2012	Responder 510 sent: { chips  }
Sun Dec 09 08:14:15 IST 2012	Protocol: A New Phase Began: Movement Phase
Sun Dec 09 08:14:15 IST 2012	Protocol: Movement phase, Round: 4
Sun Dec 09 08:14:15 IST 2012	Player 510 moved to (R:2,C:3)
Sun Dec 09 08:14:35 IST 2012	A Phase Ended: Movement Phase
Sun Dec 09 08:14:35 IST 2012	Swaping roles:
Sun Dec 09 08:14:35 IST 2012	Proposer is: 510
Sun Dec 09 08:14:35 IST 2012	Responder is: 337
Sun Dec 09 08:14:35 IST 2012	Protocol: A New Phase Began: Feedback Phase
Sun Dec 09 08:14:35 IST 2012	Protocol: Feedback phase, Round: 4
Sun Dec 09 08:14:35 IST 2012	Number of consecutive no movements for player 337 is 2
Sun Dec 09 08:14:35 IST 2012	Number of consecutive no movements for player 510 is 0
Sun Dec 09 08:14:40 IST 2012	A Phase Ended: Feedback Phase
Sun Dec 09 08:14:40 IST 2012	Protocol: A New Phase Began: Communication Phase
Sun Dec 09 08:14:40 IST 2012	Protocol: Communication phase, Round: 5
Sun Dec 09 08:14:57 IST 2012	Received communication message 
Sun Dec 09 08:14:57 IST 2012	From player: 510
Sun Dec 09 08:14:57 IST 2012	To player: 337
Sun Dec 09 08:14:57 IST 2012	Message type: basicproposal
Sun Dec 09 08:14:57 IST 2012	Chips to send by proposer: { chips  'CTRed':0 'CTPurple':0 'CTGreen':0 'grey78':1 }
Sun Dec 09 08:14:57 IST 2012	Chips to send by responder: { chips  'CTRed':0 'CTPurple':0 'CTGreen':1 'grey78':0 }
Sun Dec 09 08:15:30 IST 2012	Received communication message 
Sun Dec 09 08:15:30 IST 2012	From player: 337
Sun Dec 09 08:15:30 IST 2012	To player: 510
Sun Dec 09 08:15:30 IST 2012	Message type: basicproposaldiscussion
Sun Dec 09 08:15:30 IST 2012	Player 337 accepted offer
Sun Dec 09 08:15:30 IST 2012	Prop accepted, set counter offers count to: 0
Sun Dec 09 08:15:30 IST 2012	Prop accepted, get counter offers returned: 0
Sun Dec 09 08:15:30 IST 2012	A Phase Ended: Communication Phase
Sun Dec 09 08:15:30 IST 2012	Protocol: A New Phase Began: Exchange Phase
Sun Dec 09 08:15:30 IST 2012	Protocol: Exchange phase, Round: 5
Sun Dec 09 08:15:30 IST 2012	In begin exch.phase, get counter offers returned: 0
Sun Dec 09 08:15:59 IST 2012	A Phase Ended: Exchange Phase
Sun Dec 09 08:15:59 IST 2012	Proposer 510 sent: { chips  }
Sun Dec 09 08:15:59 IST 2012	Responder 337 sent: { chips  'CTRed':0 'CTPurple':0 'CTGreen':1 'grey78':0 }
Sun Dec 09 08:15:59 IST 2012	Protocol: A New Phase Began: Movement Phase
Sun Dec 09 08:15:59 IST 2012	Protocol: Movement phase, Round: 5
Sun Dec 09 08:15:59 IST 2012	Player 510 moved to (R:1,C:3)
Sun Dec 09 08:15:59 IST 2012	Player 337 moved to (R:5,C:1)
Sun Dec 09 08:16:19 IST 2012	A Phase Ended: Movement Phase
Sun Dec 09 08:16:19 IST 2012	Swaping roles:
Sun Dec 09 08:16:19 IST 2012	Proposer is: 337
Sun Dec 09 08:16:19 IST 2012	Responder is: 510
Sun Dec 09 08:16:19 IST 2012	Protocol: A New Phase Began: Feedback Phase
Sun Dec 09 08:16:19 IST 2012	Protocol: Feedback phase, Round: 5
Sun Dec 09 08:16:19 IST 2012	Number of consecutive no movements for player 337 is 0
Sun Dec 09 08:16:19 IST 2012	Number of consecutive no movements for player 510 is 0
Sun Dec 09 08:16:24 IST 2012	A Phase Ended: Feedback Phase
Sun Dec 09 08:16:24 IST 2012	Protocol: A New Phase Began: Communication Phase
Sun Dec 09 08:16:24 IST 2012	Protocol: Communication phase, Round: 6
Sun Dec 09 08:17:25 IST 2012	Received communication message 
Sun Dec 09 08:17:25 IST 2012	From player: 337
Sun Dec 09 08:17:25 IST 2012	To player: 510
Sun Dec 09 08:17:25 IST 2012	Message type: basicproposal
Sun Dec 09 08:17:25 IST 2012	Chips to send by proposer: { chips  'CTGreen':1 }
Sun Dec 09 08:17:25 IST 2012	Chips to send by responder: { chips  'grey78':1 }
Sun Dec 09 08:17:31 IST 2012	Received communication message 
Sun Dec 09 08:17:31 IST 2012	From player: 510
Sun Dec 09 08:17:31 IST 2012	To player: 337
Sun Dec 09 08:17:31 IST 2012	Message type: basicproposaldiscussion
Sun Dec 09 08:17:31 IST 2012	Player 510 accepted offer
Sun Dec 09 08:17:31 IST 2012	Prop accepted, set counter offers count to: 0
Sun Dec 09 08:17:31 IST 2012	Prop accepted, get counter offers returned: 0
Sun Dec 09 08:17:31 IST 2012	A Phase Ended: Communication Phase
Sun Dec 09 08:17:31 IST 2012	Protocol: A New Phase Began: Exchange Phase
Sun Dec 09 08:17:31 IST 2012	Protocol: Exchange phase, Round: 6
Sun Dec 09 08:17:31 IST 2012	In begin exch.phase, get counter offers returned: 0
Sun Dec 09 08:17:52 IST 2012	A Phase Ended: Exchange Phase
Sun Dec 09 08:17:52 IST 2012	Proposer 337 sent: { chips  'CTRed':0 'CTPurple':0 'CTGreen':0 'grey78':0 }
Sun Dec 09 08:17:52 IST 2012	Responder 510 sent: { chips  }
Sun Dec 09 08:17:52 IST 2012	Protocol: A New Phase Began: Movement Phase
Sun Dec 09 08:17:52 IST 2012	Protocol: Movement phase, Round: 6
Sun Dec 09 08:17:52 IST 2012	Player 510 moved to (R:0,C:3)
Sun Dec 09 08:18:12 IST 2012	A Phase Ended: Movement Phase
Sun Dec 09 08:18:12 IST 2012	Swaping roles:
Sun Dec 09 08:18:12 IST 2012	Proposer is: 510
Sun Dec 09 08:18:12 IST 2012	Responder is: 337
Sun Dec 09 08:18:12 IST 2012	Protocol: A New Phase Began: Feedback Phase
Sun Dec 09 08:18:12 IST 2012	Protocol: Feedback phase, Round: 6
Sun Dec 09 08:18:12 IST 2012	Number of consecutive no movements for player 337 is 1
Sun Dec 09 08:18:12 IST 2012	Number of consecutive no movements for player 510 is 0
Sun Dec 09 08:18:17 IST 2012	A Phase Ended: Feedback Phase
Sun Dec 09 08:18:17 IST 2012	Protocol: A New Phase Began: Communication Phase
Sun Dec 09 08:18:17 IST 2012	Protocol: Communication phase, Round: 7
Sun Dec 09 08:18:35 IST 2012	Received communication message 
Sun Dec 09 08:18:35 IST 2012	From player: 510
Sun Dec 09 08:18:35 IST 2012	To player: 337
Sun Dec 09 08:18:35 IST 2012	Message type: basicproposal
Sun Dec 09 08:18:35 IST 2012	Chips to send by proposer: { chips  'CTRed':0 'CTPurple':0 'CTGreen':0 'grey78':1 }
Sun Dec 09 08:18:35 IST 2012	Chips to send by responder: { chips  'CTRed':0 'CTPurple':0 'CTGreen':1 'grey78':0 }
Sun Dec 09 08:18:48 IST 2012	Received communication message 
Sun Dec 09 08:18:48 IST 2012	From player: 337
Sun Dec 09 08:18:48 IST 2012	To player: 510
Sun Dec 09 08:18:48 IST 2012	Message type: basicproposaldiscussion
Sun Dec 09 08:18:48 IST 2012	Player 337 rejected offer
Sun Dec 09 08:18:48 IST 2012	Swaping roles:
Sun Dec 09 08:18:48 IST 2012	Proposer is: 337
Sun Dec 09 08:18:48 IST 2012	Responder is: 510
Sun Dec 09 08:18:48 IST 2012	Prop rejected, set counter offers count to: 1
Sun Dec 09 08:18:48 IST 2012	Prop rejected, get counter offers returned: 1
Sun Dec 09 08:18:52 IST 2012	Slept 4 seconds
Sun Dec 09 08:18:52 IST 2012	Sent role changed msgs
Sun Dec 09 08:19:31 IST 2012	Received communication message 
Sun Dec 09 08:19:31 IST 2012	From player: 337
Sun Dec 09 08:19:31 IST 2012	To player: 510
Sun Dec 09 08:19:31 IST 2012	Message type: basicproposal
Sun Dec 09 08:19:31 IST 2012	Chips to send by proposer: { chips  'CTRed':0 'CTPurple':0 'CTGreen':1 'grey78':0 }
Sun Dec 09 08:19:31 IST 2012	Chips to send by responder: { chips  'CTRed':0 'CTPurple':0 'CTGreen':0 'grey78':1 }
Sun Dec 09 08:19:38 IST 2012	Received communication message 
Sun Dec 09 08:19:38 IST 2012	From player: 510
Sun Dec 09 08:19:38 IST 2012	To player: 337
Sun Dec 09 08:19:38 IST 2012	Message type: basicproposaldiscussion
Sun Dec 09 08:19:38 IST 2012	Player 510 accepted offer
Sun Dec 09 08:19:38 IST 2012	Prop accepted, set counter offers count to: 0
Sun Dec 09 08:19:38 IST 2012	Prop accepted, get counter offers returned: 0
Sun Dec 09 08:19:38 IST 2012	A Phase Ended: Communication Phase
Sun Dec 09 08:19:38 IST 2012	Protocol: A New Phase Began: Exchange Phase
Sun Dec 09 08:19:38 IST 2012	Protocol: Exchange phase, Round: 7
Sun Dec 09 08:19:38 IST 2012	In begin exch.phase, get counter offers returned: 0
Sun Dec 09 08:19:50 IST 2012	A Phase Ended: Exchange Phase
Sun Dec 09 08:19:50 IST 2012	Proposer 337 sent: { chips  'CTRed':0 'CTPurple':0 'CTGreen':1 'grey78':0 }
Sun Dec 09 08:19:50 IST 2012	Responder 510 sent: { chips  }
Sun Dec 09 08:19:50 IST 2012	Protocol: A New Phase Began: Movement Phase
Sun Dec 09 08:19:50 IST 2012	Protocol: Movement phase, Round: 7
Sun Dec 09 08:19:50 IST 2012	Player 510 moved to (R:0,C:2)
Sun Dec 09 08:19:54 IST 2012	Slept 4 seconds
Sun Dec 09 08:19:54 IST 2012	Player 510 got to goal, advance the other and end game
Sun Dec 09 08:19:54 IST 2012	Player: 510 ,role: Responder score is: 215
Sun Dec 09 08:19:54 IST 2012	Player: 337 ,role: Proposer score is: 30
