filename,round,propID,respID,IsPropCustomer,chipsToSend,chipsToReceive,accept,propCurrentScore,respCurrentScore,actualSent,ActualRcvd,propResultingScore,respResultingScore,#ofCustomerMovesInRound,customerRowPositionAfterMovePhase,customerColPositionAfterMovePhase,Player100ChipsAfterMovePhase,Player100ScoreAfterMovePhase,Player200ChipsAfterMovePhase,Player200ScoreAfterMovePhase,Player300ChipsAfterMovePhase,Player300ScoreAfterMovePhase,generosityLevel,ClientReachedGoal
3playersLog_1378971879255.csv,1,530,500,false,{ chips  'CTRed':33 'CTPurple':7 },{ chips  'grey78':11 },TRUE,200,120,{ chips  'CTRed':33 'CTPurple':7 'CTYellow':0 },{ chips  'grey78':11 },55,265,1,(R:5,C:5),{ chips  'CTRed':33 'CTGreen':0 'CTPurple':7 'grey78':1 'CTYellow':11 },260,{ chips  'CTRed':0 'CTGreen':0 'CTPurple':0 'grey78':11 'CTYellow':0 },55,{ chips  'CTRed':33 'CTGreen':0 'CTPurple':7 'grey78':0 'CTYellow':0 },200
3playersLog_1378971879255.csv,1,540,500,false,{ chips  'CTPurple':4 },{ chips  'grey78':1 },IGNORED,200,120,,,,,1,(R:5,C:5),{ chips  'CTRed':33 'CTGreen':0 'CTPurple':7 'grey78':1 'CTYellow':11 },260,{ chips  'CTRed':0 'CTGreen':0 'CTPurple':0 'grey78':11 'CTYellow':0 },55,{ chips  'CTRed':33 'CTGreen':0 'CTPurple':7 'grey78':0 'CTYellow':0 },200
3playersLog_1378971879255.csv,2,500,540,true,{ chips  'CTYellow':4 },{ chips  'CTRed':10 'CTPurple':3 },FALSE,255,200,,,,,1,(R:3,C:5),{ chips  'CTRed':33 'CTGreen':0 'CTPurple':6 'grey78':1 'CTYellow':10 },250,{ chips  'CTRed':0 'CTGreen':0 'CTPurple':0 'grey78':11 'CTYellow':0 },55,{ chips  'CTRed':33 'CTGreen':0 'CTPurple':7 'grey78':0 'CTYellow':0 },200
3playersLog_1378971879255.csv,3,530,500,false,{ chips  },{ chips  },FALSE,55,250,,,,,1,(R:3,C:4),{ chips  'CTRed':50 'CTGreen':0 'CTPurple':10 'grey78':1 'CTYellow':5 },330,{ chips  'CTRed':0 'CTGreen':0 'CTPurple':0 'grey78':11 'CTYellow':0 },55,{ chips  'CTRed':16 'CTGreen':0 'CTPurple':2 'grey78':0 'CTYellow':5 },115
3playersLog_1378971879255.csv,3,540,500,false,{ chips  'CTRed':17 'CTPurple':5 },{ chips  'CTYellow':5 },TRUE,200,250,{ chips  'CTRed':17 'CTPurple':5 'CTGreen':0 'grey78':0 'CTYellow':0 },{ chips  'CTRed':0 'CTPurple':0 'CTGreen':0 'grey78':0 'CTYellow':5 },115,335,1,(R:3,C:4),{ chips  'CTRed':50 'CTGreen':0 'CTPurple':10 'grey78':1 'CTYellow':5 },330,{ chips  'CTRed':0 'CTGreen':0 'CTPurple':0 'grey78':11 'CTYellow':0 },55,{ chips  'CTRed':16 'CTGreen':0 'CTPurple':2 'grey78':0 'CTYellow':5 },115
3playersLog_1378971879255.csv,4,500,530,true,{ chips  'grey78':1 'CTYellow':5 },{ chips  'grey78':6 },IGNORED,330,55,,,,,1,(R:3,C:3),{ chips  'CTRed':50 'CTGreen':0 'CTPurple':9 'grey78':1 'CTYellow':5 },325,{ chips  'CTRed':0 'CTGreen':0 'CTPurple':0 'grey78':11 'CTYellow':0 },55,{ chips  'CTRed':16 'CTGreen':0 'CTPurple':2 'grey78':0 'CTYellow':5 },115
3playersLog_1378971879255.csv,5,530,500,false,{ chips  },{ chips  },FALSE,55,325,,,,,0,(R:3,C:3),{ chips  'CTRed':52 'CTGreen':0 'CTPurple':9 'grey78':1 'CTYellow':5 },335,{ chips  'CTRed':0 'CTGreen':0 'CTPurple':0 'grey78':11 'CTYellow':0 },55,{ chips  'CTRed':14 'CTGreen':0 'CTPurple':2 'grey78':0 'CTYellow':5 },105
3playersLog_1378971879255.csv,5,540,500,false,{ chips  'CTRed':2 },{ chips  },TRUE,115,325,{ chips  'CTRed':2 'CTPurple':0 'CTGreen':0 'grey78':0 'CTYellow':0 },{ chips  'CTRed':0 'CTPurple':0 'CTGreen':0 'grey78':0 'CTYellow':0 },105,335,0,(R:3,C:3),{ chips  'CTRed':52 'CTGreen':0 'CTPurple':9 'grey78':1 'CTYellow':5 },335,{ chips  'CTRed':0 'CTGreen':0 'CTPurple':0 'grey78':11 'CTYellow':0 },55,{ chips  'CTRed':14 'CTGreen':0 'CTPurple':2 'grey78':0 'CTYellow':5 },105
3playersLog_1378971879255.csv,6,500,530,true,{ chips  'CTRed':15 },{ chips  'grey78':6 },IGNORED,335,55,,,,,1,(R:3,C:2),{ chips  'CTRed':52 'CTGreen':0 'CTPurple':9 'grey78':0 'CTYellow':5 },330,{ chips  'CTRed':0 'CTGreen':0 'CTPurple':0 'grey78':11 'CTYellow':0 },55,{ chips  'CTRed':14 'CTGreen':0 'CTPurple':2 'grey78':0 'CTYellow':5 },105
3playersLog_1378971879255.csv,7,530,500,false,{ chips  },{ chips  },FALSE,55,330,,,,,0,(R:3,C:2),{ chips  'CTRed':52 'CTGreen':0 'CTPurple':9 'grey78':0 'CTYellow':5 },330,{ chips  'CTRed':0 'CTGreen':0 'CTPurple':0 'grey78':11 'CTYellow':0 },55,{ chips  'CTRed':14 'CTGreen':0 'CTPurple':2 'grey78':0 'CTYellow':5 },105
3playersLog_1378971879255.csv,7,540,500,false,{ chips  },{ chips  },FALSE,105,330,,,,,0,(R:3,C:2),{ chips  'CTRed':52 'CTGreen':0 'CTPurple':9 'grey78':0 'CTYellow':5 },330,{ chips  'CTRed':0 'CTGreen':0 'CTPurple':0 'grey78':11 'CTYellow':0 },55,{ chips  'CTRed':14 'CTGreen':0 'CTPurple':2 'grey78':0 'CTYellow':5 },105
3playersLog_1378971879255.csv,8,500,540,true,{ chips  'CTRed':10 },{ chips  'CTYellow':5 },IGNORED,330,105,,,,,1,(R:3,C:3),{ chips  'CTRed':52 'CTGreen':0 'CTPurple':8 'grey78':0 'CTYellow':5 },325,{ chips  'CTRed':0 'CTGreen':0 'CTPurple':0 'grey78':11 'CTYellow':0 },55,{ chips  'CTRed':14 'CTGreen':0 'CTPurple':2 'grey78':0 'CTYellow':5 },105
3playersLog_1378971879255.csv,9,530,500,false,{ chips  },{ chips  },FALSE,55,325,,,,,1,(R:3,C:4),{ chips  'CTRed':52 'CTGreen':0 'CTPurple':7 'grey78':0 'CTYellow':5 },320,{ chips  'CTRed':0 'CTGreen':0 'CTPurple':0 'grey78':11 'CTYellow':0 },55,{ chips  'CTRed':14 'CTGreen':0 'CTPurple':2 'grey78':0 'CTYellow':5 },105
3playersLog_1378971879255.csv,9,540,500,false,{ chips  },{ chips  },FALSE,105,325,,,,,1,(R:3,C:4),{ chips  'CTRed':52 'CTGreen':0 'CTPurple':7 'grey78':0 'CTYellow':5 },320,{ chips  'CTRed':0 'CTGreen':0 'CTPurple':0 'grey78':11 'CTYellow':0 },55,{ chips  'CTRed':14 'CTGreen':0 'CTPurple':2 'grey78':0 'CTYellow':5 },105
3playersLog_1378971879255.csv,10,500,530,true,{ chips  },{ chips  'grey78':6 },IGNORED,320,55,,,,,0,(R:3,C:4),{ chips  'CTRed':52 'CTGreen':0 'CTPurple':7 'grey78':0 'CTYellow':5 },320,{ chips  'CTRed':0 'CTGreen':0 'CTPurple':0 'grey78':11 'CTYellow':0 },55,{ chips  'CTRed':14 'CTGreen':0 'CTPurple':2 'grey78':0 'CTYellow':5 },105
3playersLog_1378971879255.csv,11,530,500,false,{ chips  },{ chips  },FALSE,55,320,,,,,1,(R:3,C:5),{ chips  'CTRed':52 'CTGreen':0 'CTPurple':6 'grey78':0 'CTYellow':5 },315,{ chips  'CTRed':0 'CTGreen':0 'CTPurple':0 'grey78':11 'CTYellow':0 },55,{ chips  'CTRed':14 'CTGreen':0 'CTPurple':2 'grey78':0 'CTYellow':5 },105
3playersLog_1378971879255.csv,11,540,500,false,{ chips  },{ chips  },FALSE,105,320,,,,,1,(R:3,C:5),{ chips  'CTRed':52 'CTGreen':0 'CTPurple':6 'grey78':0 'CTYellow':5 },315,{ chips  'CTRed':0 'CTGreen':0 'CTPurple':0 'grey78':11 'CTYellow':0 },55,{ chips  'CTRed':14 'CTGreen':0 'CTPurple':2 'grey78':0 'CTYellow':5 },105
3playersLog_1378971879255.csv,12,500,540,true,{ chips  },{ chips  'CTYellow':1 },FALSE,315,105,,,,,1,(R:3,C:6),{ chips  'CTRed':52 'CTGreen':0 'CTPurple':6 'grey78':0 'CTYellow':4 },310,{ chips  'CTRed':0 'CTGreen':0 'CTPurple':0 'grey78':11 'CTYellow':0 },55,{ chips  'CTRed':14 'CTGreen':0 'CTPurple':2 'grey78':0 'CTYellow':5 },105
3playersLog_1378971879255.csv,13,530,500,false,{ chips  },{ chips  },FALSE,55,310,,,,,1,(R:3,C:7),{ chips  'CTRed':52 'CTGreen':0 'CTPurple':6 'grey78':0 'CTYellow':3 },305,{ chips  'CTRed':0 'CTGreen':0 'CTPurple':0 'grey78':11 'CTYellow':0 },55,{ chips  'CTRed':14 'CTGreen':0 'CTPurple':2 'grey78':0 'CTYellow':5 },105
3playersLog_1378971879255.csv,13,540,500,false,{ chips  'CTPurple':2 },{ chips  'CTRed':10 },FALSE,105,310,,,,,1,(R:3,C:7),{ chips  'CTRed':52 'CTGreen':0 'CTPurple':6 'grey78':0 'CTYellow':3 },305,{ chips  'CTRed':0 'CTGreen':0 'CTPurple':0 'grey78':11 'CTYellow':0 },55,{ chips  'CTRed':14 'CTGreen':0 'CTPurple':2 'grey78':0 'CTYellow':5 },105
3playersLog_1378971879255.csv,14,500,540,true,{ chips  },{ chips  'CTYellow':1 },FALSE,305,105,,,,,1,(R:2,C:7),{ chips  'CTRed':52 'CTGreen':0 'CTPurple':6 'grey78':0 'CTYellow':2 },300,{ chips  'CTRed':0 'CTGreen':0 'CTPurple':0 'grey78':11 'CTYellow':0 },55,{ chips  'CTRed':14 'CTGreen':0 'CTPurple':2 'grey78':0 'CTYellow':5 },105
3playersLog_1378971879255.csv,15,530,500,false,{ chips  },{ chips  },FALSE,55,300,,,,,1,(R:2,C:8),{ chips  'CTRed':52 'CTGreen':0 'CTPurple':6 'grey78':0 'CTYellow':1 },295,{ chips  'CTRed':0 'CTGreen':0 'CTPurple':0 'grey78':11 'CTYellow':0 },55,{ chips  'CTRed':14 'CTGreen':0 'CTPurple':2 'grey78':0 'CTYellow':5 },105
3playersLog_1378971879255.csv,15,540,500,false,{ chips  },{ chips  },FALSE,105,300,,,,,1,(R:2,C:8),{ chips  'CTRed':52 'CTGreen':0 'CTPurple':6 'grey78':0 'CTYellow':1 },295,{ chips  'CTRed':0 'CTGreen':0 'CTPurple':0 'grey78':11 'CTYellow':0 },55,{ chips  'CTRed':14 'CTGreen':0 'CTPurple':2 'grey78':0 'CTYellow':5 },105
3playersLog_1378971879255.csv,16,500,540,true,{ chips  },{ chips  'CTYellow':1 },FALSE,295,105,,,,,0,(R:2,C:8),{ chips  'CTRed':52 'CTGreen':0 'CTPurple':6 'grey78':0 'CTYellow':1 },295,{ chips  'CTRed':0 'CTGreen':0 'CTPurple':0 'grey78':11 'CTYellow':0 },55,{ chips  'CTRed':14 'CTGreen':0 'CTPurple':2 'grey78':0 'CTYellow':5 },105
3playersLog_1378971879255.csv,17,530,500,false,{ chips  },{ chips  },FALSE,55,295,,,,,1,(R:1,C:8),{ chips  'CTRed':52 'CTGreen':0 'CTPurple':6 'grey78':0 'CTYellow':0 },290,{ chips  'CTRed':0 'CTGreen':0 'CTPurple':0 'grey78':11 'CTYellow':0 },55,{ chips  'CTRed':14 'CTGreen':0 'CTPurple':2 'grey78':0 'CTYellow':5 },105
3playersLog_1378971879255.csv,17,540,500,false,{ chips  },{ chips  },FALSE,105,295,,,,,1,(R:1,C:8),{ chips  'CTRed':52 'CTGreen':0 'CTPurple':6 'grey78':0 'CTYellow':0 },290,{ chips  'CTRed':0 'CTGreen':0 'CTPurple':0 'grey78':11 'CTYellow':0 },55,{ chips  'CTRed':14 'CTGreen':0 'CTPurple':2 'grey78':0 'CTYellow':5 },105
3playersLog_1378971879255.csv,18,500,540,true,{ chips  },{ chips  'CTYellow':1 },FALSE,290,105,,,,,0,(R:1,C:8),{ chips  'CTRed':52 'CTGreen':0 'CTPurple':6 'grey78':0 'CTYellow':0 },290,{ chips  'CTRed':0 'CTGreen':0 'CTPurple':0 'grey78':11 'CTYellow':0 },55,{ chips  'CTRed':14 'CTGreen':0 'CTPurple':2 'grey78':0 'CTYellow':5 },105
3playersLog_1378971879255.csv,19,530,500,false,{ chips  },{ chips  },FALSE,55,290,,,,,0,(R:1,C:8),{ chips  'CTRed':52 'CTGreen':0 'CTPurple':6 'grey78':0 'CTYellow':0 },290,{ chips  'CTRed':0 'CTGreen':0 'CTPurple':0 'grey78':11 'CTYellow':0 },55,{ chips  'CTRed':14 'CTGreen':0 'CTPurple':2 'grey78':0 'CTYellow':5 },105
3playersLog_1378971879255.csv,19,540,500,false,{ chips  },{ chips  },FALSE,105,290,,,,,0,(R:1,C:8),{ chips  'CTRed':52 'CTGreen':0 'CTPurple':6 'grey78':0 'CTYellow':0 },290,{ chips  'CTRed':0 'CTGreen':0 'CTPurple':0 'grey78':11 'CTYellow':0 },55,{ chips  'CTRed':14 'CTGreen':0 'CTPurple':2 'grey78':0 'CTYellow':5 },105
3playersLog_1378971879255.csv,,,,,,,,,,,,,,,,,,,,,,,,false
filename,round,propID,respID,IsPropCustomer,chipsToSend,chipsToReceive,accept,propCurrentScore,respCurrentScore,actualSent,ActualRcvd,propResultingScore,respResultingScore,#ofCustomerMovesInRound,customerRowPositionAfterMovePhase,customerColPositionAfterMovePhase,Player100ChipsAfterMovePhase,Player100ScoreAfterMovePhase,Player200ChipsAfterMovePhase,Player200ScoreAfterMovePhase,Player300ChipsAfterMovePhase,Player300ScoreAfterMovePhase,generosityLevel,ClientReachedGoal
3playersLog_1378972008630.csv,1,530,500,false,{ chips  'CTRed':33 'CTPurple':7 },{ chips  'grey78':11 },IGNORED,200,120,,,,,0,(R:5,C:4),{ chips  'CTRed':0 'CTGreen':0 'CTPurple':0 'grey78':12 'CTYellow':12 },120,{ chips  'CTRed':33 'CTGreen':0 'CTPurple':7 'grey78':0 'CTYellow':0 },200,{ chips  'CTRed':33 'CTGreen':0 'CTPurple':7 'grey78':0 'CTYellow':0 },200
3playersLog_1378972008630.csv,1,540,500,false,{ chips  'CTPurple':2 },{ chips  'CTYellow':1 },IGNORED,200,120,,,,,0,(R:5,C:4),{ chips  'CTRed':0 'CTGreen':0 'CTPurple':0 'grey78':12 'CTYellow':12 },120,{ chips  'CTRed':33 'CTGreen':0 'CTPurple':7 'grey78':0 'CTYellow':0 },200,{ chips  'CTRed':33 'CTGreen':0 'CTPurple':7 'grey78':0 'CTYellow':0 },200
3playersLog_1378972008630.csv,2,500,540,true,{ chips  'CTYellow':1 },{ chips  'CTPurple':3 },TRUE,120,200,{ chips  'CTRed':0 'CTPurple':0 'CTGreen':0 'grey78':0 'CTYellow':1 },{ chips  'CTRed':0 'CTPurple':3 'CTGreen':0 'grey78':0 'CTYellow':0 },130,190,1,(R:5,C:3),{ chips  'CTRed':0 'CTGreen':0 'CTPurple':3 'grey78':11 'CTYellow':11 },125,{ chips  'CTRed':33 'CTGreen':0 'CTPurple':7 'grey78':0 'CTYellow':0 },200,{ chips  'CTRed':33 'CTGreen':0 'CTPurple':4 'grey78':0 'CTYellow':1 },190
3playersLog_1378972008630.csv,3,530,500,false,{ chips  'CTRed':33 'CTPurple':6 },{ chips  'grey78':10 },FALSE,200,125,,,,,0,(R:5,C:3),{ chips  'CTRed':0 'CTGreen':0 'CTPurple':3 'grey78':11 'CTYellow':11 },125,{ chips  'CTRed':33 'CTGreen':0 'CTPurple':7 'grey78':0 'CTYellow':0 },200,{ chips  'CTRed':33 'CTGreen':0 'CTPurple':4 'grey78':0 'CTYellow':1 },190
3playersLog_1378972008630.csv,3,540,500,false,{ chips  'CTRed':23 },{ chips  'CTYellow':11 },FALSE,190,125,,,,,0,(R:5,C:3),{ chips  'CTRed':0 'CTGreen':0 'CTPurple':3 'grey78':11 'CTYellow':11 },125,{ chips  'CTRed':33 'CTGreen':0 'CTPurple':7 'grey78':0 'CTYellow':0 },200,{ chips  'CTRed':33 'CTGreen':0 'CTPurple':4 'grey78':0 'CTYellow':1 },190
3playersLog_1378972008630.csv,4,500,540,true,{ chips  'CTYellow':3 },{ chips  'CTRed':12 'CTPurple':2 },FALSE,120,190,,,,,1,(R:4,C:2),{ chips  'CTRed':0 'CTGreen':0 'CTPurple':3 'grey78':9 'CTYellow':11 },115,{ chips  'CTRed':33 'CTGreen':0 'CTPurple':7 'grey78':0 'CTYellow':0 },200,{ chips  'CTRed':33 'CTGreen':0 'CTPurple':4 'grey78':0 'CTYellow':1 },190
3playersLog_1378972008630.csv,5,530,500,false,{ chips  'CTRed':33 'CTPurple':4 },{ chips  'grey78':8 },FALSE,200,115,,,,,1,(R:3,C:2),{ chips  'CTRed':0 'CTGreen':0 'CTPurple':3 'grey78':8 'CTYellow':11 },110,{ chips  'CTRed':33 'CTGreen':0 'CTPurple':7 'grey78':0 'CTYellow':0 },200,{ chips  'CTRed':33 'CTGreen':0 'CTPurple':4 'grey78':0 'CTYellow':1 },190
3playersLog_1378972008630.csv,5,540,500,false,{ chips  'CTRed':13 },{ chips  'CTYellow':5 },FALSE,190,115,,,,,1,(R:3,C:2),{ chips  'CTRed':0 'CTGreen':0 'CTPurple':3 'grey78':8 'CTYellow':11 },110,{ chips  'CTRed':33 'CTGreen':0 'CTPurple':7 'grey78':0 'CTYellow':0 },200,{ chips  'CTRed':33 'CTGreen':0 'CTPurple':4 'grey78':0 'CTYellow':1 },190
3playersLog_1378972008630.csv,6,500,530,true,{ chips  'grey78':3 },{ chips  'CTRed':12 'CTPurple':3 },IGNORED,110,200,,,,,0,(R:3,C:2),{ chips  'CTRed':0 'CTGreen':0 'CTPurple':3 'grey78':8 'CTYellow':11 },110,{ chips  'CTRed':33 'CTGreen':0 'CTPurple':7 'grey78':0 'CTYellow':0 },200,{ chips  'CTRed':33 'CTGreen':0 'CTPurple':4 'grey78':0 'CTYellow':1 },190
3playersLog_1378972008630.csv,7,530,500,false,{ chips  'CTRed':33 'CTPurple':4 },{ chips  'grey78':8 },FALSE,200,110,,,,,1,(R:3,C:3),{ chips  'CTRed':0 'CTGreen':0 'CTPurple':2 'grey78':8 'CTYellow':11 },105,{ chips  'CTRed':33 'CTGreen':0 'CTPurple':7 'grey78':0 'CTYellow':0 },200,{ chips  'CTRed':33 'CTGreen':0 'CTPurple':4 'grey78':0 'CTYellow':1 },190
3playersLog_1378972008630.csv,7,540,500,false,{ chips  'CTRed':25 'CTPurple':1 },{ chips  'CTYellow':10 },FALSE,190,110,,,,,1,(R:3,C:3),{ chips  'CTRed':0 'CTGreen':0 'CTPurple':2 'grey78':8 'CTYellow':11 },105,{ chips  'CTRed':33 'CTGreen':0 'CTPurple':7 'grey78':0 'CTYellow':0 },200,{ chips  'CTRed':33 'CTGreen':0 'CTPurple':4 'grey78':0 'CTYellow':1 },190
3playersLog_1378972008630.csv,8,500,540,true,{ chips  'CTYellow':6 },{ chips  'CTRed':10 'CTPurple':3 },IGNORED,105,190,,,,,1,(R:3,C:4),{ chips  'CTRed':0 'CTGreen':0 'CTPurple':1 'grey78':8 'CTYellow':11 },100,{ chips  'CTRed':33 'CTGreen':0 'CTPurple':7 'grey78':0 'CTYellow':0 },200,{ chips  'CTRed':33 'CTGreen':0 'CTPurple':4 'grey78':0 'CTYellow':1 },190
3playersLog_1378972008630.csv,9,530,500,false,{ chips  'CTRed':33 'CTPurple':4 },{ chips  'grey78':8 },FALSE,200,100,,,,,1,(R:3,C:5),{ chips  'CTRed':0 'CTGreen':0 'CTPurple':0 'grey78':8 'CTYellow':11 },95,{ chips  'CTRed':33 'CTGreen':0 'CTPurple':7 'grey78':0 'CTYellow':0 },200,{ chips  'CTRed':33 'CTGreen':0 'CTPurple':4 'grey78':0 'CTYellow':1 },190
3playersLog_1378972008630.csv,9,540,500,false,{ chips  'CTRed':33 'CTPurple':2 },{ chips  'CTYellow':11 },FALSE,190,100,,,,,1,(R:3,C:5),{ chips  'CTRed':0 'CTGreen':0 'CTPurple':0 'grey78':8 'CTYellow':11 },95,{ chips  'CTRed':33 'CTGreen':0 'CTPurple':7 'grey78':0 'CTYellow':0 },200,{ chips  'CTRed':33 'CTGreen':0 'CTPurple':4 'grey78':0 'CTYellow':1 },190
3playersLog_1378972008630.csv,10,500,530,true,{ chips  'grey78':6 },{ chips  'CTPurple':3 },IGNORED,95,200,,,,,1,(R:3,C:6),{ chips  'CTRed':0 'CTGreen':0 'CTPurple':0 'grey78':8 'CTYellow':10 },90,{ chips  'CTRed':33 'CTGreen':0 'CTPurple':7 'grey78':0 'CTYellow':0 },200,{ chips  'CTRed':33 'CTGreen':0 'CTPurple':4 'grey78':0 'CTYellow':1 },190
3playersLog_1378972008630.csv,11,530,500,false,{ chips  'CTRed':33 'CTPurple':4 },{ chips  'grey78':8 },FALSE,200,90,,,,,0,(R:3,C:6),{ chips  'CTRed':0 'CTGreen':0 'CTPurple':0 'grey78':8 'CTYellow':10 },90,{ chips  'CTRed':33 'CTGreen':0 'CTPurple':7 'grey78':0 'CTYellow':0 },200,{ chips  'CTRed':33 'CTGreen':0 'CTPurple':4 'grey78':0 'CTYellow':1 },190
3playersLog_1378972008630.csv,11,540,500,false,{ chips  'CTPurple':1 },{ chips  'grey78':8 'CTYellow':10 },FALSE,190,90,,,,,0,(R:3,C:6),{ chips  'CTRed':0 'CTGreen':0 'CTPurple':0 'grey78':8 'CTYellow':10 },90,{ chips  'CTRed':33 'CTGreen':0 'CTPurple':7 'grey78':0 'CTYellow':0 },200,{ chips  'CTRed':33 'CTGreen':0 'CTPurple':4 'grey78':0 'CTYellow':1 },190
3playersLog_1378972008630.csv,12,500,540,true,{ chips  'CTYellow':8 },{ chips  'CTRed':33 'CTPurple':3 },FALSE,90,190,,,,,2,(R:2,C:7),{ chips  'CTRed':0 'CTGreen':0 'CTPurple':0 'grey78':8 'CTYellow':8 },80,{ chips  'CTRed':33 'CTGreen':0 'CTPurple':7 'grey78':0 'CTYellow':0 },200,{ chips  'CTRed':33 'CTGreen':0 'CTPurple':4 'grey78':0 'CTYellow':1 },190
3playersLog_1378972008630.csv,13,530,500,false,{ chips  'CTRed':33 'CTPurple':4 },{ chips  'grey78':8 },TRUE,200,75,{ chips  'CTRed':33 'CTPurple':4 'CTYellow':0 },{ chips  'grey78':8 },55,220,2,(R:0,C:8),{ chips  'CTRed':33 'CTGreen':0 'CTPurple':4 'grey78':0 'CTYellow':5 },360,{ chips  'CTRed':0 'CTGreen':0 'CTPurple':3 'grey78':8 'CTYellow':0 },205,{ chips  'CTRed':33 'CTGreen':0 'CTPurple':4 'grey78':0 'CTYellow':1 },190
3playersLog_1378972008630.csv,,,,,,,,,,,,,,,,,,,,,,,,true
filename,round,propID,respID,IsPropCustomer,chipsToSend,chipsToReceive,accept,propCurrentScore,respCurrentScore,actualSent,ActualRcvd,propResultingScore,respResultingScore,#ofCustomerMovesInRound,customerRowPositionAfterMovePhase,customerColPositionAfterMovePhase,Player100ChipsAfterMovePhase,Player100ScoreAfterMovePhase,Player200ChipsAfterMovePhase,Player200ScoreAfterMovePhase,Player300ChipsAfterMovePhase,Player300ScoreAfterMovePhase,generosityLevel,ClientReachedGoal
3playersLog_1378975781675.csv,1,530,500,false,{ chips  'CTRed':33 'CTPurple':7 },{ chips  'grey78':11 },IGNORED,200,120,,,,,0,(R:5,C:4),{ chips  'CTRed':10 'CTGreen':0 'CTPurple':2 'grey78':11 'CTYellow':12 },175,{ chips  'CTRed':33 'CTGreen':0 'CTPurple':7 'grey78':0 'CTYellow':0 },200,{ chips  'CTRed':23 'CTGreen':0 'CTPurple':5 'grey78':1 'CTYellow':0 },145
3playersLog_1378975781675.csv,1,540,500,false,{ chips  'CTRed':10 'CTPurple':2 },{ chips  'grey78':1 },TRUE,200,120,{ chips  'CTRed':10 'CTPurple':2 'CTGreen':0 'grey78':0 'CTYellow':0 },{ chips  'CTRed':0 'CTPurple':0 'CTGreen':0 'grey78':1 'CTYellow':0 },145,175,0,(R:5,C:4),{ chips  'CTRed':10 'CTGreen':0 'CTPurple':2 'grey78':11 'CTYellow':12 },175,{ chips  'CTRed':33 'CTGreen':0 'CTPurple':7 'grey78':0 'CTYellow':0 },200,{ chips  'CTRed':23 'CTGreen':0 'CTPurple':5 'grey78':1 'CTYellow':0 },145
3playersLog_1378975781675.csv,2,500,540,true,{ chips  'grey78':3 },{ chips  'CTRed':5 'CTPurple':2 },TRUE,175,200,{ chips  'CTRed':0 'CTPurple':0 'CTGreen':0 'grey78':3 'CTYellow':0 },{ chips  'CTRed':5 'CTPurple':2 'CTGreen':0 'grey78':0 'CTYellow':0 },195,125,9,(R:0,C:8),{ chips  'CTRed':15 'CTGreen':0 'CTPurple':4 'grey78':8 'CTYellow':3 },300,{ chips  'CTRed':33 'CTGreen':0 'CTPurple':7 'grey78':0 'CTYellow':0 },350,{ chips  'CTRed':18 'CTGreen':0 'CTPurple':3 'grey78':4 'CTYellow':0 },125
3playersLog_1378975781675.csv,,,,,,,,,,,,,,,,,,,,,,,,true
filename,round,propID,respID,IsPropCustomer,chipsToSend,chipsToReceive,accept,propCurrentScore,respCurrentScore,actualSent,ActualRcvd,propResultingScore,respResultingScore,#ofCustomerMovesInRound,customerRowPositionAfterMovePhase,customerColPositionAfterMovePhase,Player100ChipsAfterMovePhase,Player100ScoreAfterMovePhase,Player200ChipsAfterMovePhase,Player200ScoreAfterMovePhase,Player300ChipsAfterMovePhase,Player300ScoreAfterMovePhase,generosityLevel,ClientReachedGoal
3playersLog_1378976067161.csv,1,530,500,false,{ chips  'CTRed':33 'CTPurple':7 },{ chips  'grey78':11 },FALSE,200,120,,,,,0,(R:5,C:4),{ chips  'CTRed':0 'CTGreen':0 'CTPurple':0 'grey78':12 'CTYellow':12 },120,{ chips  'CTRed':33 'CTGreen':0 'CTPurple':7 'grey78':0 'CTYellow':0 },200,{ chips  'CTRed':33 'CTGreen':0 'CTPurple':7 'grey78':0 'CTYellow':0 },200
3playersLog_1378976067161.csv,1,540,500,false,{ chips  'CTRed':8 },{ chips  'CTYellow':6 },FALSE,200,120,,,,,0,(R:5,C:4),{ chips  'CTRed':0 'CTGreen':0 'CTPurple':0 'grey78':12 'CTYellow':12 },120,{ chips  'CTRed':33 'CTGreen':0 'CTPurple':7 'grey78':0 'CTYellow':0 },200,{ chips  'CTRed':33 'CTGreen':0 'CTPurple':7 'grey78':0 'CTYellow':0 },200
3playersLog_1378976067161.csv,2,500,530,true,{ chips  'grey78':2 },{ chips  },TRUE,120,200,{ chips  'CTRed':0 'CTPurple':0 'CTGreen':0 'grey78':2 'CTYellow':0 },{ chips  'CTRed':0 'CTPurple':0 'CTGreen':0 'grey78':0 'CTYellow':0 },110,210,1,(R:5,C:5),{ chips  'CTRed':0 'CTGreen':0 'CTPurple':0 'grey78':10 'CTYellow':11 },105,{ chips  'CTRed':33 'CTGreen':0 'CTPurple':7 'grey78':2 'CTYellow':0 },210,{ chips  'CTRed':33 'CTGreen':0 'CTPurple':7 'grey78':0 'CTYellow':0 },200
3playersLog_1378976067161.csv,3,530,500,false,{ chips  'CTRed':33 'CTPurple':6 },{ chips  'grey78':10 },FALSE,210,105,,,,,1,(R:4,C:5),{ chips  'CTRed':0 'CTGreen':0 'CTPurple':0 'grey78':10 'CTYellow':10 },100,{ chips  'CTRed':33 'CTGreen':0 'CTPurple':7 'grey78':2 'CTYellow':0 },210,{ chips  'CTRed':33 'CTGreen':0 'CTPurple':7 'grey78':0 'CTYellow':0 },200
3playersLog_1378976067161.csv,3,540,500,false,{ chips  'CTRed':2 },{ chips  'CTYellow':5 },FALSE,200,105,,,,,1,(R:4,C:5),{ chips  'CTRed':0 'CTGreen':0 'CTPurple':0 'grey78':10 'CTYellow':10 },100,{ chips  'CTRed':33 'CTGreen':0 'CTPurple':7 'grey78':2 'CTYellow':0 },210,{ chips  'CTRed':33 'CTGreen':0 'CTPurple':7 'grey78':0 'CTYellow':0 },200
3playersLog_1378976067161.csv,4,500,530,true,{ chips  'grey78':1 },{ chips  'CTRed':33 'CTPurple':4 },FALSE,100,210,,,,,1,(R:5,C:5),{ chips  'CTRed':0 'CTGreen':0 'CTPurple':0 'grey78':10 'CTYellow':9 },95,{ chips  'CTRed':33 'CTGreen':0 'CTPurple':7 'grey78':2 'CTYellow':0 },210,{ chips  'CTRed':33 'CTGreen':0 'CTPurple':7 'grey78':0 'CTYellow':0 },200
3playersLog_1378976067161.csv,5,530,500,false,{ chips  'CTRed':33 'CTPurple':6 },{ chips  'grey78':10 },TRUE,210,95,{ chips  'CTRed':33 'CTPurple':6 'CTYellow':0 },{ chips  'grey78':10 },65,240,1,(R:4,C:5),{ chips  'CTRed':33 'CTGreen':0 'CTPurple':6 'grey78':0 'CTYellow':8 },235,{ chips  'CTRed':0 'CTGreen':0 'CTPurple':1 'grey78':12 'CTYellow':0 },65,{ chips  'CTRed':33 'CTGreen':0 'CTPurple':7 'grey78':0 'CTYellow':0 },200
3playersLog_1378976067161.csv,6,500,530,true,{ chips  'CTRed':6 'CTPurple':1 },{ chips  'grey78':3 },TRUE,235,65,{ chips  'CTRed':6 'CTPurple':1 'CTGreen':0 'grey78':0 'CTYellow':0 },{ chips  'CTRed':0 'CTPurple':0 'CTGreen':0 'grey78':3 'CTYellow':0 },215,85,2,(R:3,C:4),{ chips  'CTRed':27 'CTGreen':0 'CTPurple':3 'grey78':3 'CTYellow':8 },205,{ chips  'CTRed':6 'CTGreen':0 'CTPurple':2 'grey78':9 'CTYellow':0 },85,{ chips  'CTRed':33 'CTGreen':0 'CTPurple':7 'grey78':0 'CTYellow':0 },200
3playersLog_1378976067161.csv,7,530,500,false,{ chips  'CTRed':6 'CTPurple':2 },{ chips  'grey78':2 },FALSE,85,205,,,,,1,(R:3,C:3),{ chips  'CTRed':27 'CTGreen':0 'CTPurple':2 'grey78':3 'CTYellow':8 },200,{ chips  'CTRed':6 'CTGreen':0 'CTPurple':2 'grey78':9 'CTYellow':0 },85,{ chips  'CTRed':33 'CTGreen':0 'CTPurple':7 'grey78':0 'CTYellow':0 },200
3playersLog_1378976067161.csv,7,540,500,false,{ chips  'CTRed':8 },{ chips  'CTYellow':8 },FALSE,200,205,,,,,1,(R:3,C:3),{ chips  'CTRed':27 'CTGreen':0 'CTPurple':2 'grey78':3 'CTYellow':8 },200,{ chips  'CTRed':6 'CTGreen':0 'CTPurple':2 'grey78':9 'CTYellow':0 },85,{ chips  'CTRed':33 'CTGreen':0 'CTPurple':7 'grey78':0 'CTYellow':0 },200
3playersLog_1378976067161.csv,8,500,540,true,{ chips  'grey78':1 'CTYellow':2 },{ chips  'CTRed':18 'CTPurple':1 },FALSE,200,200,,,,,2,(R:3,C:5),{ chips  'CTRed':27 'CTGreen':0 'CTPurple':0 'grey78':3 'CTYellow':8 },190,{ chips  'CTRed':6 'CTGreen':0 'CTPurple':2 'grey78':9 'CTYellow':0 },85,{ chips  'CTRed':33 'CTGreen':0 'CTPurple':7 'grey78':0 'CTYellow':0 },200
3playersLog_1378976067161.csv,9,530,500,false,{ chips  'CTRed':6 'CTPurple':2 },{ chips  'grey78':2 },IGNORED,85,190,,,,,1,(R:3,C:6),{ chips  'CTRed':37 'CTGreen':0 'CTPurple':0 'grey78':3 'CTYellow':4 },220,{ chips  'CTRed':6 'CTGreen':0 'CTPurple':2 'grey78':9 'CTYellow':0 },85,{ chips  'CTRed':23 'CTGreen':0 'CTPurple':7 'grey78':0 'CTYellow':3 },165
3playersLog_1378976067161.csv,9,540,500,false,{ chips  'CTRed':10 },{ chips  'CTYellow':3 },TRUE,200,190,{ chips  'CTRed':10 'CTPurple':0 'CTGreen':0 'grey78':0 'CTYellow':0 },{ chips  'CTRed':0 'CTPurple':0 'CTGreen':0 'grey78':0 'CTYellow':3 },165,225,1,(R:3,C:6),{ chips  'CTRed':37 'CTGreen':0 'CTPurple':0 'grey78':3 'CTYellow':4 },220,{ chips  'CTRed':6 'CTGreen':0 'CTPurple':2 'grey78':9 'CTYellow':0 },85,{ chips  'CTRed':23 'CTGreen':0 'CTPurple':7 'grey78':0 'CTYellow':3 },165
3playersLog_1378976067161.csv,10,500,540,true,{ chips  'CTYellow':1 },{ chips  'CTRed':6 'CTPurple':4 },TRUE,220,85,{ chips  'CTRed':0 'CTPurple':0 'CTGreen':0 'grey78':0 'CTYellow':1 },{ chips  'CTRed':6 'CTPurple':4 'CTGreen':0 'grey78':0 'CTYellow':0 },265,120,1,(R:3,C:5),{ chips  'CTRed':43 'CTGreen':0 'CTPurple':3 'grey78':3 'CTYellow':3 },260,{ chips  'CTRed':6 'CTGreen':0 'CTPurple':2 'grey78':9 'CTYellow':0 },85,{ chips  'CTRed':17 'CTGreen':0 'CTPurple':3 'grey78':0 'CTYellow':4 },120
3playersLog_1378976067161.csv,11,530,500,false,{ chips  },{ chips  },TRUE,85,255,{ chips  'grey78':0 },{ chips  'CTRed':0 'CTPurple':0 },85,255,3,(R:3,C:7),{ chips  'CTRed':43 'CTGreen':0 'CTPurple':1 'grey78':3 'CTYellow':1 },240,{ chips  'CTRed':6 'CTGreen':0 'CTPurple':2 'grey78':9 'CTYellow':0 },85,{ chips  'CTRed':17 'CTGreen':0 'CTPurple':3 'grey78':0 'CTYellow':4 },120
3playersLog_1378976067161.csv,11,540,500,false,{ chips  'CTRed':5 },{ chips  'CTRed':15 'CTPurple':2 'CTYellow':1 },IGNORED,120,255,,,,,3,(R:3,C:7),{ chips  'CTRed':43 'CTGreen':0 'CTPurple':1 'grey78':3 'CTYellow':1 },240,{ chips  'CTRed':6 'CTGreen':0 'CTPurple':2 'grey78':9 'CTYellow':0 },85,{ chips  'CTRed':17 'CTGreen':0 'CTPurple':3 'grey78':0 'CTYellow':4 },120
3playersLog_1378976067161.csv,12,500,530,true,{ chips  'CTRed':4 'grey78':1 },{ chips  'CTRed':6 'CTPurple':2 },TRUE,240,85,{ chips  'CTRed':4 'CTPurple':0 'CTGreen':0 'grey78':1 'CTYellow':0 },{ chips  'CTRed':6 'CTPurple':2 'CTGreen':0 'grey78':0 'CTYellow':0 },255,70,4,(R:1,C:5),{ chips  'CTRed':45 'CTGreen':0 'CTPurple':0 'grey78':2 'CTYellow':0 },235,{ chips  'CTRed':4 'CTGreen':0 'CTPurple':0 'grey78':10 'CTYellow':0 },70,{ chips  'CTRed':17 'CTGreen':0 'CTPurple':3 'grey78':0 'CTYellow':4 },120
3playersLog_1378976067161.csv,13,530,500,false,{ chips  },{ chips  },TRUE,70,235,{ chips  'grey78':0 },{ chips  'CTRed':0 'CTPurple':0 },70,235,0,(R:1,C:5),{ chips  'CTRed':45 'CTGreen':0 'CTPurple':0 'grey78':2 'CTYellow':0 },235,{ chips  'CTRed':4 'CTGreen':0 'CTPurple':0 'grey78':10 'CTYellow':0 },70,{ chips  'CTRed':17 'CTGreen':0 'CTPurple':3 'grey78':0 'CTYellow':4 },120
3playersLog_1378976067161.csv,13,540,500,false,{ chips  'CTPurple':1 'CTYellow':1 },{ chips  'CTRed':10 },FALSE,120,235,,,,,0,(R:1,C:5),{ chips  'CTRed':45 'CTGreen':0 'CTPurple':0 'grey78':2 'CTYellow':0 },235,{ chips  'CTRed':4 'CTGreen':0 'CTPurple':0 'grey78':10 'CTYellow':0 },70,{ chips  'CTRed':17 'CTGreen':0 'CTPurple':3 'grey78':0 'CTYellow':4 },120
3playersLog_1378976067161.csv,14,500,540,true,{ chips  'CTRed':3 'grey78':2 },{ chips  'CTRed':6 'CTPurple':3 },FALSE,235,120,,,,,0,(R:1,C:5),{ chips  'CTRed':45 'CTGreen':0 'CTPurple':0 'grey78':2 'CTYellow':0 },235,{ chips  'CTRed':4 'CTGreen':0 'CTPurple':0 'grey78':10 'CTYellow':0 },70,{ chips  'CTRed':17 'CTGreen':0 'CTPurple':3 'grey78':0 'CTYellow':4 },120
3playersLog_1378976067161.csv,,,,,,,,,,,,,,,,,,,,,,,,false
filename,round,propID,respID,IsPropCustomer,chipsToSend,chipsToReceive,accept,propCurrentScore,respCurrentScore,actualSent,ActualRcvd,propResultingScore,respResultingScore,#ofCustomerMovesInRound,customerRowPositionAfterMovePhase,customerColPositionAfterMovePhase,Player100ChipsAfterMovePhase,Player100ScoreAfterMovePhase,Player200ChipsAfterMovePhase,Player200ScoreAfterMovePhase,Player300ChipsAfterMovePhase,Player300ScoreAfterMovePhase,generosityLevel,ClientReachedGoal
3playersLog_1378976168801.csv,1,530,500,false,{ chips  'CTRed':33 'CTPurple':7 },{ chips  'grey78':11 },TRUE,200,120,{ chips  'CTRed':33 'CTPurple':7 'CTYellow':0 },{ chips  'grey78':11 },55,265,1,(R:5,C:5),{ chips  'CTRed':33 'CTGreen':0 'CTPurple':7 'grey78':1 'CTYellow':11 },260,{ chips  'CTRed':0 'CTGreen':0 'CTPurple':0 'grey78':11 'CTYellow':0 },55,{ chips  'CTRed':33 'CTGreen':0 'CTPurple':7 'grey78':0 'CTYellow':0 },200
3playersLog_1378976168801.csv,1,540,500,false,{ chips  'CTPurple':4 },{ chips  'CTYellow':4 },IGNORED,200,120,,,,,1,(R:5,C:5),{ chips  'CTRed':33 'CTGreen':0 'CTPurple':7 'grey78':1 'CTYellow':11 },260,{ chips  'CTRed':0 'CTGreen':0 'CTPurple':0 'grey78':11 'CTYellow':0 },55,{ chips  'CTRed':33 'CTGreen':0 'CTPurple':7 'grey78':0 'CTYellow':0 },200
3playersLog_1378976168801.csv,2,500,530,true,{ chips  'CTRed':9 },{ chips  'grey78':9 },TRUE,260,55,{ chips  'CTRed':9 'CTPurple':0 'CTGreen':0 'grey78':0 'CTYellow':0 },{ chips  'CTRed':0 'CTPurple':0 'CTGreen':0 'grey78':9 'CTYellow':0 },260,55,1,(R:4,C:5),{ chips  'CTRed':24 'CTGreen':0 'CTPurple':7 'grey78':10 'CTYellow':10 },255,{ chips  'CTRed':9 'CTGreen':0 'CTPurple':0 'grey78':2 'CTYellow':0 },55,{ chips  'CTRed':33 'CTGreen':0 'CTPurple':7 'grey78':0 'CTYellow':0 },200
3playersLog_1378976168801.csv,3,530,500,false,{ chips  },{ chips  },FALSE,55,255,,,,,1,(R:3,C:5),{ chips  'CTRed':24 'CTGreen':0 'CTPurple':6 'grey78':10 'CTYellow':10 },250,{ chips  'CTRed':9 'CTGreen':0 'CTPurple':0 'grey78':2 'CTYellow':0 },55,{ chips  'CTRed':33 'CTGreen':0 'CTPurple':7 'grey78':0 'CTYellow':0 },200
3playersLog_1378976168801.csv,3,540,500,false,{ chips  'CTPurple':3 },{ chips  'CTYellow':2 },FALSE,200,255,,,,,1,(R:3,C:5),{ chips  'CTRed':24 'CTGreen':0 'CTPurple':6 'grey78':10 'CTYellow':10 },250,{ chips  'CTRed':9 'CTGreen':0 'CTPurple':0 'grey78':2 'CTYellow':0 },55,{ chips  'CTRed':33 'CTGreen':0 'CTPurple':7 'grey78':0 'CTYellow':0 },200
3playersLog_1378976168801.csv,4,500,540,true,{ chips  'CTPurple':2 'CTYellow':4 },{ chips  'CTRed':15 },TRUE,250,55,{ chips  'CTRed':0 'CTPurple':2 'CTGreen':0 'grey78':0 'CTYellow':4 },{ chips  'CTRed':15 'CTPurple':0 'CTGreen':0 'grey78':0 'CTYellow':0 },295,155,1,(R:3,C:4),{ chips  'CTRed':39 'CTGreen':0 'CTPurple':3 'grey78':10 'CTYellow':6 },290,{ chips  'CTRed':9 'CTGreen':0 'CTPurple':0 'grey78':2 'CTYellow':0 },55,{ chips  'CTRed':18 'CTGreen':0 'CTPurple':9 'grey78':0 'CTYellow':4 },155
3playersLog_1378976168801.csv,5,530,500,false,{ chips  },{ chips  },FALSE,55,290,,,,,0,(R:3,C:4),{ chips  'CTRed':39 'CTGreen':0 'CTPurple':3 'grey78':10 'CTYellow':6 },290,{ chips  'CTRed':9 'CTGreen':0 'CTPurple':0 'grey78':2 'CTYellow':0 },55,{ chips  'CTRed':18 'CTGreen':0 'CTPurple':9 'grey78':0 'CTYellow':4 },155
3playersLog_1378976168801.csv,5,540,500,false,{ chips  'CTPurple':2 },{ chips  'CTRed':3 },FALSE,155,290,,,,,0,(R:3,C:4),{ chips  'CTRed':39 'CTGreen':0 'CTPurple':3 'grey78':10 'CTYellow':6 },290,{ chips  'CTRed':9 'CTGreen':0 'CTPurple':0 'grey78':2 'CTYellow':0 },55,{ chips  'CTRed':18 'CTGreen':0 'CTPurple':9 'grey78':0 'CTYellow':4 },155
3playersLog_1378976168801.csv,6,500,540,true,{ chips  'grey78':3 },{ chips  'CTRed':12 },FALSE,290,155,,,,,1,(R:3,C:5),{ chips  'CTRed':39 'CTGreen':0 'CTPurple':2 'grey78':10 'CTYellow':6 },285,{ chips  'CTRed':9 'CTGreen':0 'CTPurple':0 'grey78':2 'CTYellow':0 },55,{ chips  'CTRed':18 'CTGreen':0 'CTPurple':9 'grey78':0 'CTYellow':4 },155
3playersLog_1378976168801.csv,7,530,500,false,{ chips  },{ chips  },FALSE,55,285,,,,,0,(R:3,C:5),{ chips  'CTRed':39 'CTGreen':0 'CTPurple':2 'grey78':10 'CTYellow':6 },285,{ chips  'CTRed':9 'CTGreen':0 'CTPurple':0 'grey78':2 'CTYellow':0 },55,{ chips  'CTRed':18 'CTGreen':0 'CTPurple':9 'grey78':0 'CTYellow':4 },155
3playersLog_1378976168801.csv,7,540,500,false,{ chips  'CTRed':7 'CTPurple':2 },{ chips  'CTYellow':2 },FALSE,155,285,,,,,0,(R:3,C:5),{ chips  'CTRed':39 'CTGreen':0 'CTPurple':2 'grey78':10 'CTYellow':6 },285,{ chips  'CTRed':9 'CTGreen':0 'CTPurple':0 'grey78':2 'CTYellow':0 },55,{ chips  'CTRed':18 'CTGreen':0 'CTPurple':9 'grey78':0 'CTYellow':4 },155
3playersLog_1378976168801.csv,8,500,530,true,{ chips  'grey78':3 },{ chips  'CTRed':9 },FALSE,285,55,,,,,0,(R:3,C:5),{ chips  'CTRed':39 'CTGreen':0 'CTPurple':2 'grey78':10 'CTYellow':6 },285,{ chips  'CTRed':9 'CTGreen':0 'CTPurple':0 'grey78':2 'CTYellow':0 },55,{ chips  'CTRed':18 'CTGreen':0 'CTPurple':9 'grey78':0 'CTYellow':4 },155
3playersLog_1378976168801.csv,,,,,,,,,,,,,,,,,,,,,,,,false
