filename,round,propID,respID,IsPropCustomer,chipsToSend,chipsToReceive,accept,propCurrentScore,respCurrentScore,actualSent,ActualRcvd,propResultingScore,respResultingScore,#ofCustomerMovesInRound,customerRowPositionAfterMovePhase,customerColPositionAfterMovePhase,Player100ChipsAfterMovePhase,Player100ScoreAfterMovePhase,Player200ChipsAfterMovePhase,Player200ScoreAfterMovePhase,Player300ChipsAfterMovePhase,Player300ScoreAfterMovePhase,generosityLevel,ClientReachedGoal
3playersLog_1390223247506.csv,1,560,500,false,{ chips  'CTRed':15 },{ chips  },TRUE,200,120,{ chips  'CTRed':15 },{ chips  'grey78':0 },125,195,2,(R:4,C:3),{ chips  'CTRed':15 'CTGreen':0 'CTPurple':0 'grey78':10 'CTYellow':12 },185,{ chips  'CTRed':18 'CTGreen':0 'CTPurple':7 'grey78':0 'CTYellow':0 },125,{ chips  'CTRed':33 'CTGreen':0 'CTPurple':7 'grey78':0 'CTYellow':0 },200
3playersLog_1390223247506.csv,1,540,500,false,{ chips  'CTPurple':1 },{ chips  'grey78':2 },IGNORED,200,120,,,,,2,(R:4,C:3),{ chips  'CTRed':15 'CTGreen':0 'CTPurple':0 'grey78':10 'CTYellow':12 },185,{ chips  'CTRed':18 'CTGreen':0 'CTPurple':7 'grey78':0 'CTYellow':0 },125,{ chips  'CTRed':33 'CTGreen':0 'CTPurple':7 'grey78':0 'CTYellow':0 },200
3playersLog_1390223247506.csv,2,500,540,true,{ chips  'CTRed':3 },{ chips  'CTPurple':2 },FALSE,180,200,,,,,0,(R:4,C:2),{ chips  'CTRed':15 'CTGreen':0 'CTPurple':0 'grey78':9 'CTYellow':12 },180,{ chips  'CTRed':18 'CTGreen':0 'CTPurple':7 'grey78':0 'CTYellow':0 },125,{ chips  'CTRed':33 'CTGreen':0 'CTPurple':7 'grey78':0 'CTYellow':0 },200
3playersLog_1390223247506.csv,3,560,500,false,{ chips  },{ chips  'grey78':7 },TRUE,125,180,{ chips  'CTRed':0 },{ chips  'grey78':7 },160,145,1,(R:3,C:2),{ chips  'CTRed':15 'CTGreen':0 'CTPurple':0 'grey78':1 'CTYellow':12 },140,{ chips  'CTRed':18 'CTGreen':0 'CTPurple':7 'grey78':7 'CTYellow':0 },160,{ chips  'CTRed':33 'CTGreen':0 'CTPurple':7 'grey78':0 'CTYellow':0 },200
3playersLog_1390223247506.csv,4,500,560,true,{ chips  'CTRed':5 },{ chips  'CTPurple':3 },FALSE,140,160,,,,,0,(R:3,C:2),{ chips  'CTRed':15 'CTGreen':0 'CTPurple':0 'grey78':1 'CTYellow':12 },140,{ chips  'CTRed':18 'CTGreen':0 'CTPurple':7 'grey78':7 'CTYellow':0 },160,{ chips  'CTRed':33 'CTGreen':0 'CTPurple':7 'grey78':0 'CTYellow':0 },200
3playersLog_1390223247506.csv,5,560,500,false,{ chips  },{ chips  },IGNORED,160,140,,,,,2,(R:3,C:4),{ chips  'CTRed':15 'CTGreen':0 'CTPurple':0 'grey78':0 'CTYellow':12 },135,{ chips  'CTRed':18 'CTGreen':0 'CTPurple':7 'grey78':7 'CTYellow':0 },160,{ chips  'CTRed':33 'CTGreen':0 'CTPurple':5 'grey78':1 'CTYellow':0 },195
3playersLog_1390223247506.csv,5,540,500,false,{ chips  'CTPurple':2 },{ chips  'grey78':1 },TRUE,200,140,{ chips  'CTRed':0 'CTPurple':2 'CTGreen':0 'grey78':0 'CTYellow':0 },{ chips  'CTRed':0 'CTPurple':0 'CTGreen':0 'grey78':1 'CTYellow':0 },195,145,2,(R:3,C:4),{ chips  'CTRed':15 'CTGreen':0 'CTPurple':0 'grey78':0 'CTYellow':12 },135,{ chips  'CTRed':18 'CTGreen':0 'CTPurple':7 'grey78':7 'CTYellow':0 },160,{ chips  'CTRed':33 'CTGreen':0 'CTPurple':5 'grey78':1 'CTYellow':0 },195
3playersLog_1390223247506.csv,6,500,560,true,{ chips  'CTRed':2 'CTYellow':1 },{ chips  'CTPurple':1 },FALSE,135,160,,,,,0,(R:3,C:4),{ chips  'CTRed':15 'CTGreen':0 'CTPurple':0 'grey78':0 'CTYellow':12 },135,{ chips  'CTRed':18 'CTGreen':0 'CTPurple':7 'grey78':7 'CTYellow':0 },160,{ chips  'CTRed':33 'CTGreen':0 'CTPurple':5 'grey78':1 'CTYellow':0 },195
3playersLog_1390223247506.csv,7,560,500,false,{ chips  },{ chips  },IGNORED,160,135,,,,,0,(R:3,C:4),{ chips  'CTRed':15 'CTGreen':0 'CTPurple':0 'grey78':0 'CTYellow':12 },135,{ chips  'CTRed':18 'CTGreen':0 'CTPurple':7 'grey78':7 'CTYellow':0 },160,{ chips  'CTRed':33 'CTGreen':0 'CTPurple':5 'grey78':1 'CTYellow':0 },195
3playersLog_1390223247506.csv,7,540,500,false,{ chips  'CTRed':3 'grey78':1 },{ chips  'CTYellow':4 },IGNORED,195,135,,,,,0,(R:3,C:4),{ chips  'CTRed':15 'CTGreen':0 'CTPurple':0 'grey78':0 'CTYellow':12 },135,{ chips  'CTRed':18 'CTGreen':0 'CTPurple':7 'grey78':7 'CTYellow':0 },160,{ chips  'CTRed':33 'CTGreen':0 'CTPurple':5 'grey78':1 'CTYellow':0 },195
3playersLog_1390223247506.csv,,,,,,,,,,,,,,,,,,,,,,,,false
