filename,round,propID,respID,IsPropCustomer,chipsToSend,chipsToReceive,accept,propCurrentScore,respCurrentScore,actualSent,ActualRcvd,propResultingScore,respResultingScore,#ofCustomerMovesInRound,customerRowPositionAfterMovePhase,customerColPositionAfterMovePhase,Player100ChipsAfterMovePhase,Player100ScoreAfterMovePhase,Player200ChipsAfterMovePhase,Player200ScoreAfterMovePhase,Player300ChipsAfterMovePhase,Player300ScoreAfterMovePhase,generosityLevel,ClientReachedGoal
3playersLog_1378894556181.csv,1,520,510,false,{ chips  'CTRed':8 'CTPurple':3 },{ chips  'CTYellow':3 },IGNORED,200,120,,,,,0,(R:5,C:4),{ chips  'CTRed':15 'CTGreen':0 'CTPurple':7 'grey78':12 'CTYellow':12 },230,{ chips  'CTRed':33 'CTGreen':0 'CTPurple':7 'grey78':0 'CTYellow':0 },200,{ chips  'CTRed':18 'CTGreen':0 'CTPurple':0 'grey78':0 'CTYellow':0 },90
3playersLog_1378894556181.csv,1,540,510,false,{ chips  'CTRed':15 'CTPurple':7 },{ chips  },TRUE,200,120,{ chips  'CTRed':15 'CTPurple':7 'CTGreen':0 'grey78':0 'CTYellow':0 },{ chips  'CTRed':0 'CTPurple':0 'CTGreen':0 'grey78':0 'CTYellow':0 },90,230,0,(R:5,C:4),{ chips  'CTRed':15 'CTGreen':0 'CTPurple':7 'grey78':12 'CTYellow':12 },230,{ chips  'CTRed':33 'CTGreen':0 'CTPurple':7 'grey78':0 'CTYellow':0 },200,{ chips  'CTRed':18 'CTGreen':0 'CTPurple':0 'grey78':0 'CTYellow':0 },90
3playersLog_1378894556181.csv,2,510,540,true,{ chips  'CTYellow':11 },{ chips  'CTRed':18 },TRUE,230,200,{ chips  'CTYellow':11 },{ chips  'CTRed':18 'CTPurple':0 'grey78':0 },265,55,9,(R:0,C:0),{ chips  'CTRed':33 'CTGreen':0 'CTPurple':6 'grey78':4 'CTYellow':1 },370,{ chips  'CTRed':33 'CTGreen':0 'CTPurple':7 'grey78':0 'CTYellow':0 },200,{ chips  'CTRed':0 'CTGreen':0 'CTPurple':0 'grey78':0 'CTYellow':11 },205
3playersLog_1378894556181.csv,,,,,,,,,,,,,,,,,,,,,,,,true
