Tue Sep 03 13:52:43 IDT 2013	This is the CT debug logger; svn version 638; sep 27 09
Tue Sep 03 13:52:43 IDT 2013	Tue Sep 03 13:52:43 IDT 2013
Tue Sep 03 13:52:43 IDT 2013	ID Number: 63641
Tue Sep 03 13:52:43 IDT 2013	Creating board
Tue Sep 03 13:52:43 IDT 2013	<colors>
Tue Sep 03 13:52:43 IDT 2013	{ GamePalette  'CTPurple':0 'CTRed':1 'CTGreen':2 'grey78':3 'CTYellow':4 }
Tue Sep 03 13:52:43 IDT 2013	<rows>
Tue Sep 03 13:52:43 IDT 2013	6
Tue Sep 03 13:52:43 IDT 2013	<columns>
Tue Sep 03 13:52:43 IDT 2013	9
Tue Sep 03 13:52:43 IDT 2013	<squaresColors>
Tue Sep 03 13:52:43 IDT 2013	grey78 CTGreen CTGreen CTGreen CTGreen CTGreen CTGreen CTGreen CTYellow 
Tue Sep 03 13:52:43 IDT 2013	grey78 CTPurple CTPurple CTPurple CTPurple CTPurple CTPurple CTPurple CTYellow 
Tue Sep 03 13:52:43 IDT 2013	grey78 grey78 CTGreen CTGreen CTGreen CTGreen CTGreen CTYellow CTYellow 
Tue Sep 03 13:52:43 IDT 2013	CTGreen grey78 grey78 CTPurple CTPurple CTPurple CTYellow CTYellow CTGreen 
Tue Sep 03 13:52:43 IDT 2013	CTGreen CTGreen grey78 grey78 CTGreen CTYellow CTYellow CTGreen CTGreen 
Tue Sep 03 13:52:43 IDT 2013	CTGreen CTGreen CTGreen grey78 CTGreen CTYellow CTGreen CTGreen CTGreen 
Tue Sep 03 13:52:43 IDT 2013	</squareColors>
Tue Sep 03 13:52:43 IDT 2013	<goalPosition>
Tue Sep 03 13:52:43 IDT 2013	Goal position: (R:0,C:0)
Tue Sep 03 13:52:43 IDT 2013	<goalPosition>
Tue Sep 03 13:52:43 IDT 2013	Goal position: (R:0,C:0)
Tue Sep 03 13:52:43 IDT 2013	<firstPlayerPossibleGoal1>
Tue Sep 03 13:52:43 IDT 2013	0.5
Tue Sep 03 13:52:43 IDT 2013	0
Tue Sep 03 13:52:43 IDT 2013	0
Tue Sep 03 13:52:43 IDT 2013	</firstPlayerPossibleGoal1>
Tue Sep 03 13:52:43 IDT 2013	<firstPlayerPossibleGoal2>
Tue Sep 03 13:52:43 IDT 2013	0.5
Tue Sep 03 13:52:43 IDT 2013	0
Tue Sep 03 13:52:43 IDT 2013	8
Tue Sep 03 13:52:43 IDT 2013	</firstPlayerPossibleGoal2>
Tue Sep 03 13:52:43 IDT 2013	<numberOfPlayers>
Tue Sep 03 13:52:43 IDT 2013	3
Tue Sep 03 13:52:43 IDT 2013	<firstPlayerChips>
Tue Sep 03 13:52:43 IDT 2013	Setting chips for player: 520 id:0
Tue Sep 03 13:52:43 IDT 2013	{ chips  'CTRed':0 'CTGreen':0 'CTPurple':0 'grey78':12 'CTYellow':12 }
Tue Sep 03 13:52:43 IDT 2013	Player position: (R:5,C:4)
Tue Sep 03 13:52:43 IDT 2013	Setting chips for player: 530 id:1
Tue Sep 03 13:52:43 IDT 2013	{ chips  'CTRed':33 'CTGreen':0 'CTPurple':7 'grey78':0 'CTYellow':0 }
Tue Sep 03 13:52:43 IDT 2013	Player position: (R:0,C:8)
Tue Sep 03 13:52:43 IDT 2013	Setting chips for player: 540 id:2
Tue Sep 03 13:52:43 IDT 2013	{ chips  'CTRed':33 'CTGreen':0 'CTPurple':7 'grey78':0 'CTYellow':0 }
Tue Sep 03 13:52:43 IDT 2013	Player position: (R:0,C:0)
Tue Sep 03 13:52:43 IDT 2013	Protocol: A New Phase Began: Strategy Prep Phase. loop is true
Tue Sep 03 13:52:43 IDT 2013	---------- Beginning Strategy Prep Phase at round 0 ----------
Tue Sep 03 13:53:43 IDT 2013	A Phase Ended: Strategy Prep Phase
Tue Sep 03 13:53:43 IDT 2013	Protocol: A New Phase Began: Communication Phase. loop is true
Tue Sep 03 13:53:43 IDT 2013	---------- Beginning Communication Phase at round 1 ----------
Tue Sep 03 13:53:47 IDT 2013	Received communication message 
Tue Sep 03 13:53:47 IDT 2013	From player: 530
Tue Sep 03 13:53:47 IDT 2013	To player: 520
Tue Sep 03 13:53:47 IDT 2013	Chips to send by proposer: { chips  'CTRed':33 'CTPurple':7 'CTYellow':0 }
Tue Sep 03 13:53:47 IDT 2013	Chips to send by responder: { chips  'grey78':11 }
Tue Sep 03 13:54:11 IDT 2013	Received communication message 
Tue Sep 03 13:54:11 IDT 2013	Proposer 0 accepted? false
Tue Sep 03 13:54:11 IDT 2013	case that we had one reject, and one accept
Tue Sep 03 13:54:26 IDT 2013	Received communication message 
Tue Sep 03 13:54:26 IDT 2013	From player: 540
Tue Sep 03 13:54:26 IDT 2013	To player: 520
Tue Sep 03 13:54:26 IDT 2013	Chips to send by proposer: { chips  'CTRed':0 'CTPurple':0 'CTGreen':0 'grey78':0 'CTYellow':0 }
Tue Sep 03 13:54:26 IDT 2013	Chips to send by responder: { chips  'CTRed':0 'CTPurple':0 'CTGreen':0 'grey78':0 'CTYellow':0 }
Tue Sep 03 13:54:39 IDT 2013	Received communication message 
Tue Sep 03 13:54:39 IDT 2013	Proposer 1 accepted? false
Tue Sep 03 13:54:39 IDT 2013	case that we had one reject, and one accept
Tue Sep 03 13:54:39 IDT 2013	A Phase Ended: Communication Phase
Tue Sep 03 13:54:39 IDT 2013	Protocol: A New Phase Began: Movement Phase. loop is true
Tue Sep 03 13:54:39 IDT 2013	---------- Beginning Movement Phase at round 1 ----------
Tue Sep 03 13:54:39 IDT 2013	remove strategy phase. 
Tue Sep 03 13:55:23 IDT 2013	A Phase Ended: Movement Phase
Tue Sep 03 13:55:23 IDT 2013	Protocol: A New Phase Began: Feedback Phase. loop is true
Tue Sep 03 13:55:23 IDT 2013	---------- Beginning Feedback Phase at round 1 ----------
Tue Sep 03 13:55:23 IDT 2013	The TD player reached the goal, end the game
Tue Sep 03 13:55:23 IDT 2013	ended is true
Tue Sep 03 13:55:28 IDT 2013	A Phase Ended: Feedback Phase
Tue Sep 03 13:55:28 IDT 2013	 numberofMoves in round 1 is 9
Tue Sep 03 13:55:28 IDT 2013	Loop status: false
Tue Sep 03 13:55:28 IDT 2013	Player: 540 ,role: Proposer score is: 200
Tue Sep 03 13:55:28 IDT 2013	Player: 540Game Ended
Tue Sep 03 13:55:28 IDT 2013	Player: 520 ,role: Responder score is: 225
Tue Sep 03 13:55:28 IDT 2013	Player: 520Game Ended
Tue Sep 03 13:55:28 IDT 2013	Player: 530 ,role: Proposer score is: 350
Tue Sep 03 13:55:28 IDT 2013	Player: 530Game Ended
Tue Sep 03 13:55:28 IDT 2013	Protocol: A New Phase Began: Communication Phase. loop is false
Tue Sep 03 13:55:28 IDT 2013	---------- Beginning Communication Phase at round 1 ----------
