filename,round,propID,respID,IsPropCustomer,chipsToSend,chipsToReceive,accept,propCurrentScore,respCurrentScore,actualSent,ActualRcvd,propResultingScore,respResultingScore,#ofCustomerMovesInRound,customerRowPositionAfterMovePhase,customerColPositionAfterMovePhase,Player100ChipsAfterMovePhase,Player100ScoreAfterMovePhase,Player200ChipsAfterMovePhase,Player200ScoreAfterMovePhase,Player300ChipsAfterMovePhase,Player300ScoreAfterMovePhase,generosityLevel,ClientReachedGoal
3playersLog_1378204369468.csv,1,530,500,FALSE,{ chips  'CTRed':33 'CTPurple':7 },{ chips  'grey78':11 },IGNORED,200,120,,,,,2,(R:4,C:5),{ chips  'CTRed':0 'CTGreen':0 'CTPurple':0 'grey78':12 'CTYellow':10 },110,{ chips  'CTRed':33 'CTGreen':0 'CTPurple':7 'grey78':0 'CTYellow':0 },200,{ chips  'CTRed':33 'CTGreen':0 'CTPurple':7 'grey78':0 'CTYellow':0 },200,,
3playersLog_1378204369468.csv,1,540,500,FALSE,{ chips  'CTRed':15 },{ chips  'grey78':10 },IGNORED,200,120,,,,,2,(R:4,C:5),{ chips  'CTRed':0 'CTGreen':0 'CTPurple':0 'grey78':12 'CTYellow':10 },110,{ chips  'CTRed':33 'CTGreen':0 'CTPurple':7 'grey78':0 'CTYellow':0 },200,{ chips  'CTRed':33 'CTGreen':0 'CTPurple':7 'grey78':0 'CTYellow':0 },200,,
3playersLog_1378204369468.csv,2,500,530,TRUE,{ chips  'grey78':10 },{ chips  'CTRed':20 },FALSE,110,200,,,,,2,(R:3,C:6),{ chips  'CTRed':0 'CTGreen':0 'CTPurple':0 'grey78':12 'CTYellow':8 },100,{ chips  'CTRed':33 'CTGreen':0 'CTPurple':7 'grey78':0 'CTYellow':0 },200,{ chips  'CTRed':33 'CTGreen':0 'CTPurple':7 'grey78':0 'CTYellow':0 },200,,
3playersLog_1378204369468.csv,3,530,500,FALSE,{ chips  'CTRed':33 'CTPurple':7 },{ chips  'grey78':11 },TRUE,200,100,{ chips  'CTRed':33 'CTPurple':7 'CTYellow':0 },{ chips  'grey78':11 },55,245,4,(R:1,C:8),{ chips  'CTRed':33 'CTGreen':0 'CTPurple':7 'grey78':1 'CTYellow':4 },225,{ chips  'CTRed':0 'CTGreen':0 'CTPurple':0 'grey78':11 'CTYellow':0 },55,{ chips  'CTRed':33 'CTGreen':0 'CTPurple':7 'grey78':0 'CTYellow':0 },200,,
3playersLog_1378204369468.csv,3,540,500,FALSE,{ chips  'CTPurple':4 },{ chips  'grey78':5 },FALSE,200,100,,,,,4,(R:1,C:8),{ chips  'CTRed':33 'CTGreen':0 'CTPurple':7 'grey78':1 'CTYellow':4 },225,{ chips  'CTRed':0 'CTGreen':0 'CTPurple':0 'grey78':11 'CTYellow':0 },55,{ chips  'CTRed':33 'CTGreen':0 'CTPurple':7 'grey78':0 'CTYellow':0 },200,,
3playersLog_1378204369468.csv,4,500,530,TRUE,{ chips  'CTYellow':3 },{ chips  'grey78':6 },FALSE,225,55,,,,,1,(R:0,C:8),{ chips  'CTRed':33 'CTGreen':0 'CTPurple':7 'grey78':1 'CTYellow':3 },370,{ chips  'CTRed':0 'CTGreen':0 'CTPurple':0 'grey78':11 'CTYellow':0 },205,{ chips  'CTRed':33 'CTGreen':0 'CTPurple':7 'grey78':0 'CTYellow':0 },200,,
3playersLog_1378204369468.csv,,,,,,,,,,,,,,,,,,,,,,,,TRUE
filename,round,propID,respID,IsPropCustomer,chipsToSend,chipsToReceive,accept,propCurrentScore,respCurrentScore,actualSent,ActualRcvd,propResultingScore,respResultingScore,#ofCustomerMovesInRound,customerRowPositionAfterMovePhase,customerColPositionAfterMovePhase,Player100ChipsAfterMovePhase,Player100ScoreAfterMovePhase,Player200ChipsAfterMovePhase,Player200ScoreAfterMovePhase,Player300ChipsAfterMovePhase,Player300ScoreAfterMovePhase,generosityLevel,ClientReachedGoal
3playersLog_1378204380041.csv,1,530,500,FALSE,{ chips  'CTRed':33 'CTPurple':7 },{ chips  'grey78':11 },TRUE,200,120,{ chips  'CTRed':33 'CTPurple':7 'CTYellow':0 },{ chips  'grey78':11 },55,265,4,(R:3,C:6),{ chips  'CTRed':33 'CTGreen':0 'CTPurple':7 'grey78':1 'CTYellow':8 },245,{ chips  'CTRed':0 'CTGreen':0 'CTPurple':0 'grey78':11 'CTYellow':0 },55,{ chips  'CTRed':33 'CTGreen':0 'CTPurple':7 'grey78':0 'CTYellow':0 },200,,
3playersLog_1378204380041.csv,2,500,540,TRUE,{ chips  'CTYellow':1 },{ chips  'CTRed':33 },FALSE,245,200,,,,,4,(R:1,C:8),{ chips  'CTRed':33 'CTGreen':0 'CTPurple':7 'grey78':1 'CTYellow':4 },225,{ chips  'CTRed':0 'CTGreen':0 'CTPurple':0 'grey78':11 'CTYellow':0 },55,{ chips  'CTRed':33 'CTGreen':0 'CTPurple':7 'grey78':0 'CTYellow':0 },200,,
3playersLog_1378204380041.csv,3,530,500,FALSE,{ chips  },{ chips  },FALSE,55,225,,,,,0,(R:1,C:8),{ chips  'CTRed':33 'CTGreen':0 'CTPurple':7 'grey78':1 'CTYellow':4 },225,{ chips  'CTRed':0 'CTGreen':0 'CTPurple':0 'grey78':11 'CTYellow':0 },55,{ chips  'CTRed':33 'CTGreen':0 'CTPurple':7 'grey78':0 'CTYellow':0 },200,,
3playersLog_1378204380041.csv,3,540,500,FALSE,{ chips  'CTRed':2 },{ chips  'grey78':1 },FALSE,200,225,,,,,0,(R:1,C:8),{ chips  'CTRed':33 'CTGreen':0 'CTPurple':7 'grey78':1 'CTYellow':4 },225,{ chips  'CTRed':0 'CTGreen':0 'CTPurple':0 'grey78':11 'CTYellow':0 },55,{ chips  'CTRed':33 'CTGreen':0 'CTPurple':7 'grey78':0 'CTYellow':0 },200,,
3playersLog_1378204380041.csv,4,500,530,TRUE,{ chips  'CTRed':6 },{ chips  'grey78':1 },IGNORED,225,55,,,,,1,(R:1,C:7),{ chips  'CTRed':33 'CTGreen':0 'CTPurple':6 'grey78':1 'CTYellow':4 },220,{ chips  'CTRed':0 'CTGreen':0 'CTPurple':0 'grey78':11 'CTYellow':0 },55,{ chips  'CTRed':33 'CTGreen':0 'CTPurple':7 'grey78':0 'CTYellow':0 },200,,
3playersLog_1378204380041.csv,5,530,500,FALSE,{ chips  },{ chips  },FALSE,55,220,,,,,0,(R:1,C:7),{ chips  'CTRed':38 'CTGreen':0 'CTPurple':6 'grey78':0 'CTYellow':1 },225,{ chips  'CTRed':0 'CTGreen':0 'CTPurple':0 'grey78':11 'CTYellow':0 },55,{ chips  'CTRed':28 'CTGreen':0 'CTPurple':7 'grey78':1 'CTYellow':3 },195,,
3playersLog_1378204380041.csv,5,540,500,FALSE,{ chips  'CTRed':5 },{ chips  'grey78':1 'CTYellow':3 },TRUE,200,220,{ chips  'CTRed':5 'CTPurple':0 'CTGreen':0 'grey78':0 'CTYellow':0 },{ chips  'CTRed':0 'CTPurple':0 'CTGreen':0 'grey78':1 'CTYellow':3 },195,225,0,(R:1,C:7),{ chips  'CTRed':38 'CTGreen':0 'CTPurple':6 'grey78':0 'CTYellow':1 },225,{ chips  'CTRed':0 'CTGreen':0 'CTPurple':0 'grey78':11 'CTYellow':0 },55,{ chips  'CTRed':28 'CTGreen':0 'CTPurple':7 'grey78':1 'CTYellow':3 },195,,
3playersLog_1378204380041.csv,6,500,530,TRUE,{ chips  'CTRed':10 },{ chips  'grey78':2 },IGNORED,225,55,,,,,1,(R:1,C:6),{ chips  'CTRed':38 'CTGreen':0 'CTPurple':5 'grey78':0 'CTYellow':1 },220,{ chips  'CTRed':0 'CTGreen':0 'CTPurple':0 'grey78':11 'CTYellow':0 },55,{ chips  'CTRed':28 'CTGreen':0 'CTPurple':7 'grey78':1 'CTYellow':3 },195,,
3playersLog_1378204380041.csv,7,530,500,FALSE,{ chips  },{ chips  },TRUE,55,220,{ chips  'grey78':0 },{ chips  'CTRed':0 'CTPurple':0 },55,220,0,(R:1,C:6),{ chips  'CTRed':38 'CTGreen':0 'CTPurple':5 'grey78':0 'CTYellow':1 },220,{ chips  'CTRed':0 'CTGreen':0 'CTPurple':0 'grey78':11 'CTYellow':0 },55,{ chips  'CTRed':28 'CTGreen':0 'CTPurple':7 'grey78':1 'CTYellow':3 },195,,
3playersLog_1378204380041.csv,8,500,540,TRUE,{ chips  'CTRed':38 },{ chips  'CTYellow':2 },TRUE,220,55,{ chips  'CTRed':38 'CTPurple':0 'CTGreen':0 'grey78':0 'CTYellow':0 },{ chips  'CTRed':0 'CTPurple':0 'CTGreen':0 'grey78':0 'CTYellow':2 },40,375,3,(R:0,C:8),{ chips  'CTRed':0 'CTGreen':0 'CTPurple':4 'grey78':0 'CTYellow':1 },175,{ chips  'CTRed':0 'CTGreen':0 'CTPurple':0 'grey78':11 'CTYellow':0 },205,{ chips  'CTRed':66 'CTGreen':0 'CTPurple':7 'grey78':1 'CTYellow':1 },375,,
3playersLog_1378204380041.csv,,,,,,,,,,,,,,,,,,,,,,,,TRUE
filename,round,propID,respID,IsPropCustomer,chipsToSend,chipsToReceive,accept,propCurrentScore,respCurrentScore,actualSent,ActualRcvd,propResultingScore,respResultingScore,#ofCustomerMovesInRound,customerRowPositionAfterMovePhase,customerColPositionAfterMovePhase,Player100ChipsAfterMovePhase,Player100ScoreAfterMovePhase,Player200ChipsAfterMovePhase,Player200ScoreAfterMovePhase,Player300ChipsAfterMovePhase,Player300ScoreAfterMovePhase,generosityLevel,ClientReachedGoal
3playersLog_1378205563639.csv,1,530,520,FALSE,{ chips  'CTRed':33 'CTPurple':7 },{ chips  'grey78':11 },FALSE,200,120,,,,,9,(R:0,C:8),{ chips  'CTRed':0 'CTGreen':0 'CTPurple':0 'grey78':12 'CTYellow':3 },225,{ chips  'CTRed':33 'CTGreen':0 'CTPurple':7 'grey78':0 'CTYellow':0 },350,{ chips  'CTRed':33 'CTGreen':0 'CTPurple':7 'grey78':0 'CTYellow':0 },200,,
3playersLog_1378205563639.csv,1,540,520,FALSE,{ chips  },{ chips  },FALSE,200,120,,,,,9,(R:0,C:8),{ chips  'CTRed':0 'CTGreen':0 'CTPurple':0 'grey78':12 'CTYellow':3 },225,{ chips  'CTRed':33 'CTGreen':0 'CTPurple':7 'grey78':0 'CTYellow':0 },350,{ chips  'CTRed':33 'CTGreen':0 'CTPurple':7 'grey78':0 'CTYellow':0 },200,,
3playersLog_1378205563639.csv,,,,,,,,,,,,,,,,,,,,,,,,TRUE
filename,round,propID,respID,IsPropCustomer,chipsToSend,chipsToReceive,accept,propCurrentScore,respCurrentScore,actualSent,ActualRcvd,propResultingScore,respResultingScore,#ofCustomerMovesInRound,customerRowPositionAfterMovePhase,customerColPositionAfterMovePhase,Player100ChipsAfterMovePhase,Player100ScoreAfterMovePhase,Player200ChipsAfterMovePhase,Player200ScoreAfterMovePhase,Player300ChipsAfterMovePhase,Player300ScoreAfterMovePhase,generosityLevel,ClientReachedGoal
3playersLog_1378205795904.csv,1,530,520,FALSE,{ chips  'CTRed':33 'CTPurple':7 },{ chips  'grey78':11 },TRUE,200,120,{ chips  'CTRed':33 'CTPurple':7 'CTYellow':0 },{ chips  'grey78':11 },55,265,4,(R:3,C:6),{ chips  'CTRed':33 'CTGreen':0 'CTPurple':7 'grey78':1 'CTYellow':8 },245,{ chips  'CTRed':0 'CTGreen':0 'CTPurple':0 'grey78':11 'CTYellow':0 },55,{ chips  'CTRed':33 'CTGreen':0 'CTPurple':7 'grey78':0 'CTYellow':0 },200,,
3playersLog_1378205795904.csv,2,520,540,TRUE,{ chips  'CTPurple':7 'grey78':1 },{ chips  'CTRed':11 },TRUE,245,55,{ chips  'CTRed':0 'CTPurple':7 'CTGreen':0 'grey78':1 'CTYellow':0 },{ chips  'CTRed':11 'CTPurple':0 'CTGreen':0 'grey78':0 'CTYellow':0 },260,185,5,(R:0,C:8),{ chips  'CTRed':44 'CTGreen':0 'CTPurple':0 'grey78':0 'CTYellow':3 },385,{ chips  'CTRed':0 'CTGreen':0 'CTPurple':0 'grey78':11 'CTYellow':0 },205,{ chips  'CTRed':22 'CTGreen':0 'CTPurple':14 'grey78':1 'CTYellow':0 },185,,
3playersLog_1378205795904.csv,,,,,,,,,,,,,,,,,,,,,,,,TRUE
filename,round,propID,respID,IsPropCustomer,chipsToSend,chipsToReceive,accept,propCurrentScore,respCurrentScore,actualSent,ActualRcvd,propResultingScore,respResultingScore,#ofCustomerMovesInRound,customerRowPositionAfterMovePhase,customerColPositionAfterMovePhase,Player100ChipsAfterMovePhase,Player100ScoreAfterMovePhase,Player200ChipsAfterMovePhase,Player200ScoreAfterMovePhase,Player300ChipsAfterMovePhase,Player300ScoreAfterMovePhase,generosityLevel,ClientReachedGoal
3playersLog_1378206604281.csv,1,530,520,FALSE,{ chips  'CTRed':33 'CTPurple':7 },{ chips  'grey78':11 },IGNORED,200,120,,,,,6,(R:2,C:1),{ chips  'CTRed':13 'CTGreen':0 'CTPurple':5 'grey78':6 'CTYellow':12 },180,{ chips  'CTRed':33 'CTGreen':0 'CTPurple':7 'grey78':0 'CTYellow':0 },200,{ chips  'CTRed':20 'CTGreen':0 'CTPurple':2 'grey78':0 'CTYellow':0 },110,,
3playersLog_1378206604281.csv,1,540,520,FALSE,{ chips  'CTRed':13 'CTPurple':5 },{ chips  },TRUE,200,120,{ chips  'CTRed':13 'CTPurple':5 'CTGreen':0 'grey78':0 'CTYellow':0 },{ chips  'CTRed':0 'CTPurple':0 'CTGreen':0 'grey78':0 'CTYellow':0 },110,210,6,(R:2,C:1),{ chips  'CTRed':13 'CTGreen':0 'CTPurple':5 'grey78':6 'CTYellow':12 },180,{ chips  'CTRed':33 'CTGreen':0 'CTPurple':7 'grey78':0 'CTYellow':0 },200,{ chips  'CTRed':20 'CTGreen':0 'CTPurple':2 'grey78':0 'CTYellow':0 },110,,
3playersLog_1378206604281.csv,2,520,540,TRUE,{ chips  'grey78':1 'CTYellow':12 },{ chips  'CTRed':14 },TRUE,180,200,{ chips  'CTRed':0 'CTPurple':0 'CTGreen':0 'grey78':1 'CTYellow':12 },{ chips  'CTRed':14 'CTPurple':0 'CTGreen':0 'grey78':0 'CTYellow':0 },185,105,3,(R:0,C:0),{ chips  'CTRed':27 'CTGreen':0 'CTPurple':5 'grey78':2 'CTYellow':0 },320,{ chips  'CTRed':33 'CTGreen':0 'CTPurple':7 'grey78':0 'CTYellow':0 },200,{ chips  'CTRed':6 'CTGreen':0 'CTPurple':2 'grey78':1 'CTYellow':12 },255,,
3playersLog_1378206604281.csv,,,,,,,,,,,,,,,,,,,,,,,,TRUE
filename,round,propID,respID,IsPropCustomer,chipsToSend,chipsToReceive,accept,propCurrentScore,respCurrentScore,actualSent,ActualRcvd,propResultingScore,respResultingScore,#ofCustomerMovesInRound,customerRowPositionAfterMovePhase,customerColPositionAfterMovePhase,Player100ChipsAfterMovePhase,Player100ScoreAfterMovePhase,Player200ChipsAfterMovePhase,Player200ScoreAfterMovePhase,Player300ChipsAfterMovePhase,Player300ScoreAfterMovePhase,generosityLevel,ClientReachedGoal
3playersLog_1378206936462.csv,1,530,520,FALSE,{ chips  'CTRed':33 'CTPurple':7 },{ chips  'grey78':11 },TRUE,200,120,{ chips  'CTRed':33 'CTPurple':7 'CTYellow':0 },{ chips  'grey78':11 },55,265,7,(R:2,C:8),{ chips  'CTRed':33 'CTGreen':0 'CTPurple':7 'grey78':1 'CTYellow':5 },230,{ chips  'CTRed':0 'CTGreen':0 'CTPurple':0 'grey78':11 'CTYellow':0 },55,{ chips  'CTRed':33 'CTGreen':0 'CTPurple':7 'grey78':0 'CTYellow':0 },200,,
3playersLog_1378206936462.csv,1,540,520,FALSE,{ chips  'CTRed':20 'CTPurple':4 },{ chips  },IGNORED,200,120,,,,,7,(R:2,C:8),{ chips  'CTRed':33 'CTGreen':0 'CTPurple':7 'grey78':1 'CTYellow':5 },230,{ chips  'CTRed':0 'CTGreen':0 'CTPurple':0 'grey78':11 'CTYellow':0 },55,{ chips  'CTRed':33 'CTGreen':0 'CTPurple':7 'grey78':0 'CTYellow':0 },200,,
3playersLog_1378206936462.csv,2,520,530,TRUE,{ chips  },{ chips  'grey78':11 },FALSE,230,55,,,,,2,(R:0,C:8),{ chips  'CTRed':33 'CTGreen':0 'CTPurple':7 'grey78':1 'CTYellow':3 },370,{ chips  'CTRed':0 'CTGreen':0 'CTPurple':0 'grey78':11 'CTYellow':0 },205,{ chips  'CTRed':33 'CTGreen':0 'CTPurple':7 'grey78':0 'CTYellow':0 },200,,
3playersLog_1378206936462.csv,,,,,,,,,,,,,,,,,,,,,,,,TRUE
filename,round,propID,respID,IsPropCustomer,chipsToSend,chipsToReceive,accept,propCurrentScore,respCurrentScore,actualSent,ActualRcvd,propResultingScore,respResultingScore,#ofCustomerMovesInRound,customerRowPositionAfterMovePhase,customerColPositionAfterMovePhase,Player100ChipsAfterMovePhase,Player100ScoreAfterMovePhase,Player200ChipsAfterMovePhase,Player200ScoreAfterMovePhase,Player300ChipsAfterMovePhase,Player300ScoreAfterMovePhase,generosityLevel,ClientReachedGoal
3playersLog_1378211356750.csv,1,530,500,FALSE,{ chips  'CTRed':33 'CTPurple':7 },{ chips  'grey78':11 },IGNORED,200,120,,,,,2,(R:4,C:5),{ chips  'CTRed':3 'CTGreen':0 'CTPurple':0 'grey78':12 'CTYellow':10 },125,{ chips  'CTRed':33 'CTGreen':0 'CTPurple':7 'grey78':0 'CTYellow':0 },200,{ chips  'CTRed':30 'CTGreen':0 'CTPurple':7 'grey78':0 'CTYellow':0 },185,,
3playersLog_1378211356750.csv,1,540,500,FALSE,{ chips  'CTRed':3 },{ chips  },TRUE,200,120,{ chips  'CTRed':3 'CTPurple':0 'CTGreen':0 'grey78':0 'CTYellow':0 },{ chips  'CTRed':0 'CTPurple':0 'CTGreen':0 'grey78':0 'CTYellow':0 },185,135,2,(R:4,C:5),{ chips  'CTRed':3 'CTGreen':0 'CTPurple':0 'grey78':12 'CTYellow':10 },125,{ chips  'CTRed':33 'CTGreen':0 'CTPurple':7 'grey78':0 'CTYellow':0 },200,{ chips  'CTRed':30 'CTGreen':0 'CTPurple':7 'grey78':0 'CTYellow':0 },185,,
3playersLog_1378211356750.csv,2,500,530,TRUE,{ chips  'grey78':5 },{ chips  'CTRed':33 'CTPurple':3 },FALSE,125,200,,,,,1,(R:4,C:6),{ chips  'CTRed':3 'CTGreen':0 'CTPurple':0 'grey78':12 'CTYellow':9 },120,{ chips  'CTRed':33 'CTGreen':0 'CTPurple':7 'grey78':0 'CTYellow':0 },200,{ chips  'CTRed':30 'CTGreen':0 'CTPurple':7 'grey78':0 'CTYellow':0 },185,,
3playersLog_1378211356750.csv,3,530,500,FALSE,{ chips  'CTRed':33 'CTPurple':7 },{ chips  'grey78':11 },TRUE,200,120,{ chips  'CTRed':33 'CTPurple':7 'CTYellow':0 },{ chips  'grey78':11 },55,265,5,(R:1,C:8),{ chips  'CTRed':36 'CTGreen':0 'CTPurple':7 'grey78':1 'CTYellow':4 },240,{ chips  'CTRed':0 'CTGreen':0 'CTPurple':0 'grey78':11 'CTYellow':0 },55,{ chips  'CTRed':30 'CTGreen':0 'CTPurple':7 'grey78':0 'CTYellow':0 },185,,
3playersLog_1378211356750.csv,4,500,540,TRUE,{ chips  'CTYellow':2 },{ chips  'CTRed':15 'CTPurple':2 },TRUE,240,55,{ chips  'CTRed':0 'CTPurple':0 'CTGreen':0 'grey78':0 'CTYellow':2 },{ chips  'CTRed':15 'CTPurple':2 'CTGreen':0 'grey78':0 'CTYellow':0 },315,110,1,(R:0,C:8),{ chips  'CTRed':51 'CTGreen':0 'CTPurple':9 'grey78':1 'CTYellow':1 },460,{ chips  'CTRed':0 'CTGreen':0 'CTPurple':0 'grey78':11 'CTYellow':0 },205,{ chips  'CTRed':15 'CTGreen':0 'CTPurple':5 'grey78':0 'CTYellow':2 },110,,
3playersLog_1378211356750.csv,,,,,,,,,,,,,,,,,,,,,,,,TRUE
filename,round,propID,respID,IsPropCustomer,chipsToSend,chipsToReceive,accept,propCurrentScore,respCurrentScore,actualSent,ActualRcvd,propResultingScore,respResultingScore,#ofCustomerMovesInRound,customerRowPositionAfterMovePhase,customerColPositionAfterMovePhase,Player100ChipsAfterMovePhase,Player100ScoreAfterMovePhase,Player200ChipsAfterMovePhase,Player200ScoreAfterMovePhase,Player300ChipsAfterMovePhase,Player300ScoreAfterMovePhase,generosityLevel,ClientReachedGoal
3playersLog_1378211416205.csv,1,530,500,FALSE,{ chips  'CTRed':33 'CTPurple':7 },{ chips  'grey78':11 },FALSE,200,120,,,,,2,(R:4,C:3),{ chips  'CTRed':2 'CTGreen':0 'CTPurple':0 'grey78':10 'CTYellow':11 },115,{ chips  'CTRed':33 'CTGreen':0 'CTPurple':7 'grey78':0 'CTYellow':0 },200,{ chips  'CTRed':31 'CTGreen':0 'CTPurple':7 'grey78':0 'CTYellow':1 },195,,
3playersLog_1378211416205.csv,1,540,500,FALSE,{ chips  'CTRed':2 },{ chips  'CTYellow':1 },TRUE,200,120,{ chips  'CTRed':2 'CTPurple':0 'CTGreen':0 'grey78':0 'CTYellow':0 },{ chips  'CTRed':0 'CTPurple':0 'CTGreen':0 'grey78':0 'CTYellow':1 },195,125,2,(R:4,C:3),{ chips  'CTRed':2 'CTGreen':0 'CTPurple':0 'grey78':10 'CTYellow':11 },115,{ chips  'CTRed':33 'CTGreen':0 'CTPurple':7 'grey78':0 'CTYellow':0 },200,{ chips  'CTRed':31 'CTGreen':0 'CTPurple':7 'grey78':0 'CTYellow':1 },195,,
3playersLog_1378211416205.csv,2,500,530,TRUE,{ chips  'grey78':2 },{ chips  'CTPurple':5 },FALSE,115,200,,,,,2,(R:4,C:3),{ chips  'CTRed':2 'CTGreen':0 'CTPurple':0 'grey78':8 'CTYellow':11 },105,{ chips  'CTRed':33 'CTGreen':0 'CTPurple':7 'grey78':0 'CTYellow':0 },200,{ chips  'CTRed':31 'CTGreen':0 'CTPurple':7 'grey78':0 'CTYellow':1 },195,,
3playersLog_1378211416205.csv,3,530,500,FALSE,{ chips  'CTRed':33 'CTPurple':4 },{ chips  'grey78':8 },FALSE,200,105,,,,,1,(R:3,C:3),{ chips  'CTRed':3 'CTGreen':0 'CTPurple':0 'grey78':8 'CTYellow':10 },105,{ chips  'CTRed':33 'CTGreen':0 'CTPurple':7 'grey78':0 'CTYellow':0 },200,{ chips  'CTRed':30 'CTGreen':0 'CTPurple':6 'grey78':0 'CTYellow':2 },190,,
3playersLog_1378211416205.csv,3,540,500,FALSE,{ chips  'CTRed':1 'CTPurple':1 },{ chips  'CTYellow':1 },TRUE,195,105,{ chips  'CTRed':1 'CTPurple':1 'CTGreen':0 'grey78':0 'CTYellow':0 },{ chips  'CTRed':0 'CTPurple':0 'CTGreen':0 'grey78':0 'CTYellow':1 },190,110,1,(R:3,C:3),{ chips  'CTRed':3 'CTGreen':0 'CTPurple':0 'grey78':8 'CTYellow':10 },105,{ chips  'CTRed':33 'CTGreen':0 'CTPurple':7 'grey78':0 'CTYellow':0 },200,{ chips  'CTRed':30 'CTGreen':0 'CTPurple':6 'grey78':0 'CTYellow':2 },190,,
3playersLog_1378211416205.csv,4,500,540,TRUE,{ chips  'grey78':2 },{ chips  'CTPurple':3 },FALSE,105,190,,,,,0,(R:3,C:3),{ chips  'CTRed':3 'CTGreen':0 'CTPurple':0 'grey78':8 'CTYellow':10 },105,{ chips  'CTRed':33 'CTGreen':0 'CTPurple':7 'grey78':0 'CTYellow':0 },200,{ chips  'CTRed':30 'CTGreen':0 'CTPurple':6 'grey78':0 'CTYellow':2 },190,,
3playersLog_1378211416205.csv,5,530,500,FALSE,{ chips  'CTRed':33 'CTPurple':4 },{ chips  'grey78':8 },IGNORED,200,105,,,,,1,(R:3,C:4),{ chips  'CTRed':3 'CTGreen':0 'CTPurple':1 'grey78':8 'CTYellow':9 },105,{ chips  'CTRed':33 'CTGreen':0 'CTPurple':7 'grey78':0 'CTYellow':0 },200,{ chips  'CTRed':30 'CTGreen':0 'CTPurple':4 'grey78':0 'CTYellow':3 },185,,
3playersLog_1378211416205.csv,5,540,500,FALSE,{ chips  'CTPurple':2 },{ chips  'CTYellow':1 },TRUE,190,105,{ chips  'CTRed':0 'CTPurple':2 'CTGreen':0 'grey78':0 'CTYellow':0 },{ chips  'CTRed':0 'CTPurple':0 'CTGreen':0 'grey78':0 'CTYellow':1 },185,110,1,(R:3,C:4),{ chips  'CTRed':3 'CTGreen':0 'CTPurple':1 'grey78':8 'CTYellow':9 },105,{ chips  'CTRed':33 'CTGreen':0 'CTPurple':7 'grey78':0 'CTYellow':0 },200,{ chips  'CTRed':30 'CTGreen':0 'CTPurple':4 'grey78':0 'CTYellow':3 },185,,
3playersLog_1378211416205.csv,6,500,530,TRUE,{ chips  'grey78':3 },{ chips  'CTRed':1 'CTPurple':3 },FALSE,105,200,,,,,0,(R:3,C:4),{ chips  'CTRed':3 'CTGreen':0 'CTPurple':1 'grey78':8 'CTYellow':9 },105,{ chips  'CTRed':33 'CTGreen':0 'CTPurple':7 'grey78':0 'CTYellow':0 },200,{ chips  'CTRed':30 'CTGreen':0 'CTPurple':4 'grey78':0 'CTYellow':3 },185,,
3playersLog_1378211416205.csv,7,530,500,FALSE,{ chips  'CTRed':33 'CTPurple':4 },{ chips  'grey78':8 },IGNORED,200,105,,,,,1,(R:3,C:5),{ chips  'CTRed':5 'CTGreen':0 'CTPurple':2 'grey78':8 'CTYellow':6 },105,{ chips  'CTRed':33 'CTGreen':0 'CTPurple':7 'grey78':0 'CTYellow':0 },200,{ chips  'CTRed':28 'CTGreen':0 'CTPurple':2 'grey78':0 'CTYellow':6 },180,,
3playersLog_1378211416205.csv,7,540,500,FALSE,{ chips  'CTRed':2 'CTPurple':2 },{ chips  'CTYellow':3 },TRUE,185,105,{ chips  'CTRed':2 'CTPurple':2 'CTGreen':0 'grey78':0 'CTYellow':0 },{ chips  'CTRed':0 'CTPurple':0 'CTGreen':0 'grey78':0 'CTYellow':3 },180,110,1,(R:3,C:5),{ chips  'CTRed':5 'CTGreen':0 'CTPurple':2 'grey78':8 'CTYellow':6 },105,{ chips  'CTRed':33 'CTGreen':0 'CTPurple':7 'grey78':0 'CTYellow':0 },200,{ chips  'CTRed':28 'CTGreen':0 'CTPurple':2 'grey78':0 'CTYellow':6 },180,,
3playersLog_1378211416205.csv,8,500,540,TRUE,{ chips  'CTYellow':1 },{ chips  'CTRed':1 'CTPurple':2 },TRUE,105,200,{ chips  'CTRed':0 'CTPurple':0 'CTGreen':0 'grey78':0 'CTYellow':1 },{ chips  'CTRed':1 'CTPurple':2 'CTGreen':0 'grey78':0 'CTYellow':0 },115,170,2,(R:3,C:3),{ chips  'CTRed':6 'CTGreen':0 'CTPurple':2 'grey78':8 'CTYellow':5 },105,{ chips  'CTRed':33 'CTGreen':0 'CTPurple':7 'grey78':0 'CTYellow':0 },200,{ chips  'CTRed':27 'CTGreen':0 'CTPurple':0 'grey78':0 'CTYellow':7 },170,,
3playersLog_1378211416205.csv,9,530,500,FALSE,{ chips  'CTRed':33 'CTPurple':4 },{ chips  'grey78':8 },FALSE,200,105,,,,,0,(R:3,C:3),{ chips  'CTRed':6 'CTGreen':0 'CTPurple':2 'grey78':8 'CTYellow':5 },105,{ chips  'CTRed':33 'CTGreen':0 'CTPurple':7 'grey78':0 'CTYellow':0 },200,{ chips  'CTRed':27 'CTGreen':0 'CTPurple':0 'grey78':0 'CTYellow':7 },170,,
3playersLog_1378211416205.csv,9,540,500,FALSE,{ chips  'CTRed':1 },{ chips  'CTYellow':1 },FALSE,170,105,,,,,0,(R:3,C:3),{ chips  'CTRed':6 'CTGreen':0 'CTPurple':2 'grey78':8 'CTYellow':5 },105,{ chips  'CTRed':33 'CTGreen':0 'CTPurple':7 'grey78':0 'CTYellow':0 },200,{ chips  'CTRed':27 'CTGreen':0 'CTPurple':0 'grey78':0 'CTYellow':7 },170,,
3playersLog_1378211416205.csv,10,500,530,TRUE,{ chips  'grey78':6 },{ chips  'CTRed':33 'CTPurple':7 },FALSE,105,200,,,,,1,(R:3,C:2),{ chips  'CTRed':6 'CTGreen':0 'CTPurple':2 'grey78':7 'CTYellow':5 },100,{ chips  'CTRed':33 'CTGreen':0 'CTPurple':7 'grey78':0 'CTYellow':0 },200,{ chips  'CTRed':27 'CTGreen':0 'CTPurple':0 'grey78':0 'CTYellow':7 },170,,
3playersLog_1378211416205.csv,11,530,500,FALSE,{ chips  'CTRed':33 'CTPurple':3 },{ chips  'grey78':7 },TRUE,200,100,{ chips  'CTRed':33 'CTPurple':3 'CTYellow':0 },{ chips  'grey78':7 },55,245,9,(R:0,C:8),{ chips  'CTRed':39 'CTGreen':0 'CTPurple':1 'grey78':0 'CTYellow':0 },350,{ chips  'CTRed':0 'CTGreen':0 'CTPurple':4 'grey78':7 'CTYellow':0 },205,{ chips  'CTRed':27 'CTGreen':0 'CTPurple':0 'grey78':0 'CTYellow':7 },170,,
3playersLog_1378211416205.csv,11,540,500,FALSE,{ chips  'CTRed':2 },{ chips  'CTYellow':1 },FALSE,170,100,,,,,9,(R:0,C:8),{ chips  'CTRed':39 'CTGreen':0 'CTPurple':1 'grey78':0 'CTYellow':0 },350,{ chips  'CTRed':0 'CTGreen':0 'CTPurple':4 'grey78':7 'CTYellow':0 },205,{ chips  'CTRed':27 'CTGreen':0 'CTPurple':0 'grey78':0 'CTYellow':7 },170,,
3playersLog_1378211416205.csv,,,,,,,,,,,,,,,,,,,,,,,,TRUE
filename,round,propID,respID,IsPropCustomer,chipsToSend,chipsToReceive,accept,propCurrentScore,respCurrentScore,actualSent,ActualRcvd,propResultingScore,respResultingScore,#ofCustomerMovesInRound,customerRowPositionAfterMovePhase,customerColPositionAfterMovePhase,Player100ChipsAfterMovePhase,Player100ScoreAfterMovePhase,Player200ChipsAfterMovePhase,Player200ScoreAfterMovePhase,Player300ChipsAfterMovePhase,Player300ScoreAfterMovePhase,generosityLevel,ClientReachedGoal
3playersLog_1378211468878.csv,1,530,500,FALSE,{ chips  'CTRed':33 'CTPurple':7 },{ chips  'grey78':11 },FALSE,200,120,,,,,2,(R:4,C:3),{ chips  'CTRed':4 'CTGreen':0 'CTPurple':0 'grey78':8 'CTYellow':12 },120,{ chips  'CTRed':33 'CTGreen':0 'CTPurple':7 'grey78':0 'CTYellow':0 },200,{ chips  'CTRed':29 'CTGreen':0 'CTPurple':7 'grey78':2 'CTYellow':0 },190,,
3playersLog_1378211468878.csv,1,540,500,FALSE,{ chips  'CTRed':4 },{ chips  'grey78':2 },TRUE,200,120,{ chips  'CTRed':4 'CTPurple':0 'CTGreen':0 'grey78':0 'CTYellow':0 },{ chips  'CTRed':0 'CTPurple':0 'CTGreen':0 'grey78':2 'CTYellow':0 },190,130,2,(R:4,C:3),{ chips  'CTRed':4 'CTGreen':0 'CTPurple':0 'grey78':8 'CTYellow':12 },120,{ chips  'CTRed':33 'CTGreen':0 'CTPurple':7 'grey78':0 'CTYellow':0 },200,{ chips  'CTRed':29 'CTGreen':0 'CTPurple':7 'grey78':2 'CTYellow':0 },190,,
3playersLog_1378211468878.csv,2,500,530,TRUE,{ chips  'CTYellow':2 },{ chips  'CTPurple':5 },FALSE,120,200,,,,,1,(R:4,C:2),{ chips  'CTRed':4 'CTGreen':0 'CTPurple':0 'grey78':7 'CTYellow':12 },115,{ chips  'CTRed':33 'CTGreen':0 'CTPurple':7 'grey78':0 'CTYellow':0 },200,{ chips  'CTRed':29 'CTGreen':0 'CTPurple':7 'grey78':2 'CTYellow':0 },190,,
3playersLog_1378211468878.csv,3,530,500,FALSE,{ chips  },{ chips  },TRUE,200,115,{ chips  'grey78':0 },{ chips  'CTRed':0 'CTPurple':0 },200,115,1,(R:3,C:2),{ chips  'CTRed':4 'CTGreen':0 'CTPurple':0 'grey78':6 'CTYellow':12 },110,{ chips  'CTRed':33 'CTGreen':0 'CTPurple':7 'grey78':0 'CTYellow':0 },200,{ chips  'CTRed':29 'CTGreen':0 'CTPurple':7 'grey78':2 'CTYellow':0 },190,,
3playersLog_1378211468878.csv,4,500,540,TRUE,{ chips  'grey78':1 'CTYellow':2 },{ chips  'CTRed':6 'CTPurple':1 },TRUE,110,200,{ chips  'CTRed':0 'CTPurple':0 'CTGreen':0 'grey78':1 'CTYellow':2 },{ chips  'CTRed':6 'CTPurple':1 'CTGreen':0 'grey78':0 'CTYellow':0 },130,170,2,(R:2,C:1),{ chips  'CTRed':10 'CTGreen':0 'CTPurple':1 'grey78':3 'CTYellow':10 },120,{ chips  'CTRed':33 'CTGreen':0 'CTPurple':7 'grey78':0 'CTYellow':0 },200,{ chips  'CTRed':23 'CTGreen':0 'CTPurple':6 'grey78':3 'CTYellow':2 },170,,
3playersLog_1378211468878.csv,5,530,500,FALSE,{ chips  },{ chips  },FALSE,200,120,,,,,1,(R:2,C:0),{ chips  'CTRed':12 'CTGreen':0 'CTPurple':0 'grey78':2 'CTYellow':10 },120,{ chips  'CTRed':33 'CTGreen':0 'CTPurple':7 'grey78':0 'CTYellow':0 },200,{ chips  'CTRed':21 'CTGreen':0 'CTPurple':7 'grey78':3 'CTYellow':2 },165,,
3playersLog_1378211468878.csv,5,540,500,FALSE,{ chips  'CTRed':2 },{ chips  'CTPurple':1 },TRUE,170,120,{ chips  'CTRed':2 'CTPurple':0 'CTGreen':0 'grey78':0 'CTYellow':0 },{ chips  'CTRed':0 'CTPurple':1 'CTGreen':0 'grey78':0 'CTYellow':0 },165,125,1,(R:2,C:0),{ chips  'CTRed':12 'CTGreen':0 'CTPurple':0 'grey78':2 'CTYellow':10 },120,{ chips  'CTRed':33 'CTGreen':0 'CTPurple':7 'grey78':0 'CTYellow':0 },200,{ chips  'CTRed':21 'CTGreen':0 'CTPurple':7 'grey78':3 'CTYellow':2 },165,,
3playersLog_1378211468878.csv,6,500,540,TRUE,{ chips  'CTRed':1 'CTYellow':3 },{ chips  'CTRed':3 'CTPurple':2 'grey78':2 },FALSE,120,165,,,,,0,(R:2,C:0),{ chips  'CTRed':12 'CTGreen':0 'CTPurple':0 'grey78':2 'CTYellow':10 },120,{ chips  'CTRed':33 'CTGreen':0 'CTPurple':7 'grey78':0 'CTYellow':0 },200,{ chips  'CTRed':21 'CTGreen':0 'CTPurple':7 'grey78':3 'CTYellow':2 },165,,
3playersLog_1378211468878.csv,7,530,500,FALSE,{ chips  },{ chips  },FALSE,200,120,,,,,1,(R:1,C:0),{ chips  'CTRed':11 'CTGreen':0 'CTPurple':2 'grey78':3 'CTYellow':7 },115,{ chips  'CTRed':33 'CTGreen':0 'CTPurple':7 'grey78':0 'CTYellow':0 },200,{ chips  'CTRed':22 'CTGreen':0 'CTPurple':5 'grey78':1 'CTYellow':5 },165,,
3playersLog_1378211468878.csv,7,540,500,FALSE,{ chips  'CTPurple':2 'grey78':2 },{ chips  'CTRed':1 'CTYellow':3 },TRUE,165,120,{ chips  'CTRed':0 'CTPurple':2 'CTGreen':0 'grey78':2 'CTYellow':0 },{ chips  'CTRed':1 'CTPurple':0 'CTGreen':0 'grey78':0 'CTYellow':3 },165,120,1,(R:1,C:0),{ chips  'CTRed':11 'CTGreen':0 'CTPurple':2 'grey78':3 'CTYellow':7 },115,{ chips  'CTRed':33 'CTGreen':0 'CTPurple':7 'grey78':0 'CTYellow':0 },200,{ chips  'CTRed':22 'CTGreen':0 'CTPurple':5 'grey78':1 'CTYellow':5 },165,,
3playersLog_1378211468878.csv,8,500,540,TRUE,{ chips  'CTPurple':2 'CTYellow':2 },{ chips  'CTRed':6 'CTPurple':2 },TRUE,115,200,{ chips  'CTRed':0 'CTPurple':2 'CTGreen':0 'grey78':0 'CTYellow':2 },{ chips  'CTRed':6 'CTPurple':2 'CTGreen':0 'grey78':0 'CTYellow':0 },135,145,0,(R:1,C:0),{ chips  'CTRed':17 'CTGreen':0 'CTPurple':2 'grey78':3 'CTYellow':5 },135,{ chips  'CTRed':33 'CTGreen':0 'CTPurple':7 'grey78':0 'CTYellow':0 },200,{ chips  'CTRed':16 'CTGreen':0 'CTPurple':5 'grey78':1 'CTYellow':7 },145,,
3playersLog_1378211468878.csv,9,530,500,FALSE,{ chips  },{ chips  },FALSE,200,135,,,,,1,(R:0,C:0),{ chips  'CTRed':21 'CTGreen':0 'CTPurple':0 'grey78':3 'CTYellow':5 },295,{ chips  'CTRed':33 'CTGreen':0 'CTPurple':7 'grey78':0 'CTYellow':0 },200,{ chips  'CTRed':12 'CTGreen':0 'CTPurple':7 'grey78':0 'CTYellow':7 },280,,
3playersLog_1378211468878.csv,9,540,500,FALSE,{ chips  'CTRed':4 'grey78':1 },{ chips  'CTPurple':2 },TRUE,145,135,{ chips  'CTRed':4 'CTPurple':0 'CTGreen':0 'grey78':1 'CTYellow':0 },{ chips  'CTRed':0 'CTPurple':2 'CTGreen':0 'grey78':0 'CTYellow':0 },130,150,1,(R:0,C:0),{ chips  'CTRed':21 'CTGreen':0 'CTPurple':0 'grey78':3 'CTYellow':5 },295,{ chips  'CTRed':33 'CTGreen':0 'CTPurple':7 'grey78':0 'CTYellow':0 },200,{ chips  'CTRed':12 'CTGreen':0 'CTPurple':7 'grey78':0 'CTYellow':7 },280,,
3playersLog_1378211468878.csv,,,,,,,,,,,,,,,,,,,,,,,,TRUE
filename,round,propID,respID,IsPropCustomer,chipsToSend,chipsToReceive,accept,propCurrentScore,respCurrentScore,actualSent,ActualRcvd,propResultingScore,respResultingScore,#ofCustomerMovesInRound,customerRowPositionAfterMovePhase,customerColPositionAfterMovePhase,Player100ChipsAfterMovePhase,Player100ScoreAfterMovePhase,Player200ChipsAfterMovePhase,Player200ScoreAfterMovePhase,Player300ChipsAfterMovePhase,Player300ScoreAfterMovePhase,generosityLevel,ClientReachedGoal
3playersLog_1378211809782.csv,1,530,500,FALSE,{ chips  'CTRed':33 'CTPurple':7 },{ chips  'grey78':11 },TRUE,200,120,{ chips  'CTRed':33 'CTPurple':7 'CTYellow':0 },{ chips  'grey78':11 },55,265,4,(R:3,C:6),{ chips  'CTRed':33 'CTGreen':0 'CTPurple':7 'grey78':1 'CTYellow':8 },245,{ chips  'CTRed':0 'CTGreen':0 'CTPurple':0 'grey78':11 'CTYellow':0 },55,{ chips  'CTRed':33 'CTGreen':0 'CTPurple':7 'grey78':0 'CTYellow':0 },200,,
3playersLog_1378211809782.csv,2,500,540,TRUE,{ chips  'CTYellow':2 },{ chips  'CTRed':30 'CTPurple':5 },FALSE,245,200,,,,,1,(R:3,C:5),{ chips  'CTRed':33 'CTGreen':0 'CTPurple':6 'grey78':1 'CTYellow':8 },240,{ chips  'CTRed':0 'CTGreen':0 'CTPurple':0 'grey78':11 'CTYellow':0 },55,{ chips  'CTRed':33 'CTGreen':0 'CTPurple':7 'grey78':0 'CTYellow':0 },200,,
3playersLog_1378211809782.csv,3,530,500,FALSE,{ chips  },{ chips  },FALSE,55,240,,,,,1,(R:3,C:4),{ chips  'CTRed':39 'CTGreen':0 'CTPurple':5 'grey78':1 'CTYellow':8 },265,{ chips  'CTRed':0 'CTGreen':0 'CTPurple':0 'grey78':11 'CTYellow':0 },55,{ chips  'CTRed':27 'CTGreen':0 'CTPurple':7 'grey78':0 'CTYellow':0 },170,,
3playersLog_1378211809782.csv,3,540,500,FALSE,{ chips  'CTRed':6 },{ chips  },TRUE,200,240,{ chips  'CTRed':6 'CTPurple':0 'CTGreen':0 'grey78':0 'CTYellow':0 },{ chips  'CTRed':0 'CTPurple':0 'CTGreen':0 'grey78':0 'CTYellow':0 },170,270,1,(R:3,C:4),{ chips  'CTRed':39 'CTGreen':0 'CTPurple':5 'grey78':1 'CTYellow':8 },265,{ chips  'CTRed':0 'CTGreen':0 'CTPurple':0 'grey78':11 'CTYellow':0 },55,{ chips  'CTRed':27 'CTGreen':0 'CTPurple':7 'grey78':0 'CTYellow':0 },170,,
3playersLog_1378211809782.csv,4,500,540,TRUE,{ chips  'CTRed':20 },{ chips  },TRUE,265,55,{ chips  'CTRed':20 'CTPurple':0 'CTGreen':0 'grey78':0 'CTYellow':0 },{ chips  'CTRed':0 'CTPurple':0 'CTGreen':0 'grey78':0 'CTYellow':0 },165,270,1,(R:3,C:5),{ chips  'CTRed':19 'CTGreen':0 'CTPurple':4 'grey78':1 'CTYellow':8 },160,{ chips  'CTRed':0 'CTGreen':0 'CTPurple':0 'grey78':11 'CTYellow':0 },55,{ chips  'CTRed':47 'CTGreen':0 'CTPurple':7 'grey78':0 'CTYellow':0 },270,,
3playersLog_1378211809782.csv,5,530,500,FALSE,{ chips  },{ chips  },FALSE,55,160,,,,,1,(R:3,C:6),{ chips  'CTRed':20 'CTGreen':0 'CTPurple':5 'grey78':1 'CTYellow':7 },165,{ chips  'CTRed':0 'CTGreen':0 'CTPurple':0 'grey78':11 'CTYellow':0 },55,{ chips  'CTRed':46 'CTGreen':0 'CTPurple':6 'grey78':0 'CTYellow':0 },260,,
3playersLog_1378211809782.csv,5,540,500,FALSE,{ chips  'CTRed':1 'CTPurple':1 },{ chips  },TRUE,270,160,{ chips  'CTRed':1 'CTPurple':1 'CTGreen':0 'grey78':0 'CTYellow':0 },{ chips  'CTRed':0 'CTPurple':0 'CTGreen':0 'grey78':0 'CTYellow':0 },260,170,1,(R:3,C:6),{ chips  'CTRed':20 'CTGreen':0 'CTPurple':5 'grey78':1 'CTYellow':7 },165,{ chips  'CTRed':0 'CTGreen':0 'CTPurple':0 'grey78':11 'CTYellow':0 },55,{ chips  'CTRed':46 'CTGreen':0 'CTPurple':6 'grey78':0 'CTYellow':0 },260,,
3playersLog_1378211809782.csv,6,500,540,TRUE,{ chips  'CTPurple':1 'CTYellow':2 },{ chips  'CTRed':35 },FALSE,165,260,,,,,1,(R:3,C:7),{ chips  'CTRed':20 'CTGreen':0 'CTPurple':5 'grey78':1 'CTYellow':6 },160,{ chips  'CTRed':0 'CTGreen':0 'CTPurple':0 'grey78':11 'CTYellow':0 },55,{ chips  'CTRed':46 'CTGreen':0 'CTPurple':6 'grey78':0 'CTYellow':0 },260,,
3playersLog_1378211809782.csv,7,530,500,FALSE,{ chips  },{ chips  },FALSE,55,160,,,,,4,(R:1,C:7),{ chips  'CTRed':20 'CTGreen':0 'CTPurple':4 'grey78':1 'CTYellow':3 },140,{ chips  'CTRed':0 'CTGreen':0 'CTPurple':0 'grey78':11 'CTYellow':0 },55,{ chips  'CTRed':46 'CTGreen':0 'CTPurple':6 'grey78':0 'CTYellow':0 },260,,
3playersLog_1378211809782.csv,7,540,500,FALSE,{ chips  'CTRed':3 },{ chips  'CTRed':1 'CTPurple':2 'grey78':1 'CTYellow':6 },FALSE,260,160,,,,,4,(R:1,C:7),{ chips  'CTRed':20 'CTGreen':0 'CTPurple':4 'grey78':1 'CTYellow':3 },140,{ chips  'CTRed':0 'CTGreen':0 'CTPurple':0 'grey78':11 'CTYellow':0 },55,{ chips  'CTRed':46 'CTGreen':0 'CTPurple':6 'grey78':0 'CTYellow':0 },260,,
3playersLog_1378211809782.csv,8,500,540,TRUE,{ chips  'CTYellow':1 },{ chips  'CTRed':25 'CTPurple':3 },TRUE,140,55,{ chips  'CTRed':0 'CTPurple':0 'CTGreen':0 'grey78':0 'CTYellow':1 },{ chips  'CTRed':25 'CTPurple':3 'CTGreen':0 'grey78':0 'CTYellow':0 },275,125,2,(R:0,C:8),{ chips  'CTRed':45 'CTGreen':0 'CTPurple':7 'grey78':1 'CTYellow':0 },415,{ chips  'CTRed':0 'CTGreen':0 'CTPurple':0 'grey78':11 'CTYellow':0 },205,{ chips  'CTRed':21 'CTGreen':0 'CTPurple':3 'grey78':0 'CTYellow':1 },125,,
3playersLog_1378211809782.csv,,,,,,,,,,,,,,,,,,,,,,,,TRUE
,,,,,,,,,,,,,,,,,,,,,,,,
