filename,round,propID,respID,IsPropCustomer,chipsToSend,chipsToReceive,accept,propCurrentScore,respCurrentScore,actualSent,ActualRcvd,propResultingScore,respResultingScore,#ofCustomerMovesInRound,customerRowPositionAfterMovePhase,customerColPositionAfterMovePhase,Player100ChipsAfterMovePhase,Player100ScoreAfterMovePhase,Player200ChipsAfterMovePhase,Player200ScoreAfterMovePhase,Player300ChipsAfterMovePhase,Player300ScoreAfterMovePhase,isCommitment,generosityLevel,ClientReachedGoal
3playersLog_1366798926627.csv,1,200,100,false,{ chips  'CTPurple':2 },{ chips  'grey78':3 },IGNORED,200,140,,,205,135,2,(R:4,C:3),{ chips  'CTRed':8 'CTGreen':0 'CTPurple':0 'grey78':10 'CTYellow':8 },130,{ chips  'CTRed':33 'CTGreen':0 'CTPurple':7 'grey78':0 'CTYellow':0 },200,{ chips  'CTRed':25 'CTGreen':0 'CTPurple':7 'grey78':0 'CTYellow':4 },180,false,,
3playersLog_1366798926627.csv,1,300,100,false,{ chips  'CTRed':8 },{ chips  'CTYellow':4 },TRUE,200,120,{ chips  'CTRed':8 'CTPurple':0 'CTGreen':0 'grey78':0 'CTYellow':0 },{ chips  'CTRed':0 'CTPurple':0 'CTGreen':0 'grey78':0 'CTYellow':4 },180,140,2,(R:4,C:3),{ chips  'CTRed':8 'CTGreen':0 'CTPurple':0 'grey78':10 'CTYellow':8 },130,{ chips  'CTRed':33 'CTGreen':0 'CTPurple':7 'grey78':0 'CTYellow':0 },200,{ chips  'CTRed':25 'CTGreen':0 'CTPurple':7 'grey78':0 'CTYellow':4 },180,false,,
3playersLog_1366798926627.csv,2,100,200,true,{ chips  'grey78':3 },{ chips  'CTRed':5 },FALSE,130,200,,,140,190,0,(R:4,C:3),{ chips  'CTRed':8 'CTGreen':0 'CTPurple':0 'grey78':10 'CTYellow':8 },130,{ chips  'CTRed':33 'CTGreen':0 'CTPurple':7 'grey78':0 'CTYellow':0 },200,{ chips  'CTRed':25 'CTGreen':0 'CTPurple':7 'grey78':0 'CTYellow':4 },180,false,,
3playersLog_1366798926627.csv,3,200,100,false,{ chips  'CTRed':16 },{ chips  'grey78':10 },IGNORED,200,145,,,170,175,6,(R:1,C:0),{ chips  'CTRed':18 'CTGreen':0 'CTPurple':0 'grey78':4 'CTYellow':1 },115,{ chips  'CTRed':33 'CTGreen':0 'CTPurple':7 'grey78':0 'CTYellow':0 },200,{ chips  'CTRed':15 'CTGreen':0 'CTPurple':7 'grey78':0 'CTYellow':11 },165,true,,
3playersLog_1366798926627.csv,3,300,100,false,{ chips  'CTRed':10 },{ chips  'CTYellow':7 },TRUE,180,130,{ chips  'CTRed':10 'CTPurple':0 'CTGreen':0 'grey78':0 'CTYellow':0 },{ chips  'CTRed':0 'CTPurple':0 'CTGreen':0 'grey78':0 'CTYellow':7 },165,145,6,(R:1,C:0),{ chips  'CTRed':18 'CTGreen':0 'CTPurple':0 'grey78':4 'CTYellow':1 },115,{ chips  'CTRed':33 'CTGreen':0 'CTPurple':7 'grey78':0 'CTYellow':0 },200,{ chips  'CTRed':15 'CTGreen':0 'CTPurple':7 'grey78':0 'CTYellow':11 },165,true,,
3playersLog_1366798926627.csv,4,100,200,true,{ chips  },{ chips  'CTRed':27 'CTPurple':7 },FALSE,115,200,,,285,30,0,(R:1,C:0),{ chips  'CTRed':18 'CTGreen':0 'CTPurple':0 'grey78':4 'CTYellow':1 },115,{ chips  'CTRed':33 'CTGreen':0 'CTPurple':7 'grey78':0 'CTYellow':0 },200,{ chips  'CTRed':15 'CTGreen':0 'CTPurple':7 'grey78':0 'CTYellow':11 },165,false,,
3playersLog_1366798926627.csv,5,200,100,false,{ chips  'CTRed':30 'CTPurple':3 'CTGreen':0 'grey78':0 'CTYellow':0 },{ chips  'CTRed':0 'CTPurple':0 'CTGreen':0 'grey78':4 'CTYellow':0 },FALSE,200,120,,,55,265,1,(R:0,C:0),{ chips  'CTRed':20 'CTGreen':0 'CTPurple':0 'grey78':3 'CTYellow':0 },265,{ chips  'CTRed':33 'CTGreen':0 'CTPurple':7 'grey78':0 'CTYellow':0 },200,{ chips  'CTRed':13 'CTGreen':0 'CTPurple':7 'grey78':0 'CTYellow':12 },310,true,,
3playersLog_1366798926627.csv,5,300,100,false,{ chips  'CTRed':2 'CTPurple':0 'CTGreen':0 'grey78':0 'CTYellow':0 },{ chips  'CTRed':0 'CTPurple':0 'CTGreen':0 'grey78':0 'CTYellow':1 },TRUE,165,115,{ chips  'CTRed':2 'CTPurple':0 'CTGreen':0 'grey78':0 'CTYellow':0 },{ chips  'CTRed':0 'CTPurple':0 'CTGreen':0 'grey78':0 'CTYellow':1 },160,120,1,(R:0,C:0),{ chips  'CTRed':20 'CTGreen':0 'CTPurple':0 'grey78':3 'CTYellow':0 },265,{ chips  'CTRed':33 'CTGreen':0 'CTPurple':7 'grey78':0 'CTYellow':0 },200,{ chips  'CTRed':13 'CTGreen':0 'CTPurple':7 'grey78':0 'CTYellow':12 },310,true,,
3playersLog_1366798926627.csv,,,,,,,,,,,,,,,,,,,,,,,,,TRUE
