Country,filename,round,propID,respID,IsPropCustomer,chipsToSend,chipsToReceive,accept,propCurrentScore,respCurrentScore,actualSent,ActualRcvd,propResultingScore,respResultingScore,#ofCustomerMovesInRound,customerRowPositionAfterMovePhase,customerColPositionAfterMovePhase,Player100ChipsAfterMovePhase,Player100ScoreAfterMovePhase,Player200ChipsAfterMovePhase,Player200ScoreAfterMovePhase,Player300ChipsAfterMovePhase,Player300ScoreAfterMovePhase,isCommitment,generosityLevel,ClientReachedGoal
Israel,3playersLog_1378880416013.csv,1,530,500,FALSE,{ chips  'CTRed':33 'CTPurple':7 },{ chips  'grey78':11 },TRUE,200,120,{ chips  'CTRed':33 'CTPurple':7 'CTYellow':0 },{ chips  'grey78':11 },55,265,1,(R:5,C:5),{ chips  'CTRed':33 'CTGreen':0 'CTPurple':7 'grey78':1 'CTYellow':11 },260,{ chips  'CTRed':0 'CTGreen':0 'CTPurple':0 'grey78':11 'CTYellow':0 },55,{ chips  'CTRed':33 'CTGreen':0 'CTPurple':7 'grey78':0 'CTYellow':0 },200,TRUE,,
Israel,3playersLog_1378880416013.csv,2,500,530,TRUE,{ chips  },{ chips  'grey78':5 },FALSE,255,55,,,280,30,2,(R:3,C:6),{ chips  'CTRed':33 'CTGreen':0 'CTPurple':7 'grey78':1 'CTYellow':8 },245,{ chips  'CTRed':0 'CTGreen':0 'CTPurple':0 'grey78':11 'CTYellow':0 },55,{ chips  'CTRed':33 'CTGreen':0 'CTPurple':7 'grey78':0 'CTYellow':0 },200,FALSE,,
Israel,3playersLog_1378880416013.csv,3,530,500,FALSE,{ chips  },{ chips  },IGNORED,55,245,,,55,245,1,(R:3,C:5),{ chips  'CTRed':45 'CTGreen':0 'CTPurple':6 'grey78':1 'CTYellow':8 },300,{ chips  'CTRed':0 'CTGreen':0 'CTPurple':0 'grey78':11 'CTYellow':0 },55,{ chips  'CTRed':21 'CTGreen':0 'CTPurple':7 'grey78':0 'CTYellow':0 },140,TRUE,,
Israel,3playersLog_1378880416013.csv,3,540,500,FALSE,{ chips  'CTRed':12 },{ chips  },TRUE,200,245,{ chips  'CTRed':12 'CTPurple':0 'CTGreen':0 'grey78':0 'CTYellow':0 },{ chips  'CTRed':0 'CTPurple':0 'CTGreen':0 'grey78':0 'CTYellow':0 },140,305,1,(R:3,C:5),{ chips  'CTRed':45 'CTGreen':0 'CTPurple':6 'grey78':1 'CTYellow':8 },300,{ chips  'CTRed':0 'CTGreen':0 'CTPurple':0 'grey78':11 'CTYellow':0 },55,{ chips  'CTRed':21 'CTGreen':0 'CTPurple':7 'grey78':0 'CTYellow':0 },140,FALSE,,
Israel,3playersLog_1378880416013.csv,4,500,540,TRUE,{ chips  },{ chips  'CTRed':8 },TRUE,300,55,{ chips  'CTRed':0 'CTPurple':0 'CTGreen':0 'grey78':0 'CTYellow':0 },{ chips  'CTRed':8 'CTPurple':0 'CTGreen':0 'grey78':0 'CTYellow':0 },340,100,1,(R:3,C:4),{ chips  'CTRed':53 'CTGreen':0 'CTPurple':5 'grey78':1 'CTYellow':8 },335,{ chips  'CTRed':0 'CTGreen':0 'CTPurple':0 'grey78':11 'CTYellow':0 },55,{ chips  'CTRed':13 'CTGreen':0 'CTPurple':7 'grey78':0 'CTYellow':0 },100,FALSE,,
Israel,3playersLog_1378880416013.csv,5,530,500,FALSE,{ chips  },{ chips  },TRUE,55,335,{ chips  'CTRed':0 'CTPurple':0 'CTYellow':0 },{ chips  'grey78':0 },55,335,7,(R:0,C:8),{ chips  'CTRed':53 'CTGreen':0 'CTPurple':4 'grey78':1 'CTYellow':2 },450,{ chips  'CTRed':0 'CTGreen':0 'CTPurple':0 'grey78':11 'CTYellow':0 },205,{ chips  'CTRed':13 'CTGreen':0 'CTPurple':7 'grey78':0 'CTYellow':0 },100,TRUE,,
Israel,3playersLog_1378880416013.csv,5,540,500,FALSE,{ chips  'CTRed':2 },{ chips  'CTYellow':4 },IGNORED,100,335,,,110,325,7,(R:0,C:8),{ chips  'CTRed':53 'CTGreen':0 'CTPurple':4 'grey78':1 'CTYellow':2 },450,{ chips  'CTRed':0 'CTGreen':0 'CTPurple':0 'grey78':11 'CTYellow':0 },205,{ chips  'CTRed':13 'CTGreen':0 'CTPurple':7 'grey78':0 'CTYellow':0 },100,FALSE,,
Israel,3playersLog_1378880416013.csv,5,540,500,FALSE,{ chips  'CTRed':2 },{ chips  'CTYellow':4 },IGNORED,100,335,,,110,325,7,(R:0,C:8),{ chips  'CTRed':53 'CTGreen':0 'CTPurple':4 'grey78':1 'CTYellow':2 },450,{ chips  'CTRed':0 'CTGreen':0 'CTPurple':0 'grey78':11 'CTYellow':0 },205,{ chips  'CTRed':13 'CTGreen':0 'CTPurple':7 'grey78':0 'CTYellow':0 },100,FALSE,,TRUE
Israel,3playersLog_1378880422374.csv,1,530,500,FALSE,{ chips  'CTRed':33 'CTPurple':7 },{ chips  'grey78':11 },TRUE,200,120,{ chips  'CTRed':33 'CTPurple':7 'CTYellow':0 },{ chips  'grey78':11 },55,265,0,(R:5,C:4),{ chips  'CTRed':33 'CTGreen':0 'CTPurple':7 'grey78':1 'CTYellow':12 },265,{ chips  'CTRed':0 'CTGreen':0 'CTPurple':0 'grey78':11 'CTYellow':0 },55,{ chips  'CTRed':33 'CTGreen':0 'CTPurple':7 'grey78':0 'CTYellow':0 },200,TRUE,,
Israel,3playersLog_1378880422374.csv,2,500,530,TRUE,{ chips  'grey78':1 },{ chips  },TRUE,265,55,{ chips  'CTRed':0 'CTPurple':0 'CTGreen':0 'grey78':1 'CTYellow':0 },{ chips  'CTRed':0 'CTPurple':0 'CTGreen':0 'grey78':0 'CTYellow':0 },260,60,9,(R:0,C:8),{ chips  'CTRed':33 'CTGreen':0 'CTPurple':5 'grey78':0 'CTYellow':5 },365,{ chips  'CTRed':0 'CTGreen':0 'CTPurple':0 'grey78':12 'CTYellow':0 },210,{ chips  'CTRed':33 'CTGreen':0 'CTPurple':7 'grey78':0 'CTYellow':0 },200,TRUE,,
Israel,3playersLog_1378880422374.csv,2,500,530,TRUE,{ chips  'grey78':1 },{ chips  },TRUE,265,55,{ chips  'CTRed':0 'CTPurple':0 'CTGreen':0 'grey78':1 'CTYellow':0 },{ chips  'CTRed':0 'CTPurple':0 'CTGreen':0 'grey78':0 'CTYellow':0 },260,60,9,(R:0,C:8),{ chips  'CTRed':33 'CTGreen':0 'CTPurple':5 'grey78':0 'CTYellow':5 },365,{ chips  'CTRed':0 'CTGreen':0 'CTPurple':0 'grey78':12 'CTYellow':0 },210,{ chips  'CTRed':33 'CTGreen':0 'CTPurple':7 'grey78':0 'CTYellow':0 },200,TRUE,,TRUE
Israel,3playersLog_1378880443387.csv,1,530,500,FALSE,{ chips  'CTRed':33 'CTPurple':7 },{ chips  'grey78':11 },FALSE,200,120,,,55,265,0,(R:5,C:4),{ chips  'CTRed':0 'CTGreen':0 'CTPurple':0 'grey78':12 'CTYellow':12 },120,{ chips  'CTRed':33 'CTGreen':0 'CTPurple':7 'grey78':0 'CTYellow':0 },200,{ chips  'CTRed':33 'CTGreen':0 'CTPurple':7 'grey78':0 'CTYellow':0 },200,TRUE,,
Israel,3playersLog_1378880443387.csv,1,540,500,FALSE,{ chips  'CTRed':12 'CTPurple':2 },{ chips  'grey78':12 'CTYellow':4 },FALSE,200,120,,,210,110,0,(R:5,C:4),{ chips  'CTRed':0 'CTGreen':0 'CTPurple':0 'grey78':12 'CTYellow':12 },120,{ chips  'CTRed':33 'CTGreen':0 'CTPurple':7 'grey78':0 'CTYellow':0 },200,{ chips  'CTRed':33 'CTGreen':0 'CTPurple':7 'grey78':0 'CTYellow':0 },200,FALSE,,
Israel,3playersLog_1378880443387.csv,2,500,530,TRUE,{ chips  'CTYellow':4 },{ chips  'CTRed':3 'CTPurple':3 },FALSE,120,200,,,130,190,9,(R:0,C:0),{ chips  'CTRed':0 'CTGreen':0 'CTPurple':0 'grey78':3 'CTYellow':12 },225,{ chips  'CTRed':33 'CTGreen':0 'CTPurple':7 'grey78':0 'CTYellow':0 },200,{ chips  'CTRed':33 'CTGreen':0 'CTPurple':7 'grey78':0 'CTYellow':0 },350,FALSE,,
Israel,3playersLog_1378880443387.csv,2,500,530,TRUE,{ chips  'CTYellow':4 },{ chips  'CTRed':3 'CTPurple':3 },FALSE,120,200,,,130,190,9,(R:0,C:0),{ chips  'CTRed':0 'CTGreen':0 'CTPurple':0 'grey78':3 'CTYellow':12 },225,{ chips  'CTRed':33 'CTGreen':0 'CTPurple':7 'grey78':0 'CTYellow':0 },200,{ chips  'CTRed':33 'CTGreen':0 'CTPurple':7 'grey78':0 'CTYellow':0 },350,FALSE,,TRUE
Israel,3playersLog_1378972008630.csv,1,530,500,FALSE,{ chips  'CTRed':33 'CTPurple':7 },{ chips  'grey78':11 },IGNORED,200,120,,,55,265,0,(R:5,C:4),{ chips  'CTRed':0 'CTGreen':0 'CTPurple':0 'grey78':12 'CTYellow':12 },120,{ chips  'CTRed':33 'CTGreen':0 'CTPurple':7 'grey78':0 'CTYellow':0 },200,{ chips  'CTRed':33 'CTGreen':0 'CTPurple':7 'grey78':0 'CTYellow':0 },200,TRUE,,
Israel,3playersLog_1378972008630.csv,1,540,500,FALSE,{ chips  'CTPurple':2 },{ chips  'CTYellow':1 },IGNORED,200,120,,,195,125,0,(R:5,C:4),{ chips  'CTRed':0 'CTGreen':0 'CTPurple':0 'grey78':12 'CTYellow':12 },120,{ chips  'CTRed':33 'CTGreen':0 'CTPurple':7 'grey78':0 'CTYellow':0 },200,{ chips  'CTRed':33 'CTGreen':0 'CTPurple':7 'grey78':0 'CTYellow':0 },200,FALSE,,
Israel,3playersLog_1378972008630.csv,2,500,540,TRUE,{ chips  'CTYellow':1 },{ chips  'CTPurple':3 },TRUE,120,200,{ chips  'CTRed':0 'CTPurple':0 'CTGreen':0 'grey78':0 'CTYellow':1 },{ chips  'CTRed':0 'CTPurple':3 'CTGreen':0 'grey78':0 'CTYellow':0 },130,190,1,(R:5,C:3),{ chips  'CTRed':0 'CTGreen':0 'CTPurple':3 'grey78':11 'CTYellow':11 },125,{ chips  'CTRed':33 'CTGreen':0 'CTPurple':7 'grey78':0 'CTYellow':0 },200,{ chips  'CTRed':33 'CTGreen':0 'CTPurple':4 'grey78':0 'CTYellow':1 },190,FALSE,,
Israel,3playersLog_1378972008630.csv,3,530,500,FALSE,{ chips  'CTRed':33 'CTPurple':6 },{ chips  'grey78':10 },FALSE,200,125,,,55,270,0,(R:5,C:3),{ chips  'CTRed':0 'CTGreen':0 'CTPurple':3 'grey78':11 'CTYellow':11 },125,{ chips  'CTRed':33 'CTGreen':0 'CTPurple':7 'grey78':0 'CTYellow':0 },200,{ chips  'CTRed':33 'CTGreen':0 'CTPurple':4 'grey78':0 'CTYellow':1 },190,TRUE,,
Israel,3playersLog_1378972008630.csv,3,540,500,FALSE,{ chips  'CTRed':23 },{ chips  'CTYellow':11 },FALSE,190,125,,,130,185,0,(R:5,C:3),{ chips  'CTRed':0 'CTGreen':0 'CTPurple':3 'grey78':11 'CTYellow':11 },125,{ chips  'CTRed':33 'CTGreen':0 'CTPurple':7 'grey78':0 'CTYellow':0 },200,{ chips  'CTRed':33 'CTGreen':0 'CTPurple':4 'grey78':0 'CTYellow':1 },190,TRUE,,
Israel,3playersLog_1378972008630.csv,4,500,540,TRUE,{ chips  'CTYellow':3 },{ chips  'CTRed':12 'CTPurple':2 },FALSE,120,190,,,175,135,1,(R:4,C:2),{ chips  'CTRed':0 'CTGreen':0 'CTPurple':3 'grey78':9 'CTYellow':11 },115,{ chips  'CTRed':33 'CTGreen':0 'CTPurple':7 'grey78':0 'CTYellow':0 },200,{ chips  'CTRed':33 'CTGreen':0 'CTPurple':4 'grey78':0 'CTYellow':1 },190,FALSE,,
Israel,3playersLog_1378972008630.csv,5,530,500,FALSE,{ chips  'CTRed':33 'CTPurple':4 },{ chips  'grey78':8 },FALSE,200,115,,,55,260,1,(R:3,C:2),{ chips  'CTRed':0 'CTGreen':0 'CTPurple':3 'grey78':8 'CTYellow':11 },110,{ chips  'CTRed':33 'CTGreen':0 'CTPurple':7 'grey78':0 'CTYellow':0 },200,{ chips  'CTRed':33 'CTGreen':0 'CTPurple':4 'grey78':0 'CTYellow':1 },190,TRUE,,
Israel,3playersLog_1378972008630.csv,5,540,500,FALSE,{ chips  'CTRed':13 },{ chips  'CTYellow':5 },FALSE,190,115,,,150,155,1,(R:3,C:2),{ chips  'CTRed':0 'CTGreen':0 'CTPurple':3 'grey78':8 'CTYellow':11 },110,{ chips  'CTRed':33 'CTGreen':0 'CTPurple':7 'grey78':0 'CTYellow':0 },200,{ chips  'CTRed':33 'CTGreen':0 'CTPurple':4 'grey78':0 'CTYellow':1 },190,FALSE,,
Israel,3playersLog_1378972008630.csv,6,500,530,TRUE,{ chips  'grey78':3 },{ chips  'CTRed':12 'CTPurple':3 },IGNORED,110,200,,,170,140,0,(R:3,C:2),{ chips  'CTRed':0 'CTGreen':0 'CTPurple':3 'grey78':8 'CTYellow':11 },110,{ chips  'CTRed':33 'CTGreen':0 'CTPurple':7 'grey78':0 'CTYellow':0 },200,{ chips  'CTRed':33 'CTGreen':0 'CTPurple':4 'grey78':0 'CTYellow':1 },190,FALSE,,
Israel,3playersLog_1378972008630.csv,7,530,500,FALSE,{ chips  'CTRed':33 'CTPurple':4 },{ chips  'grey78':8 },FALSE,200,110,,,55,255,1,(R:3,C:3),{ chips  'CTRed':0 'CTGreen':0 'CTPurple':2 'grey78':8 'CTYellow':11 },105,{ chips  'CTRed':33 'CTGreen':0 'CTPurple':7 'grey78':0 'CTYellow':0 },200,{ chips  'CTRed':33 'CTGreen':0 'CTPurple':4 'grey78':0 'CTYellow':1 },190,TRUE,,
Israel,3playersLog_1378972008630.csv,7,540,500,FALSE,{ chips  'CTRed':25 'CTPurple':1 },{ chips  'CTYellow':10 },FALSE,190,110,,,110,190,1,(R:3,C:3),{ chips  'CTRed':0 'CTGreen':0 'CTPurple':2 'grey78':8 'CTYellow':11 },105,{ chips  'CTRed':33 'CTGreen':0 'CTPurple':7 'grey78':0 'CTYellow':0 },200,{ chips  'CTRed':33 'CTGreen':0 'CTPurple':4 'grey78':0 'CTYellow':1 },190,TRUE,,
Israel,3playersLog_1378972008630.csv,8,500,540,TRUE,{ chips  'CTYellow':6 },{ chips  'CTRed':10 'CTPurple':3 },IGNORED,105,190,,,140,155,1,(R:3,C:4),{ chips  'CTRed':0 'CTGreen':0 'CTPurple':1 'grey78':8 'CTYellow':11 },100,{ chips  'CTRed':33 'CTGreen':0 'CTPurple':7 'grey78':0 'CTYellow':0 },200,{ chips  'CTRed':33 'CTGreen':0 'CTPurple':4 'grey78':0 'CTYellow':1 },190,FALSE,,
Israel,3playersLog_1378972008630.csv,9,530,500,FALSE,{ chips  'CTRed':33 'CTPurple':4 },{ chips  'grey78':8 },FALSE,200,100,,,55,245,1,(R:3,C:5),{ chips  'CTRed':0 'CTGreen':0 'CTPurple':0 'grey78':8 'CTYellow':11 },95,{ chips  'CTRed':33 'CTGreen':0 'CTPurple':7 'grey78':0 'CTYellow':0 },200,{ chips  'CTRed':33 'CTGreen':0 'CTPurple':4 'grey78':0 'CTYellow':1 },190,TRUE,,
Israel,3playersLog_1378972008630.csv,9,540,500,FALSE,{ chips  'CTRed':33 'CTPurple':2 },{ chips  'CTYellow':11 },FALSE,190,100,,,70,220,1,(R:3,C:5),{ chips  'CTRed':0 'CTGreen':0 'CTPurple':0 'grey78':8 'CTYellow':11 },95,{ chips  'CTRed':33 'CTGreen':0 'CTPurple':7 'grey78':0 'CTYellow':0 },200,{ chips  'CTRed':33 'CTGreen':0 'CTPurple':4 'grey78':0 'CTYellow':1 },190,TRUE,,
Israel,3playersLog_1378972008630.csv,10,500,530,TRUE,{ chips  'grey78':6 },{ chips  'CTPurple':3 },IGNORED,95,200,,,80,215,1,(R:3,C:6),{ chips  'CTRed':0 'CTGreen':0 'CTPurple':0 'grey78':8 'CTYellow':10 },90,{ chips  'CTRed':33 'CTGreen':0 'CTPurple':7 'grey78':0 'CTYellow':0 },200,{ chips  'CTRed':33 'CTGreen':0 'CTPurple':4 'grey78':0 'CTYellow':1 },190,FALSE,,
Israel,3playersLog_1378972008630.csv,11,530,500,FALSE,{ chips  'CTRed':33 'CTPurple':4 },{ chips  'grey78':8 },FALSE,200,90,,,55,235,0,(R:3,C:6),{ chips  'CTRed':0 'CTGreen':0 'CTPurple':0 'grey78':8 'CTYellow':10 },90,{ chips  'CTRed':33 'CTGreen':0 'CTPurple':7 'grey78':0 'CTYellow':0 },200,{ chips  'CTRed':33 'CTGreen':0 'CTPurple':4 'grey78':0 'CTYellow':1 },190,TRUE,,
Israel,3playersLog_1378972008630.csv,11,540,500,FALSE,{ chips  'CTPurple':1 },{ chips  'grey78':8 'CTYellow':10 },FALSE,190,90,,,275,5,0,(R:3,C:6),{ chips  'CTRed':0 'CTGreen':0 'CTPurple':0 'grey78':8 'CTYellow':10 },90,{ chips  'CTRed':33 'CTGreen':0 'CTPurple':7 'grey78':0 'CTYellow':0 },200,{ chips  'CTRed':33 'CTGreen':0 'CTPurple':4 'grey78':0 'CTYellow':1 },190,TRUE,,
Israel,3playersLog_1378972008630.csv,12,500,540,TRUE,{ chips  'CTYellow':8 },{ chips  'CTRed':33 'CTPurple':3 },FALSE,90,190,,,230,50,2,(R:2,C:7),{ chips  'CTRed':0 'CTGreen':0 'CTPurple':0 'grey78':8 'CTYellow':8 },80,{ chips  'CTRed':33 'CTGreen':0 'CTPurple':7 'grey78':0 'CTYellow':0 },200,{ chips  'CTRed':33 'CTGreen':0 'CTPurple':4 'grey78':0 'CTYellow':1 },190,FALSE,,
Israel,3playersLog_1378972008630.csv,13,530,500,FALSE,{ chips  'CTRed':33 'CTPurple':4 },{ chips  'grey78':8 },TRUE,200,75,{ chips  'CTRed':33 'CTPurple':4 'CTYellow':0 },{ chips  'grey78':8 },55,220,2,(R:0,C:8),{ chips  'CTRed':33 'CTGreen':0 'CTPurple':4 'grey78':0 'CTYellow':5 },360,{ chips  'CTRed':0 'CTGreen':0 'CTPurple':3 'grey78':8 'CTYellow':0 },205,{ chips  'CTRed':33 'CTGreen':0 'CTPurple':4 'grey78':0 'CTYellow':1 },190,TRUE,,
Israel,3playersLog_1378972008630.csv,13,530,500,FALSE,{ chips  'CTRed':33 'CTPurple':4 },{ chips  'grey78':8 },TRUE,200,75,{ chips  'CTRed':33 'CTPurple':4 'CTYellow':0 },{ chips  'grey78':8 },55,220,2,(R:0,C:8),{ chips  'CTRed':33 'CTGreen':0 'CTPurple':4 'grey78':0 'CTYellow':5 },360,{ chips  'CTRed':0 'CTGreen':0 'CTPurple':3 'grey78':8 'CTYellow':0 },205,{ chips  'CTRed':33 'CTGreen':0 'CTPurple':4 'grey78':0 'CTYellow':1 },190,TRUE,,TRUE
Israel,3playersLog_1378975781675.csv,1,530,500,FALSE,{ chips  'CTRed':33 'CTPurple':7 },{ chips  'grey78':11 },IGNORED,200,120,,,55,265,0,(R:5,C:4),{ chips  'CTRed':10 'CTGreen':0 'CTPurple':2 'grey78':11 'CTYellow':12 },175,{ chips  'CTRed':33 'CTGreen':0 'CTPurple':7 'grey78':0 'CTYellow':0 },200,{ chips  'CTRed':23 'CTGreen':0 'CTPurple':5 'grey78':1 'CTYellow':0 },145,TRUE,,
Israel,3playersLog_1378975781675.csv,1,540,500,FALSE,{ chips  'CTRed':10 'CTPurple':2 },{ chips  'grey78':1 },TRUE,200,120,{ chips  'CTRed':10 'CTPurple':2 'CTGreen':0 'grey78':0 'CTYellow':0 },{ chips  'CTRed':0 'CTPurple':0 'CTGreen':0 'grey78':1 'CTYellow':0 },145,175,0,(R:5,C:4),{ chips  'CTRed':10 'CTGreen':0 'CTPurple':2 'grey78':11 'CTYellow':12 },175,{ chips  'CTRed':33 'CTGreen':0 'CTPurple':7 'grey78':0 'CTYellow':0 },200,{ chips  'CTRed':23 'CTGreen':0 'CTPurple':5 'grey78':1 'CTYellow':0 },145,FALSE,,
Israel,3playersLog_1378975781675.csv,2,500,540,TRUE,{ chips  'grey78':3 },{ chips  'CTRed':5 'CTPurple':2 },TRUE,175,200,{ chips  'CTRed':0 'CTPurple':0 'CTGreen':0 'grey78':3 'CTYellow':0 },{ chips  'CTRed':5 'CTPurple':2 'CTGreen':0 'grey78':0 'CTYellow':0 },195,125,9,(R:0,C:8),{ chips  'CTRed':15 'CTGreen':0 'CTPurple':4 'grey78':8 'CTYellow':3 },300,{ chips  'CTRed':33 'CTGreen':0 'CTPurple':7 'grey78':0 'CTYellow':0 },350,{ chips  'CTRed':18 'CTGreen':0 'CTPurple':3 'grey78':4 'CTYellow':0 },125,FALSE,,
Israel,3playersLog_1378975781675.csv,2,500,540,TRUE,{ chips  'grey78':3 },{ chips  'CTRed':5 'CTPurple':2 },TRUE,175,200,{ chips  'CTRed':0 'CTPurple':0 'CTGreen':0 'grey78':3 'CTYellow':0 },{ chips  'CTRed':5 'CTPurple':2 'CTGreen':0 'grey78':0 'CTYellow':0 },195,125,9,(R:0,C:8),{ chips  'CTRed':15 'CTGreen':0 'CTPurple':4 'grey78':8 'CTYellow':3 },300,{ chips  'CTRed':33 'CTGreen':0 'CTPurple':7 'grey78':0 'CTYellow':0 },350,{ chips  'CTRed':18 'CTGreen':0 'CTPurple':3 'grey78':4 'CTYellow':0 },125,FALSE,,TRUE
Israel,3playersLog_1378976067161.csv,1,530,500,FALSE,{ chips  'CTRed':33 'CTPurple':7 },{ chips  'grey78':11 },FALSE,200,120,,,55,265,0,(R:5,C:4),{ chips  'CTRed':0 'CTGreen':0 'CTPurple':0 'grey78':12 'CTYellow':12 },120,{ chips  'CTRed':33 'CTGreen':0 'CTPurple':7 'grey78':0 'CTYellow':0 },200,{ chips  'CTRed':33 'CTGreen':0 'CTPurple':7 'grey78':0 'CTYellow':0 },200,TRUE,,
Israel,3playersLog_1378976067161.csv,1,540,500,FALSE,{ chips  'CTRed':8 },{ chips  'CTYellow':6 },FALSE,200,120,,,190,130,0,(R:5,C:4),{ chips  'CTRed':0 'CTGreen':0 'CTPurple':0 'grey78':12 'CTYellow':12 },120,{ chips  'CTRed':33 'CTGreen':0 'CTPurple':7 'grey78':0 'CTYellow':0 },200,{ chips  'CTRed':33 'CTGreen':0 'CTPurple':7 'grey78':0 'CTYellow':0 },200,FALSE,,
Israel,3playersLog_1378976067161.csv,2,500,530,TRUE,{ chips  'grey78':2 },{ chips  },TRUE,120,200,{ chips  'CTRed':0 'CTPurple':0 'CTGreen':0 'grey78':2 'CTYellow':0 },{ chips  'CTRed':0 'CTPurple':0 'CTGreen':0 'grey78':0 'CTYellow':0 },110,210,1,(R:5,C:5),{ chips  'CTRed':0 'CTGreen':0 'CTPurple':0 'grey78':10 'CTYellow':11 },105,{ chips  'CTRed':33 'CTGreen':0 'CTPurple':7 'grey78':2 'CTYellow':0 },210,{ chips  'CTRed':33 'CTGreen':0 'CTPurple':7 'grey78':0 'CTYellow':0 },200,FALSE,,
Israel,3playersLog_1378976067161.csv,3,530,500,FALSE,{ chips  'CTRed':33 'CTPurple':6 },{ chips  'grey78':10 },FALSE,210,105,,,65,250,1,(R:4,C:5),{ chips  'CTRed':0 'CTGreen':0 'CTPurple':0 'grey78':10 'CTYellow':10 },100,{ chips  'CTRed':33 'CTGreen':0 'CTPurple':7 'grey78':2 'CTYellow':0 },210,{ chips  'CTRed':33 'CTGreen':0 'CTPurple':7 'grey78':0 'CTYellow':0 },200,TRUE,,
Israel,3playersLog_1378976067161.csv,3,540,500,FALSE,{ chips  'CTRed':2 },{ chips  'CTYellow':5 },FALSE,200,105,,,215,90,1,(R:4,C:5),{ chips  'CTRed':0 'CTGreen':0 'CTPurple':0 'grey78':10 'CTYellow':10 },100,{ chips  'CTRed':33 'CTGreen':0 'CTPurple':7 'grey78':2 'CTYellow':0 },210,{ chips  'CTRed':33 'CTGreen':0 'CTPurple':7 'grey78':0 'CTYellow':0 },200,FALSE,,
Israel,3playersLog_1378976067161.csv,4,500,530,TRUE,{ chips  'grey78':1 },{ chips  'CTRed':33 'CTPurple':4 },FALSE,100,210,,,280,30,1,(R:5,C:5),{ chips  'CTRed':0 'CTGreen':0 'CTPurple':0 'grey78':10 'CTYellow':9 },95,{ chips  'CTRed':33 'CTGreen':0 'CTPurple':7 'grey78':2 'CTYellow':0 },210,{ chips  'CTRed':33 'CTGreen':0 'CTPurple':7 'grey78':0 'CTYellow':0 },200,FALSE,,
Israel,3playersLog_1378976067161.csv,5,530,500,FALSE,{ chips  'CTRed':33 'CTPurple':6 },{ chips  'grey78':10 },TRUE,210,95,{ chips  'CTRed':33 'CTPurple':6 'CTYellow':0 },{ chips  'grey78':10 },65,240,1,(R:4,C:5),{ chips  'CTRed':33 'CTGreen':0 'CTPurple':6 'grey78':0 'CTYellow':8 },235,{ chips  'CTRed':0 'CTGreen':0 'CTPurple':1 'grey78':12 'CTYellow':0 },65,{ chips  'CTRed':33 'CTGreen':0 'CTPurple':7 'grey78':0 'CTYellow':0 },200,TRUE,,
Israel,3playersLog_1378976067161.csv,6,500,530,TRUE,{ chips  'CTRed':6 'CTPurple':1 },{ chips  'grey78':3 },TRUE,235,65,{ chips  'CTRed':6 'CTPurple':1 'CTGreen':0 'grey78':0 'CTYellow':0 },{ chips  'CTRed':0 'CTPurple':0 'CTGreen':0 'grey78':3 'CTYellow':0 },215,85,2,(R:3,C:4),{ chips  'CTRed':27 'CTGreen':0 'CTPurple':3 'grey78':3 'CTYellow':8 },205,{ chips  'CTRed':6 'CTGreen':0 'CTPurple':2 'grey78':9 'CTYellow':0 },85,{ chips  'CTRed':33 'CTGreen':0 'CTPurple':7 'grey78':0 'CTYellow':0 },200,FALSE,,
Israel,3playersLog_1378976067161.csv,7,530,500,FALSE,{ chips  'CTRed':6 'CTPurple':2 },{ chips  'grey78':2 },FALSE,85,205,,,55,235,1,(R:3,C:3),{ chips  'CTRed':27 'CTGreen':0 'CTPurple':2 'grey78':3 'CTYellow':8 },200,{ chips  'CTRed':6 'CTGreen':0 'CTPurple':2 'grey78':9 'CTYellow':0 },85,{ chips  'CTRed':33 'CTGreen':0 'CTPurple':7 'grey78':0 'CTYellow':0 },200,TRUE,,
Israel,3playersLog_1378976067161.csv,7,540,500,FALSE,{ chips  'CTRed':8 },{ chips  'CTYellow':8 },FALSE,200,205,,,200,205,1,(R:3,C:3),{ chips  'CTRed':27 'CTGreen':0 'CTPurple':2 'grey78':3 'CTYellow':8 },200,{ chips  'CTRed':6 'CTGreen':0 'CTPurple':2 'grey78':9 'CTYellow':0 },85,{ chips  'CTRed':33 'CTGreen':0 'CTPurple':7 'grey78':0 'CTYellow':0 },200,TRUE,,
Israel,3playersLog_1378976067161.csv,8,500,540,TRUE,{ chips  'grey78':1 'CTYellow':2 },{ chips  'CTRed':18 'CTPurple':1 },FALSE,200,200,,,280,120,2,(R:3,C:5),{ chips  'CTRed':27 'CTGreen':0 'CTPurple':0 'grey78':3 'CTYellow':8 },190,{ chips  'CTRed':6 'CTGreen':0 'CTPurple':2 'grey78':9 'CTYellow':0 },85,{ chips  'CTRed':33 'CTGreen':0 'CTPurple':7 'grey78':0 'CTYellow':0 },200,FALSE,,
Israel,3playersLog_1378976067161.csv,9,530,500,FALSE,{ chips  'CTRed':6 'CTPurple':2 },{ chips  'grey78':2 },IGNORED,85,190,,,55,220,1,(R:3,C:6),{ chips  'CTRed':37 'CTGreen':0 'CTPurple':0 'grey78':3 'CTYellow':4 },220,{ chips  'CTRed':6 'CTGreen':0 'CTPurple':2 'grey78':9 'CTYellow':0 },85,{ chips  'CTRed':23 'CTGreen':0 'CTPurple':7 'grey78':0 'CTYellow':3 },165,TRUE,,
Israel,3playersLog_1378976067161.csv,9,540,500,FALSE,{ chips  'CTRed':10 },{ chips  'CTYellow':3 },TRUE,200,190,{ chips  'CTRed':10 'CTPurple':0 'CTGreen':0 'grey78':0 'CTYellow':0 },{ chips  'CTRed':0 'CTPurple':0 'CTGreen':0 'grey78':0 'CTYellow':3 },165,225,1,(R:3,C:6),{ chips  'CTRed':37 'CTGreen':0 'CTPurple':0 'grey78':3 'CTYellow':4 },220,{ chips  'CTRed':6 'CTGreen':0 'CTPurple':2 'grey78':9 'CTYellow':0 },85,{ chips  'CTRed':23 'CTGreen':0 'CTPurple':7 'grey78':0 'CTYellow':3 },165,FALSE,,
Israel,3playersLog_1378976067161.csv,10,500,540,TRUE,{ chips  'CTYellow':1 },{ chips  'CTRed':6 'CTPurple':4 },TRUE,220,85,{ chips  'CTRed':0 'CTPurple':0 'CTGreen':0 'grey78':0 'CTYellow':1 },{ chips  'CTRed':6 'CTPurple':4 'CTGreen':0 'grey78':0 'CTYellow':0 },265,120,1,(R:3,C:5),{ chips  'CTRed':43 'CTGreen':0 'CTPurple':3 'grey78':3 'CTYellow':3 },260,{ chips  'CTRed':6 'CTGreen':0 'CTPurple':2 'grey78':9 'CTYellow':0 },85,{ chips  'CTRed':17 'CTGreen':0 'CTPurple':3 'grey78':0 'CTYellow':4 },120,TRUE,,
Israel,3playersLog_1378976067161.csv,11,530,500,FALSE,{ chips  },{ chips  },TRUE,85,255,{ chips  'grey78':0 },{ chips  'CTRed':0 'CTPurple':0 },85,255,3,(R:3,C:7),{ chips  'CTRed':43 'CTGreen':0 'CTPurple':1 'grey78':3 'CTYellow':1 },240,{ chips  'CTRed':6 'CTGreen':0 'CTPurple':2 'grey78':9 'CTYellow':0 },85,{ chips  'CTRed':17 'CTGreen':0 'CTPurple':3 'grey78':0 'CTYellow':4 },120,TRUE,,
Israel,3playersLog_1378976067161.csv,11,540,500,FALSE,{ chips  'CTRed':5 },{ chips  'CTRed':15 'CTPurple':2 'CTYellow':1 },IGNORED,120,255,,,185,190,3,(R:3,C:7),{ chips  'CTRed':43 'CTGreen':0 'CTPurple':1 'grey78':3 'CTYellow':1 },240,{ chips  'CTRed':6 'CTGreen':0 'CTPurple':2 'grey78':9 'CTYellow':0 },85,{ chips  'CTRed':17 'CTGreen':0 'CTPurple':3 'grey78':0 'CTYellow':4 },120,TRUE,,
Israel,3playersLog_1378976067161.csv,12,500,530,TRUE,{ chips  'CTRed':4 'grey78':1 },{ chips  'CTRed':6 'CTPurple':2 },TRUE,240,85,{ chips  'CTRed':4 'CTPurple':0 'CTGreen':0 'grey78':1 'CTYellow':0 },{ chips  'CTRed':6 'CTPurple':2 'CTGreen':0 'grey78':0 'CTYellow':0 },255,70,4,(R:1,C:5),{ chips  'CTRed':45 'CTGreen':0 'CTPurple':0 'grey78':2 'CTYellow':0 },235,{ chips  'CTRed':4 'CTGreen':0 'CTPurple':0 'grey78':10 'CTYellow':0 },70,{ chips  'CTRed':17 'CTGreen':0 'CTPurple':3 'grey78':0 'CTYellow':4 },120,TRUE,,
Israel,3playersLog_1378976067161.csv,13,530,500,FALSE,{ chips  },{ chips  },TRUE,70,235,{ chips  'grey78':0 },{ chips  'CTRed':0 'CTPurple':0 },70,235,0,(R:1,C:5),{ chips  'CTRed':45 'CTGreen':0 'CTPurple':0 'grey78':2 'CTYellow':0 },235,{ chips  'CTRed':4 'CTGreen':0 'CTPurple':0 'grey78':10 'CTYellow':0 },70,{ chips  'CTRed':17 'CTGreen':0 'CTPurple':3 'grey78':0 'CTYellow':4 },120,TRUE,,
Israel,3playersLog_1378976067161.csv,13,540,500,FALSE,{ chips  'CTPurple':1 'CTYellow':1 },{ chips  'CTRed':10 },FALSE,120,235,,,160,195,0,(R:1,C:5),{ chips  'CTRed':45 'CTGreen':0 'CTPurple':0 'grey78':2 'CTYellow':0 },235,{ chips  'CTRed':4 'CTGreen':0 'CTPurple':0 'grey78':10 'CTYellow':0 },70,{ chips  'CTRed':17 'CTGreen':0 'CTPurple':3 'grey78':0 'CTYellow':4 },120,TRUE,,
Israel,3playersLog_1378976067161.csv,14,500,540,TRUE,{ chips  'CTRed':3 'grey78':2 },{ chips  'CTRed':6 'CTPurple':3 },FALSE,235,120,,,255,100,0,(R:1,C:5),{ chips  'CTRed':45 'CTGreen':0 'CTPurple':0 'grey78':2 'CTYellow':0 },235,{ chips  'CTRed':4 'CTGreen':0 'CTPurple':0 'grey78':10 'CTYellow':0 },70,{ chips  'CTRed':17 'CTGreen':0 'CTPurple':3 'grey78':0 'CTYellow':4 },120,TRUE,,
Israel,3playersLog_1378976067161.csv,14,500,540,TRUE,{ chips  'CTRed':3 'grey78':2 },{ chips  'CTRed':6 'CTPurple':3 },FALSE,235,120,,,255,100,0,(R:1,C:5),{ chips  'CTRed':45 'CTGreen':0 'CTPurple':0 'grey78':2 'CTYellow':0 },235,{ chips  'CTRed':4 'CTGreen':0 'CTPurple':0 'grey78':10 'CTYellow':0 },70,{ chips  'CTRed':17 'CTGreen':0 'CTPurple':3 'grey78':0 'CTYellow':4 },120,TRUE,,FALSE
Israel,3playersLog_1378976168801.csv,1,530,500,FALSE,{ chips  'CTRed':33 'CTPurple':7 },{ chips  'grey78':11 },TRUE,200,120,{ chips  'CTRed':33 'CTPurple':7 'CTYellow':0 },{ chips  'grey78':11 },55,265,1,(R:5,C:5),{ chips  'CTRed':33 'CTGreen':0 'CTPurple':7 'grey78':1 'CTYellow':11 },260,{ chips  'CTRed':0 'CTGreen':0 'CTPurple':0 'grey78':11 'CTYellow':0 },55,{ chips  'CTRed':33 'CTGreen':0 'CTPurple':7 'grey78':0 'CTYellow':0 },200,TRUE,,
Israel,3playersLog_1378976168801.csv,1,540,500,FALSE,{ chips  'CTPurple':4 },{ chips  'CTYellow':4 },IGNORED,200,120,,,200,120,1,(R:5,C:5),{ chips  'CTRed':33 'CTGreen':0 'CTPurple':7 'grey78':1 'CTYellow':11 },260,{ chips  'CTRed':0 'CTGreen':0 'CTPurple':0 'grey78':11 'CTYellow':0 },55,{ chips  'CTRed':33 'CTGreen':0 'CTPurple':7 'grey78':0 'CTYellow':0 },200,FALSE,,
Israel,3playersLog_1378976168801.csv,2,500,530,TRUE,{ chips  'CTRed':9 },{ chips  'grey78':9 },TRUE,260,55,{ chips  'CTRed':9 'CTPurple':0 'CTGreen':0 'grey78':0 'CTYellow':0 },{ chips  'CTRed':0 'CTPurple':0 'CTGreen':0 'grey78':9 'CTYellow':0 },260,55,1,(R:4,C:5),{ chips  'CTRed':24 'CTGreen':0 'CTPurple':7 'grey78':10 'CTYellow':10 },255,{ chips  'CTRed':9 'CTGreen':0 'CTPurple':0 'grey78':2 'CTYellow':0 },55,{ chips  'CTRed':33 'CTGreen':0 'CTPurple':7 'grey78':0 'CTYellow':0 },200,FALSE,,
Israel,3playersLog_1378976168801.csv,3,530,500,FALSE,{ chips  },{ chips  },FALSE,55,255,,,55,255,1,(R:3,C:5),{ chips  'CTRed':24 'CTGreen':0 'CTPurple':6 'grey78':10 'CTYellow':10 },250,{ chips  'CTRed':9 'CTGreen':0 'CTPurple':0 'grey78':2 'CTYellow':0 },55,{ chips  'CTRed':33 'CTGreen':0 'CTPurple':7 'grey78':0 'CTYellow':0 },200,FALSE,,
Israel,3playersLog_1378976168801.csv,3,540,500,FALSE,{ chips  'CTPurple':3 },{ chips  'CTYellow':2 },FALSE,200,255,,,195,260,1,(R:3,C:5),{ chips  'CTRed':24 'CTGreen':0 'CTPurple':6 'grey78':10 'CTYellow':10 },250,{ chips  'CTRed':9 'CTGreen':0 'CTPurple':0 'grey78':2 'CTYellow':0 },55,{ chips  'CTRed':33 'CTGreen':0 'CTPurple':7 'grey78':0 'CTYellow':0 },200,FALSE,,
Israel,3playersLog_1378976168801.csv,4,500,540,TRUE,{ chips  'CTPurple':2 'CTYellow':4 },{ chips  'CTRed':15 },TRUE,250,55,{ chips  'CTRed':0 'CTPurple':2 'CTGreen':0 'grey78':0 'CTYellow':4 },{ chips  'CTRed':15 'CTPurple':0 'CTGreen':0 'grey78':0 'CTYellow':0 },295,155,1,(R:3,C:4),{ chips  'CTRed':39 'CTGreen':0 'CTPurple':3 'grey78':10 'CTYellow':6 },290,{ chips  'CTRed':9 'CTGreen':0 'CTPurple':0 'grey78':2 'CTYellow':0 },55,{ chips  'CTRed':18 'CTGreen':0 'CTPurple':9 'grey78':0 'CTYellow':4 },155,FALSE,,
Israel,3playersLog_1378976168801.csv,5,530,500,FALSE,{ chips  },{ chips  },FALSE,55,290,,,55,290,0,(R:3,C:4),{ chips  'CTRed':39 'CTGreen':0 'CTPurple':3 'grey78':10 'CTYellow':6 },290,{ chips  'CTRed':9 'CTGreen':0 'CTPurple':0 'grey78':2 'CTYellow':0 },55,{ chips  'CTRed':18 'CTGreen':0 'CTPurple':9 'grey78':0 'CTYellow':4 },155,FALSE,,
Israel,3playersLog_1378976168801.csv,5,540,500,FALSE,{ chips  'CTPurple':2 },{ chips  'CTRed':3 },FALSE,155,290,,,160,285,0,(R:3,C:4),{ chips  'CTRed':39 'CTGreen':0 'CTPurple':3 'grey78':10 'CTYellow':6 },290,{ chips  'CTRed':9 'CTGreen':0 'CTPurple':0 'grey78':2 'CTYellow':0 },55,{ chips  'CTRed':18 'CTGreen':0 'CTPurple':9 'grey78':0 'CTYellow':4 },155,FALSE,,
Israel,3playersLog_1378976168801.csv,6,500,540,TRUE,{ chips  'grey78':3 },{ chips  'CTRed':12 },FALSE,290,155,,,335,110,1,(R:3,C:5),{ chips  'CTRed':39 'CTGreen':0 'CTPurple':2 'grey78':10 'CTYellow':6 },285,{ chips  'CTRed':9 'CTGreen':0 'CTPurple':0 'grey78':2 'CTYellow':0 },55,{ chips  'CTRed':18 'CTGreen':0 'CTPurple':9 'grey78':0 'CTYellow':4 },155,FALSE,,
Israel,3playersLog_1378976168801.csv,7,530,500,FALSE,{ chips  },{ chips  },FALSE,55,285,,,55,285,0,(R:3,C:5),{ chips  'CTRed':39 'CTGreen':0 'CTPurple':2 'grey78':10 'CTYellow':6 },285,{ chips  'CTRed':9 'CTGreen':0 'CTPurple':0 'grey78':2 'CTYellow':0 },55,{ chips  'CTRed':18 'CTGreen':0 'CTPurple':9 'grey78':0 'CTYellow':4 },155,FALSE,,
Israel,3playersLog_1378976168801.csv,7,540,500,FALSE,{ chips  'CTRed':7 'CTPurple':2 },{ chips  'CTYellow':2 },FALSE,155,285,,,120,320,0,(R:3,C:5),{ chips  'CTRed':39 'CTGreen':0 'CTPurple':2 'grey78':10 'CTYellow':6 },285,{ chips  'CTRed':9 'CTGreen':0 'CTPurple':0 'grey78':2 'CTYellow':0 },55,{ chips  'CTRed':18 'CTGreen':0 'CTPurple':9 'grey78':0 'CTYellow':4 },155,TRUE,,
Israel,3playersLog_1378976168801.csv,8,500,530,TRUE,{ chips  'grey78':3 },{ chips  'CTRed':9 },FALSE,285,55,,,315,25,0,(R:3,C:5),{ chips  'CTRed':39 'CTGreen':0 'CTPurple':2 'grey78':10 'CTYellow':6 },285,{ chips  'CTRed':9 'CTGreen':0 'CTPurple':0 'grey78':2 'CTYellow':0 },55,{ chips  'CTRed':18 'CTGreen':0 'CTPurple':9 'grey78':0 'CTYellow':4 },155,FALSE,,
Israel,3playersLog_1378976168801.csv,8,500,530,TRUE,{ chips  'grey78':3 },{ chips  'CTRed':9 },FALSE,285,55,,,315,25,0,(R:3,C:5),{ chips  'CTRed':39 'CTGreen':0 'CTPurple':2 'grey78':10 'CTYellow':6 },285,{ chips  'CTRed':9 'CTGreen':0 'CTPurple':0 'grey78':2 'CTYellow':0 },55,{ chips  'CTRed':18 'CTGreen':0 'CTPurple':9 'grey78':0 'CTYellow':4 },155,FALSE,,FALSE
Israel,3playersLog_1377180047084.csv,1,530,500,FALSE,{ chips  'CTRed':33 'CTPurple':7 },{ chips  'grey78':11 },FALSE,200,120,,,55,265,9,(R:0,C:0),{ chips  'CTRed':0 'CTGreen':0 'CTPurple':3 'grey78':1 'CTYellow':11 },225,{ chips  'CTRed':33 'CTGreen':0 'CTPurple':7 'grey78':0 'CTYellow':0 },200,{ chips  'CTRed':33 'CTGreen':0 'CTPurple':4 'grey78':2 'CTYellow':1 },350,TRUE,,
Israel,3playersLog_1377180047084.csv,1,540,500,FALSE,{ chips  'CTPurple':3 },{ chips  'grey78':2 'CTYellow':1 },TRUE,200,120,{ chips  'CTRed':0 'CTPurple':3 'CTGreen':0 'grey78':0 'CTYellow':0 },{ chips  'CTRed':0 'CTPurple':0 'CTGreen':0 'grey78':2 'CTYellow':1 },200,120,9,(R:0,C:0),{ chips  'CTRed':0 'CTGreen':0 'CTPurple':3 'grey78':1 'CTYellow':11 },225,{ chips  'CTRed':33 'CTGreen':0 'CTPurple':7 'grey78':0 'CTYellow':0 },200,{ chips  'CTRed':33 'CTGreen':0 'CTPurple':4 'grey78':2 'CTYellow':1 },350,FALSE,,
Israel,3playersLog_1377180047084.csv,1,540,500,FALSE,{ chips  'CTPurple':3 },{ chips  'grey78':2 'CTYellow':1 },TRUE,200,120,{ chips  'CTRed':0 'CTPurple':3 'CTGreen':0 'grey78':0 'CTYellow':0 },{ chips  'CTRed':0 'CTPurple':0 'CTGreen':0 'grey78':2 'CTYellow':1 },200,120,9,(R:0,C:0),{ chips  'CTRed':0 'CTGreen':0 'CTPurple':3 'grey78':1 'CTYellow':11 },225,{ chips  'CTRed':33 'CTGreen':0 'CTPurple':7 'grey78':0 'CTYellow':0 },200,{ chips  'CTRed':33 'CTGreen':0 'CTPurple':4 'grey78':2 'CTYellow':1 },350,FALSE,,TRUE
Israel,3playersLog_1377183378640.csv,1,530,500,FALSE,{ chips  'CTRed':33 'CTPurple':7 },{ chips  'grey78':11 },FALSE,200,120,,,55,265,0,(R:5,C:4),{ chips  'CTRed':0 'CTGreen':0 'CTPurple':0 'grey78':12 'CTYellow':12 },120,{ chips  'CTRed':33 'CTGreen':0 'CTPurple':7 'grey78':0 'CTYellow':0 },200,{ chips  'CTRed':33 'CTGreen':0 'CTPurple':7 'grey78':0 'CTYellow':0 },200,TRUE,,
Israel,3playersLog_1377183378640.csv,1,540,500,FALSE,{ chips  'CTRed':20 'CTPurple':5 },{ chips  'CTYellow':12 },FALSE,200,120,,,135,185,0,(R:5,C:4),{ chips  'CTRed':0 'CTGreen':0 'CTPurple':0 'grey78':12 'CTYellow':12 },120,{ chips  'CTRed':33 'CTGreen':0 'CTPurple':7 'grey78':0 'CTYellow':0 },200,{ chips  'CTRed':33 'CTGreen':0 'CTPurple':7 'grey78':0 'CTYellow':0 },200,TRUE,,
Israel,3playersLog_1377183378640.csv,2,500,530,TRUE,{ chips  'CTYellow':6 },{ chips  'CTPurple':7 },FALSE,120,200,,,125,195,7,(R:2,C:0),{ chips  'CTRed':0 'CTGreen':0 'CTPurple':0 'grey78':5 'CTYellow':12 },85,{ chips  'CTRed':33 'CTGreen':0 'CTPurple':7 'grey78':0 'CTYellow':0 },200,{ chips  'CTRed':33 'CTGreen':0 'CTPurple':7 'grey78':0 'CTYellow':0 },200,FALSE,,
Israel,3playersLog_1377183378640.csv,3,530,500,FALSE,{ chips  },{ chips  },IGNORED,200,80,,,200,80,1,(R:2,C:0),{ chips  'CTRed':24 'CTGreen':0 'CTPurple':0 'grey78':3 'CTYellow':0 },135,{ chips  'CTRed':33 'CTGreen':0 'CTPurple':7 'grey78':0 'CTYellow':0 },200,{ chips  'CTRed':9 'CTGreen':0 'CTPurple':7 'grey78':0 'CTYellow':12 },140,FALSE,,
Israel,3playersLog_1377183378640.csv,3,540,500,FALSE,{ chips  'CTRed':24 },{ chips  'CTYellow':12 },TRUE,200,80,{ chips  'CTRed':24 'CTPurple':0 'CTGreen':0 'grey78':0 'CTYellow':0 },{ chips  'CTRed':0 'CTPurple':0 'CTGreen':0 'grey78':0 'CTYellow':12 },140,140,1,(R:2,C:0),{ chips  'CTRed':24 'CTGreen':0 'CTPurple':0 'grey78':3 'CTYellow':0 },135,{ chips  'CTRed':33 'CTGreen':0 'CTPurple':7 'grey78':0 'CTYellow':0 },200,{ chips  'CTRed':9 'CTGreen':0 'CTPurple':7 'grey78':0 'CTYellow':12 },140,TRUE,,
Israel,3playersLog_1377183378640.csv,4,500,540,TRUE,{ chips  'CTRed':7 },{ chips  'CTPurple':7 },FALSE,135,140,,,135,140,0,(R:2,C:0),{ chips  'CTRed':24 'CTGreen':0 'CTPurple':0 'grey78':3 'CTYellow':0 },135,{ chips  'CTRed':33 'CTGreen':0 'CTPurple':7 'grey78':0 'CTYellow':0 },200,{ chips  'CTRed':9 'CTGreen':0 'CTPurple':7 'grey78':0 'CTYellow':12 },140,TRUE,,
Israel,3playersLog_1377183378640.csv,5,530,500,FALSE,{ chips  },{ chips  },FALSE,200,135,,,200,135,1,(R:1,C:0),{ chips  'CTRed':24 'CTGreen':0 'CTPurple':0 'grey78':2 'CTYellow':0 },130,{ chips  'CTRed':33 'CTGreen':0 'CTPurple':7 'grey78':0 'CTYellow':0 },200,{ chips  'CTRed':9 'CTGreen':0 'CTPurple':7 'grey78':0 'CTYellow':12 },140,FALSE,,
Israel,3playersLog_1377183378640.csv,5,540,500,FALSE,{ chips  'CTPurple':7 },{ chips  'CTRed':24 },FALSE,140,135,,,225,50,1,(R:1,C:0),{ chips  'CTRed':24 'CTGreen':0 'CTPurple':0 'grey78':2 'CTYellow':0 },130,{ chips  'CTRed':33 'CTGreen':0 'CTPurple':7 'grey78':0 'CTYellow':0 },200,{ chips  'CTRed':9 'CTGreen':0 'CTPurple':7 'grey78':0 'CTYellow':12 },140,TRUE,,
Israel,3playersLog_1377183378640.csv,6,500,540,TRUE,{ chips  'CTRed':7 },{ chips  'CTPurple':7 },FALSE,130,140,,,130,140,0,(R:1,C:0),{ chips  'CTRed':24 'CTGreen':0 'CTPurple':0 'grey78':2 'CTYellow':0 },130,{ chips  'CTRed':33 'CTGreen':0 'CTPurple':7 'grey78':0 'CTYellow':0 },200,{ chips  'CTRed':9 'CTGreen':0 'CTPurple':7 'grey78':0 'CTYellow':12 },140,TRUE,,
Israel,3playersLog_1377183378640.csv,7,530,500,FALSE,{ chips  },{ chips  },FALSE,200,130,,,200,130,1,(R:0,C:0),{ chips  'CTRed':24 'CTGreen':0 'CTPurple':0 'grey78':1 'CTYellow':0 },275,{ chips  'CTRed':33 'CTGreen':0 'CTPurple':7 'grey78':0 'CTYellow':0 },200,{ chips  'CTRed':9 'CTGreen':0 'CTPurple':7 'grey78':0 'CTYellow':12 },290,FALSE,,
Israel,3playersLog_1377183378640.csv,7,540,500,FALSE,{ chips  'CTPurple':2 },{ chips  'CTRed':10 },FALSE,140,130,,,180,90,1,(R:0,C:0),{ chips  'CTRed':24 'CTGreen':0 'CTPurple':0 'grey78':1 'CTYellow':0 },275,{ chips  'CTRed':33 'CTGreen':0 'CTPurple':7 'grey78':0 'CTYellow':0 },200,{ chips  'CTRed':9 'CTGreen':0 'CTPurple':7 'grey78':0 'CTYellow':12 },290,TRUE,,
Israel,3playersLog_1377183378640.csv,7,540,500,FALSE,{ chips  'CTPurple':2 },{ chips  'CTRed':10 },FALSE,140,130,,,180,90,1,(R:0,C:0),{ chips  'CTRed':24 'CTGreen':0 'CTPurple':0 'grey78':1 'CTYellow':0 },275,{ chips  'CTRed':33 'CTGreen':0 'CTPurple':7 'grey78':0 'CTYellow':0 },200,{ chips  'CTRed':9 'CTGreen':0 'CTPurple':7 'grey78':0 'CTYellow':12 },290,TRUE,,TRUE
Israel,3playersLog_1377183385501.csv,1,530,500,FALSE,{ chips  'CTRed':33 'CTPurple':7 },{ chips  'grey78':11 },IGNORED,200,A120,,,,,0,(R:5,C:4),{ chips  'CTRed':0 'CTGreen':0 'CTPurple':0 'grey78':12 'CTYellow':12 },120,{ chips  'CTRed':33 'CTGreen':0 'CTPurple':7 'grey78':0 'CTYellow':0 },200,,{ chips  'CTRed':33 'CTGreen':0 'CTPurple':7 'grey78':0 'CTYellow':0 },200,,
Israel,3playersLog_1377183385501.csv,1,540,500,FALSE,{ chips  'CTRed':3 'CTPurple':1 },{ chips  'grey78':5 },IGNORED,200,B120,,,,,0,(R:5,C:4),{ chips  'CTRed':0 'CTGreen':0 'CTPurple':0 'grey78':12 'CTYellow':12 },120,{ chips  'CTRed':33 'CTGreen':0 'CTPurple':7 'grey78':0 'CTYellow':0 },200,,{ chips  'CTRed':33 'CTGreen':0 'CTPurple':7 'grey78':0 'CTYellow':0 },200,,
Israel,3playersLog_1377183385501.csv,2,500,540,TRUE,{ chips  'grey78':2 'CTYellow':3 },{ chips  'CTRed':6 },TRUE,120,200,{ chips  'CTRed':0 'CTPurple':0 'CTGreen':0 'grey78':2 'CTYellow':3 },{ chips  'CTRed':6 'CTPurple':0 'CTGreen':0 'grey78':0 'CTYellow':0 },125,195,0,(R:5,C:4),{ chips  'CTRed':6 'CTGreen':0 'CTPurple':0 'grey78':10 'CTYellow':9 },125,{ chips  'CTRed':33 'CTGreen':0 'CTPurple':7 'grey78':0 'CTYellow':0 },200,{ chips  'CTRed':27 'CTGreen':0 'CTPurple':7 'grey78':2 'CTYellow':3 },195,FALSE,,
Israel,3playersLog_1377183385501.csv,2,500,540,TRUE,{ chips  'grey78':2 'CTYellow':3 },{ chips  'CTRed':6 },TRUE,120,200,{ chips  'CTRed':0 'CTPurple':0 'CTGreen':0 'grey78':2 'CTYellow':3 },{ chips  'CTRed':6 'CTPurple':0 'CTGreen':0 'grey78':0 'CTYellow':0 },125,195,0,(R:5,C:4),{ chips  'CTRed':6 'CTGreen':0 'CTPurple':0 'grey78':10 'CTYellow':9 },125,{ chips  'CTRed':33 'CTGreen':0 'CTPurple':7 'grey78':0 'CTYellow':0 },200,{ chips  'CTRed':27 'CTGreen':0 'CTPurple':7 'grey78':2 'CTYellow':3 },195,FALSE,,FALSE
Israel,3playersLog_1378204369468.csv,1,530,500,FALSE,{ chips  'CTRed':33 'CTPurple':7 },{ chips  'grey78':11 },IGNORED,200,120,,,55,265,2,(R:4,C:5),{ chips  'CTRed':0 'CTGreen':0 'CTPurple':0 'grey78':12 'CTYellow':10 },110,{ chips  'CTRed':33 'CTGreen':0 'CTPurple':7 'grey78':0 'CTYellow':0 },200,{ chips  'CTRed':33 'CTGreen':0 'CTPurple':7 'grey78':0 'CTYellow':0 },200,TRUE,,
Israel,3playersLog_1378204369468.csv,1,540,500,FALSE,{ chips  'CTRed':15 },{ chips  'grey78':10 },IGNORED,200,120,,,175,145,2,(R:4,C:5),{ chips  'CTRed':0 'CTGreen':0 'CTPurple':0 'grey78':12 'CTYellow':10 },110,{ chips  'CTRed':33 'CTGreen':0 'CTPurple':7 'grey78':0 'CTYellow':0 },200,{ chips  'CTRed':33 'CTGreen':0 'CTPurple':7 'grey78':0 'CTYellow':0 },200,FALSE,,
Israel,3playersLog_1378204369468.csv,2,500,530,TRUE,{ chips  'grey78':10 },{ chips  'CTRed':20 },FALSE,110,200,,,160,150,2,(R:3,C:6),{ chips  'CTRed':0 'CTGreen':0 'CTPurple':0 'grey78':12 'CTYellow':8 },100,{ chips  'CTRed':33 'CTGreen':0 'CTPurple':7 'grey78':0 'CTYellow':0 },200,{ chips  'CTRed':33 'CTGreen':0 'CTPurple':7 'grey78':0 'CTYellow':0 },200,FALSE,,
Israel,3playersLog_1378204369468.csv,3,530,500,FALSE,{ chips  'CTRed':33 'CTPurple':7 },{ chips  'grey78':11 },TRUE,200,100,{ chips  'CTRed':33 'CTPurple':7 'CTYellow':0 },{ chips  'grey78':11 },55,245,4,(R:1,C:8),{ chips  'CTRed':33 'CTGreen':0 'CTPurple':7 'grey78':1 'CTYellow':4 },225,{ chips  'CTRed':0 'CTGreen':0 'CTPurple':0 'grey78':11 'CTYellow':0 },55,{ chips  'CTRed':33 'CTGreen':0 'CTPurple':7 'grey78':0 'CTYellow':0 },200,TRUE,,
Israel,3playersLog_1378204369468.csv,3,540,500,FALSE,{ chips  'CTPurple':4 },{ chips  'grey78':5 },FALSE,200,100,,,205,95,4,(R:1,C:8),{ chips  'CTRed':33 'CTGreen':0 'CTPurple':7 'grey78':1 'CTYellow':4 },225,{ chips  'CTRed':0 'CTGreen':0 'CTPurple':0 'grey78':11 'CTYellow':0 },55,{ chips  'CTRed':33 'CTGreen':0 'CTPurple':7 'grey78':0 'CTYellow':0 },200,FALSE,,
Israel,3playersLog_1378204369468.csv,4,500,530,TRUE,{ chips  'CTYellow':3 },{ chips  'grey78':6 },FALSE,225,55,,,240,40,1,(R:0,C:8),{ chips  'CTRed':33 'CTGreen':0 'CTPurple':7 'grey78':1 'CTYellow':3 },370,{ chips  'CTRed':0 'CTGreen':0 'CTPurple':0 'grey78':11 'CTYellow':0 },205,{ chips  'CTRed':33 'CTGreen':0 'CTPurple':7 'grey78':0 'CTYellow':0 },200,FALSE,,
Israel,3playersLog_1378204369468.csv,4,500,530,TRUE,{ chips  'CTYellow':3 },{ chips  'grey78':6 },FALSE,225,55,,,240,40,1,(R:0,C:8),{ chips  'CTRed':33 'CTGreen':0 'CTPurple':7 'grey78':1 'CTYellow':3 },370,{ chips  'CTRed':0 'CTGreen':0 'CTPurple':0 'grey78':11 'CTYellow':0 },205,{ chips  'CTRed':33 'CTGreen':0 'CTPurple':7 'grey78':0 'CTYellow':0 },200,FALSE,,TRUE
Israel,3playersLog_1378204380041.csv,1,530,500,FALSE,{ chips  'CTRed':33 'CTPurple':7 },{ chips  'grey78':11 },TRUE,200,120,{ chips  'CTRed':33 'CTPurple':7 'CTYellow':0 },{ chips  'grey78':11 },55,265,4,(R:3,C:6),{ chips  'CTRed':33 'CTGreen':0 'CTPurple':7 'grey78':1 'CTYellow':8 },245,{ chips  'CTRed':0 'CTGreen':0 'CTPurple':0 'grey78':11 'CTYellow':0 },55,{ chips  'CTRed':33 'CTGreen':0 'CTPurple':7 'grey78':0 'CTYellow':0 },200,TRUE,,
Israel,3playersLog_1378204380041.csv,2,500,540,TRUE,{ chips  'CTYellow':1 },{ chips  'CTRed':33 },FALSE,245,200,,,405,40,4,(R:1,C:8),{ chips  'CTRed':33 'CTGreen':0 'CTPurple':7 'grey78':1 'CTYellow':4 },225,{ chips  'CTRed':0 'CTGreen':0 'CTPurple':0 'grey78':11 'CTYellow':0 },55,{ chips  'CTRed':33 'CTGreen':0 'CTPurple':7 'grey78':0 'CTYellow':0 },200,FALSE,,
Israel,3playersLog_1378204380041.csv,3,530,500,FALSE,{ chips  },{ chips  },FALSE,55,225,,,55,225,0,(R:1,C:8),{ chips  'CTRed':33 'CTGreen':0 'CTPurple':7 'grey78':1 'CTYellow':4 },225,{ chips  'CTRed':0 'CTGreen':0 'CTPurple':0 'grey78':11 'CTYellow':0 },55,{ chips  'CTRed':33 'CTGreen':0 'CTPurple':7 'grey78':0 'CTYellow':0 },200,TRUE,,
Israel,3playersLog_1378204380041.csv,3,540,500,FALSE,{ chips  'CTRed':2 },{ chips  'grey78':1 },FALSE,200,225,,,195,230,0,(R:1,C:8),{ chips  'CTRed':33 'CTGreen':0 'CTPurple':7 'grey78':1 'CTYellow':4 },225,{ chips  'CTRed':0 'CTGreen':0 'CTPurple':0 'grey78':11 'CTYellow':0 },55,{ chips  'CTRed':33 'CTGreen':0 'CTPurple':7 'grey78':0 'CTYellow':0 },200,FALSE,,
Israel,3playersLog_1378204380041.csv,4,500,530,TRUE,{ chips  'CTRed':6 },{ chips  'grey78':1 },IGNORED,225,55,,,200,80,1,(R:1,C:7),{ chips  'CTRed':33 'CTGreen':0 'CTPurple':6 'grey78':1 'CTYellow':4 },220,{ chips  'CTRed':0 'CTGreen':0 'CTPurple':0 'grey78':11 'CTYellow':0 },55,{ chips  'CTRed':33 'CTGreen':0 'CTPurple':7 'grey78':0 'CTYellow':0 },200,FALSE,,
Israel,3playersLog_1378204380041.csv,5,530,500,FALSE,{ chips  },{ chips  },FALSE,55,220,,,55,220,0,(R:1,C:7),{ chips  'CTRed':38 'CTGreen':0 'CTPurple':6 'grey78':0 'CTYellow':1 },225,{ chips  'CTRed':0 'CTGreen':0 'CTPurple':0 'grey78':11 'CTYellow':0 },55,{ chips  'CTRed':28 'CTGreen':0 'CTPurple':7 'grey78':1 'CTYellow':3 },195,TRUE,,
Israel,3playersLog_1378204380041.csv,5,540,500,FALSE,{ chips  'CTRed':5 },{ chips  'grey78':1 'CTYellow':3 },TRUE,200,220,{ chips  'CTRed':5 'CTPurple':0 'CTGreen':0 'grey78':0 'CTYellow':0 },{ chips  'CTRed':0 'CTPurple':0 'CTGreen':0 'grey78':1 'CTYellow':3 },195,225,0,(R:1,C:7),{ chips  'CTRed':38 'CTGreen':0 'CTPurple':6 'grey78':0 'CTYellow':1 },225,{ chips  'CTRed':0 'CTGreen':0 'CTPurple':0 'grey78':11 'CTYellow':0 },55,{ chips  'CTRed':28 'CTGreen':0 'CTPurple':7 'grey78':1 'CTYellow':3 },195,TRUE,,
Israel,3playersLog_1378204380041.csv,6,500,530,TRUE,{ chips  'CTRed':10 },{ chips  'grey78':2 },IGNORED,225,55,,,185,95,1,(R:1,C:6),{ chips  'CTRed':38 'CTGreen':0 'CTPurple':5 'grey78':0 'CTYellow':1 },220,{ chips  'CTRed':0 'CTGreen':0 'CTPurple':0 'grey78':11 'CTYellow':0 },55,{ chips  'CTRed':28 'CTGreen':0 'CTPurple':7 'grey78':1 'CTYellow':3 },195,FALSE,,
Israel,3playersLog_1378204380041.csv,7,530,500,FALSE,{ chips  },{ chips  },TRUE,55,220,{ chips  'grey78':0 },{ chips  'CTRed':0 'CTPurple':0 },55,220,0,(R:1,C:6),{ chips  'CTRed':38 'CTGreen':0 'CTPurple':5 'grey78':0 'CTYellow':1 },220,{ chips  'CTRed':0 'CTGreen':0 'CTPurple':0 'grey78':11 'CTYellow':0 },55,{ chips  'CTRed':28 'CTGreen':0 'CTPurple':7 'grey78':1 'CTYellow':3 },195,TRUE,,
Israel,3playersLog_1378204380041.csv,8,500,540,TRUE,{ chips  'CTRed':38 },{ chips  'CTYellow':2 },TRUE,220,55,{ chips  'CTRed':38 'CTPurple':0 'CTGreen':0 'grey78':0 'CTYellow':0 },{ chips  'CTRed':0 'CTPurple':0 'CTGreen':0 'grey78':0 'CTYellow':2 },40,375,3,(R:0,C:8),{ chips  'CTRed':0 'CTGreen':0 'CTPurple':4 'grey78':0 'CTYellow':1 },175,{ chips  'CTRed':0 'CTGreen':0 'CTPurple':0 'grey78':11 'CTYellow':0 },205,{ chips  'CTRed':66 'CTGreen':0 'CTPurple':7 'grey78':1 'CTYellow':1 },375,FALSE,,
Israel,3playersLog_1378204380041.csv,8,500,540,TRUE,{ chips  'CTRed':38 },{ chips  'CTYellow':2 },TRUE,220,55,{ chips  'CTRed':38 'CTPurple':0 'CTGreen':0 'grey78':0 'CTYellow':0 },{ chips  'CTRed':0 'CTPurple':0 'CTGreen':0 'grey78':0 'CTYellow':2 },40,375,3,(R:0,C:8),{ chips  'CTRed':0 'CTGreen':0 'CTPurple':4 'grey78':0 'CTYellow':1 },175,{ chips  'CTRed':0 'CTGreen':0 'CTPurple':0 'grey78':11 'CTYellow':0 },205,{ chips  'CTRed':66 'CTGreen':0 'CTPurple':7 'grey78':1 'CTYellow':1 },375,FALSE,,TRUE
Israel,3playersLog_1378205563639.csv,1,530,520,FALSE,{ chips  'CTRed':33 'CTPurple':7 },{ chips  'grey78':11 },FALSE,200,120,,,,,9,(R:0,C:8),{ chips  'CTRed':0 'CTGreen':0 'CTPurple':0 'grey78':12 'CTYellow':3 },225,{ chips  'CTRed':33 'CTGreen':0 'CTPurple':7 'grey78':0 'CTYellow':0 },350,,{ chips  'CTRed':33 'CTGreen':0 'CTPurple':7 'grey78':0 'CTYellow':0 },200,,
Israel,3playersLog_1378205563639.csv,1,540,520,FALSE,{ chips  },{ chips  },FALSE,200,120,,,,,9,(R:0,C:8),{ chips  'CTRed':0 'CTGreen':0 'CTPurple':0 'grey78':12 'CTYellow':3 },225,{ chips  'CTRed':33 'CTGreen':0 'CTPurple':7 'grey78':0 'CTYellow':0 },350,,{ chips  'CTRed':33 'CTGreen':0 'CTPurple':7 'grey78':0 'CTYellow':0 },200,,
Israel,3playersLog_1378205563639.csv,1,540,520,FALSE,{ chips  },{ chips  },FALSE,200,120,,,,,9,(R:0,C:8),{ chips  'CTRed':0 'CTGreen':0 'CTPurple':0 'grey78':12 'CTYellow':3 },225,{ chips  'CTRed':33 'CTGreen':0 'CTPurple':7 'grey78':0 'CTYellow':0 },350,{ chips  'CTRed':33 'CTGreen':0 'CTPurple':7 'grey78':0 'CTYellow':0 },200,,,TRUE
Israel,3playersLog_1378211356750.csv,1,530,500,FALSE,{ chips  'CTRed':33 'CTPurple':7 },{ chips  'grey78':11 },IGNORED,200,120,,,55,265,2,(R:4,C:5),{ chips  'CTRed':3 'CTGreen':0 'CTPurple':0 'grey78':12 'CTYellow':10 },125,{ chips  'CTRed':33 'CTGreen':0 'CTPurple':7 'grey78':0 'CTYellow':0 },200,{ chips  'CTRed':30 'CTGreen':0 'CTPurple':7 'grey78':0 'CTYellow':0 },185,TRUE,,
Israel,3playersLog_1378211356750.csv,1,540,500,FALSE,{ chips  'CTRed':3 },{ chips  },TRUE,200,120,{ chips  'CTRed':3 'CTPurple':0 'CTGreen':0 'grey78':0 'CTYellow':0 },{ chips  'CTRed':0 'CTPurple':0 'CTGreen':0 'grey78':0 'CTYellow':0 },185,135,2,(R:4,C:5),{ chips  'CTRed':3 'CTGreen':0 'CTPurple':0 'grey78':12 'CTYellow':10 },125,{ chips  'CTRed':33 'CTGreen':0 'CTPurple':7 'grey78':0 'CTYellow':0 },200,{ chips  'CTRed':30 'CTGreen':0 'CTPurple':7 'grey78':0 'CTYellow':0 },185,FALSE,,
Israel,3playersLog_1378211356750.csv,2,500,530,TRUE,{ chips  'grey78':5 },{ chips  'CTRed':33 'CTPurple':3 },FALSE,125,200,,,280,45,1,(R:4,C:6),{ chips  'CTRed':3 'CTGreen':0 'CTPurple':0 'grey78':12 'CTYellow':9 },120,{ chips  'CTRed':33 'CTGreen':0 'CTPurple':7 'grey78':0 'CTYellow':0 },200,{ chips  'CTRed':30 'CTGreen':0 'CTPurple':7 'grey78':0 'CTYellow':0 },185,FALSE,,
Israel,3playersLog_1378211356750.csv,3,530,500,FALSE,{ chips  'CTRed':33 'CTPurple':7 },{ chips  'grey78':11 },TRUE,200,120,{ chips  'CTRed':33 'CTPurple':7 'CTYellow':0 },{ chips  'grey78':11 },55,265,5,(R:1,C:8),{ chips  'CTRed':36 'CTGreen':0 'CTPurple':7 'grey78':1 'CTYellow':4 },240,{ chips  'CTRed':0 'CTGreen':0 'CTPurple':0 'grey78':11 'CTYellow':0 },55,{ chips  'CTRed':30 'CTGreen':0 'CTPurple':7 'grey78':0 'CTYellow':0 },185,TRUE,,
Israel,3playersLog_1378211356750.csv,4,500,540,TRUE,{ chips  'CTYellow':2 },{ chips  'CTRed':15 'CTPurple':2 },TRUE,240,55,{ chips  'CTRed':0 'CTPurple':0 'CTGreen':0 'grey78':0 'CTYellow':2 },{ chips  'CTRed':15 'CTPurple':2 'CTGreen':0 'grey78':0 'CTYellow':0 },315,110,1,(R:0,C:8),{ chips  'CTRed':51 'CTGreen':0 'CTPurple':9 'grey78':1 'CTYellow':1 },460,{ chips  'CTRed':0 'CTGreen':0 'CTPurple':0 'grey78':11 'CTYellow':0 },205,{ chips  'CTRed':15 'CTGreen':0 'CTPurple':5 'grey78':0 'CTYellow':2 },110,FALSE,,
Israel,3playersLog_1378211356750.csv,4,500,540,TRUE,{ chips  'CTYellow':2 },{ chips  'CTRed':15 'CTPurple':2 },TRUE,240,55,{ chips  'CTRed':0 'CTPurple':0 'CTGreen':0 'grey78':0 'CTYellow':2 },{ chips  'CTRed':15 'CTPurple':2 'CTGreen':0 'grey78':0 'CTYellow':0 },315,110,1,(R:0,C:8),{ chips  'CTRed':51 'CTGreen':0 'CTPurple':9 'grey78':1 'CTYellow':1 },460,{ chips  'CTRed':0 'CTGreen':0 'CTPurple':0 'grey78':11 'CTYellow':0 },205,{ chips  'CTRed':15 'CTGreen':0 'CTPurple':5 'grey78':0 'CTYellow':2 },110,FALSE,,TRUE
Israel,3playersLog_1378211416205.csv,1,530,500,FALSE,{ chips  'CTRed':33 'CTPurple':7 },{ chips  'grey78':11 },FALSE,200,120,,,55,265,2,(R:4,C:3),{ chips  'CTRed':2 'CTGreen':0 'CTPurple':0 'grey78':10 'CTYellow':11 },115,{ chips  'CTRed':33 'CTGreen':0 'CTPurple':7 'grey78':0 'CTYellow':0 },200,{ chips  'CTRed':31 'CTGreen':0 'CTPurple':7 'grey78':0 'CTYellow':1 },195,TRUE,,
Israel,3playersLog_1378211416205.csv,1,540,500,FALSE,{ chips  'CTRed':2 },{ chips  'CTYellow':1 },TRUE,200,120,{ chips  'CTRed':2 'CTPurple':0 'CTGreen':0 'grey78':0 'CTYellow':0 },{ chips  'CTRed':0 'CTPurple':0 'CTGreen':0 'grey78':0 'CTYellow':1 },195,125,2,(R:4,C:3),{ chips  'CTRed':2 'CTGreen':0 'CTPurple':0 'grey78':10 'CTYellow':11 },115,{ chips  'CTRed':33 'CTGreen':0 'CTPurple':7 'grey78':0 'CTYellow':0 },200,{ chips  'CTRed':31 'CTGreen':0 'CTPurple':7 'grey78':0 'CTYellow':1 },195,FALSE,,
Israel,3playersLog_1378211416205.csv,2,500,530,TRUE,{ chips  'grey78':2 },{ chips  'CTPurple':5 },FALSE,115,200,,,130,185,2,(R:4,C:3),{ chips  'CTRed':2 'CTGreen':0 'CTPurple':0 'grey78':8 'CTYellow':11 },105,{ chips  'CTRed':33 'CTGreen':0 'CTPurple':7 'grey78':0 'CTYellow':0 },200,{ chips  'CTRed':31 'CTGreen':0 'CTPurple':7 'grey78':0 'CTYellow':1 },195,FALSE,,
Israel,3playersLog_1378211416205.csv,3,530,500,FALSE,{ chips  'CTRed':33 'CTPurple':4 },{ chips  'grey78':8 },FALSE,200,105,,,55,250,1,(R:3,C:3),{ chips  'CTRed':3 'CTGreen':0 'CTPurple':0 'grey78':8 'CTYellow':10 },105,{ chips  'CTRed':33 'CTGreen':0 'CTPurple':7 'grey78':0 'CTYellow':0 },200,{ chips  'CTRed':30 'CTGreen':0 'CTPurple':6 'grey78':0 'CTYellow':2 },190,TRUE,,
Israel,3playersLog_1378211416205.csv,3,540,500,FALSE,{ chips  'CTRed':1 'CTPurple':1 },{ chips  'CTYellow':1 },TRUE,195,105,{ chips  'CTRed':1 'CTPurple':1 'CTGreen':0 'grey78':0 'CTYellow':0 },{ chips  'CTRed':0 'CTPurple':0 'CTGreen':0 'grey78':0 'CTYellow':1 },190,110,1,(R:3,C:3),{ chips  'CTRed':3 'CTGreen':0 'CTPurple':0 'grey78':8 'CTYellow':10 },105,{ chips  'CTRed':33 'CTGreen':0 'CTPurple':7 'grey78':0 'CTYellow':0 },200,{ chips  'CTRed':30 'CTGreen':0 'CTPurple':6 'grey78':0 'CTYellow':2 },190,FALSE,,
Israel,3playersLog_1378211416205.csv,4,500,540,TRUE,{ chips  'grey78':2 },{ chips  'CTPurple':3 },FALSE,105,190,,,110,185,0,(R:3,C:3),{ chips  'CTRed':3 'CTGreen':0 'CTPurple':0 'grey78':8 'CTYellow':10 },105,{ chips  'CTRed':33 'CTGreen':0 'CTPurple':7 'grey78':0 'CTYellow':0 },200,{ chips  'CTRed':30 'CTGreen':0 'CTPurple':6 'grey78':0 'CTYellow':2 },190,FALSE,,
Israel,3playersLog_1378211416205.csv,5,530,500,FALSE,{ chips  'CTRed':33 'CTPurple':4 },{ chips  'grey78':8 },IGNORED,200,105,,,55,250,1,(R:3,C:4),{ chips  'CTRed':3 'CTGreen':0 'CTPurple':1 'grey78':8 'CTYellow':9 },105,{ chips  'CTRed':33 'CTGreen':0 'CTPurple':7 'grey78':0 'CTYellow':0 },200,{ chips  'CTRed':30 'CTGreen':0 'CTPurple':4 'grey78':0 'CTYellow':3 },185,TRUE,,
Israel,3playersLog_1378211416205.csv,5,540,500,FALSE,{ chips  'CTPurple':2 },{ chips  'CTYellow':1 },TRUE,190,105,{ chips  'CTRed':0 'CTPurple':2 'CTGreen':0 'grey78':0 'CTYellow':0 },{ chips  'CTRed':0 'CTPurple':0 'CTGreen':0 'grey78':0 'CTYellow':1 },185,110,1,(R:3,C:4),{ chips  'CTRed':3 'CTGreen':0 'CTPurple':1 'grey78':8 'CTYellow':9 },105,{ chips  'CTRed':33 'CTGreen':0 'CTPurple':7 'grey78':0 'CTYellow':0 },200,{ chips  'CTRed':30 'CTGreen':0 'CTPurple':4 'grey78':0 'CTYellow':3 },185,FALSE,,
Israel,3playersLog_1378211416205.csv,6,500,530,TRUE,{ chips  'grey78':3 },{ chips  'CTRed':1 'CTPurple':3 },FALSE,105,200,,,110,195,0,(R:3,C:4),{ chips  'CTRed':3 'CTGreen':0 'CTPurple':1 'grey78':8 'CTYellow':9 },105,{ chips  'CTRed':33 'CTGreen':0 'CTPurple':7 'grey78':0 'CTYellow':0 },200,{ chips  'CTRed':30 'CTGreen':0 'CTPurple':4 'grey78':0 'CTYellow':3 },185,FALSE,,
Israel,3playersLog_1378211416205.csv,7,530,500,FALSE,{ chips  'CTRed':33 'CTPurple':4 },{ chips  'grey78':8 },IGNORED,200,105,,,55,250,1,(R:3,C:5),{ chips  'CTRed':5 'CTGreen':0 'CTPurple':2 'grey78':8 'CTYellow':6 },105,{ chips  'CTRed':33 'CTGreen':0 'CTPurple':7 'grey78':0 'CTYellow':0 },200,{ chips  'CTRed':28 'CTGreen':0 'CTPurple':2 'grey78':0 'CTYellow':6 },180,TRUE,,
Israel,3playersLog_1378211416205.csv,7,540,500,FALSE,{ chips  'CTRed':2 'CTPurple':2 },{ chips  'CTYellow':3 },TRUE,185,105,{ chips  'CTRed':2 'CTPurple':2 'CTGreen':0 'grey78':0 'CTYellow':0 },{ chips  'CTRed':0 'CTPurple':0 'CTGreen':0 'grey78':0 'CTYellow':3 },180,110,1,(R:3,C:5),{ chips  'CTRed':5 'CTGreen':0 'CTPurple':2 'grey78':8 'CTYellow':6 },105,{ chips  'CTRed':33 'CTGreen':0 'CTPurple':7 'grey78':0 'CTYellow':0 },200,{ chips  'CTRed':28 'CTGreen':0 'CTPurple':2 'grey78':0 'CTYellow':6 },180,FALSE,,
Israel,3playersLog_1378211416205.csv,8,500,540,TRUE,{ chips  'CTYellow':1 },{ chips  'CTRed':1 'CTPurple':2 },TRUE,105,200,{ chips  'CTRed':0 'CTPurple':0 'CTGreen':0 'grey78':0 'CTYellow':1 },{ chips  'CTRed':1 'CTPurple':2 'CTGreen':0 'grey78':0 'CTYellow':0 },115,170,2,(R:3,C:3),{ chips  'CTRed':6 'CTGreen':0 'CTPurple':2 'grey78':8 'CTYellow':5 },105,{ chips  'CTRed':33 'CTGreen':0 'CTPurple':7 'grey78':0 'CTYellow':0 },200,{ chips  'CTRed':27 'CTGreen':0 'CTPurple':0 'grey78':0 'CTYellow':7 },170,FALSE,,
Israel,3playersLog_1378211416205.csv,9,530,500,FALSE,{ chips  'CTRed':33 'CTPurple':4 },{ chips  'grey78':8 },FALSE,200,105,,,55,250,0,(R:3,C:3),{ chips  'CTRed':6 'CTGreen':0 'CTPurple':2 'grey78':8 'CTYellow':5 },105,{ chips  'CTRed':33 'CTGreen':0 'CTPurple':7 'grey78':0 'CTYellow':0 },200,{ chips  'CTRed':27 'CTGreen':0 'CTPurple':0 'grey78':0 'CTYellow':7 },170,TRUE,,
Israel,3playersLog_1378211416205.csv,9,540,500,FALSE,{ chips  'CTRed':1 },{ chips  'CTYellow':1 },FALSE,170,105,,,170,105,0,(R:3,C:3),{ chips  'CTRed':6 'CTGreen':0 'CTPurple':2 'grey78':8 'CTYellow':5 },105,{ chips  'CTRed':33 'CTGreen':0 'CTPurple':7 'grey78':0 'CTYellow':0 },200,{ chips  'CTRed':27 'CTGreen':0 'CTPurple':0 'grey78':0 'CTYellow':7 },170,FALSE,,
Israel,3playersLog_1378211416205.csv,10,500,530,TRUE,{ chips  'grey78':6 },{ chips  'CTRed':33 'CTPurple':7 },FALSE,105,200,,,275,30,1,(R:3,C:2),{ chips  'CTRed':6 'CTGreen':0 'CTPurple':2 'grey78':7 'CTYellow':5 },100,{ chips  'CTRed':33 'CTGreen':0 'CTPurple':7 'grey78':0 'CTYellow':0 },200,{ chips  'CTRed':27 'CTGreen':0 'CTPurple':0 'grey78':0 'CTYellow':7 },170,FALSE,,
Israel,3playersLog_1378211416205.csv,11,530,500,FALSE,{ chips  'CTRed':33 'CTPurple':3 },{ chips  'grey78':7 },TRUE,200,100,{ chips  'CTRed':33 'CTPurple':3 'CTYellow':0 },{ chips  'grey78':7 },55,245,9,(R:0,C:8),{ chips  'CTRed':39 'CTGreen':0 'CTPurple':1 'grey78':0 'CTYellow':0 },350,{ chips  'CTRed':0 'CTGreen':0 'CTPurple':4 'grey78':7 'CTYellow':0 },205,{ chips  'CTRed':27 'CTGreen':0 'CTPurple':0 'grey78':0 'CTYellow':7 },170,TRUE,,
Israel,3playersLog_1378211416205.csv,11,540,500,FALSE,{ chips  'CTRed':2 },{ chips  'CTYellow':1 },FALSE,170,100,,,165,105,9,(R:0,C:8),{ chips  'CTRed':39 'CTGreen':0 'CTPurple':1 'grey78':0 'CTYellow':0 },350,{ chips  'CTRed':0 'CTGreen':0 'CTPurple':4 'grey78':7 'CTYellow':0 },205,{ chips  'CTRed':27 'CTGreen':0 'CTPurple':0 'grey78':0 'CTYellow':7 },170,FALSE,,
Israel,3playersLog_1378211416205.csv,11,540,500,FALSE,{ chips  'CTRed':2 },{ chips  'CTYellow':1 },FALSE,170,100,,,165,105,9,(R:0,C:8),{ chips  'CTRed':39 'CTGreen':0 'CTPurple':1 'grey78':0 'CTYellow':0 },350,{ chips  'CTRed':0 'CTGreen':0 'CTPurple':4 'grey78':7 'CTYellow':0 },205,{ chips  'CTRed':27 'CTGreen':0 'CTPurple':0 'grey78':0 'CTYellow':7 },170,FALSE,,TRUE
Israel,3playersLog_1378211468878.csv,1,530,500,FALSE,{ chips  'CTRed':33 'CTPurple':7 },{ chips  'grey78':11 },FALSE,200,120,,,55,265,2,(R:4,C:3),{ chips  'CTRed':4 'CTGreen':0 'CTPurple':0 'grey78':8 'CTYellow':12 },120,{ chips  'CTRed':33 'CTGreen':0 'CTPurple':7 'grey78':0 'CTYellow':0 },200,{ chips  'CTRed':29 'CTGreen':0 'CTPurple':7 'grey78':2 'CTYellow':0 },190,TRUE,,
Israel,3playersLog_1378211468878.csv,1,540,500,FALSE,{ chips  'CTRed':4 },{ chips  'grey78':2 },TRUE,200,120,{ chips  'CTRed':4 'CTPurple':0 'CTGreen':0 'grey78':0 'CTYellow':0 },{ chips  'CTRed':0 'CTPurple':0 'CTGreen':0 'grey78':2 'CTYellow':0 },190,130,2,(R:4,C:3),{ chips  'CTRed':4 'CTGreen':0 'CTPurple':0 'grey78':8 'CTYellow':12 },120,{ chips  'CTRed':33 'CTGreen':0 'CTPurple':7 'grey78':0 'CTYellow':0 },200,{ chips  'CTRed':29 'CTGreen':0 'CTPurple':7 'grey78':2 'CTYellow':0 },190,FALSE,,
Israel,3playersLog_1378211468878.csv,2,500,530,TRUE,{ chips  'CTYellow':2 },{ chips  'CTPurple':5 },FALSE,120,200,,,135,185,1,(R:4,C:2),{ chips  'CTRed':4 'CTGreen':0 'CTPurple':0 'grey78':7 'CTYellow':12 },115,{ chips  'CTRed':33 'CTGreen':0 'CTPurple':7 'grey78':0 'CTYellow':0 },200,{ chips  'CTRed':29 'CTGreen':0 'CTPurple':7 'grey78':2 'CTYellow':0 },190,FALSE,,
Israel,3playersLog_1378211468878.csv,3,530,500,FALSE,{ chips  },{ chips  },TRUE,200,115,{ chips  'grey78':0 },{ chips  'CTRed':0 'CTPurple':0 },200,115,1,(R:3,C:2),{ chips  'CTRed':4 'CTGreen':0 'CTPurple':0 'grey78':6 'CTYellow':12 },110,{ chips  'CTRed':33 'CTGreen':0 'CTPurple':7 'grey78':0 'CTYellow':0 },200,{ chips  'CTRed':29 'CTGreen':0 'CTPurple':7 'grey78':2 'CTYellow':0 },190,FALSE,,
Israel,3playersLog_1378211468878.csv,4,500,540,TRUE,{ chips  'grey78':1 'CTYellow':2 },{ chips  'CTRed':6 'CTPurple':1 },TRUE,110,200,{ chips  'CTRed':0 'CTPurple':0 'CTGreen':0 'grey78':1 'CTYellow':2 },{ chips  'CTRed':6 'CTPurple':1 'CTGreen':0 'grey78':0 'CTYellow':0 },130,170,2,(R:2,C:1),{ chips  'CTRed':10 'CTGreen':0 'CTPurple':1 'grey78':3 'CTYellow':10 },120,{ chips  'CTRed':33 'CTGreen':0 'CTPurple':7 'grey78':0 'CTYellow':0 },200,{ chips  'CTRed':23 'CTGreen':0 'CTPurple':6 'grey78':3 'CTYellow':2 },170,FALSE,,
Israel,3playersLog_1378211468878.csv,5,530,500,FALSE,{ chips  },{ chips  },FALSE,200,120,,,200,120,1,(R:2,C:0),{ chips  'CTRed':12 'CTGreen':0 'CTPurple':0 'grey78':2 'CTYellow':10 },120,{ chips  'CTRed':33 'CTGreen':0 'CTPurple':7 'grey78':0 'CTYellow':0 },200,{ chips  'CTRed':21 'CTGreen':0 'CTPurple':7 'grey78':3 'CTYellow':2 },165,FALSE,,
Israel,3playersLog_1378211468878.csv,5,540,500,FALSE,{ chips  'CTRed':2 },{ chips  'CTPurple':1 },TRUE,170,120,{ chips  'CTRed':2 'CTPurple':0 'CTGreen':0 'grey78':0 'CTYellow':0 },{ chips  'CTRed':0 'CTPurple':1 'CTGreen':0 'grey78':0 'CTYellow':0 },165,125,1,(R:2,C:0),{ chips  'CTRed':12 'CTGreen':0 'CTPurple':0 'grey78':2 'CTYellow':10 },120,{ chips  'CTRed':33 'CTGreen':0 'CTPurple':7 'grey78':0 'CTYellow':0 },200,{ chips  'CTRed':21 'CTGreen':0 'CTPurple':7 'grey78':3 'CTYellow':2 },165,FALSE,,
Israel,3playersLog_1378211468878.csv,6,500,540,TRUE,{ chips  'CTRed':1 'CTYellow':3 },{ chips  'CTRed':3 'CTPurple':2 'grey78':2 },FALSE,120,165,,,135,150,0,(R:2,C:0),{ chips  'CTRed':12 'CTGreen':0 'CTPurple':0 'grey78':2 'CTYellow':10 },120,{ chips  'CTRed':33 'CTGreen':0 'CTPurple':7 'grey78':0 'CTYellow':0 },200,{ chips  'CTRed':21 'CTGreen':0 'CTPurple':7 'grey78':3 'CTYellow':2 },165,FALSE,,
Israel,3playersLog_1378211468878.csv,7,530,500,FALSE,{ chips  },{ chips  },FALSE,200,120,,,200,120,1,(R:1,C:0),{ chips  'CTRed':11 'CTGreen':0 'CTPurple':2 'grey78':3 'CTYellow':7 },115,{ chips  'CTRed':33 'CTGreen':0 'CTPurple':7 'grey78':0 'CTYellow':0 },200,{ chips  'CTRed':22 'CTGreen':0 'CTPurple':5 'grey78':1 'CTYellow':5 },165,FALSE,,
Israel,3playersLog_1378211468878.csv,7,540,500,FALSE,{ chips  'CTPurple':2 'grey78':2 },{ chips  'CTRed':1 'CTYellow':3 },TRUE,165,120,{ chips  'CTRed':0 'CTPurple':2 'CTGreen':0 'grey78':2 'CTYellow':0 },{ chips  'CTRed':1 'CTPurple':0 'CTGreen':0 'grey78':0 'CTYellow':3 },165,120,1,(R:1,C:0),{ chips  'CTRed':11 'CTGreen':0 'CTPurple':2 'grey78':3 'CTYellow':7 },115,{ chips  'CTRed':33 'CTGreen':0 'CTPurple':7 'grey78':0 'CTYellow':0 },200,{ chips  'CTRed':22 'CTGreen':0 'CTPurple':5 'grey78':1 'CTYellow':5 },165,FALSE,,
Israel,3playersLog_1378211468878.csv,8,500,540,TRUE,{ chips  'CTPurple':2 'CTYellow':2 },{ chips  'CTRed':6 'CTPurple':2 },TRUE,115,200,{ chips  'CTRed':0 'CTPurple':2 'CTGreen':0 'grey78':0 'CTYellow':2 },{ chips  'CTRed':6 'CTPurple':2 'CTGreen':0 'grey78':0 'CTYellow':0 },135,145,0,(R:1,C:0),{ chips  'CTRed':17 'CTGreen':0 'CTPurple':2 'grey78':3 'CTYellow':5 },135,{ chips  'CTRed':33 'CTGreen':0 'CTPurple':7 'grey78':0 'CTYellow':0 },200,{ chips  'CTRed':16 'CTGreen':0 'CTPurple':5 'grey78':1 'CTYellow':7 },145,FALSE,,
Israel,3playersLog_1378211468878.csv,9,530,500,FALSE,{ chips  },{ chips  },FALSE,200,135,,,200,135,1,(R:0,C:0),{ chips  'CTRed':21 'CTGreen':0 'CTPurple':0 'grey78':3 'CTYellow':5 },295,{ chips  'CTRed':33 'CTGreen':0 'CTPurple':7 'grey78':0 'CTYellow':0 },200,{ chips  'CTRed':12 'CTGreen':0 'CTPurple':7 'grey78':0 'CTYellow':7 },280,FALSE,,
Israel,3playersLog_1378211468878.csv,9,540,500,FALSE,{ chips  'CTRed':4 'grey78':1 },{ chips  'CTPurple':2 },TRUE,145,135,{ chips  'CTRed':4 'CTPurple':0 'CTGreen':0 'grey78':1 'CTYellow':0 },{ chips  'CTRed':0 'CTPurple':2 'CTGreen':0 'grey78':0 'CTYellow':0 },130,150,1,(R:0,C:0),{ chips  'CTRed':21 'CTGreen':0 'CTPurple':0 'grey78':3 'CTYellow':5 },295,{ chips  'CTRed':33 'CTGreen':0 'CTPurple':7 'grey78':0 'CTYellow':0 },200,{ chips  'CTRed':12 'CTGreen':0 'CTPurple':7 'grey78':0 'CTYellow':7 },280,FALSE,,
Israel,3playersLog_1378211468878.csv,9,540,500,FALSE,{ chips  'CTRed':4 'grey78':1 },{ chips  'CTPurple':2 },TRUE,145,135,{ chips  'CTRed':4 'CTPurple':0 'CTGreen':0 'grey78':1 'CTYellow':0 },{ chips  'CTRed':0 'CTPurple':2 'CTGreen':0 'grey78':0 'CTYellow':0 },130,150,1,(R:0,C:0),{ chips  'CTRed':21 'CTGreen':0 'CTPurple':0 'grey78':3 'CTYellow':5 },295,{ chips  'CTRed':33 'CTGreen':0 'CTPurple':7 'grey78':0 'CTYellow':0 },200,{ chips  'CTRed':12 'CTGreen':0 'CTPurple':7 'grey78':0 'CTYellow':7 },280,FALSE,,TRUE
Israel,3playersLog_1378971879255.csv,1,530,500,FALSE,{ chips  'CTRed':33 'CTPurple':7 },{ chips  'grey78':11 },TRUE,200,120,{ chips  'CTRed':33 'CTPurple':7 'CTYellow':0 },{ chips  'grey78':11 },55,265,1,(R:5,C:5),{ chips  'CTRed':33 'CTGreen':0 'CTPurple':7 'grey78':1 'CTYellow':11 },260,{ chips  'CTRed':0 'CTGreen':0 'CTPurple':0 'grey78':11 'CTYellow':0 },55,{ chips  'CTRed':33 'CTGreen':0 'CTPurple':7 'grey78':0 'CTYellow':0 },200,TRUE,,
Israel,3playersLog_1378971879255.csv,1,540,500,FALSE,{ chips  'CTPurple':4 },{ chips  'grey78':1 },IGNORED,200,120,,,185,135,1,(R:5,C:5),{ chips  'CTRed':33 'CTGreen':0 'CTPurple':7 'grey78':1 'CTYellow':11 },260,{ chips  'CTRed':0 'CTGreen':0 'CTPurple':0 'grey78':11 'CTYellow':0 },55,{ chips  'CTRed':33 'CTGreen':0 'CTPurple':7 'grey78':0 'CTYellow':0 },200,FALSE,,
Israel,3playersLog_1378971879255.csv,2,500,540,TRUE,{ chips  'CTYellow':4 },{ chips  'CTRed':10 'CTPurple':3 },FALSE,255,200,,,300,155,1,(R:3,C:5),{ chips  'CTRed':33 'CTGreen':0 'CTPurple':6 'grey78':1 'CTYellow':10 },250,{ chips  'CTRed':0 'CTGreen':0 'CTPurple':0 'grey78':11 'CTYellow':0 },55,{ chips  'CTRed':33 'CTGreen':0 'CTPurple':7 'grey78':0 'CTYellow':0 },200,FALSE,,
Israel,3playersLog_1378971879255.csv,3,530,500,FALSE,{ chips  },{ chips  },FALSE,55,250,,,55,250,1,(R:3,C:4),{ chips  'CTRed':50 'CTGreen':0 'CTPurple':10 'grey78':1 'CTYellow':5 },330,{ chips  'CTRed':0 'CTGreen':0 'CTPurple':0 'grey78':11 'CTYellow':0 },55,{ chips  'CTRed':16 'CTGreen':0 'CTPurple':2 'grey78':0 'CTYellow':5 },115,TRUE,,
Israel,3playersLog_1378971879255.csv,3,540,500,FALSE,{ chips  'CTRed':17 'CTPurple':5 },{ chips  'CTYellow':5 },TRUE,200,250,{ chips  'CTRed':17 'CTPurple':5 'CTGreen':0 'grey78':0 'CTYellow':0 },{ chips  'CTRed':0 'CTPurple':0 'CTGreen':0 'grey78':0 'CTYellow':5 },115,335,1,(R:3,C:4),{ chips  'CTRed':50 'CTGreen':0 'CTPurple':10 'grey78':1 'CTYellow':5 },330,{ chips  'CTRed':0 'CTGreen':0 'CTPurple':0 'grey78':11 'CTYellow':0 },55,{ chips  'CTRed':16 'CTGreen':0 'CTPurple':2 'grey78':0 'CTYellow':5 },115,FALSE,,
Israel,3playersLog_1378971879255.csv,4,500,530,TRUE,{ chips  'grey78':1 'CTYellow':5 },{ chips  'grey78':6 },IGNORED,330,55,,,330,55,1,(R:3,C:3),{ chips  'CTRed':50 'CTGreen':0 'CTPurple':9 'grey78':1 'CTYellow':5 },325,{ chips  'CTRed':0 'CTGreen':0 'CTPurple':0 'grey78':11 'CTYellow':0 },55,{ chips  'CTRed':16 'CTGreen':0 'CTPurple':2 'grey78':0 'CTYellow':5 },115,FALSE,,
Israel,3playersLog_1378971879255.csv,5,530,500,FALSE,{ chips  },{ chips  },FALSE,55,325,,,55,325,0,(R:3,C:3),{ chips  'CTRed':52 'CTGreen':0 'CTPurple':9 'grey78':1 'CTYellow':5 },335,{ chips  'CTRed':0 'CTGreen':0 'CTPurple':0 'grey78':11 'CTYellow':0 },55,{ chips  'CTRed':14 'CTGreen':0 'CTPurple':2 'grey78':0 'CTYellow':5 },105,TRUE,,
Israel,3playersLog_1378971879255.csv,5,540,500,FALSE,{ chips  'CTRed':2 },{ chips  },TRUE,115,325,{ chips  'CTRed':2 'CTPurple':0 'CTGreen':0 'grey78':0 'CTYellow':0 },{ chips  'CTRed':0 'CTPurple':0 'CTGreen':0 'grey78':0 'CTYellow':0 },105,335,0,(R:3,C:3),{ chips  'CTRed':52 'CTGreen':0 'CTPurple':9 'grey78':1 'CTYellow':5 },335,{ chips  'CTRed':0 'CTGreen':0 'CTPurple':0 'grey78':11 'CTYellow':0 },55,{ chips  'CTRed':14 'CTGreen':0 'CTPurple':2 'grey78':0 'CTYellow':5 },105,FALSE,,
Israel,3playersLog_1378971879255.csv,6,500,530,TRUE,{ chips  'CTRed':15 },{ chips  'grey78':6 },IGNORED,335,55,,,290,100,1,(R:3,C:2),{ chips  'CTRed':52 'CTGreen':0 'CTPurple':9 'grey78':0 'CTYellow':5 },330,{ chips  'CTRed':0 'CTGreen':0 'CTPurple':0 'grey78':11 'CTYellow':0 },55,{ chips  'CTRed':14 'CTGreen':0 'CTPurple':2 'grey78':0 'CTYellow':5 },105,FALSE,,
Israel,3playersLog_1378971879255.csv,7,530,500,FALSE,{ chips  },{ chips  },FALSE,55,330,,,55,330,0,(R:3,C:2),{ chips  'CTRed':52 'CTGreen':0 'CTPurple':9 'grey78':0 'CTYellow':5 },330,{ chips  'CTRed':0 'CTGreen':0 'CTPurple':0 'grey78':11 'CTYellow':0 },55,{ chips  'CTRed':14 'CTGreen':0 'CTPurple':2 'grey78':0 'CTYellow':5 },105,TRUE,,
Israel,3playersLog_1378971879255.csv,7,540,500,FALSE,{ chips  },{ chips  },FALSE,105,330,,,105,330,0,(R:3,C:2),{ chips  'CTRed':52 'CTGreen':0 'CTPurple':9 'grey78':0 'CTYellow':5 },330,{ chips  'CTRed':0 'CTGreen':0 'CTPurple':0 'grey78':11 'CTYellow':0 },55,{ chips  'CTRed':14 'CTGreen':0 'CTPurple':2 'grey78':0 'CTYellow':5 },105,FALSE,,
Israel,3playersLog_1378971879255.csv,8,500,540,TRUE,{ chips  'CTRed':10 },{ chips  'CTYellow':5 },IGNORED,330,105,,,305,130,1,(R:3,C:3),{ chips  'CTRed':52 'CTGreen':0 'CTPurple':8 'grey78':0 'CTYellow':5 },325,{ chips  'CTRed':0 'CTGreen':0 'CTPurple':0 'grey78':11 'CTYellow':0 },55,{ chips  'CTRed':14 'CTGreen':0 'CTPurple':2 'grey78':0 'CTYellow':5 },105,FALSE,,
Israel,3playersLog_1378971879255.csv,9,530,500,FALSE,{ chips  },{ chips  },FALSE,55,325,,,55,325,1,(R:3,C:4),{ chips  'CTRed':52 'CTGreen':0 'CTPurple':7 'grey78':0 'CTYellow':5 },320,{ chips  'CTRed':0 'CTGreen':0 'CTPurple':0 'grey78':11 'CTYellow':0 },55,{ chips  'CTRed':14 'CTGreen':0 'CTPurple':2 'grey78':0 'CTYellow':5 },105,TRUE,,
Israel,3playersLog_1378971879255.csv,9,540,500,FALSE,{ chips  },{ chips  },FALSE,105,325,,,105,325,1,(R:3,C:4),{ chips  'CTRed':52 'CTGreen':0 'CTPurple':7 'grey78':0 'CTYellow':5 },320,{ chips  'CTRed':0 'CTGreen':0 'CTPurple':0 'grey78':11 'CTYellow':0 },55,{ chips  'CTRed':14 'CTGreen':0 'CTPurple':2 'grey78':0 'CTYellow':5 },105,FALSE,,
Israel,3playersLog_1378971879255.csv,10,500,530,TRUE,{ chips  },{ chips  'grey78':6 },IGNORED,320,55,,,350,25,0,(R:3,C:4),{ chips  'CTRed':52 'CTGreen':0 'CTPurple':7 'grey78':0 'CTYellow':5 },320,{ chips  'CTRed':0 'CTGreen':0 'CTPurple':0 'grey78':11 'CTYellow':0 },55,{ chips  'CTRed':14 'CTGreen':0 'CTPurple':2 'grey78':0 'CTYellow':5 },105,FALSE,,
Israel,3playersLog_1378971879255.csv,11,530,500,FALSE,{ chips  },{ chips  },FALSE,55,320,,,55,320,1,(R:3,C:5),{ chips  'CTRed':52 'CTGreen':0 'CTPurple':6 'grey78':0 'CTYellow':5 },315,{ chips  'CTRed':0 'CTGreen':0 'CTPurple':0 'grey78':11 'CTYellow':0 },55,{ chips  'CTRed':14 'CTGreen':0 'CTPurple':2 'grey78':0 'CTYellow':5 },105,TRUE,,
Israel,3playersLog_1378971879255.csv,11,540,500,FALSE,{ chips  },{ chips  },FALSE,105,320,,,105,320,1,(R:3,C:5),{ chips  'CTRed':52 'CTGreen':0 'CTPurple':6 'grey78':0 'CTYellow':5 },315,{ chips  'CTRed':0 'CTGreen':0 'CTPurple':0 'grey78':11 'CTYellow':0 },55,{ chips  'CTRed':14 'CTGreen':0 'CTPurple':2 'grey78':0 'CTYellow':5 },105,FALSE,,
Israel,3playersLog_1378971879255.csv,12,500,540,TRUE,{ chips  },{ chips  'CTYellow':1 },FALSE,315,105,,,320,100,1,(R:3,C:6),{ chips  'CTRed':52 'CTGreen':0 'CTPurple':6 'grey78':0 'CTYellow':4 },310,{ chips  'CTRed':0 'CTGreen':0 'CTPurple':0 'grey78':11 'CTYellow':0 },55,{ chips  'CTRed':14 'CTGreen':0 'CTPurple':2 'grey78':0 'CTYellow':5 },105,FALSE,,
Israel,3playersLog_1378971879255.csv,13,530,500,FALSE,{ chips  },{ chips  },FALSE,55,310,,,55,310,1,(R:3,C:7),{ chips  'CTRed':52 'CTGreen':0 'CTPurple':6 'grey78':0 'CTYellow':3 },305,{ chips  'CTRed':0 'CTGreen':0 'CTPurple':0 'grey78':11 'CTYellow':0 },55,{ chips  'CTRed':14 'CTGreen':0 'CTPurple':2 'grey78':0 'CTYellow':5 },105,TRUE,,
Israel,3playersLog_1378971879255.csv,13,540,500,FALSE,{ chips  'CTPurple':2 },{ chips  'CTRed':10 },FALSE,105,310,,,145,270,1,(R:3,C:7),{ chips  'CTRed':52 'CTGreen':0 'CTPurple':6 'grey78':0 'CTYellow':3 },305,{ chips  'CTRed':0 'CTGreen':0 'CTPurple':0 'grey78':11 'CTYellow':0 },55,{ chips  'CTRed':14 'CTGreen':0 'CTPurple':2 'grey78':0 'CTYellow':5 },105,FALSE,,
Israel,3playersLog_1378971879255.csv,14,500,540,TRUE,{ chips  },{ chips  'CTYellow':1 },FALSE,305,105,,,310,100,1,(R:2,C:7),{ chips  'CTRed':52 'CTGreen':0 'CTPurple':6 'grey78':0 'CTYellow':2 },300,{ chips  'CTRed':0 'CTGreen':0 'CTPurple':0 'grey78':11 'CTYellow':0 },55,{ chips  'CTRed':14 'CTGreen':0 'CTPurple':2 'grey78':0 'CTYellow':5 },105,FALSE,,
Israel,3playersLog_1378971879255.csv,15,530,500,FALSE,{ chips  },{ chips  },FALSE,55,300,,,55,300,1,(R:2,C:8),{ chips  'CTRed':52 'CTGreen':0 'CTPurple':6 'grey78':0 'CTYellow':1 },295,{ chips  'CTRed':0 'CTGreen':0 'CTPurple':0 'grey78':11 'CTYellow':0 },55,{ chips  'CTRed':14 'CTGreen':0 'CTPurple':2 'grey78':0 'CTYellow':5 },105,TRUE,,
Israel,3playersLog_1378971879255.csv,15,540,500,FALSE,{ chips  },{ chips  },FALSE,105,300,,,105,300,1,(R:2,C:8),{ chips  'CTRed':52 'CTGreen':0 'CTPurple':6 'grey78':0 'CTYellow':1 },295,{ chips  'CTRed':0 'CTGreen':0 'CTPurple':0 'grey78':11 'CTYellow':0 },55,{ chips  'CTRed':14 'CTGreen':0 'CTPurple':2 'grey78':0 'CTYellow':5 },105,FALSE,,
Israel,3playersLog_1378971879255.csv,16,500,540,TRUE,{ chips  },{ chips  'CTYellow':1 },FALSE,295,105,,,300,100,0,(R:2,C:8),{ chips  'CTRed':52 'CTGreen':0 'CTPurple':6 'grey78':0 'CTYellow':1 },295,{ chips  'CTRed':0 'CTGreen':0 'CTPurple':0 'grey78':11 'CTYellow':0 },55,{ chips  'CTRed':14 'CTGreen':0 'CTPurple':2 'grey78':0 'CTYellow':5 },105,FALSE,,
Israel,3playersLog_1378971879255.csv,17,530,500,FALSE,{ chips  },{ chips  },FALSE,55,295,,,55,295,1,(R:1,C:8),{ chips  'CTRed':52 'CTGreen':0 'CTPurple':6 'grey78':0 'CTYellow':0 },290,{ chips  'CTRed':0 'CTGreen':0 'CTPurple':0 'grey78':11 'CTYellow':0 },55,{ chips  'CTRed':14 'CTGreen':0 'CTPurple':2 'grey78':0 'CTYellow':5 },105,TRUE,,
Israel,3playersLog_1378971879255.csv,17,540,500,FALSE,{ chips  },{ chips  },FALSE,105,295,,,105,295,1,(R:1,C:8),{ chips  'CTRed':52 'CTGreen':0 'CTPurple':6 'grey78':0 'CTYellow':0 },290,{ chips  'CTRed':0 'CTGreen':0 'CTPurple':0 'grey78':11 'CTYellow':0 },55,{ chips  'CTRed':14 'CTGreen':0 'CTPurple':2 'grey78':0 'CTYellow':5 },105,FALSE,,
Israel,3playersLog_1378971879255.csv,18,500,540,TRUE,{ chips  },{ chips  'CTYellow':1 },FALSE,290,105,,,295,100,0,(R:1,C:8),{ chips  'CTRed':52 'CTGreen':0 'CTPurple':6 'grey78':0 'CTYellow':0 },290,{ chips  'CTRed':0 'CTGreen':0 'CTPurple':0 'grey78':11 'CTYellow':0 },55,{ chips  'CTRed':14 'CTGreen':0 'CTPurple':2 'grey78':0 'CTYellow':5 },105,FALSE,,
Israel,3playersLog_1378971879255.csv,19,530,500,FALSE,{ chips  },{ chips  },FALSE,55,290,,,55,290,0,(R:1,C:8),{ chips  'CTRed':52 'CTGreen':0 'CTPurple':6 'grey78':0 'CTYellow':0 },290,{ chips  'CTRed':0 'CTGreen':0 'CTPurple':0 'grey78':11 'CTYellow':0 },55,{ chips  'CTRed':14 'CTGreen':0 'CTPurple':2 'grey78':0 'CTYellow':5 },105,TRUE,,
Israel,3playersLog_1378971879255.csv,19,540,500,FALSE,{ chips  },{ chips  },FALSE,105,290,,,105,290,0,(R:1,C:8),{ chips  'CTRed':52 'CTGreen':0 'CTPurple':6 'grey78':0 'CTYellow':0 },290,{ chips  'CTRed':0 'CTGreen':0 'CTPurple':0 'grey78':11 'CTYellow':0 },55,{ chips  'CTRed':14 'CTGreen':0 'CTPurple':2 'grey78':0 'CTYellow':5 },105,TRUE,,
Israel,3playersLog_1378971879255.csv,19,540,500,FALSE,{ chips  },{ chips  },FALSE,105,290,,,105,290,0,(R:1,C:8),{ chips  'CTRed':52 'CTGreen':0 'CTPurple':6 'grey78':0 'CTYellow':0 },290,{ chips  'CTRed':0 'CTGreen':0 'CTPurple':0 'grey78':11 'CTYellow':0 },55,{ chips  'CTRed':14 'CTGreen':0 'CTPurple':2 'grey78':0 'CTYellow':5 },105,TRUE,,FALSE
,,,,,,,,,,,,,,,,,,,,,,,,,,
,,,,,,,,,,,,,,,,,,,209.9137931,,147.8735632,,178.1321839,,,
