filename,round,propID,respID,IsPropCustomer,chipsToSend,chipsToReceive,accept,propCurrentScore,respCurrentScore,actualSent,ActualRcvd,propResultingScore,respResultingScore,#ofCustomerMovesInRound,customerRowPositionAfterMovePhase,customerColPositionAfterMovePhase,Player100ChipsAfterMovePhase,Player100ScoreAfterMovePhase,Player200ChipsAfterMovePhase,Player200ScoreAfterMovePhase,Player300ChipsAfterMovePhase,Player300ScoreAfterMovePhase,generosityLevel,ClientReachedGoal
3playersLog_1386105730358.csv,1,520,510,false,{ chips  'CTPurple':7 },{ chips  },IGNORED,200,120,,,,,0,(R:5,C:4),{ chips  'CTRed':12 'CTGreen':0 'CTPurple':0 'grey78':12 'CTYellow':8 },160,{ chips  'CTRed':33 'CTGreen':0 'CTPurple':7 'grey78':0 'CTYellow':0 },200,{ chips  'CTRed':21 'CTGreen':0 'CTPurple':7 'grey78':0 'CTYellow':4 },160
3playersLog_1386105730358.csv,1,540,510,false,{ chips  'CTRed':12 },{ chips  'CTYellow':4 },TRUE,200,120,{ chips  'CTRed':12 'CTPurple':0 'CTGreen':0 'grey78':0 'CTYellow':0 },{ chips  'CTRed':0 'CTPurple':0 'CTGreen':0 'grey78':0 'CTYellow':4 },160,160,0,(R:5,C:4),{ chips  'CTRed':12 'CTGreen':0 'CTPurple':0 'grey78':12 'CTYellow':8 },160,{ chips  'CTRed':33 'CTGreen':0 'CTPurple':7 'grey78':0 'CTYellow':0 },200,{ chips  'CTRed':21 'CTGreen':0 'CTPurple':7 'grey78':0 'CTYellow':4 },160
3playersLog_1386105730358.csv,2,510,540,true,{ chips  'CTYellow':7 },{ chips  'CTRed':21 'CTPurple':7 },FALSE,160,160,,,,,1,(R:5,C:3),{ chips  'CTRed':12 'CTGreen':0 'CTPurple':0 'grey78':11 'CTYellow':8 },155,{ chips  'CTRed':33 'CTGreen':0 'CTPurple':7 'grey78':0 'CTYellow':0 },200,{ chips  'CTRed':21 'CTGreen':0 'CTPurple':7 'grey78':0 'CTYellow':4 },160
3playersLog_1386105730358.csv,3,520,510,false,{ chips  'CTPurple':4 },{ chips  'grey78':4 },FALSE,200,155,,,,,0,(R:5,C:3),{ chips  'CTRed':12 'CTGreen':0 'CTPurple':0 'grey78':11 'CTYellow':8 },155,{ chips  'CTRed':33 'CTGreen':0 'CTPurple':7 'grey78':0 'CTYellow':0 },200,{ chips  'CTRed':21 'CTGreen':0 'CTPurple':7 'grey78':0 'CTYellow':4 },160
3playersLog_1386105730358.csv,3,540,510,false,{ chips  'CTRed':16 },{ chips  'CTYellow':8 },FALSE,160,155,,,,,0,(R:5,C:3),{ chips  'CTRed':12 'CTGreen':0 'CTPurple':0 'grey78':11 'CTYellow':8 },155,{ chips  'CTRed':33 'CTGreen':0 'CTPurple':7 'grey78':0 'CTYellow':0 },200,{ chips  'CTRed':21 'CTGreen':0 'CTPurple':7 'grey78':0 'CTYellow':4 },160
3playersLog_1386105730358.csv,4,510,540,true,{ chips  'CTYellow':7 },{ chips  'CTRed':21 'CTPurple':7 },TRUE,155,200,{ chips  'CTYellow':7 },{ chips  'CTRed':21 'CTPurple':7 'grey78':0 },260,55,8,(R:0,C:0),{ chips  'CTRed':33 'CTGreen':0 'CTPurple':5 'grey78':5 'CTYellow':1 },370,{ chips  'CTRed':33 'CTGreen':0 'CTPurple':7 'grey78':0 'CTYellow':0 },200,{ chips  'CTRed':0 'CTGreen':0 'CTPurple':0 'grey78':0 'CTYellow':11 },205
3playersLog_1386105730358.csv,,,,,,,,,,,,,,,,,,,,,,,,true
