Tue Dec 03 14:48:31 EST 2013	This is the CT debug logger; svn version 638; sep 27 09
Tue Dec 03 14:48:31 EST 2013	Tue Dec 03 14:48:31 EST 2013
Tue Dec 03 14:48:31 EST 2013	ID Number: 61249
Tue Dec 03 14:48:31 EST 2013	Creating board
Tue Dec 03 14:48:31 EST 2013	<colors>
Tue Dec 03 14:48:31 EST 2013	{ GamePalette  'CTPurple':0 'CTRed':1 'CTGreen':2 'grey78':3 'CTYellow':4 }
Tue Dec 03 14:48:31 EST 2013	<rows>
Tue Dec 03 14:48:31 EST 2013	6
Tue Dec 03 14:48:31 EST 2013	<columns>
Tue Dec 03 14:48:31 EST 2013	9
Tue Dec 03 14:48:31 EST 2013	<squaresColors>
Tue Dec 03 14:48:31 EST 2013	grey78 CTGreen CTGreen CTGreen CTGreen CTGreen CTGreen CTGreen CTYellow 
Tue Dec 03 14:48:31 EST 2013	grey78 CTPurple CTPurple CTPurple CTPurple CTPurple CTPurple CTPurple CTYellow 
Tue Dec 03 14:48:31 EST 2013	grey78 grey78 CTGreen CTGreen CTGreen CTGreen CTGreen CTYellow CTYellow 
Tue Dec 03 14:48:31 EST 2013	CTGreen grey78 grey78 CTPurple CTPurple CTPurple CTYellow CTYellow CTGreen 
Tue Dec 03 14:48:31 EST 2013	CTGreen CTGreen grey78 grey78 CTGreen CTYellow CTYellow CTGreen CTGreen 
Tue Dec 03 14:48:31 EST 2013	CTGreen CTGreen CTGreen grey78 CTGreen CTYellow CTGreen CTGreen CTGreen 
Tue Dec 03 14:48:31 EST 2013	</squareColors>
Tue Dec 03 14:48:31 EST 2013	<goalPosition>
Tue Dec 03 14:48:31 EST 2013	Goal position: (R:0,C:0)
Tue Dec 03 14:48:31 EST 2013	<goalPosition>
Tue Dec 03 14:48:31 EST 2013	Goal position: (R:0,C:0)
Tue Dec 03 14:48:31 EST 2013	<firstPlayerPossibleGoal1>
Tue Dec 03 14:48:31 EST 2013	0.5
Tue Dec 03 14:48:31 EST 2013	0
Tue Dec 03 14:48:31 EST 2013	0
Tue Dec 03 14:48:31 EST 2013	</firstPlayerPossibleGoal1>
Tue Dec 03 14:48:31 EST 2013	<firstPlayerPossibleGoal2>
Tue Dec 03 14:48:31 EST 2013	0.5
Tue Dec 03 14:48:31 EST 2013	0
Tue Dec 03 14:48:31 EST 2013	8
Tue Dec 03 14:48:31 EST 2013	</firstPlayerPossibleGoal2>
Tue Dec 03 14:48:31 EST 2013	<numberOfPlayers>
Tue Dec 03 14:48:31 EST 2013	3
Tue Dec 03 14:48:31 EST 2013	<firstPlayerChips>
Tue Dec 03 14:48:31 EST 2013	Setting chips for player: 510 id:0
Tue Dec 03 14:48:31 EST 2013	{ chips  'CTRed':0 'CTGreen':0 'CTPurple':0 'grey78':12 'CTYellow':12 }
Tue Dec 03 14:48:31 EST 2013	Player position: (R:5,C:4)
Tue Dec 03 14:48:31 EST 2013	Setting chips for player: 520 id:1
Tue Dec 03 14:48:31 EST 2013	{ chips  'CTRed':33 'CTGreen':0 'CTPurple':7 'grey78':0 'CTYellow':0 }
Tue Dec 03 14:48:31 EST 2013	Player position: (R:0,C:8)
Tue Dec 03 14:48:31 EST 2013	Setting chips for player: 540 id:2
Tue Dec 03 14:48:31 EST 2013	{ chips  'CTRed':33 'CTGreen':0 'CTPurple':7 'grey78':0 'CTYellow':0 }
Tue Dec 03 14:48:31 EST 2013	Player position: (R:0,C:0)
Tue Dec 03 14:48:31 EST 2013	Protocol: A New Phase Began: Strategy Prep Phase. loop is true
Tue Dec 03 14:48:31 EST 2013	---------- Beginning Strategy Prep Phase at round 0 ----------
Tue Dec 03 14:49:31 EST 2013	A Phase Ended: Strategy Prep Phase
Tue Dec 03 14:49:31 EST 2013	Protocol: A New Phase Began: Communication Phase. loop is true
Tue Dec 03 14:49:31 EST 2013	---------- Beginning Communication Phase at round 1 ----------
Tue Dec 03 14:50:04 EST 2013	Received communication message 
Tue Dec 03 14:50:04 EST 2013	From player: 520
Tue Dec 03 14:50:04 EST 2013	To player: 510
Tue Dec 03 14:50:04 EST 2013	Chips to send by proposer: { chips  'CTRed':10 'CTPurple':2 'CTGreen':0 'grey78':0 'CTYellow':0 }
Tue Dec 03 14:50:04 EST 2013	Chips to send by responder: { chips  'CTRed':0 'CTPurple':0 'CTGreen':0 'grey78':4 'CTYellow':0 }
Tue Dec 03 14:50:09 EST 2013	Received communication message 
Tue Dec 03 14:50:09 EST 2013	From player: 540
Tue Dec 03 14:50:09 EST 2013	To player: 510
Tue Dec 03 14:50:09 EST 2013	Chips to send by proposer: { chips  'CTRed':3 'CTPurple':3 'CTGreen':0 'grey78':0 'CTYellow':0 }
Tue Dec 03 14:50:09 EST 2013	Chips to send by responder: { chips  'CTRed':0 'CTPurple':0 'CTGreen':0 'grey78':0 'CTYellow':0 }
Tue Dec 03 14:50:09 EST 2013	Received communication message 
Tue Dec 03 14:50:09 EST 2013	Proposer 0 accepted? true
Tue Dec 03 14:50:09 EST 2013	A Phase Ended: Communication Phase
Tue Dec 03 14:50:09 EST 2013	Protocol: A New Phase Began: Movement Phase. loop is true
Tue Dec 03 14:50:09 EST 2013	---------- Beginning Movement Phase at round 1 ----------
Tue Dec 03 14:50:09 EST 2013	remove strategy phase. 
Tue Dec 03 14:50:09 EST 2013	Received communication message 
Tue Dec 03 14:50:09 EST 2013	Proposer 1 accepted? false
Tue Dec 03 14:50:54 EST 2013	A Phase Ended: Movement Phase
Tue Dec 03 14:50:54 EST 2013	Protocol: A New Phase Began: Feedback Phase. loop is true
Tue Dec 03 14:50:54 EST 2013	---------- Beginning Feedback Phase at round 1 ----------
Tue Dec 03 14:50:54 EST 2013	Number of consecutive no movements for player 510 is 1
Tue Dec 03 14:50:54 EST 2013	TDPlayerPosition is(R:5,C:4)goal location 0(R:0,C:0)goal location 1(R:0,C:8)
Tue Dec 03 14:50:54 EST 2013	ended is false
Tue Dec 03 14:50:59 EST 2013	A Phase Ended: Feedback Phase
Tue Dec 03 14:50:59 EST 2013	 numberofMoves in round 1 is 0
Tue Dec 03 14:50:59 EST 2013	Swaping roles:
Tue Dec 03 14:50:59 EST 2013	Protocol: A New Phase Began: Communication Phase. loop is true
Tue Dec 03 14:50:59 EST 2013	---------- Beginning Communication Phase at round 2 ----------
Tue Dec 03 14:51:05 EST 2013	Received communication message 
Tue Dec 03 14:51:05 EST 2013	From player: 510
Tue Dec 03 14:51:05 EST 2013	To player: 540
Tue Dec 03 14:51:05 EST 2013	Chips to send by proposer: { chips  'CTYellow':11 }
Tue Dec 03 14:51:05 EST 2013	Chips to send by responder: { chips  'CTRed':33 'CTPurple':7 'grey78':0 }
Tue Dec 03 14:51:21 EST 2013	Received communication message 
Tue Dec 03 14:51:21 EST 2013	Proposer 1 accepted? false
Tue Dec 03 14:51:21 EST 2013	case that we had one reject, and one accept
Tue Dec 03 14:51:21 EST 2013	A Phase Ended: Communication Phase
Tue Dec 03 14:51:21 EST 2013	Protocol: A New Phase Began: Movement Phase. loop is true
Tue Dec 03 14:51:21 EST 2013	---------- Beginning Movement Phase at round 2 ----------
Tue Dec 03 14:52:06 EST 2013	A Phase Ended: Movement Phase
Tue Dec 03 14:52:06 EST 2013	Protocol: A New Phase Began: Feedback Phase. loop is true
Tue Dec 03 14:52:06 EST 2013	---------- Beginning Feedback Phase at round 2 ----------
Tue Dec 03 14:52:06 EST 2013	Number of consecutive no movements for player 510 is 0
Tue Dec 03 14:52:06 EST 2013	TDPlayerPosition is(R:5,C:3)goal location 0(R:0,C:0)goal location 1(R:0,C:8)
Tue Dec 03 14:52:06 EST 2013	ended is false
Tue Dec 03 14:52:11 EST 2013	A Phase Ended: Feedback Phase
Tue Dec 03 14:52:11 EST 2013	 numberofMoves in round 2 is 1
Tue Dec 03 14:52:11 EST 2013	Swaping roles:
Tue Dec 03 14:52:11 EST 2013	Protocol: A New Phase Began: Communication Phase. loop is true
Tue Dec 03 14:52:11 EST 2013	---------- Beginning Communication Phase at round 3 ----------
Tue Dec 03 14:52:27 EST 2013	Received communication message 
Tue Dec 03 14:52:27 EST 2013	From player: 540
Tue Dec 03 14:52:27 EST 2013	To player: 510
Tue Dec 03 14:52:27 EST 2013	Chips to send by proposer: { chips  'CTRed':5 'CTPurple':2 'CTGreen':0 'grey78':0 'CTYellow':0 }
Tue Dec 03 14:52:27 EST 2013	Chips to send by responder: { chips  'CTRed':0 'CTPurple':0 'CTGreen':0 'grey78':0 'CTYellow':3 }
Tue Dec 03 14:52:50 EST 2013	Received communication message 
Tue Dec 03 14:52:50 EST 2013	From player: 520
Tue Dec 03 14:52:50 EST 2013	To player: 510
Tue Dec 03 14:52:50 EST 2013	Chips to send by proposer: { chips  'CTRed':0 'CTPurple':1 'CTGreen':0 'grey78':0 'CTYellow':0 }
Tue Dec 03 14:52:50 EST 2013	Chips to send by responder: { chips  'CTRed':0 'CTPurple':0 'CTGreen':0 'grey78':0 'CTYellow':0 }
Tue Dec 03 14:52:51 EST 2013	Received communication message 
Tue Dec 03 14:52:51 EST 2013	Proposer 1 accepted? true
Tue Dec 03 14:52:51 EST 2013	A Phase Ended: Communication Phase
Tue Dec 03 14:52:51 EST 2013	Protocol: A New Phase Began: Movement Phase. loop is true
Tue Dec 03 14:52:51 EST 2013	---------- Beginning Movement Phase at round 3 ----------
Tue Dec 03 14:52:51 EST 2013	Received communication message 
Tue Dec 03 14:52:51 EST 2013	Proposer 0 accepted? false
Tue Dec 03 14:53:35 EST 2013	A Phase Ended: Movement Phase
Tue Dec 03 14:53:35 EST 2013	Protocol: A New Phase Began: Feedback Phase. loop is true
Tue Dec 03 14:53:35 EST 2013	---------- Beginning Feedback Phase at round 3 ----------
Tue Dec 03 14:53:35 EST 2013	Number of consecutive no movements for player 510 is 1
Tue Dec 03 14:53:35 EST 2013	TDPlayerPosition is(R:5,C:3)goal location 0(R:0,C:0)goal location 1(R:0,C:8)
Tue Dec 03 14:53:35 EST 2013	ended is false
Tue Dec 03 14:53:40 EST 2013	A Phase Ended: Feedback Phase
Tue Dec 03 14:53:40 EST 2013	 numberofMoves in round 3 is 0
Tue Dec 03 14:53:40 EST 2013	Swaping roles:
Tue Dec 03 14:53:40 EST 2013	Protocol: A New Phase Began: Communication Phase. loop is true
Tue Dec 03 14:53:40 EST 2013	---------- Beginning Communication Phase at round 4 ----------
Tue Dec 03 14:53:42 EST 2013	Received communication message 
Tue Dec 03 14:53:42 EST 2013	From player: 510
Tue Dec 03 14:53:42 EST 2013	To player: 540
Tue Dec 03 14:53:42 EST 2013	Chips to send by proposer: { chips  'CTYellow':8 }
Tue Dec 03 14:53:42 EST 2013	Chips to send by responder: { chips  'CTRed':28 'CTPurple':5 'grey78':0 }
Tue Dec 03 14:53:59 EST 2013	Received communication message 
Tue Dec 03 14:53:59 EST 2013	Proposer 1 accepted? true
Tue Dec 03 14:53:59 EST 2013	A Phase Ended: Communication Phase
Tue Dec 03 14:53:59 EST 2013	Protocol: A New Phase Began: Movement Phase. loop is true
Tue Dec 03 14:53:59 EST 2013	---------- Beginning Movement Phase at round 4 ----------
Tue Dec 03 14:54:43 EST 2013	A Phase Ended: Movement Phase
Tue Dec 03 14:54:43 EST 2013	Protocol: A New Phase Began: Feedback Phase. loop is true
Tue Dec 03 14:54:43 EST 2013	---------- Beginning Feedback Phase at round 4 ----------
Tue Dec 03 14:54:43 EST 2013	The TD player reached the goal, end the game
Tue Dec 03 14:54:43 EST 2013	ended is true
Tue Dec 03 14:54:48 EST 2013	A Phase Ended: Feedback Phase
Tue Dec 03 14:54:48 EST 2013	 numberofMoves in round 4 is 8
Tue Dec 03 14:54:48 EST 2013	Loop status: false
Tue Dec 03 14:54:48 EST 2013	Player: 510 ,role: Proposer score is: 410
Tue Dec 03 14:54:48 EST 2013	Player: 510Game Ended
Tue Dec 03 14:54:48 EST 2013	Player: 540 ,role: Responder score is: 205
Tue Dec 03 14:54:48 EST 2013	Player: 540Game Ended
Tue Dec 03 14:54:48 EST 2013	Player: 520 ,role: Responder score is: 160
Tue Dec 03 14:54:48 EST 2013	Player: 520Game Ended
Tue Dec 03 14:54:48 EST 2013	Protocol: A New Phase Began: Communication Phase. loop is false
Tue Dec 03 14:54:48 EST 2013	---------- Beginning Communication Phase at round 4 ----------
