filename,round,propID,respID,IsPropCustomer,chipsToSend,chipsToReceive,accept,propCurrentScore,respCurrentScore,actualSent,ActualRcvd,propResultingScore,respResultingScore,#ofCustomerMovesInRound,customerRowPositionAfterMovePhase,customerColPositionAfterMovePhase,Player100ChipsAfterMovePhase,Player100ScoreAfterMovePhase,Player200ChipsAfterMovePhase,Player200ScoreAfterMovePhase,Player300ChipsAfterMovePhase,Player300ScoreAfterMovePhase,generosityLevel,ClientReachedGoal
3playersLog_1385478141775.csv,1,550,500,false,{ chips  'CTRed':11 'CTPurple':2 },{ chips  'grey78':3 },IGNORED,200,120,,,,,7,(R:1,C:1),{ chips  'CTRed':23 'CTGreen':0 'CTPurple':3 'grey78':6 'CTYellow':3 },175,{ chips  'CTRed':33 'CTGreen':0 'CTPurple':7 'grey78':0 'CTYellow':0 },200,{ chips  'CTRed':10 'CTGreen':0 'CTPurple':3 'grey78':0 'CTYellow':9 },110
3playersLog_1385478141775.csv,1,540,500,false,{ chips  'CTRed':23 'CTPurple':4 },{ chips  'CTYellow':9 },TRUE,200,120,{ chips  'CTRed':23 'CTPurple':4 'CTGreen':0 'grey78':0 'CTYellow':0 },{ chips  'CTRed':0 'CTPurple':0 'CTGreen':0 'grey78':0 'CTYellow':9 },110,210,7,(R:1,C:1),{ chips  'CTRed':23 'CTGreen':0 'CTPurple':3 'grey78':6 'CTYellow':3 },175,{ chips  'CTRed':33 'CTGreen':0 'CTPurple':7 'grey78':0 'CTYellow':0 },200,{ chips  'CTRed':10 'CTGreen':0 'CTPurple':3 'grey78':0 'CTYellow':9 },110
3playersLog_1385478141775.csv,2,500,550,true,{ chips  'grey78':6 },{ chips  'CTRed':33 'CTPurple':7 },TRUE,175,200,{ chips  'CTRed':0 'CTPurple':0 'CTGreen':0 'grey78':6 'CTYellow':0 },{ chips  'CTRed':33 'CTPurple':7 'CTGreen':0 'grey78':0 'CTYellow':0 },345,30,8,(R:0,C:8),{ chips  'CTRed':56 'CTGreen':0 'CTPurple':4 'grey78':0 'CTYellow':1 },455,{ chips  'CTRed':0 'CTGreen':0 'CTPurple':0 'grey78':6 'CTYellow':0 },180,{ chips  'CTRed':10 'CTGreen':0 'CTPurple':3 'grey78':0 'CTYellow':9 },110
3playersLog_1385478141775.csv,,,,,,,,,,,,,,,,,,,,,,,,true
