filename,round,propID,respID,IsPropCustomer,chipsToSend,chipsToReceive,accept,propCurrentScore,respCurrentScore,actualSent,ActualRcvd,propResultingScore,respResultingScore,#ofCustomerMovesInRound,customerRowPositionAfterMovePhase,customerColPositionAfterMovePhase,Player100ChipsAfterMovePhase,Player100ScoreAfterMovePhase,Player200ChipsAfterMovePhase,Player200ScoreAfterMovePhase,Player300ChipsAfterMovePhase,Player300ScoreAfterMovePhase,generosityLevel,ClientReachedGoal
CT_DbgLog_Agent_1355682896514.csv,1,200,100,false,{ chips  'CTYellow':9 },{ chips  },TRUE,245,0,{ chips  'CTRed':0 'CTPurple':0 'CTGreen':0 'grey78':0 'CTYellow':9 },{ chips  'CTRed':0 'CTPurple':0 'CTGreen':0 'grey78':0 'CTYellow':0 },200,45,9,(R:0,C:8),{ chips  'CTRed':18 'CTGreen':0 'CTPurple':0 'grey78':0 'CTYellow':0 },240,{ chips  'CTRed':33 'CTGreen':0 'CTPurple':7 'grey78':0 'CTYellow':0 },350,{ chips  'CTRed':33 'CTGreen':0 'CTPurple':7 'grey78':9 'CTYellow':0 },245
CT_DbgLog_Agent_1355682896514.csv,1,300,100,false,{ chips  'grey78':5 },{ chips  'CTRed':10 },IGNORED,245,45,,,,,9,(R:0,C:8),{ chips  'CTRed':18 'CTGreen':0 'CTPurple':0 'grey78':0 'CTYellow':0 },240,{ chips  'CTRed':33 'CTGreen':0 'CTPurple':7 'grey78':0 'CTYellow':0 },350,{ chips  'CTRed':33 'CTGreen':0 'CTPurple':7 'grey78':9 'CTYellow':0 },245
CT_DbgLog_Agent_1355682896514.csv,,,,,,,,,,,,,,,,,,,,,,,,true
