Participant Number ,Ip-Server,Date,Gender,Age,Nationality,Religion,Major,Year,How religious,Marital
19.11.13 16:30 3,1,Tue Nov 19 16:37:15 UTC+0200 2013,male,28,israel,jewish,software engineer,4,2,single
19.11.13 16:30 3,8,Tue Nov 19 16:38:48 UTC+0200 2013,male,24,french/israeli,jew,information system engineering,1,3,רווק
19.11.13 16.30 3,2,Tue Nov 19 16:40:19 UTC+0200 2013,נקבה,21,יהודי,דתיה,רוקחות,ב,4,single
19.11.13 17:45 3,2,Tue Nov 19 18:02:26 UTC+0200 2013,Male,21,Israeli,Muslim,Computer Science,Second,1,Single
19.11.13 17:45 3,1,Tue Nov 19 18:02:45 UTC+0200 2013,Male,24,Israeli,Jewish,Biotechnology enginering,2,1,Single
19.11.13 17:45 3,8,Tue Nov 19 18:02:29 UTC+0200 2013,female,24,israeli,juishe,midlle east,first,2,single
19.11.13-16:30 1,2,Tue Nov 19 16:34:52 UTC+0200 2013,female,22,israel,jewish,software engineering,3,1,single
19.11.13 16:30 1,1,Tue Nov 19 16:41:17 UTC+0200 2013,female,23,israeli,jewish,information system ,second,5,single
19.11.13 16:30 1,8,Tue Nov 19 16:49:36 UTC+0200 2013,woman,27,israeli,,educatiom,2,5,not married
19.11.13 17:45 1,8,Tue Nov 19 18:00:06 UTC+0200 2013,female,23,Israel,jewish,Aconomy,1,3,single
19.11.13 17:45 1,2,Tue Nov 19 18:01:47 UTC+0200 2013,male,25,israel,jewish,industrial management engineering,second,3,single
19.11.13 17:45 1,1,Tue Nov 19 18:03:25 UTC+0200 2013,זכר,27,ישראלי,יהודי,גיאולוגיה,3,2,
