filename,round,propID,respID,IsPropCustomer,chipsToSend,chipsToReceive,accept,propCurrentScore,respCurrentScore,actualSent,ActualRcvd,propResultingScore,respResultingScore,#ofCustomerMovesInRound,customerRowPositionAfterMovePhase,customerColPositionAfterMovePhase,Player100ChipsAfterMovePhase,Player100ScoreAfterMovePhase,Player200ChipsAfterMovePhase,Player200ScoreAfterMovePhase,Player300ChipsAfterMovePhase,Player300ScoreAfterMovePhase,generosityLevel,ClientReachedGoal
3playersLog_1370173658764.csv,1,200,100,false,{ chips  'CTRed':10 },{ chips  'grey78':5 },TRUE,200,120,{ chips  'CTRed':10 'CTPurple':0 'CTGreen':0 'grey78':0 'CTYellow':0 },{ chips  'CTRed':0 'CTPurple':0 'CTGreen':0 'grey78':5 'CTYellow':0 },175,145,8,(R:1,C:8),{ chips  'CTRed':10 'CTGreen':0 'CTPurple':0 'grey78':7 'CTYellow':4 },105,{ chips  'CTRed':23 'CTGreen':0 'CTPurple':7 'grey78':5 'CTYellow':0 },175,{ chips  'CTRed':33 'CTGreen':0 'CTPurple':7 'grey78':0 'CTYellow':0 },200
3playersLog_1370173658764.csv,1,300,100,false,{ chips  'CTRed':2 'CTPurple':2 },{ chips  'CTYellow':4 },FALSE,200,145,,,,,8,(R:1,C:8),{ chips  'CTRed':10 'CTGreen':0 'CTPurple':0 'grey78':7 'CTYellow':4 },105,{ chips  'CTRed':23 'CTGreen':0 'CTPurple':7 'grey78':5 'CTYellow':0 },175,{ chips  'CTRed':33 'CTGreen':0 'CTPurple':7 'grey78':0 'CTYellow':0 },200
3playersLog_1370173658764.csv,2,100,300,true,{ chips  'grey78':5 'CTYellow':4 },{ chips  'CTRed':23 'CTPurple':7 },FALSE,105,200,,,,,1,(R:0,C:8),{ chips  'CTRed':10 'CTGreen':0 'CTPurple':0 'grey78':7 'CTYellow':3 },250,{ chips  'CTRed':23 'CTGreen':0 'CTPurple':7 'grey78':5 'CTYellow':0 },325,{ chips  'CTRed':33 'CTGreen':0 'CTPurple':7 'grey78':0 'CTYellow':0 },200
3playersLog_1370173658764.csv,,,,,,,,,,,,,,,,,,,,,,,,true
