Fri Nov 22 15:37:24 EST 2013	This is the CT debug logger; svn version 638; sep 27 09
Fri Nov 22 15:37:24 EST 2013	Fri Nov 22 15:37:24 EST 2013
Fri Nov 22 15:37:24 EST 2013	ID Number: 64145
Fri Nov 22 15:37:24 EST 2013	Creating board
Fri Nov 22 15:37:24 EST 2013	<colors>
Fri Nov 22 15:37:24 EST 2013	{ GamePalette  'CTPurple':0 'CTRed':1 'CTGreen':2 'grey78':3 'CTYellow':4 }
Fri Nov 22 15:37:24 EST 2013	<rows>
Fri Nov 22 15:37:24 EST 2013	6
Fri Nov 22 15:37:24 EST 2013	<columns>
Fri Nov 22 15:37:24 EST 2013	9
Fri Nov 22 15:37:24 EST 2013	<squaresColors>
Fri Nov 22 15:37:24 EST 2013	grey78 CTGreen CTGreen CTGreen CTGreen CTGreen CTGreen CTGreen CTYellow 
Fri Nov 22 15:37:24 EST 2013	grey78 CTPurple CTPurple CTPurple CTPurple CTPurple CTPurple CTPurple CTYellow 
Fri Nov 22 15:37:24 EST 2013	grey78 grey78 CTGreen CTGreen CTGreen CTGreen CTGreen CTYellow CTYellow 
Fri Nov 22 15:37:24 EST 2013	CTGreen grey78 grey78 CTPurple CTPurple CTPurple CTYellow CTYellow CTGreen 
Fri Nov 22 15:37:24 EST 2013	CTGreen CTGreen grey78 grey78 CTGreen CTYellow CTYellow CTGreen CTGreen 
Fri Nov 22 15:37:24 EST 2013	CTGreen CTGreen CTGreen grey78 CTGreen CTYellow CTGreen CTGreen CTGreen 
Fri Nov 22 15:37:24 EST 2013	</squareColors>
Fri Nov 22 15:37:24 EST 2013	<goalPosition>
Fri Nov 22 15:37:24 EST 2013	Goal position: (R:0,C:0)
Fri Nov 22 15:37:24 EST 2013	<goalPosition>
Fri Nov 22 15:37:24 EST 2013	Goal position: (R:0,C:0)
Fri Nov 22 15:37:24 EST 2013	<firstPlayerPossibleGoal1>
Fri Nov 22 15:37:24 EST 2013	0.5
Fri Nov 22 15:37:24 EST 2013	0
Fri Nov 22 15:37:24 EST 2013	0
Fri Nov 22 15:37:24 EST 2013	</firstPlayerPossibleGoal1>
Fri Nov 22 15:37:24 EST 2013	<firstPlayerPossibleGoal2>
Fri Nov 22 15:37:24 EST 2013	0.5
Fri Nov 22 15:37:24 EST 2013	0
Fri Nov 22 15:37:24 EST 2013	8
Fri Nov 22 15:37:24 EST 2013	</firstPlayerPossibleGoal2>
Fri Nov 22 15:37:24 EST 2013	<numberOfPlayers>
Fri Nov 22 15:37:24 EST 2013	3
Fri Nov 22 15:37:24 EST 2013	<firstPlayerChips>
Fri Nov 22 15:37:24 EST 2013	Setting chips for player: 100 id:0
Fri Nov 22 15:37:24 EST 2013	{ chips  'CTRed':0 'CTGreen':0 'CTPurple':0 'grey78':12 'CTYellow':12 }
Fri Nov 22 15:37:24 EST 2013	Player position: (R:5,C:4)
Fri Nov 22 15:37:24 EST 2013	Setting chips for player: 200 id:1
Fri Nov 22 15:37:24 EST 2013	{ chips  'CTRed':33 'CTGreen':0 'CTPurple':7 'grey78':0 'CTYellow':0 }
Fri Nov 22 15:37:24 EST 2013	Player position: (R:0,C:8)
Fri Nov 22 15:37:24 EST 2013	Setting chips for player: 300 id:2
Fri Nov 22 15:37:24 EST 2013	{ chips  'CTRed':33 'CTGreen':0 'CTPurple':7 'grey78':0 'CTYellow':0 }
Fri Nov 22 15:37:24 EST 2013	Player position: (R:0,C:0)
Fri Nov 22 15:37:24 EST 2013	Protocol: A New Phase Began: Strategy Prep Phase. loop is true
Fri Nov 22 15:37:24 EST 2013	---------- Beginning Strategy Prep Phase at round 0 ----------
Fri Nov 22 15:38:24 EST 2013	A Phase Ended: Strategy Prep Phase
Fri Nov 22 15:38:24 EST 2013	Protocol: A New Phase Began: Communication Phase. loop is true
Fri Nov 22 15:38:24 EST 2013	---------- Beginning Communication Phase at round 1 ----------
Fri Nov 22 15:38:48 EST 2013	Received communication message 
Fri Nov 22 15:38:48 EST 2013	From player: 200
Fri Nov 22 15:38:48 EST 2013	To player: 100
Fri Nov 22 15:38:48 EST 2013	Chips to send by proposer: { chips  'CTRed':25 'CTPurple':0 'CTGreen':0 'grey78':0 'CTYellow':0 }
Fri Nov 22 15:38:48 EST 2013	Chips to send by responder: { chips  'CTRed':0 'CTPurple':0 'CTGreen':0 'grey78':11 'CTYellow':0 }
Fri Nov 22 15:39:06 EST 2013	Received communication message 
Fri Nov 22 15:39:06 EST 2013	From player: 300
Fri Nov 22 15:39:06 EST 2013	To player: 100
Fri Nov 22 15:39:06 EST 2013	Chips to send by proposer: { chips  'CTRed':32 'CTPurple':0 'CTGreen':0 'grey78':0 'CTYellow':0 }
Fri Nov 22 15:39:06 EST 2013	Chips to send by responder: { chips  'CTRed':0 'CTPurple':0 'CTGreen':0 'grey78':0 'CTYellow':12 }
Fri Nov 22 15:41:05 EST 2013	Received communication message 
Fri Nov 22 15:41:05 EST 2013	Proposer 1 accepted? true
Fri Nov 22 15:41:05 EST 2013	A Phase Ended: Communication Phase
Fri Nov 22 15:41:05 EST 2013	Protocol: A New Phase Began: Movement Phase. loop is true
Fri Nov 22 15:41:05 EST 2013	---------- Beginning Movement Phase at round 1 ----------
Fri Nov 22 15:41:05 EST 2013	remove strategy phase. 
Fri Nov 22 15:41:49 EST 2013	A Phase Ended: Movement Phase
Fri Nov 22 15:41:49 EST 2013	Protocol: A New Phase Began: Feedback Phase. loop is true
Fri Nov 22 15:41:49 EST 2013	---------- Beginning Feedback Phase at round 1 ----------
Fri Nov 22 15:41:49 EST 2013	The TD player reached the goal, end the game
Fri Nov 22 15:41:49 EST 2013	ended is true
Fri Nov 22 15:41:54 EST 2013	A Phase Ended: Feedback Phase
Fri Nov 22 15:41:54 EST 2013	 numberofMoves in round 1 is 9
Fri Nov 22 15:41:54 EST 2013	Loop status: false
Fri Nov 22 15:41:54 EST 2013	Player: 300 ,role: Proposer score is: 250
Fri Nov 22 15:41:54 EST 2013	Player: 300Game Ended
Fri Nov 22 15:41:54 EST 2013	Player: 100 ,role: Responder score is: 325
Fri Nov 22 15:41:54 EST 2013	Player: 100Game Ended
Fri Nov 22 15:41:54 EST 2013	Player: 200 ,role: Proposer score is: 200
Fri Nov 22 15:41:54 EST 2013	Player: 200Game Ended
Fri Nov 22 15:41:54 EST 2013	Protocol: A New Phase Began: Communication Phase. loop is false
Fri Nov 22 15:41:54 EST 2013	---------- Beginning Communication Phase at round 1 ----------
