filename,round,propID,respID,IsPropCustomer,chipsToSend,chipsToReceive,accept,propCurrentScore,respCurrentScore,actualSent,ActualRcvd,propResultingScore,respResultingScore,#ofCustomerMovesInRound,customerRowPositionAfterMovePhase,customerColPositionAfterMovePhase,Player100ChipsAfterMovePhase,Player100ScoreAfterMovePhase,Player200ChipsAfterMovePhase,Player200ScoreAfterMovePhase,Player300ChipsAfterMovePhase,Player300ScoreAfterMovePhase,generosityLevel,ClientReachedGoal
3playersLog_1378205795904.csv,1,530,520,false,{ chips  'CTRed':33 'CTPurple':7 },{ chips  'grey78':11 },TRUE,200,120,{ chips  'CTRed':33 'CTPurple':7 'CTYellow':0 },{ chips  'grey78':11 },55,265,4,(R:3,C:6),{ chips  'CTRed':33 'CTGreen':0 'CTPurple':7 'grey78':1 'CTYellow':8 },245,{ chips  'CTRed':0 'CTGreen':0 'CTPurple':0 'grey78':11 'CTYellow':0 },55,{ chips  'CTRed':33 'CTGreen':0 'CTPurple':7 'grey78':0 'CTYellow':0 },200
3playersLog_1378205795904.csv,2,520,540,true,{ chips  'CTPurple':7 'grey78':1 },{ chips  'CTRed':11 },TRUE,245,55,{ chips  'CTRed':0 'CTPurple':7 'CTGreen':0 'grey78':1 'CTYellow':0 },{ chips  'CTRed':11 'CTPurple':0 'CTGreen':0 'grey78':0 'CTYellow':0 },260,185,5,(R:0,C:8),{ chips  'CTRed':44 'CTGreen':0 'CTPurple':0 'grey78':0 'CTYellow':3 },385,{ chips  'CTRed':0 'CTGreen':0 'CTPurple':0 'grey78':11 'CTYellow':0 },205,{ chips  'CTRed':22 'CTGreen':0 'CTPurple':14 'grey78':1 'CTYellow':0 },185
3playersLog_1378205795904.csv,,,,,,,,,,,,,,,,,,,,,,,,true
