Thu Aug 22 18:05:34 IDT 2013	This is the CT debug logger; svn version 638; sep 27 09
Thu Aug 22 18:05:34 IDT 2013	Thu Aug 22 18:05:34 IDT 2013
Thu Aug 22 18:05:34 IDT 2013	ID Number: 64905
Thu Aug 22 18:05:34 IDT 2013	Creating board
Thu Aug 22 18:05:34 IDT 2013	<colors>
Thu Aug 22 18:05:34 IDT 2013	{ GamePalette  'CTPurple':0 'CTRed':1 'CTGreen':2 'grey78':3 'CTYellow':4 }
Thu Aug 22 18:05:34 IDT 2013	<rows>
Thu Aug 22 18:05:34 IDT 2013	6
Thu Aug 22 18:05:34 IDT 2013	<columns>
Thu Aug 22 18:05:34 IDT 2013	9
Thu Aug 22 18:05:34 IDT 2013	<squaresColors>
Thu Aug 22 18:05:34 IDT 2013	grey78 CTGreen CTGreen CTGreen CTGreen CTGreen CTGreen CTGreen CTYellow 
Thu Aug 22 18:05:34 IDT 2013	grey78 CTPurple CTPurple CTPurple CTPurple CTPurple CTPurple CTPurple CTYellow 
Thu Aug 22 18:05:34 IDT 2013	grey78 grey78 CTGreen CTGreen CTGreen CTGreen CTGreen CTYellow CTYellow 
Thu Aug 22 18:05:34 IDT 2013	CTGreen grey78 grey78 CTPurple CTPurple CTPurple CTYellow CTYellow CTGreen 
Thu Aug 22 18:05:34 IDT 2013	CTGreen CTGreen grey78 grey78 CTGreen CTYellow CTYellow CTGreen CTGreen 
Thu Aug 22 18:05:34 IDT 2013	CTGreen CTGreen CTGreen grey78 CTGreen CTYellow CTGreen CTGreen CTGreen 
Thu Aug 22 18:05:34 IDT 2013	</squareColors>
Thu Aug 22 18:05:34 IDT 2013	<goalPosition>
Thu Aug 22 18:05:34 IDT 2013	Goal position: (R:0,C:0)
Thu Aug 22 18:05:34 IDT 2013	<goalPosition>
Thu Aug 22 18:05:34 IDT 2013	Goal position: (R:0,C:0)
Thu Aug 22 18:05:34 IDT 2013	<firstPlayerPossibleGoal1>
Thu Aug 22 18:05:34 IDT 2013	0.5
Thu Aug 22 18:05:34 IDT 2013	0
Thu Aug 22 18:05:34 IDT 2013	0
Thu Aug 22 18:05:34 IDT 2013	</firstPlayerPossibleGoal1>
Thu Aug 22 18:05:34 IDT 2013	<firstPlayerPossibleGoal2>
Thu Aug 22 18:05:34 IDT 2013	0.5
Thu Aug 22 18:05:34 IDT 2013	0
Thu Aug 22 18:05:34 IDT 2013	8
Thu Aug 22 18:05:34 IDT 2013	</firstPlayerPossibleGoal2>
Thu Aug 22 18:05:34 IDT 2013	<numberOfPlayers>
Thu Aug 22 18:05:34 IDT 2013	3
Thu Aug 22 18:05:34 IDT 2013	<firstPlayerChips>
Thu Aug 22 18:05:34 IDT 2013	Setting chips for player: 500 id:0
Thu Aug 22 18:05:34 IDT 2013	{ chips  'CTRed':0 'CTGreen':0 'CTPurple':0 'grey78':12 'CTYellow':12 }
Thu Aug 22 18:05:34 IDT 2013	Player position: (R:5,C:4)
Thu Aug 22 18:05:34 IDT 2013	Setting chips for player: 530 id:1
Thu Aug 22 18:05:34 IDT 2013	{ chips  'CTRed':33 'CTGreen':0 'CTPurple':7 'grey78':0 'CTYellow':0 }
Thu Aug 22 18:05:34 IDT 2013	Player position: (R:0,C:8)
Thu Aug 22 18:05:34 IDT 2013	Setting chips for player: 540 id:2
Thu Aug 22 18:05:34 IDT 2013	{ chips  'CTRed':33 'CTGreen':0 'CTPurple':7 'grey78':0 'CTYellow':0 }
Thu Aug 22 18:05:34 IDT 2013	Player position: (R:0,C:0)
Thu Aug 22 18:05:34 IDT 2013	Protocol: A New Phase Began: Strategy Prep Phase. loop is true
Thu Aug 22 18:05:34 IDT 2013	---------- Beginning Strategy Prep Phase at round 0 ----------
Thu Aug 22 18:06:34 IDT 2013	A Phase Ended: Strategy Prep Phase
Thu Aug 22 18:06:34 IDT 2013	Protocol: A New Phase Began: Communication Phase. loop is true
Thu Aug 22 18:06:34 IDT 2013	---------- Beginning Communication Phase at round 1 ----------
Thu Aug 22 18:06:38 IDT 2013	Received communication message 
Thu Aug 22 18:06:38 IDT 2013	From player: 530
Thu Aug 22 18:06:38 IDT 2013	To player: 500
Thu Aug 22 18:06:38 IDT 2013	Chips to send by proposer: { chips  'CTRed':33 'CTPurple':7 }
Thu Aug 22 18:06:38 IDT 2013	Chips to send by responder: { chips  'grey78':11 }
Thu Aug 22 18:06:50 IDT 2013	Received communication message 
Thu Aug 22 18:06:50 IDT 2013	Proposer 0 accepted? true
Thu Aug 22 18:06:50 IDT 2013	A Phase Ended: Communication Phase
Thu Aug 22 18:06:50 IDT 2013	Protocol: A New Phase Began: Movement Phase. loop is true
Thu Aug 22 18:06:50 IDT 2013	---------- Beginning Movement Phase at round 1 ----------
Thu Aug 22 18:06:50 IDT 2013	remove strategy phase. 
Thu Aug 22 18:07:34 IDT 2013	A Phase Ended: Movement Phase
Thu Aug 22 18:07:34 IDT 2013	Protocol: A New Phase Began: Feedback Phase. loop is true
Thu Aug 22 18:07:34 IDT 2013	---------- Beginning Feedback Phase at round 1 ----------
Thu Aug 22 18:07:34 IDT 2013	Number of consecutive no movements for player 500 is 0
Thu Aug 22 18:07:34 IDT 2013	TDPlayerPosition is(R:4,C:5)goal location 0(R:0,C:0)goal location 1(R:0,C:8)
Thu Aug 22 18:07:34 IDT 2013	ended is false
Thu Aug 22 18:07:39 IDT 2013	A Phase Ended: Feedback Phase
Thu Aug 22 18:07:39 IDT 2013	 numberofMoves in round 1 is 2
Thu Aug 22 18:07:39 IDT 2013	Swaping roles:
Thu Aug 22 18:07:40 IDT 2013	Protocol: A New Phase Began: Communication Phase. loop is true
Thu Aug 22 18:07:40 IDT 2013	---------- Beginning Communication Phase at round 2 ----------
Thu Aug 22 18:08:58 IDT 2013	Received communication message 
Thu Aug 22 18:08:58 IDT 2013	From player: 500
Thu Aug 22 18:08:58 IDT 2013	To player: 530
Thu Aug 22 18:08:58 IDT 2013	Chips to send by proposer: { chips  'CTRed':3 'CTPurple':1 'CTGreen':0 'grey78':0 'CTYellow':0 }
Thu Aug 22 18:08:58 IDT 2013	Chips to send by responder: { chips  'CTRed':0 'CTPurple':0 'CTGreen':0 'grey78':6 'CTYellow':0 }
Thu Aug 22 18:08:58 IDT 2013	Received communication message 
Thu Aug 22 18:08:58 IDT 2013	Proposer 0 accepted? false
Thu Aug 22 18:08:58 IDT 2013	case that we had one reject, and one accept
Thu Aug 22 18:08:58 IDT 2013	A Phase Ended: Communication Phase
Thu Aug 22 18:08:58 IDT 2013	Protocol: A New Phase Began: Movement Phase. loop is true
Thu Aug 22 18:08:58 IDT 2013	---------- Beginning Movement Phase at round 2 ----------
Thu Aug 22 18:09:42 IDT 2013	A Phase Ended: Movement Phase
Thu Aug 22 18:09:42 IDT 2013	Protocol: A New Phase Began: Feedback Phase. loop is true
Thu Aug 22 18:09:42 IDT 2013	---------- Beginning Feedback Phase at round 2 ----------
Thu Aug 22 18:09:42 IDT 2013	Number of consecutive no movements for player 500 is 0
Thu Aug 22 18:09:42 IDT 2013	TDPlayerPosition is(R:4,C:6)goal location 0(R:0,C:0)goal location 1(R:0,C:8)
Thu Aug 22 18:09:42 IDT 2013	ended is false
Thu Aug 22 18:09:47 IDT 2013	A Phase Ended: Feedback Phase
Thu Aug 22 18:09:47 IDT 2013	 numberofMoves in round 2 is 1
Thu Aug 22 18:09:47 IDT 2013	Swaping roles:
Thu Aug 22 18:09:48 IDT 2013	Protocol: A New Phase Began: Communication Phase. loop is true
Thu Aug 22 18:09:48 IDT 2013	---------- Beginning Communication Phase at round 3 ----------
Thu Aug 22 18:09:48 IDT 2013	Received communication message 
Thu Aug 22 18:09:48 IDT 2013	From player: 530
Thu Aug 22 18:09:48 IDT 2013	To player: 500
Thu Aug 22 18:09:48 IDT 2013	Chips to send by proposer: { chips  'CTRed':0 'CTPurple':0 }
Thu Aug 22 18:09:48 IDT 2013	Chips to send by responder: { chips  'grey78':0 }
Thu Aug 22 18:09:58 IDT 2013	Received communication message 
Thu Aug 22 18:09:58 IDT 2013	Proposer 0 accepted? true
Thu Aug 22 18:09:58 IDT 2013	A Phase Ended: Communication Phase
Thu Aug 22 18:09:58 IDT 2013	Protocol: A New Phase Began: Movement Phase. loop is true
Thu Aug 22 18:09:58 IDT 2013	---------- Beginning Movement Phase at round 3 ----------
Thu Aug 22 18:10:42 IDT 2013	A Phase Ended: Movement Phase
Thu Aug 22 18:10:42 IDT 2013	Protocol: A New Phase Began: Feedback Phase. loop is true
Thu Aug 22 18:10:42 IDT 2013	---------- Beginning Feedback Phase at round 3 ----------
Thu Aug 22 18:10:42 IDT 2013	Number of consecutive no movements for player 500 is 0
Thu Aug 22 18:10:42 IDT 2013	TDPlayerPosition is(R:3,C:7)goal location 0(R:0,C:0)goal location 1(R:0,C:8)
Thu Aug 22 18:10:42 IDT 2013	ended is false
Thu Aug 22 18:10:47 IDT 2013	A Phase Ended: Feedback Phase
Thu Aug 22 18:10:47 IDT 2013	 numberofMoves in round 3 is 2
Thu Aug 22 18:10:47 IDT 2013	Swaping roles:
Thu Aug 22 18:10:47 IDT 2013	Protocol: A New Phase Began: Communication Phase. loop is true
Thu Aug 22 18:10:48 IDT 2013	---------- Beginning Communication Phase at round 4 ----------
Thu Aug 22 18:12:02 IDT 2013	Received communication message 
Thu Aug 22 18:12:02 IDT 2013	From player: 500
Thu Aug 22 18:12:02 IDT 2013	To player: 540
Thu Aug 22 18:12:02 IDT 2013	Chips to send by proposer: { chips  'CTRed':5 'CTPurple':0 'CTGreen':0 'grey78':0 'CTYellow':1 }
Thu Aug 22 18:12:02 IDT 2013	Chips to send by responder: { chips  'CTRed':12 'CTPurple':0 'CTGreen':0 'grey78':0 'CTYellow':0 }
Thu Aug 22 18:12:19 IDT 2013	Received communication message 
Thu Aug 22 18:12:19 IDT 2013	Proposer 1 accepted? false
Thu Aug 22 18:12:19 IDT 2013	case that we had one reject, and one accept
Thu Aug 22 18:12:19 IDT 2013	A Phase Ended: Communication Phase
Thu Aug 22 18:12:19 IDT 2013	Protocol: A New Phase Began: Movement Phase. loop is true
Thu Aug 22 18:12:19 IDT 2013	---------- Beginning Movement Phase at round 4 ----------
Thu Aug 22 18:13:03 IDT 2013	A Phase Ended: Movement Phase
Thu Aug 22 18:13:03 IDT 2013	Protocol: A New Phase Began: Feedback Phase. loop is true
Thu Aug 22 18:13:03 IDT 2013	---------- Beginning Feedback Phase at round 4 ----------
Thu Aug 22 18:13:03 IDT 2013	Number of consecutive no movements for player 500 is 0
Thu Aug 22 18:13:03 IDT 2013	TDPlayerPosition is(R:2,C:7)goal location 0(R:0,C:0)goal location 1(R:0,C:8)
Thu Aug 22 18:13:03 IDT 2013	ended is false
Thu Aug 22 18:13:08 IDT 2013	A Phase Ended: Feedback Phase
Thu Aug 22 18:13:08 IDT 2013	 numberofMoves in round 4 is 3
Thu Aug 22 18:13:08 IDT 2013	Swaping roles:
Thu Aug 22 18:13:08 IDT 2013	Protocol: A New Phase Began: Communication Phase. loop is true
Thu Aug 22 18:13:08 IDT 2013	---------- Beginning Communication Phase at round 5 ----------
Thu Aug 22 18:13:09 IDT 2013	Received communication message 
Thu Aug 22 18:13:09 IDT 2013	From player: 530
Thu Aug 22 18:13:09 IDT 2013	To player: 500
Thu Aug 22 18:13:09 IDT 2013	Chips to send by proposer: { chips  'CTRed':0 'CTPurple':0 }
Thu Aug 22 18:13:09 IDT 2013	Chips to send by responder: { chips  'grey78':0 }
Thu Aug 22 18:13:14 IDT 2013	Received communication message 
Thu Aug 22 18:13:14 IDT 2013	Proposer 0 accepted? false
Thu Aug 22 18:13:14 IDT 2013	case that we had one reject, and one accept
Thu Aug 22 18:13:43 IDT 2013	Received communication message 
Thu Aug 22 18:13:43 IDT 2013	From player: 540
Thu Aug 22 18:13:43 IDT 2013	To player: 500
Thu Aug 22 18:13:43 IDT 2013	Chips to send by proposer: { chips  'CTRed':0 'CTPurple':6 'CTGreen':0 'grey78':0 'CTYellow':0 }
Thu Aug 22 18:13:43 IDT 2013	Chips to send by responder: { chips  'CTRed':3 'CTPurple':0 'CTGreen':0 'grey78':1 'CTYellow':0 }
Thu Aug 22 18:14:02 IDT 2013	Received communication message 
Thu Aug 22 18:14:02 IDT 2013	Proposer 1 accepted? true
Thu Aug 22 18:14:02 IDT 2013	A Phase Ended: Communication Phase
Thu Aug 22 18:14:02 IDT 2013	Protocol: A New Phase Began: Movement Phase. loop is true
Thu Aug 22 18:14:02 IDT 2013	---------- Beginning Movement Phase at round 5 ----------
Thu Aug 22 18:14:46 IDT 2013	A Phase Ended: Movement Phase
Thu Aug 22 18:14:46 IDT 2013	Protocol: A New Phase Began: Feedback Phase. loop is true
Thu Aug 22 18:14:46 IDT 2013	---------- Beginning Feedback Phase at round 5 ----------
Thu Aug 22 18:14:46 IDT 2013	Number of consecutive no movements for player 500 is 0
Thu Aug 22 18:14:46 IDT 2013	TDPlayerPosition is(R:2,C:8)goal location 0(R:0,C:0)goal location 1(R:0,C:8)
Thu Aug 22 18:14:46 IDT 2013	ended is false
Thu Aug 22 18:14:51 IDT 2013	A Phase Ended: Feedback Phase
Thu Aug 22 18:14:51 IDT 2013	 numberofMoves in round 5 is 1
Thu Aug 22 18:14:51 IDT 2013	Swaping roles:
Thu Aug 22 18:14:52 IDT 2013	Protocol: A New Phase Began: Communication Phase. loop is true
Thu Aug 22 18:14:52 IDT 2013	---------- Beginning Communication Phase at round 6 ----------
Thu Aug 22 18:15:18 IDT 2013	Received communication message 
Thu Aug 22 18:15:18 IDT 2013	From player: 500
Thu Aug 22 18:15:18 IDT 2013	To player: 540
Thu Aug 22 18:15:18 IDT 2013	Chips to send by proposer: { chips  'CTRed':1 'CTPurple':2 'CTGreen':0 'grey78':0 'CTYellow':0 }
Thu Aug 22 18:15:18 IDT 2013	Chips to send by responder: { chips  'CTRed':7 'CTPurple':0 'CTGreen':0 'grey78':0 'CTYellow':0 }
Thu Aug 22 18:15:31 IDT 2013	Received communication message 
Thu Aug 22 18:15:31 IDT 2013	Proposer 1 accepted? true
Thu Aug 22 18:15:31 IDT 2013	A Phase Ended: Communication Phase
Thu Aug 22 18:15:31 IDT 2013	Protocol: A New Phase Began: Movement Phase. loop is true
Thu Aug 22 18:15:31 IDT 2013	---------- Beginning Movement Phase at round 6 ----------
Thu Aug 22 18:16:15 IDT 2013	A Phase Ended: Movement Phase
Thu Aug 22 18:16:15 IDT 2013	Protocol: A New Phase Began: Feedback Phase. loop is true
Thu Aug 22 18:16:15 IDT 2013	---------- Beginning Feedback Phase at round 6 ----------
Thu Aug 22 18:16:16 IDT 2013	Number of consecutive no movements for player 500 is 1
Thu Aug 22 18:16:16 IDT 2013	TDPlayerPosition is(R:2,C:8)goal location 0(R:0,C:0)goal location 1(R:0,C:8)
Thu Aug 22 18:16:16 IDT 2013	ended is false
Thu Aug 22 18:16:20 IDT 2013	A Phase Ended: Feedback Phase
Thu Aug 22 18:16:20 IDT 2013	 numberofMoves in round 6 is 0
Thu Aug 22 18:16:21 IDT 2013	Swaping roles:
Thu Aug 22 18:16:21 IDT 2013	Protocol: A New Phase Began: Communication Phase. loop is true
Thu Aug 22 18:16:21 IDT 2013	---------- Beginning Communication Phase at round 7 ----------
Thu Aug 22 18:16:21 IDT 2013	Received communication message 
Thu Aug 22 18:16:21 IDT 2013	From player: 530
Thu Aug 22 18:16:21 IDT 2013	To player: 500
Thu Aug 22 18:16:21 IDT 2013	Chips to send by proposer: { chips  'CTRed':0 'CTPurple':0 }
Thu Aug 22 18:16:21 IDT 2013	Chips to send by responder: { chips  'grey78':0 }
Thu Aug 22 18:16:23 IDT 2013	Received communication message 
Thu Aug 22 18:16:23 IDT 2013	Proposer 0 accepted? false
Thu Aug 22 18:16:23 IDT 2013	case that we had one reject, and one accept
Thu Aug 22 18:16:52 IDT 2013	Received communication message 
Thu Aug 22 18:16:52 IDT 2013	From player: 540
Thu Aug 22 18:16:52 IDT 2013	To player: 500
Thu Aug 22 18:16:52 IDT 2013	Chips to send by proposer: { chips  'CTRed':3 'CTPurple':2 'CTGreen':0 'grey78':0 'CTYellow':0 }
Thu Aug 22 18:16:52 IDT 2013	Chips to send by responder: { chips  'CTRed':2 'CTPurple':0 'CTGreen':0 'grey78':0 'CTYellow':3 }
Thu Aug 22 18:17:11 IDT 2013	Received communication message 
Thu Aug 22 18:17:11 IDT 2013	Proposer 1 accepted? false
Thu Aug 22 18:17:11 IDT 2013	case that we had one reject, and one accept
Thu Aug 22 18:17:11 IDT 2013	A Phase Ended: Communication Phase
Thu Aug 22 18:17:11 IDT 2013	Protocol: A New Phase Began: Movement Phase. loop is true
Thu Aug 22 18:17:11 IDT 2013	---------- Beginning Movement Phase at round 7 ----------
Thu Aug 22 18:17:56 IDT 2013	A Phase Ended: Movement Phase
Thu Aug 22 18:17:56 IDT 2013	Protocol: A New Phase Began: Feedback Phase. loop is true
Thu Aug 22 18:17:56 IDT 2013	---------- Beginning Feedback Phase at round 7 ----------
Thu Aug 22 18:17:56 IDT 2013	Number of consecutive no movements for player 500 is 0
Thu Aug 22 18:17:56 IDT 2013	TDPlayerPosition is(R:1,C:8)goal location 0(R:0,C:0)goal location 1(R:0,C:8)
Thu Aug 22 18:17:56 IDT 2013	ended is false
Thu Aug 22 18:18:01 IDT 2013	A Phase Ended: Feedback Phase
Thu Aug 22 18:18:01 IDT 2013	 numberofMoves in round 7 is 1
Thu Aug 22 18:18:01 IDT 2013	Swaping roles:
Thu Aug 22 18:18:01 IDT 2013	Protocol: A New Phase Began: Communication Phase. loop is true
Thu Aug 22 18:18:01 IDT 2013	---------- Beginning Communication Phase at round 8 ----------
Thu Aug 22 18:18:24 IDT 2013	Received communication message 
Thu Aug 22 18:18:24 IDT 2013	From player: 500
Thu Aug 22 18:18:24 IDT 2013	To player: 530
Thu Aug 22 18:18:24 IDT 2013	Chips to send by proposer: { chips  'CTRed':2 'CTPurple':1 'CTGreen':0 'grey78':0 'CTYellow':0 }
Thu Aug 22 18:18:24 IDT 2013	Chips to send by responder: { chips  'CTRed':0 'CTPurple':0 'CTGreen':0 'grey78':5 'CTYellow':0 }
Thu Aug 22 18:18:24 IDT 2013	Received communication message 
Thu Aug 22 18:18:24 IDT 2013	Proposer 0 accepted? false
Thu Aug 22 18:18:24 IDT 2013	case that we had one reject, and one accept
Thu Aug 22 18:18:24 IDT 2013	A Phase Ended: Communication Phase
Thu Aug 22 18:18:24 IDT 2013	Protocol: A New Phase Began: Movement Phase. loop is true
Thu Aug 22 18:18:24 IDT 2013	---------- Beginning Movement Phase at round 8 ----------
Thu Aug 22 18:19:09 IDT 2013	A Phase Ended: Movement Phase
Thu Aug 22 18:19:09 IDT 2013	Protocol: A New Phase Began: Feedback Phase. loop is true
Thu Aug 22 18:19:09 IDT 2013	---------- Beginning Feedback Phase at round 8 ----------
Thu Aug 22 18:19:09 IDT 2013	Number of consecutive no movements for player 500 is 1
Thu Aug 22 18:19:09 IDT 2013	TDPlayerPosition is(R:1,C:8)goal location 0(R:0,C:0)goal location 1(R:0,C:8)
Thu Aug 22 18:19:09 IDT 2013	ended is false
Thu Aug 22 18:19:14 IDT 2013	A Phase Ended: Feedback Phase
Thu Aug 22 18:19:14 IDT 2013	 numberofMoves in round 8 is 0
Thu Aug 22 18:19:14 IDT 2013	Swaping roles:
Thu Aug 22 18:19:14 IDT 2013	Protocol: A New Phase Began: Communication Phase. loop is true
Thu Aug 22 18:19:14 IDT 2013	---------- Beginning Communication Phase at round 9 ----------
Thu Aug 22 18:19:14 IDT 2013	Received communication message 
Thu Aug 22 18:19:14 IDT 2013	From player: 530
Thu Aug 22 18:19:14 IDT 2013	To player: 500
Thu Aug 22 18:19:14 IDT 2013	Chips to send by proposer: { chips  'CTRed':0 'CTPurple':0 }
Thu Aug 22 18:19:14 IDT 2013	Chips to send by responder: { chips  'grey78':0 }
Thu Aug 22 18:19:17 IDT 2013	Received communication message 
Thu Aug 22 18:19:17 IDT 2013	Proposer 0 accepted? false
Thu Aug 22 18:19:17 IDT 2013	case that we had one reject, and one accept
Thu Aug 22 18:19:58 IDT 2013	Received communication message 
Thu Aug 22 18:19:58 IDT 2013	From player: 540
Thu Aug 22 18:19:58 IDT 2013	To player: 500
Thu Aug 22 18:19:58 IDT 2013	Chips to send by proposer: { chips  'CTRed':0 'CTPurple':3 'CTGreen':0 'grey78':1 'CTYellow':0 }
Thu Aug 22 18:19:58 IDT 2013	Chips to send by responder: { chips  'CTRed':3 'CTPurple':1 'CTGreen':0 'grey78':0 'CTYellow':2 }
Thu Aug 22 18:20:08 IDT 2013	Received communication message 
Thu Aug 22 18:20:08 IDT 2013	Proposer 1 accepted? false
Thu Aug 22 18:20:08 IDT 2013	case that we had one reject, and one accept
Thu Aug 22 18:20:08 IDT 2013	A Phase Ended: Communication Phase
Thu Aug 22 18:20:08 IDT 2013	Protocol: A New Phase Began: Movement Phase. loop is true
Thu Aug 22 18:20:08 IDT 2013	---------- Beginning Movement Phase at round 9 ----------
Thu Aug 22 18:20:53 IDT 2013	A Phase Ended: Movement Phase
Thu Aug 22 18:20:53 IDT 2013	Protocol: A New Phase Began: Feedback Phase. loop is true
Thu Aug 22 18:20:53 IDT 2013	---------- Beginning Feedback Phase at round 9 ----------
Thu Aug 22 18:20:53 IDT 2013	The TD player reached the goal, end the game
Thu Aug 22 18:20:53 IDT 2013	ended is true
Thu Aug 22 18:20:58 IDT 2013	A Phase Ended: Feedback Phase
Thu Aug 22 18:20:58 IDT 2013	 numberofMoves in round 9 is 1
Thu Aug 22 18:20:58 IDT 2013	Loop status: false
Thu Aug 22 18:20:58 IDT 2013	Player: 540 ,role: Proposer score is: 170
Thu Aug 22 18:20:58 IDT 2013	Player: 540Game Ended
Thu Aug 22 18:20:58 IDT 2013	Player: 500 ,role: Responder score is: 390
Thu Aug 22 18:20:58 IDT 2013	Player: 500Game Ended
Thu Aug 22 18:20:58 IDT 2013	Player: 530 ,role: Proposer score is: 205
Thu Aug 22 18:20:58 IDT 2013	Player: 530Game Ended
Thu Aug 22 18:20:58 IDT 2013	Protocol: A New Phase Began: Communication Phase. loop is false
Thu Aug 22 18:20:58 IDT 2013	---------- Beginning Communication Phase at round 9 ----------
Thu Aug 22 18:23:58 IDT 2013	A Phase Ended: Communication Phase
Thu Aug 22 18:23:58 IDT 2013	Protocol: A New Phase Began: Movement Phase. loop is false
Thu Aug 22 18:23:58 IDT 2013	---------- Beginning Movement Phase at round 9 ----------
Thu Aug 22 18:24:43 IDT 2013	A Phase Ended: Movement Phase
Thu Aug 22 18:24:43 IDT 2013	Protocol: A New Phase Began: Feedback Phase. loop is false
Thu Aug 22 18:24:43 IDT 2013	---------- Beginning Feedback Phase at round 9 ----------
Thu Aug 22 18:24:43 IDT 2013	The TD player reached the goal, end the game
Thu Aug 22 18:24:43 IDT 2013	ended is true
Thu Aug 22 18:24:48 IDT 2013	A Phase Ended: Feedback Phase
Thu Aug 22 18:24:48 IDT 2013	 numberofMoves in round 9 is 0
Thu Aug 22 18:24:48 IDT 2013	Loop status: false
Thu Aug 22 18:24:48 IDT 2013	Player: 540 ,role: GameEnded score is: 170
Thu Aug 22 18:24:48 IDT 2013	Player: 540Game Ended
Thu Aug 22 18:24:48 IDT 2013	Player: 500 ,role: GameEnded score is: 390
Thu Aug 22 18:24:48 IDT 2013	Player: 500Game Ended
Thu Aug 22 18:24:48 IDT 2013	Player: 530 ,role: GameEnded score is: 205
Thu Aug 22 18:24:48 IDT 2013	Player: 530Game Ended
