Sun Dec 02 23:13:41 IST 2012	This is the CT debug logger; svn version 638; sep 27 09
Sun Dec 02 23:13:41 IST 2012	Sun Dec 02 23:13:41 IST 2012
Sun Dec 02 23:13:41 IST 2012	A new Alternative Offers game has began
Sun Dec 02 23:13:41 IST 2012	ID Number: 31835
Sun Dec 02 23:13:41 IST 2012	Creating board
Sun Dec 02 23:13:41 IST 2012	<colors>
Sun Dec 02 23:13:41 IST 2012	{ GamePalette  'CTRed':0 'CTPurple':1 'CTGreen':2 'grey78':3 'CTYellow':4 }
Sun Dec 02 23:13:41 IST 2012	<rows>
Sun Dec 02 23:13:41 IST 2012	7
Sun Dec 02 23:13:41 IST 2012	<columns>
Sun Dec 02 23:13:41 IST 2012	5
Sun Dec 02 23:13:41 IST 2012	<squaresColors>
Sun Dec 02 23:13:41 IST 2012	CTPurple CTRed CTRed CTGreen CTPurple 
Sun Dec 02 23:13:41 IST 2012	CTPurple grey78 CTPurple CTYellow CTPurple 
Sun Dec 02 23:13:41 IST 2012	CTPurple CTRed CTPurple CTGreen CTPurple 
Sun Dec 02 23:13:41 IST 2012	CTPurple grey78 CTPurple CTYellow CTPurple 
Sun Dec 02 23:13:41 IST 2012	CTPurple CTRed CTPurple CTGreen CTPurple 
Sun Dec 02 23:13:41 IST 2012	CTPurple grey78 CTPurple CTYellow CTPurple 
Sun Dec 02 23:13:41 IST 2012	CTPurple CTRed CTPurple CTGreen CTPurple 
Sun Dec 02 23:13:41 IST 2012	</squareColors>
Sun Dec 02 23:13:41 IST 2012	<goalPosition>
Sun Dec 02 23:13:41 IST 2012	Goal position: (R:0,C:2)
Sun Dec 02 23:13:41 IST 2012	<numberOfPlayers>
Sun Dec 02 23:13:41 IST 2012	2
Sun Dec 02 23:13:41 IST 2012	<firstPlayerChips>
Sun Dec 02 23:13:41 IST 2012	Setting chips for player: 337 id:0
Sun Dec 02 23:13:41 IST 2012	{ chips  'CTRed':5 'CTGreen':10 'CTPurple':0 'grey78':0 'CTYellow':9 }
Sun Dec 02 23:13:41 IST 2012	Player position: (R:6,C:0)
Sun Dec 02 23:13:41 IST 2012	Setting chips for player: 310 id:1
Sun Dec 02 23:13:41 IST 2012	{ chips  'CTRed':1 'CTGreen':13 'CTPurple':0 'grey78':10 'CTYellow':0 }
Sun Dec 02 23:13:41 IST 2012	Player position: (R:6,C:4)
Sun Dec 02 23:13:41 IST 2012	Protocol: A New Phase Began: Strategy Prep Phase
Sun Dec 02 23:13:41 IST 2012	Protocol: Strategy Preparation phase, Round: 0
Sun Dec 02 23:13:41 IST 2012	Maximum number of rounds with no consecutive movement is 3
Sun Dec 02 23:13:41 IST 2012	In begin comm. phase, set counter offers count to: 0
Sun Dec 02 23:13:41 IST 2012	In begin comm. phase, get counter offers returned: 0
Sun Dec 02 23:14:02 IST 2012	A Phase Ended: Strategy Prep Phase
Sun Dec 02 23:14:02 IST 2012	Protocol: A New Phase Began: Communication Phase
Sun Dec 02 23:14:02 IST 2012	Protocol: Communication phase, Round: 0
Sun Dec 02 23:15:02 IST 2012	Received communication message 
Sun Dec 02 23:15:02 IST 2012	From player: 337
Sun Dec 02 23:15:02 IST 2012	To player: 310
Sun Dec 02 23:15:02 IST 2012	Message type: basicproposal
Sun Dec 02 23:15:02 IST 2012	Chips to send by proposer: { chips  'CTGreen':1 }
Sun Dec 02 23:15:02 IST 2012	Chips to send by responder: { chips  'grey78':1 }
Sun Dec 02 23:15:14 IST 2012	Received communication message 
Sun Dec 02 23:15:14 IST 2012	From player: 310
Sun Dec 02 23:15:14 IST 2012	To player: 337
Sun Dec 02 23:15:14 IST 2012	Message type: basicproposaldiscussion
Sun Dec 02 23:15:14 IST 2012	Player 310 accepted offer
Sun Dec 02 23:15:14 IST 2012	Prop accepted, set counter offers count to: 0
Sun Dec 02 23:15:14 IST 2012	Prop accepted, get counter offers returned: 0
Sun Dec 02 23:15:14 IST 2012	A Phase Ended: Communication Phase
Sun Dec 02 23:15:14 IST 2012	Protocol: A New Phase Began: Exchange Phase
Sun Dec 02 23:15:14 IST 2012	Protocol: Exchange phase, Round: 0
Sun Dec 02 23:15:14 IST 2012	In begin exch.phase, get counter offers returned: 0
Sun Dec 02 23:15:43 IST 2012	A Phase Ended: Exchange Phase
Sun Dec 02 23:15:43 IST 2012	Proposer 337 sent: { chips  'CTRed':0 'CTPurple':0 'CTGreen':1 'grey78':0 'CTYellow':0 }
Sun Dec 02 23:15:43 IST 2012	Responder 310 sent: { chips  'CTRed':0 'CTPurple':0 'CTGreen':0 'grey78':1 'CTYellow':0 }
Sun Dec 02 23:15:43 IST 2012	Protocol: A New Phase Began: Movement Phase
Sun Dec 02 23:15:43 IST 2012	Protocol: Movement phase, Round: 0
Sun Dec 02 23:16:03 IST 2012	A Phase Ended: Movement Phase
Sun Dec 02 23:16:03 IST 2012	Swaping roles:
Sun Dec 02 23:16:03 IST 2012	Proposer is: 310
Sun Dec 02 23:16:03 IST 2012	Responder is: 337
Sun Dec 02 23:16:03 IST 2012	Protocol: A New Phase Began: Feedback Phase
Sun Dec 02 23:16:03 IST 2012	Protocol: Feedback phase, Round: 0
Sun Dec 02 23:16:03 IST 2012	Number of consecutive no movements for player 337 is 1
Sun Dec 02 23:16:03 IST 2012	Number of consecutive no movements for player 310 is 1
Sun Dec 02 23:16:08 IST 2012	A Phase Ended: Feedback Phase
Sun Dec 02 23:16:08 IST 2012	Protocol: A New Phase Began: Communication Phase
Sun Dec 02 23:16:08 IST 2012	Protocol: Communication phase, Round: 1
Sun Dec 02 23:16:50 IST 2012	Received communication message 
Sun Dec 02 23:16:50 IST 2012	From player: 310
Sun Dec 02 23:16:50 IST 2012	To player: 337
Sun Dec 02 23:16:50 IST 2012	Message type: basicproposal
Sun Dec 02 23:16:50 IST 2012	Chips to send by proposer: { chips  'CTRed':0 'CTPurple':0 'CTGreen':0 'grey78':2 'CTYellow':0 }
Sun Dec 02 23:16:50 IST 2012	Chips to send by responder: { chips  'CTRed':0 'CTPurple':0 'CTGreen':0 'grey78':0 'CTYellow':2 }
Sun Dec 02 23:17:33 IST 2012	Received communication message 
Sun Dec 02 23:17:33 IST 2012	From player: 337
Sun Dec 02 23:17:33 IST 2012	To player: 310
Sun Dec 02 23:17:33 IST 2012	Message type: basicproposaldiscussion
Sun Dec 02 23:17:33 IST 2012	Player 337 rejected offer
Sun Dec 02 23:17:33 IST 2012	Swaping roles:
Sun Dec 02 23:17:33 IST 2012	Proposer is: 337
Sun Dec 02 23:17:33 IST 2012	Responder is: 310
Sun Dec 02 23:17:33 IST 2012	Prop rejected, set counter offers count to: 1
Sun Dec 02 23:17:33 IST 2012	Prop rejected, get counter offers returned: 1
Sun Dec 02 23:17:37 IST 2012	Slept 4 seconds
Sun Dec 02 23:17:37 IST 2012	Sent role changed msgs
Sun Dec 02 23:18:37 IST 2012	Received communication message 
Sun Dec 02 23:18:37 IST 2012	From player: 337
Sun Dec 02 23:18:37 IST 2012	To player: 310
Sun Dec 02 23:18:37 IST 2012	Message type: basicproposal
Sun Dec 02 23:18:37 IST 2012	Chips to send by proposer: { chips  'CTRed':0 'CTPurple':0 'CTGreen':0 'grey78':0 'CTYellow':1 }
Sun Dec 02 23:18:37 IST 2012	Chips to send by responder: { chips  'CTRed':0 'CTPurple':0 'CTGreen':1 'grey78':1 'CTYellow':0 }
Sun Dec 02 23:18:48 IST 2012	Received communication message 
Sun Dec 02 23:18:48 IST 2012	From player: 310
Sun Dec 02 23:18:48 IST 2012	To player: 337
Sun Dec 02 23:18:48 IST 2012	Message type: basicproposaldiscussion
Sun Dec 02 23:18:48 IST 2012	Player 310 accepted offer
Sun Dec 02 23:18:48 IST 2012	Prop accepted, set counter offers count to: 0
Sun Dec 02 23:18:48 IST 2012	Prop accepted, get counter offers returned: 0
Sun Dec 02 23:18:48 IST 2012	A Phase Ended: Communication Phase
Sun Dec 02 23:18:48 IST 2012	Protocol: A New Phase Began: Exchange Phase
Sun Dec 02 23:18:48 IST 2012	Protocol: Exchange phase, Round: 1
Sun Dec 02 23:18:48 IST 2012	In begin exch.phase, get counter offers returned: 0
Sun Dec 02 23:19:17 IST 2012	A Phase Ended: Exchange Phase
Sun Dec 02 23:19:17 IST 2012	Proposer 337 sent: { chips  'CTRed':0 'CTPurple':0 'CTGreen':0 'grey78':0 'CTYellow':1 }
Sun Dec 02 23:19:17 IST 2012	Responder 310 sent: { chips  'CTRed':0 'CTPurple':0 'CTGreen':0 'grey78':1 'CTYellow':0 }
Sun Dec 02 23:19:17 IST 2012	Protocol: A New Phase Began: Movement Phase
Sun Dec 02 23:19:17 IST 2012	Protocol: Movement phase, Round: 1
Sun Dec 02 23:19:37 IST 2012	A Phase Ended: Movement Phase
Sun Dec 02 23:19:37 IST 2012	Protocol: A New Phase Began: Feedback Phase
Sun Dec 02 23:19:37 IST 2012	Protocol: Feedback phase, Round: 1
Sun Dec 02 23:19:37 IST 2012	Number of consecutive no movements for player 337 is 2
Sun Dec 02 23:19:37 IST 2012	Number of consecutive no movements for player 310 is 2
Sun Dec 02 23:19:42 IST 2012	A Phase Ended: Feedback Phase
Sun Dec 02 23:19:42 IST 2012	Protocol: A New Phase Began: Communication Phase
Sun Dec 02 23:19:42 IST 2012	Protocol: Communication phase, Round: 2
Sun Dec 02 23:20:42 IST 2012	Received communication message 
Sun Dec 02 23:20:42 IST 2012	From player: 337
Sun Dec 02 23:20:42 IST 2012	To player: 310
Sun Dec 02 23:20:42 IST 2012	Message type: basicproposal
Sun Dec 02 23:20:42 IST 2012	Chips to send by proposer: { chips  'CTYellow':1 }
Sun Dec 02 23:20:42 IST 2012	Chips to send by responder: { chips  'CTGreen':1 'grey78':1 }
Sun Dec 02 23:20:53 IST 2012	Received communication message 
Sun Dec 02 23:20:53 IST 2012	From player: 310
Sun Dec 02 23:20:53 IST 2012	To player: 337
Sun Dec 02 23:20:53 IST 2012	Message type: basicproposaldiscussion
Sun Dec 02 23:20:53 IST 2012	Player 310 rejected offer
Sun Dec 02 23:20:53 IST 2012	Swaping roles:
Sun Dec 02 23:20:53 IST 2012	Proposer is: 310
Sun Dec 02 23:20:53 IST 2012	Responder is: 337
Sun Dec 02 23:20:53 IST 2012	Prop rejected, set counter offers count to: 1
Sun Dec 02 23:20:53 IST 2012	Prop rejected, get counter offers returned: 1
Sun Dec 02 23:20:57 IST 2012	Slept 4 seconds
Sun Dec 02 23:20:57 IST 2012	Sent role changed msgs
Sun Dec 02 23:21:21 IST 2012	Received communication message 
Sun Dec 02 23:21:21 IST 2012	From player: 310
Sun Dec 02 23:21:21 IST 2012	To player: 337
Sun Dec 02 23:21:21 IST 2012	Message type: basicproposal
Sun Dec 02 23:21:21 IST 2012	Chips to send by proposer: { chips  'CTRed':0 'CTPurple':0 'CTGreen':3 'grey78':1 'CTYellow':0 }
Sun Dec 02 23:21:21 IST 2012	Chips to send by responder: { chips  'CTRed':0 'CTPurple':0 'CTGreen':0 'grey78':0 'CTYellow':2 }
Sun Dec 02 23:22:01 IST 2012	Received communication message 
Sun Dec 02 23:22:01 IST 2012	From player: 337
Sun Dec 02 23:22:01 IST 2012	To player: 310
Sun Dec 02 23:22:01 IST 2012	Message type: basicproposaldiscussion
Sun Dec 02 23:22:01 IST 2012	Player 337 rejected offer
Sun Dec 02 23:22:01 IST 2012	Set counter offers count to: 0
Sun Dec 02 23:22:01 IST 2012	A Phase Ended: Communication Phase
Sun Dec 02 23:22:01 IST 2012	Protocol: A New Phase Began: Exchange Phase
Sun Dec 02 23:22:01 IST 2012	Protocol: Exchange phase, Round: 2
Sun Dec 02 23:22:01 IST 2012	In begin exch.phase, get counter offers returned: 0
Sun Dec 02 23:22:41 IST 2012	A Phase Ended: Exchange Phase
Sun Dec 02 23:22:41 IST 2012	Responder 337 sent: { chips  }
Sun Dec 02 23:22:41 IST 2012	Protocol: A New Phase Began: Movement Phase
Sun Dec 02 23:22:41 IST 2012	Protocol: Movement phase, Round: 2
Sun Dec 02 23:22:41 IST 2012	Player 337 moved to (R:6,C:1)
Sun Dec 02 23:22:41 IST 2012	Player 310 moved to (R:6,C:3)
Sun Dec 02 23:23:01 IST 2012	A Phase Ended: Movement Phase
Sun Dec 02 23:23:01 IST 2012	Protocol: A New Phase Began: Feedback Phase
Sun Dec 02 23:23:01 IST 2012	Protocol: Feedback phase, Round: 2
Sun Dec 02 23:23:01 IST 2012	Number of consecutive no movements for player 337 is 0
Sun Dec 02 23:23:01 IST 2012	Number of consecutive no movements for player 310 is 0
Sun Dec 02 23:23:06 IST 2012	A Phase Ended: Feedback Phase
Sun Dec 02 23:23:06 IST 2012	Protocol: A New Phase Began: Communication Phase
Sun Dec 02 23:23:06 IST 2012	Protocol: Communication phase, Round: 3
Sun Dec 02 23:23:24 IST 2012	Received communication message 
Sun Dec 02 23:23:24 IST 2012	From player: 310
Sun Dec 02 23:23:24 IST 2012	To player: 337
Sun Dec 02 23:23:24 IST 2012	Message type: basicproposal
Sun Dec 02 23:23:24 IST 2012	Chips to send by proposer: { chips  'CTRed':0 'CTPurple':0 'CTGreen':3 'grey78':1 'CTYellow':0 }
Sun Dec 02 23:23:24 IST 2012	Chips to send by responder: { chips  'CTRed':0 'CTPurple':0 'CTGreen':0 'grey78':0 'CTYellow':2 }
Sun Dec 02 23:24:03 IST 2012	Received communication message 
Sun Dec 02 23:24:03 IST 2012	From player: 337
Sun Dec 02 23:24:03 IST 2012	To player: 310
Sun Dec 02 23:24:03 IST 2012	Message type: basicproposaldiscussion
Sun Dec 02 23:24:03 IST 2012	Player 337 rejected offer
Sun Dec 02 23:24:03 IST 2012	Swaping roles:
Sun Dec 02 23:24:03 IST 2012	Proposer is: 337
Sun Dec 02 23:24:03 IST 2012	Responder is: 310
Sun Dec 02 23:24:03 IST 2012	Prop rejected, set counter offers count to: 1
Sun Dec 02 23:24:03 IST 2012	Prop rejected, get counter offers returned: 1
Sun Dec 02 23:24:07 IST 2012	Slept 4 seconds
Sun Dec 02 23:24:07 IST 2012	Sent role changed msgs
Sun Dec 02 23:25:07 IST 2012	Received communication message 
Sun Dec 02 23:25:07 IST 2012	From player: 337
Sun Dec 02 23:25:07 IST 2012	To player: 310
Sun Dec 02 23:25:07 IST 2012	Message type: basicproposal
Sun Dec 02 23:25:07 IST 2012	Chips to send by proposer: { chips  'CTRed':0 'CTPurple':0 'CTGreen':0 'grey78':0 'CTYellow':1 }
Sun Dec 02 23:25:07 IST 2012	Chips to send by responder: { chips  'CTRed':0 'CTPurple':0 'CTGreen':0 'grey78':2 'CTYellow':0 }
Sun Dec 02 23:25:18 IST 2012	Received communication message 
Sun Dec 02 23:25:18 IST 2012	From player: 310
Sun Dec 02 23:25:18 IST 2012	To player: 337
Sun Dec 02 23:25:18 IST 2012	Message type: basicproposaldiscussion
Sun Dec 02 23:25:18 IST 2012	Player 310 rejected offer
Sun Dec 02 23:25:18 IST 2012	Set counter offers count to: 0
Sun Dec 02 23:25:18 IST 2012	A Phase Ended: Communication Phase
Sun Dec 02 23:25:18 IST 2012	Protocol: A New Phase Began: Exchange Phase
Sun Dec 02 23:25:18 IST 2012	Protocol: Exchange phase, Round: 3
Sun Dec 02 23:25:18 IST 2012	In begin exch.phase, get counter offers returned: 0
Sun Dec 02 23:25:58 IST 2012	A Phase Ended: Exchange Phase
Sun Dec 02 23:25:58 IST 2012	Proposer 337 sent: { chips  }
Sun Dec 02 23:25:58 IST 2012	Protocol: A New Phase Began: Movement Phase
Sun Dec 02 23:25:58 IST 2012	Protocol: Movement phase, Round: 3
Sun Dec 02 23:26:18 IST 2012	A Phase Ended: Movement Phase
Sun Dec 02 23:26:18 IST 2012	Protocol: A New Phase Began: Feedback Phase
Sun Dec 02 23:26:18 IST 2012	Protocol: Feedback phase, Round: 3
Sun Dec 02 23:26:18 IST 2012	Number of consecutive no movements for player 337 is 1
Sun Dec 02 23:26:18 IST 2012	Number of consecutive no movements for player 310 is 1
Sun Dec 02 23:26:23 IST 2012	A Phase Ended: Feedback Phase
Sun Dec 02 23:26:23 IST 2012	Protocol: A New Phase Began: Communication Phase
Sun Dec 02 23:26:23 IST 2012	Protocol: Communication phase, Round: 4
Sun Dec 02 23:27:23 IST 2012	Received communication message 
Sun Dec 02 23:27:23 IST 2012	From player: 337
Sun Dec 02 23:27:23 IST 2012	To player: 310
Sun Dec 02 23:27:23 IST 2012	Message type: basicproposal
Sun Dec 02 23:27:23 IST 2012	Chips to send by proposer: { chips  'CTYellow':1 }
Sun Dec 02 23:27:23 IST 2012	Chips to send by responder: { chips  'CTGreen':1 'grey78':1 }
Sun Dec 02 23:27:31 IST 2012	Received communication message 
Sun Dec 02 23:27:31 IST 2012	From player: 310
Sun Dec 02 23:27:31 IST 2012	To player: 337
Sun Dec 02 23:27:31 IST 2012	Message type: basicproposaldiscussion
Sun Dec 02 23:27:31 IST 2012	Player 310 rejected offer
Sun Dec 02 23:27:31 IST 2012	Swaping roles:
Sun Dec 02 23:27:31 IST 2012	Proposer is: 310
Sun Dec 02 23:27:31 IST 2012	Responder is: 337
Sun Dec 02 23:27:31 IST 2012	Prop rejected, set counter offers count to: 1
Sun Dec 02 23:27:31 IST 2012	Prop rejected, get counter offers returned: 1
Sun Dec 02 23:27:35 IST 2012	Slept 4 seconds
Sun Dec 02 23:27:35 IST 2012	Sent role changed msgs
Sun Dec 02 23:27:57 IST 2012	Received communication message 
Sun Dec 02 23:27:57 IST 2012	From player: 310
Sun Dec 02 23:27:57 IST 2012	To player: 337
Sun Dec 02 23:27:57 IST 2012	Message type: basicproposal
Sun Dec 02 23:27:57 IST 2012	Chips to send by proposer: { chips  'CTRed':0 'CTPurple':0 'CTGreen':6 'grey78':1 'CTYellow':0 }
Sun Dec 02 23:27:57 IST 2012	Chips to send by responder: { chips  'CTRed':0 'CTPurple':0 'CTGreen':0 'grey78':0 'CTYellow':2 }
Sun Dec 02 23:28:34 IST 2012	Received communication message 
Sun Dec 02 23:28:34 IST 2012	From player: 337
Sun Dec 02 23:28:34 IST 2012	To player: 310
Sun Dec 02 23:28:34 IST 2012	Message type: basicproposaldiscussion
Sun Dec 02 23:28:34 IST 2012	Player 337 rejected offer
Sun Dec 02 23:28:34 IST 2012	Set counter offers count to: 0
Sun Dec 02 23:28:34 IST 2012	A Phase Ended: Communication Phase
Sun Dec 02 23:28:34 IST 2012	Protocol: A New Phase Began: Exchange Phase
Sun Dec 02 23:28:34 IST 2012	Protocol: Exchange phase, Round: 4
Sun Dec 02 23:28:34 IST 2012	In begin exch.phase, get counter offers returned: 0
Sun Dec 02 23:29:14 IST 2012	A Phase Ended: Exchange Phase
Sun Dec 02 23:29:14 IST 2012	Responder 337 sent: { chips  }
Sun Dec 02 23:29:14 IST 2012	Protocol: A New Phase Began: Movement Phase
Sun Dec 02 23:29:14 IST 2012	Protocol: Movement phase, Round: 4
Sun Dec 02 23:29:35 IST 2012	A Phase Ended: Movement Phase
Sun Dec 02 23:29:35 IST 2012	Protocol: A New Phase Began: Feedback Phase
Sun Dec 02 23:29:35 IST 2012	Protocol: Feedback phase, Round: 4
Sun Dec 02 23:29:35 IST 2012	Number of consecutive no movements for player 337 is 2
Sun Dec 02 23:29:35 IST 2012	Number of consecutive no movements for player 310 is 2
Sun Dec 02 23:29:40 IST 2012	A Phase Ended: Feedback Phase
Sun Dec 02 23:29:40 IST 2012	Protocol: A New Phase Began: Communication Phase
Sun Dec 02 23:29:40 IST 2012	Protocol: Communication phase, Round: 5
Sun Dec 02 23:29:55 IST 2012	Received communication message 
Sun Dec 02 23:29:55 IST 2012	From player: 310
Sun Dec 02 23:29:55 IST 2012	To player: 337
Sun Dec 02 23:29:55 IST 2012	Message type: basicproposal
Sun Dec 02 23:29:55 IST 2012	Chips to send by proposer: { chips  'CTRed':0 'CTPurple':0 'CTGreen':0 'grey78':1 'CTYellow':0 }
Sun Dec 02 23:29:55 IST 2012	Chips to send by responder: { chips  'CTRed':0 'CTPurple':0 'CTGreen':1 'grey78':0 'CTYellow':1 }
Sun Dec 02 23:30:28 IST 2012	Received communication message 
Sun Dec 02 23:30:28 IST 2012	From player: 337
Sun Dec 02 23:30:28 IST 2012	To player: 310
Sun Dec 02 23:30:28 IST 2012	Message type: basicproposaldiscussion
Sun Dec 02 23:30:28 IST 2012	Player 337 accepted offer
Sun Dec 02 23:30:28 IST 2012	Prop accepted, set counter offers count to: 0
Sun Dec 02 23:30:28 IST 2012	Prop accepted, get counter offers returned: 0
Sun Dec 02 23:30:28 IST 2012	A Phase Ended: Communication Phase
Sun Dec 02 23:30:28 IST 2012	Protocol: A New Phase Began: Exchange Phase
Sun Dec 02 23:30:28 IST 2012	Protocol: Exchange phase, Round: 5
Sun Dec 02 23:30:28 IST 2012	In begin exch.phase, get counter offers returned: 0
Sun Dec 02 23:30:57 IST 2012	A Phase Ended: Exchange Phase
Sun Dec 02 23:30:57 IST 2012	Proposer 310 sent: { chips  }
Sun Dec 02 23:30:57 IST 2012	Responder 337 sent: { chips  'CTRed':0 'CTPurple':0 'CTGreen':0 'grey78':0 'CTYellow':1 }
Sun Dec 02 23:30:57 IST 2012	Protocol: A New Phase Began: Movement Phase
Sun Dec 02 23:30:57 IST 2012	Protocol: Movement phase, Round: 5
Sun Dec 02 23:30:57 IST 2012	Player 310 moved to (R:5,C:3)
Sun Dec 02 23:30:57 IST 2012	Player 337 moved to (R:5,C:1)
Sun Dec 02 23:31:17 IST 2012	A Phase Ended: Movement Phase
Sun Dec 02 23:31:17 IST 2012	Swaping roles:
Sun Dec 02 23:31:17 IST 2012	Proposer is: 337
Sun Dec 02 23:31:17 IST 2012	Responder is: 310
Sun Dec 02 23:31:17 IST 2012	Protocol: A New Phase Began: Feedback Phase
Sun Dec 02 23:31:17 IST 2012	Protocol: Feedback phase, Round: 5
Sun Dec 02 23:31:17 IST 2012	Number of consecutive no movements for player 337 is 0
Sun Dec 02 23:31:17 IST 2012	Number of consecutive no movements for player 310 is 0
Sun Dec 02 23:31:22 IST 2012	A Phase Ended: Feedback Phase
Sun Dec 02 23:31:22 IST 2012	Protocol: A New Phase Began: Communication Phase
Sun Dec 02 23:31:22 IST 2012	Protocol: Communication phase, Round: 6
Sun Dec 02 23:32:22 IST 2012	Received communication message 
Sun Dec 02 23:32:22 IST 2012	From player: 337
Sun Dec 02 23:32:22 IST 2012	To player: 310
Sun Dec 02 23:32:22 IST 2012	Message type: basicproposal
Sun Dec 02 23:32:22 IST 2012	Chips to send by proposer: { chips  'CTYellow':1 }
Sun Dec 02 23:32:22 IST 2012	Chips to send by responder: { chips  'CTGreen':2 'grey78':1 }
Sun Dec 02 23:32:30 IST 2012	Received communication message 
Sun Dec 02 23:32:30 IST 2012	From player: 310
Sun Dec 02 23:32:30 IST 2012	To player: 337
Sun Dec 02 23:32:30 IST 2012	Message type: basicproposaldiscussion
Sun Dec 02 23:32:30 IST 2012	Player 310 accepted offer
Sun Dec 02 23:32:30 IST 2012	Prop accepted, set counter offers count to: 0
Sun Dec 02 23:32:30 IST 2012	Prop accepted, get counter offers returned: 0
Sun Dec 02 23:32:30 IST 2012	A Phase Ended: Communication Phase
Sun Dec 02 23:32:30 IST 2012	Protocol: A New Phase Began: Exchange Phase
Sun Dec 02 23:32:30 IST 2012	Protocol: Exchange phase, Round: 6
Sun Dec 02 23:32:30 IST 2012	In begin exch.phase, get counter offers returned: 0
Sun Dec 02 23:32:49 IST 2012	A Phase Ended: Exchange Phase
Sun Dec 02 23:32:49 IST 2012	Proposer 337 sent: { chips  'CTRed':0 'CTPurple':0 'CTGreen':0 'grey78':0 'CTYellow':1 }
Sun Dec 02 23:32:49 IST 2012	Responder 310 sent: { chips  }
Sun Dec 02 23:32:49 IST 2012	Protocol: A New Phase Began: Movement Phase
Sun Dec 02 23:32:49 IST 2012	Protocol: Movement phase, Round: 6
Sun Dec 02 23:32:49 IST 2012	Player 310 moved to (R:4,C:3)
Sun Dec 02 23:33:10 IST 2012	A Phase Ended: Movement Phase
Sun Dec 02 23:33:10 IST 2012	Swaping roles:
Sun Dec 02 23:33:10 IST 2012	Proposer is: 310
Sun Dec 02 23:33:10 IST 2012	Responder is: 337
Sun Dec 02 23:33:10 IST 2012	Protocol: A New Phase Began: Feedback Phase
Sun Dec 02 23:33:10 IST 2012	Protocol: Feedback phase, Round: 6
Sun Dec 02 23:33:10 IST 2012	Number of consecutive no movements for player 337 is 1
Sun Dec 02 23:33:10 IST 2012	Number of consecutive no movements for player 310 is 0
Sun Dec 02 23:33:15 IST 2012	A Phase Ended: Feedback Phase
Sun Dec 02 23:33:15 IST 2012	Protocol: A New Phase Began: Communication Phase
Sun Dec 02 23:33:15 IST 2012	Protocol: Communication phase, Round: 7
Sun Dec 02 23:33:33 IST 2012	Received communication message 
Sun Dec 02 23:33:33 IST 2012	From player: 310
Sun Dec 02 23:33:33 IST 2012	To player: 337
Sun Dec 02 23:33:33 IST 2012	Message type: basicproposal
Sun Dec 02 23:33:33 IST 2012	Chips to send by proposer: { chips  'CTRed':0 'CTPurple':0 'CTGreen':0 'grey78':1 'CTYellow':0 }
Sun Dec 02 23:33:33 IST 2012	Chips to send by responder: { chips  'CTRed':0 'CTPurple':0 'CTGreen':3 'grey78':0 'CTYellow':0 }
Sun Dec 02 23:33:49 IST 2012	Received communication message 
Sun Dec 02 23:33:49 IST 2012	From player: 337
Sun Dec 02 23:33:49 IST 2012	To player: 310
Sun Dec 02 23:33:49 IST 2012	Message type: basicproposaldiscussion
Sun Dec 02 23:33:49 IST 2012	Player 337 rejected offer
Sun Dec 02 23:33:49 IST 2012	Swaping roles:
Sun Dec 02 23:33:49 IST 2012	Proposer is: 337
Sun Dec 02 23:33:49 IST 2012	Responder is: 310
Sun Dec 02 23:33:49 IST 2012	Prop rejected, set counter offers count to: 1
Sun Dec 02 23:33:49 IST 2012	Prop rejected, get counter offers returned: 1
Sun Dec 02 23:33:53 IST 2012	Slept 4 seconds
Sun Dec 02 23:33:53 IST 2012	Sent role changed msgs
Sun Dec 02 23:34:46 IST 2012	Received communication message 
Sun Dec 02 23:34:46 IST 2012	From player: 337
Sun Dec 02 23:34:46 IST 2012	To player: 310
Sun Dec 02 23:34:46 IST 2012	Message type: basicproposal
Sun Dec 02 23:34:46 IST 2012	Chips to send by proposer: { chips  'CTRed':0 'CTPurple':0 'CTGreen':1 'grey78':0 'CTYellow':0 }
Sun Dec 02 23:34:46 IST 2012	Chips to send by responder: { chips  'CTRed':0 'CTPurple':0 'CTGreen':0 'grey78':1 'CTYellow':0 }
Sun Dec 02 23:34:56 IST 2012	Received communication message 
Sun Dec 02 23:34:56 IST 2012	From player: 310
Sun Dec 02 23:34:56 IST 2012	To player: 337
Sun Dec 02 23:34:56 IST 2012	Message type: basicproposaldiscussion
Sun Dec 02 23:34:56 IST 2012	Player 310 accepted offer
Sun Dec 02 23:34:56 IST 2012	Prop accepted, set counter offers count to: 0
Sun Dec 02 23:34:56 IST 2012	Prop accepted, get counter offers returned: 0
Sun Dec 02 23:34:56 IST 2012	A Phase Ended: Communication Phase
Sun Dec 02 23:34:56 IST 2012	Protocol: A New Phase Began: Exchange Phase
Sun Dec 02 23:34:56 IST 2012	Protocol: Exchange phase, Round: 7
Sun Dec 02 23:34:56 IST 2012	In begin exch.phase, get counter offers returned: 0
Sun Dec 02 23:35:09 IST 2012	A Phase Ended: Exchange Phase
Sun Dec 02 23:35:09 IST 2012	Proposer 337 sent: { chips  'CTRed':0 'CTPurple':0 'CTGreen':0 'grey78':0 'CTYellow':0 }
Sun Dec 02 23:35:09 IST 2012	Responder 310 sent: { chips  }
Sun Dec 02 23:35:09 IST 2012	Protocol: A New Phase Began: Movement Phase
Sun Dec 02 23:35:09 IST 2012	Protocol: Movement phase, Round: 7
Sun Dec 02 23:35:09 IST 2012	Player 310 moved to (R:3,C:3)
Sun Dec 02 23:35:30 IST 2012	A Phase Ended: Movement Phase
Sun Dec 02 23:35:30 IST 2012	Protocol: A New Phase Began: Feedback Phase
Sun Dec 02 23:35:30 IST 2012	Protocol: Feedback phase, Round: 7
Sun Dec 02 23:35:30 IST 2012	Number of consecutive no movements for player 337 is 2
Sun Dec 02 23:35:30 IST 2012	Number of consecutive no movements for player 310 is 0
Sun Dec 02 23:35:35 IST 2012	A Phase Ended: Feedback Phase
Sun Dec 02 23:35:35 IST 2012	Protocol: A New Phase Began: Communication Phase
Sun Dec 02 23:35:35 IST 2012	Protocol: Communication phase, Round: 8
Sun Dec 02 23:36:35 IST 2012	Received communication message 
Sun Dec 02 23:36:35 IST 2012	From player: 337
Sun Dec 02 23:36:35 IST 2012	To player: 310
Sun Dec 02 23:36:35 IST 2012	Message type: basicproposal
Sun Dec 02 23:36:35 IST 2012	Chips to send by proposer: { chips  'CTGreen':1 }
Sun Dec 02 23:36:35 IST 2012	Chips to send by responder: { chips  'grey78':1 }
Sun Dec 02 23:36:44 IST 2012	Received communication message 
Sun Dec 02 23:36:44 IST 2012	From player: 310
Sun Dec 02 23:36:44 IST 2012	To player: 337
Sun Dec 02 23:36:44 IST 2012	Message type: basicproposaldiscussion
Sun Dec 02 23:36:44 IST 2012	Player 310 accepted offer
Sun Dec 02 23:36:44 IST 2012	Prop accepted, set counter offers count to: 0
Sun Dec 02 23:36:44 IST 2012	Prop accepted, get counter offers returned: 0
Sun Dec 02 23:36:44 IST 2012	A Phase Ended: Communication Phase
Sun Dec 02 23:36:44 IST 2012	Protocol: A New Phase Began: Exchange Phase
Sun Dec 02 23:36:44 IST 2012	Protocol: Exchange phase, Round: 8
Sun Dec 02 23:36:44 IST 2012	In begin exch.phase, get counter offers returned: 0
Sun Dec 02 23:37:03 IST 2012	A Phase Ended: Exchange Phase
Sun Dec 02 23:37:03 IST 2012	Proposer 337 sent: { chips  'CTRed':0 'CTPurple':0 'CTGreen':1 'grey78':0 'CTYellow':0 }
Sun Dec 02 23:37:03 IST 2012	Responder 310 sent: { chips  }
Sun Dec 02 23:37:03 IST 2012	Protocol: A New Phase Began: Movement Phase
Sun Dec 02 23:37:03 IST 2012	Protocol: Movement phase, Round: 8
Sun Dec 02 23:37:03 IST 2012	Player 337 moved to (R:4,C:1)
Sun Dec 02 23:37:03 IST 2012	Player 310 moved to (R:2,C:3)
Sun Dec 02 23:37:23 IST 2012	A Phase Ended: Movement Phase
Sun Dec 02 23:37:23 IST 2012	Swaping roles:
Sun Dec 02 23:37:23 IST 2012	Proposer is: 310
Sun Dec 02 23:37:23 IST 2012	Responder is: 337
Sun Dec 02 23:37:23 IST 2012	Protocol: A New Phase Began: Feedback Phase
Sun Dec 02 23:37:23 IST 2012	Protocol: Feedback phase, Round: 8
Sun Dec 02 23:37:23 IST 2012	Number of consecutive no movements for player 337 is 0
Sun Dec 02 23:37:23 IST 2012	Number of consecutive no movements for player 310 is 0
Sun Dec 02 23:37:28 IST 2012	A Phase Ended: Feedback Phase
Sun Dec 02 23:37:28 IST 2012	Protocol: A New Phase Began: Communication Phase
Sun Dec 02 23:37:28 IST 2012	Protocol: Communication phase, Round: 9
Sun Dec 02 23:37:43 IST 2012	Received communication message 
Sun Dec 02 23:37:43 IST 2012	From player: 310
Sun Dec 02 23:37:43 IST 2012	To player: 337
Sun Dec 02 23:37:43 IST 2012	Message type: basicproposal
Sun Dec 02 23:37:43 IST 2012	Chips to send by proposer: { chips  'CTRed':0 'CTPurple':0 'CTGreen':0 'grey78':1 'CTYellow':0 }
Sun Dec 02 23:37:43 IST 2012	Chips to send by responder: { chips  'CTRed':0 'CTPurple':0 'CTGreen':3 'grey78':0 'CTYellow':0 }
Sun Dec 02 23:38:06 IST 2012	Received communication message 
Sun Dec 02 23:38:06 IST 2012	From player: 337
Sun Dec 02 23:38:06 IST 2012	To player: 310
Sun Dec 02 23:38:06 IST 2012	Message type: basicproposaldiscussion
Sun Dec 02 23:38:06 IST 2012	Player 337 rejected offer
Sun Dec 02 23:38:06 IST 2012	Swaping roles:
Sun Dec 02 23:38:06 IST 2012	Proposer is: 337
Sun Dec 02 23:38:06 IST 2012	Responder is: 310
Sun Dec 02 23:38:06 IST 2012	Prop rejected, set counter offers count to: 1
Sun Dec 02 23:38:06 IST 2012	Prop rejected, get counter offers returned: 1
Sun Dec 02 23:38:10 IST 2012	Slept 4 seconds
Sun Dec 02 23:38:10 IST 2012	Sent role changed msgs
Sun Dec 02 23:39:10 IST 2012	Received communication message 
Sun Dec 02 23:39:10 IST 2012	From player: 337
Sun Dec 02 23:39:10 IST 2012	To player: 310
Sun Dec 02 23:39:10 IST 2012	Message type: basicproposal
Sun Dec 02 23:39:10 IST 2012	Chips to send by proposer: { chips  'CTRed':0 'CTPurple':0 'CTGreen':1 'grey78':0 'CTYellow':0 }
Sun Dec 02 23:39:10 IST 2012	Chips to send by responder: { chips  'CTRed':0 'CTPurple':0 'CTGreen':0 'grey78':1 'CTYellow':0 }
Sun Dec 02 23:39:24 IST 2012	Received communication message 
Sun Dec 02 23:39:24 IST 2012	From player: 310
Sun Dec 02 23:39:24 IST 2012	To player: 337
Sun Dec 02 23:39:24 IST 2012	Message type: basicproposaldiscussion
Sun Dec 02 23:39:24 IST 2012	Player 310 accepted offer
Sun Dec 02 23:39:24 IST 2012	Prop accepted, set counter offers count to: 0
Sun Dec 02 23:39:24 IST 2012	Prop accepted, get counter offers returned: 0
Sun Dec 02 23:39:24 IST 2012	A Phase Ended: Communication Phase
Sun Dec 02 23:39:24 IST 2012	Protocol: A New Phase Began: Exchange Phase
Sun Dec 02 23:39:24 IST 2012	Protocol: Exchange phase, Round: 9
Sun Dec 02 23:39:24 IST 2012	In begin exch.phase, get counter offers returned: 0
Sun Dec 02 23:39:43 IST 2012	A Phase Ended: Exchange Phase
Sun Dec 02 23:39:43 IST 2012	Proposer 337 sent: { chips  'CTRed':0 'CTPurple':0 'CTGreen':1 'grey78':0 'CTYellow':0 }
Sun Dec 02 23:39:43 IST 2012	Responder 310 sent: { chips  }
Sun Dec 02 23:39:43 IST 2012	Protocol: A New Phase Began: Movement Phase
Sun Dec 02 23:39:43 IST 2012	Protocol: Movement phase, Round: 9
Sun Dec 02 23:39:43 IST 2012	Player 310 moved to (R:1,C:3)
Sun Dec 02 23:40:02 IST 2012	A Phase Ended: Movement Phase
Sun Dec 02 23:40:02 IST 2012	Protocol: A New Phase Began: Feedback Phase
Sun Dec 02 23:40:02 IST 2012	Protocol: Feedback phase, Round: 9
Sun Dec 02 23:40:02 IST 2012	Number of consecutive no movements for player 337 is 1
Sun Dec 02 23:40:02 IST 2012	Number of consecutive no movements for player 310 is 0
Sun Dec 02 23:40:07 IST 2012	A Phase Ended: Feedback Phase
Sun Dec 02 23:40:07 IST 2012	Protocol: A New Phase Began: Communication Phase
Sun Dec 02 23:40:07 IST 2012	Protocol: Communication phase, Round: 10
Sun Dec 02 23:41:07 IST 2012	Received communication message 
Sun Dec 02 23:41:07 IST 2012	From player: 337
Sun Dec 02 23:41:07 IST 2012	To player: 310
Sun Dec 02 23:41:07 IST 2012	Message type: basicproposal
Sun Dec 02 23:41:07 IST 2012	Chips to send by proposer: { chips  'CTYellow':1 }
Sun Dec 02 23:41:07 IST 2012	Chips to send by responder: { chips  'grey78':1 }
Sun Dec 02 23:41:21 IST 2012	Received communication message 
Sun Dec 02 23:41:21 IST 2012	From player: 310
Sun Dec 02 23:41:21 IST 2012	To player: 337
Sun Dec 02 23:41:21 IST 2012	Message type: basicproposaldiscussion
Sun Dec 02 23:41:21 IST 2012	Player 310 accepted offer
Sun Dec 02 23:41:21 IST 2012	Prop accepted, set counter offers count to: 0
Sun Dec 02 23:41:21 IST 2012	Prop accepted, get counter offers returned: 0
Sun Dec 02 23:41:21 IST 2012	A Phase Ended: Communication Phase
Sun Dec 02 23:41:21 IST 2012	Protocol: A New Phase Began: Exchange Phase
Sun Dec 02 23:41:21 IST 2012	Protocol: Exchange phase, Round: 10
Sun Dec 02 23:41:21 IST 2012	In begin exch.phase, get counter offers returned: 0
Sun Dec 02 23:41:37 IST 2012	A Phase Ended: Exchange Phase
Sun Dec 02 23:41:37 IST 2012	Proposer 337 sent: { chips  'CTRed':0 'CTPurple':0 'CTGreen':0 'grey78':0 'CTYellow':1 }
Sun Dec 02 23:41:37 IST 2012	Responder 310 sent: { chips  }
Sun Dec 02 23:41:37 IST 2012	Protocol: A New Phase Began: Movement Phase
Sun Dec 02 23:41:37 IST 2012	Protocol: Movement phase, Round: 10
Sun Dec 02 23:41:37 IST 2012	Player 310 moved to (R:0,C:3)
Sun Dec 02 23:41:57 IST 2012	A Phase Ended: Movement Phase
Sun Dec 02 23:41:57 IST 2012	Swaping roles:
Sun Dec 02 23:41:57 IST 2012	Proposer is: 310
Sun Dec 02 23:41:57 IST 2012	Responder is: 337
Sun Dec 02 23:41:57 IST 2012	Protocol: A New Phase Began: Feedback Phase
Sun Dec 02 23:41:57 IST 2012	Protocol: Feedback phase, Round: 10
Sun Dec 02 23:41:57 IST 2012	Number of consecutive no movements for player 337 is 2
Sun Dec 02 23:41:57 IST 2012	Number of consecutive no movements for player 310 is 0
Sun Dec 02 23:42:02 IST 2012	A Phase Ended: Feedback Phase
Sun Dec 02 23:42:02 IST 2012	Protocol: A New Phase Began: Communication Phase
Sun Dec 02 23:42:02 IST 2012	Protocol: Communication phase, Round: 11
Sun Dec 02 23:42:21 IST 2012	Received communication message 
Sun Dec 02 23:42:21 IST 2012	From player: 310
Sun Dec 02 23:42:21 IST 2012	To player: 337
Sun Dec 02 23:42:21 IST 2012	Message type: basicproposal
Sun Dec 02 23:42:21 IST 2012	Chips to send by proposer: { chips  'CTRed':0 'CTPurple':0 'CTGreen':0 'grey78':1 'CTYellow':0 }
Sun Dec 02 23:42:21 IST 2012	Chips to send by responder: { chips  'CTRed':0 'CTPurple':0 'CTGreen':3 'grey78':0 'CTYellow':0 }
Sun Dec 02 23:42:35 IST 2012	Received communication message 
Sun Dec 02 23:42:35 IST 2012	From player: 337
Sun Dec 02 23:42:35 IST 2012	To player: 310
Sun Dec 02 23:42:35 IST 2012	Message type: basicproposaldiscussion
Sun Dec 02 23:42:35 IST 2012	Player 337 rejected offer
Sun Dec 02 23:42:35 IST 2012	Swaping roles:
Sun Dec 02 23:42:35 IST 2012	Proposer is: 337
Sun Dec 02 23:42:35 IST 2012	Responder is: 310
Sun Dec 02 23:42:35 IST 2012	Prop rejected, set counter offers count to: 1
Sun Dec 02 23:42:35 IST 2012	Prop rejected, get counter offers returned: 1
Sun Dec 02 23:42:39 IST 2012	Slept 4 seconds
Sun Dec 02 23:42:39 IST 2012	Sent role changed msgs
Sun Dec 02 23:43:21 IST 2012	Received communication message 
Sun Dec 02 23:43:21 IST 2012	From player: 337
Sun Dec 02 23:43:21 IST 2012	To player: 310
Sun Dec 02 23:43:21 IST 2012	Message type: basicproposal
Sun Dec 02 23:43:21 IST 2012	Chips to send by proposer: { chips  'CTRed':0 'CTPurple':0 'CTGreen':1 'grey78':0 'CTYellow':0 }
Sun Dec 02 23:43:21 IST 2012	Chips to send by responder: { chips  'CTRed':0 'CTPurple':0 'CTGreen':0 'grey78':1 'CTYellow':0 }
Sun Dec 02 23:43:31 IST 2012	Received communication message 
Sun Dec 02 23:43:31 IST 2012	From player: 310
Sun Dec 02 23:43:31 IST 2012	To player: 337
Sun Dec 02 23:43:31 IST 2012	Message type: basicproposaldiscussion
Sun Dec 02 23:43:31 IST 2012	Player 310 accepted offer
Sun Dec 02 23:43:31 IST 2012	Prop accepted, set counter offers count to: 0
Sun Dec 02 23:43:31 IST 2012	Prop accepted, get counter offers returned: 0
Sun Dec 02 23:43:31 IST 2012	A Phase Ended: Communication Phase
Sun Dec 02 23:43:31 IST 2012	Protocol: A New Phase Began: Exchange Phase
Sun Dec 02 23:43:31 IST 2012	Protocol: Exchange phase, Round: 11
Sun Dec 02 23:43:31 IST 2012	In begin exch.phase, get counter offers returned: 0
Sun Dec 02 23:43:42 IST 2012	A Phase Ended: Exchange Phase
Sun Dec 02 23:43:42 IST 2012	Proposer 337 sent: { chips  'CTRed':0 'CTPurple':0 'CTGreen':1 'grey78':0 'CTYellow':0 }
Sun Dec 02 23:43:42 IST 2012	Responder 310 sent: { chips  }
Sun Dec 02 23:43:42 IST 2012	Protocol: A New Phase Began: Movement Phase
Sun Dec 02 23:43:42 IST 2012	Protocol: Movement phase, Round: 11
Sun Dec 02 23:43:42 IST 2012	Player 310 moved to (R:0,C:2)
Sun Dec 02 23:43:46 IST 2012	Slept 4 seconds
Sun Dec 02 23:43:46 IST 2012	Player 310 got to goal, advance the other and end game
Sun Dec 02 23:43:46 IST 2012	Player: 337 ,role: Proposer score is: 35
Sun Dec 02 23:43:46 IST 2012	Player: 310 ,role: Responder score is: 210
