Sun Dec 02 16:49:28 IST 2012	This is the CT debug logger; svn version 638; sep 27 09
Sun Dec 02 16:49:28 IST 2012	Sun Dec 02 16:49:28 IST 2012
Sun Dec 02 16:49:28 IST 2012	A new Alternative Offers game has began
Sun Dec 02 16:49:28 IST 2012	ID Number: 38100
Sun Dec 02 16:49:28 IST 2012	Creating board
Sun Dec 02 16:49:28 IST 2012	<colors>
Sun Dec 02 16:49:28 IST 2012	{ GamePalette  'CTRed':0 'CTPurple':1 'CTGreen':2 'grey78':3 'CTYellow':4 }
Sun Dec 02 16:49:28 IST 2012	<rows>
Sun Dec 02 16:49:28 IST 2012	7
Sun Dec 02 16:49:28 IST 2012	<columns>
Sun Dec 02 16:49:28 IST 2012	5
Sun Dec 02 16:49:28 IST 2012	<squaresColors>
Sun Dec 02 16:49:28 IST 2012	CTPurple CTRed CTRed CTGreen CTPurple 
Sun Dec 02 16:49:28 IST 2012	CTPurple grey78 CTPurple CTYellow CTPurple 
Sun Dec 02 16:49:28 IST 2012	CTPurple CTRed CTPurple CTGreen CTPurple 
Sun Dec 02 16:49:28 IST 2012	CTPurple grey78 CTPurple CTYellow CTPurple 
Sun Dec 02 16:49:28 IST 2012	CTPurple CTRed CTPurple CTGreen CTPurple 
Sun Dec 02 16:49:28 IST 2012	CTPurple grey78 CTPurple CTYellow CTPurple 
Sun Dec 02 16:49:28 IST 2012	CTPurple CTRed CTPurple CTGreen CTPurple 
Sun Dec 02 16:49:28 IST 2012	</squareColors>
Sun Dec 02 16:49:28 IST 2012	<goalPosition>
Sun Dec 02 16:49:28 IST 2012	Goal position: (R:0,C:2)
Sun Dec 02 16:49:28 IST 2012	<numberOfPlayers>
Sun Dec 02 16:49:28 IST 2012	2
Sun Dec 02 16:49:28 IST 2012	<firstPlayerChips>
Sun Dec 02 16:49:28 IST 2012	Setting chips for player: 337 id:0
Sun Dec 02 16:49:28 IST 2012	{ chips  'CTRed':5 'CTGreen':10 'CTPurple':0 'grey78':0 'CTYellow':9 }
Sun Dec 02 16:49:28 IST 2012	Player position: (R:6,C:0)
Sun Dec 02 16:49:28 IST 2012	Setting chips for player: 310 id:1
Sun Dec 02 16:49:28 IST 2012	{ chips  'CTRed':1 'CTGreen':13 'CTPurple':0 'grey78':10 'CTYellow':0 }
Sun Dec 02 16:49:28 IST 2012	Player position: (R:6,C:4)
Sun Dec 02 16:49:28 IST 2012	Protocol: A New Phase Began: Strategy Prep Phase
Sun Dec 02 16:49:28 IST 2012	Protocol: Strategy Preparation phase, Round: 0
Sun Dec 02 16:49:28 IST 2012	Maximum number of rounds with no consecutive movement is 3
Sun Dec 02 16:49:28 IST 2012	In begin comm. phase, set counter offers count to: 0
Sun Dec 02 16:49:28 IST 2012	In begin comm. phase, get counter offers returned: 0
Sun Dec 02 16:49:48 IST 2012	A Phase Ended: Strategy Prep Phase
Sun Dec 02 16:49:48 IST 2012	Protocol: A New Phase Began: Communication Phase
Sun Dec 02 16:49:48 IST 2012	Protocol: Communication phase, Round: 0
Sun Dec 02 16:50:48 IST 2012	Received communication message 
Sun Dec 02 16:50:48 IST 2012	From player: 337
Sun Dec 02 16:50:48 IST 2012	To player: 310
Sun Dec 02 16:50:48 IST 2012	Message type: basicproposal
Sun Dec 02 16:50:48 IST 2012	Chips to send by proposer: { chips  'CTYellow':1 }
Sun Dec 02 16:50:48 IST 2012	Chips to send by responder: { chips  'grey78':1 }
Sun Dec 02 16:51:01 IST 2012	Received communication message 
Sun Dec 02 16:51:01 IST 2012	From player: 310
Sun Dec 02 16:51:01 IST 2012	To player: 337
Sun Dec 02 16:51:01 IST 2012	Message type: basicproposaldiscussion
Sun Dec 02 16:51:01 IST 2012	Player 310 accepted offer
Sun Dec 02 16:51:01 IST 2012	Prop accepted, set counter offers count to: 0
Sun Dec 02 16:51:01 IST 2012	Prop accepted, get counter offers returned: 0
Sun Dec 02 16:51:01 IST 2012	A Phase Ended: Communication Phase
Sun Dec 02 16:51:01 IST 2012	Protocol: A New Phase Began: Exchange Phase
Sun Dec 02 16:51:01 IST 2012	Protocol: Exchange phase, Round: 0
Sun Dec 02 16:51:01 IST 2012	In begin exch.phase, get counter offers returned: 0
Sun Dec 02 16:51:30 IST 2012	A Phase Ended: Exchange Phase
Sun Dec 02 16:51:30 IST 2012	Proposer 337 sent: { chips  'CTRed':0 'CTPurple':0 'CTGreen':0 'grey78':0 'CTYellow':1 }
Sun Dec 02 16:51:30 IST 2012	Responder 310 sent: { chips  'CTRed':0 'CTPurple':0 'CTGreen':0 'grey78':1 'CTYellow':0 }
Sun Dec 02 16:51:30 IST 2012	Protocol: A New Phase Began: Movement Phase
Sun Dec 02 16:51:30 IST 2012	Protocol: Movement phase, Round: 0
Sun Dec 02 16:51:51 IST 2012	A Phase Ended: Movement Phase
Sun Dec 02 16:51:51 IST 2012	Swaping roles:
Sun Dec 02 16:51:51 IST 2012	Proposer is: 310
Sun Dec 02 16:51:51 IST 2012	Responder is: 337
Sun Dec 02 16:51:51 IST 2012	Protocol: A New Phase Began: Feedback Phase
Sun Dec 02 16:51:51 IST 2012	Protocol: Feedback phase, Round: 0
Sun Dec 02 16:51:51 IST 2012	Number of consecutive no movements for player 337 is 1
Sun Dec 02 16:51:51 IST 2012	Number of consecutive no movements for player 310 is 1
Sun Dec 02 16:51:56 IST 2012	A Phase Ended: Feedback Phase
Sun Dec 02 16:51:56 IST 2012	Protocol: A New Phase Began: Communication Phase
Sun Dec 02 16:51:56 IST 2012	Protocol: Communication phase, Round: 1
Sun Dec 02 16:52:26 IST 2012	Received communication message 
Sun Dec 02 16:52:26 IST 2012	From player: 310
Sun Dec 02 16:52:26 IST 2012	To player: 337
Sun Dec 02 16:52:26 IST 2012	Message type: basicproposal
Sun Dec 02 16:52:26 IST 2012	Chips to send by proposer: { chips  'CTRed':0 'CTPurple':0 'CTGreen':4 'grey78':2 'CTYellow':0 }
Sun Dec 02 16:52:26 IST 2012	Chips to send by responder: { chips  'CTRed':0 'CTPurple':0 'CTGreen':0 'grey78':0 'CTYellow':2 }
Sun Dec 02 16:53:22 IST 2012	Received communication message 
Sun Dec 02 16:53:22 IST 2012	From player: 337
Sun Dec 02 16:53:22 IST 2012	To player: 310
Sun Dec 02 16:53:22 IST 2012	Message type: basicproposaldiscussion
Sun Dec 02 16:53:22 IST 2012	Player 337 rejected offer
Sun Dec 02 16:53:22 IST 2012	Swaping roles:
Sun Dec 02 16:53:22 IST 2012	Proposer is: 337
Sun Dec 02 16:53:22 IST 2012	Responder is: 310
Sun Dec 02 16:53:22 IST 2012	Prop rejected, set counter offers count to: 1
Sun Dec 02 16:53:22 IST 2012	Prop rejected, get counter offers returned: 1
Sun Dec 02 16:53:26 IST 2012	Slept 4 seconds
Sun Dec 02 16:53:26 IST 2012	Sent role changed msgs
Sun Dec 02 16:54:26 IST 2012	Received communication message 
Sun Dec 02 16:54:26 IST 2012	From player: 337
Sun Dec 02 16:54:26 IST 2012	To player: 310
Sun Dec 02 16:54:26 IST 2012	Message type: basicproposal
Sun Dec 02 16:54:26 IST 2012	Chips to send by proposer: { chips  'CTRed':0 'CTPurple':0 'CTGreen':0 'grey78':0 'CTYellow':1 }
Sun Dec 02 16:54:26 IST 2012	Chips to send by responder: { chips  'CTRed':0 'CTPurple':0 'CTGreen':0 'grey78':1 'CTYellow':0 }
Sun Dec 02 16:54:39 IST 2012	Received communication message 
Sun Dec 02 16:54:39 IST 2012	From player: 310
Sun Dec 02 16:54:39 IST 2012	To player: 337
Sun Dec 02 16:54:39 IST 2012	Message type: basicproposaldiscussion
Sun Dec 02 16:54:39 IST 2012	Player 310 accepted offer
Sun Dec 02 16:54:39 IST 2012	Prop accepted, set counter offers count to: 0
Sun Dec 02 16:54:39 IST 2012	Prop accepted, get counter offers returned: 0
Sun Dec 02 16:54:39 IST 2012	A Phase Ended: Communication Phase
Sun Dec 02 16:54:39 IST 2012	Protocol: A New Phase Began: Exchange Phase
Sun Dec 02 16:54:39 IST 2012	Protocol: Exchange phase, Round: 1
Sun Dec 02 16:54:39 IST 2012	In begin exch.phase, get counter offers returned: 0
Sun Dec 02 16:55:08 IST 2012	A Phase Ended: Exchange Phase
Sun Dec 02 16:55:08 IST 2012	Proposer 337 sent: { chips  'CTRed':0 'CTPurple':0 'CTGreen':0 'grey78':0 'CTYellow':1 }
Sun Dec 02 16:55:08 IST 2012	Responder 310 sent: { chips  'CTRed':0 'CTPurple':0 'CTGreen':0 'grey78':1 'CTYellow':0 }
Sun Dec 02 16:55:08 IST 2012	Protocol: A New Phase Began: Movement Phase
Sun Dec 02 16:55:08 IST 2012	Protocol: Movement phase, Round: 1
Sun Dec 02 16:55:28 IST 2012	A Phase Ended: Movement Phase
Sun Dec 02 16:55:28 IST 2012	Protocol: A New Phase Began: Feedback Phase
Sun Dec 02 16:55:28 IST 2012	Protocol: Feedback phase, Round: 1
Sun Dec 02 16:55:28 IST 2012	Number of consecutive no movements for player 337 is 2
Sun Dec 02 16:55:28 IST 2012	Number of consecutive no movements for player 310 is 2
Sun Dec 02 16:55:33 IST 2012	A Phase Ended: Feedback Phase
Sun Dec 02 16:55:33 IST 2012	Protocol: A New Phase Began: Communication Phase
Sun Dec 02 16:55:33 IST 2012	Protocol: Communication phase, Round: 2
Sun Dec 02 16:56:33 IST 2012	Received communication message 
Sun Dec 02 16:56:33 IST 2012	From player: 337
Sun Dec 02 16:56:33 IST 2012	To player: 310
Sun Dec 02 16:56:33 IST 2012	Message type: basicproposal
Sun Dec 02 16:56:33 IST 2012	Chips to send by proposer: { chips  'CTYellow':1 }
Sun Dec 02 16:56:33 IST 2012	Chips to send by responder: { chips  'CTGreen':2 'grey78':1 }
Sun Dec 02 16:56:39 IST 2012	Received communication message 
Sun Dec 02 16:56:39 IST 2012	From player: 310
Sun Dec 02 16:56:39 IST 2012	To player: 337
Sun Dec 02 16:56:39 IST 2012	Message type: basicproposaldiscussion
Sun Dec 02 16:56:39 IST 2012	Player 310 accepted offer
Sun Dec 02 16:56:39 IST 2012	Prop accepted, set counter offers count to: 0
Sun Dec 02 16:56:39 IST 2012	Prop accepted, get counter offers returned: 0
Sun Dec 02 16:56:39 IST 2012	A Phase Ended: Communication Phase
Sun Dec 02 16:56:39 IST 2012	Protocol: A New Phase Began: Exchange Phase
Sun Dec 02 16:56:39 IST 2012	Protocol: Exchange phase, Round: 2
Sun Dec 02 16:56:39 IST 2012	In begin exch.phase, get counter offers returned: 0
Sun Dec 02 16:56:58 IST 2012	A Phase Ended: Exchange Phase
Sun Dec 02 16:56:58 IST 2012	Proposer 337 sent: { chips  'CTRed':0 'CTPurple':0 'CTGreen':0 'grey78':0 'CTYellow':0 }
Sun Dec 02 16:56:58 IST 2012	Responder 310 sent: { chips  }
Sun Dec 02 16:56:58 IST 2012	Protocol: A New Phase Began: Movement Phase
Sun Dec 02 16:56:58 IST 2012	Protocol: Movement phase, Round: 2
Sun Dec 02 16:56:58 IST 2012	Player 310 moved to (R:6,C:3)
Sun Dec 02 16:56:58 IST 2012	Player 337 moved to (R:6,C:1)
Sun Dec 02 16:57:17 IST 2012	A Phase Ended: Movement Phase
Sun Dec 02 16:57:17 IST 2012	Swaping roles:
Sun Dec 02 16:57:17 IST 2012	Proposer is: 310
Sun Dec 02 16:57:17 IST 2012	Responder is: 337
Sun Dec 02 16:57:17 IST 2012	Protocol: A New Phase Began: Feedback Phase
Sun Dec 02 16:57:17 IST 2012	Protocol: Feedback phase, Round: 2
Sun Dec 02 16:57:17 IST 2012	Number of consecutive no movements for player 337 is 0
Sun Dec 02 16:57:17 IST 2012	Number of consecutive no movements for player 310 is 0
Sun Dec 02 16:57:22 IST 2012	A Phase Ended: Feedback Phase
Sun Dec 02 16:57:22 IST 2012	Protocol: A New Phase Began: Communication Phase
Sun Dec 02 16:57:22 IST 2012	Protocol: Communication phase, Round: 3
Sun Dec 02 16:57:41 IST 2012	Received communication message 
Sun Dec 02 16:57:41 IST 2012	From player: 310
Sun Dec 02 16:57:41 IST 2012	To player: 337
Sun Dec 02 16:57:41 IST 2012	Message type: basicproposal
Sun Dec 02 16:57:41 IST 2012	Chips to send by proposer: { chips  'CTRed':0 'CTPurple':0 'CTGreen':0 'grey78':1 'CTYellow':0 }
Sun Dec 02 16:57:41 IST 2012	Chips to send by responder: { chips  'CTRed':0 'CTPurple':0 'CTGreen':0 'grey78':0 'CTYellow':1 }
Sun Dec 02 16:58:06 IST 2012	Received communication message 
Sun Dec 02 16:58:06 IST 2012	From player: 337
Sun Dec 02 16:58:06 IST 2012	To player: 310
Sun Dec 02 16:58:06 IST 2012	Message type: basicproposaldiscussion
Sun Dec 02 16:58:06 IST 2012	Player 337 accepted offer
Sun Dec 02 16:58:06 IST 2012	Prop accepted, set counter offers count to: 0
Sun Dec 02 16:58:06 IST 2012	Prop accepted, get counter offers returned: 0
Sun Dec 02 16:58:06 IST 2012	A Phase Ended: Communication Phase
Sun Dec 02 16:58:06 IST 2012	Protocol: A New Phase Began: Exchange Phase
Sun Dec 02 16:58:06 IST 2012	Protocol: Exchange phase, Round: 3
Sun Dec 02 16:58:06 IST 2012	In begin exch.phase, get counter offers returned: 0
Sun Dec 02 16:58:28 IST 2012	A Phase Ended: Exchange Phase
Sun Dec 02 16:58:28 IST 2012	Proposer 310 sent: { chips  }
Sun Dec 02 16:58:28 IST 2012	Responder 337 sent: { chips  'CTRed':0 'CTPurple':0 'CTGreen':0 'grey78':0 'CTYellow':1 }
Sun Dec 02 16:58:28 IST 2012	Protocol: A New Phase Began: Movement Phase
Sun Dec 02 16:58:28 IST 2012	Protocol: Movement phase, Round: 3
Sun Dec 02 16:58:28 IST 2012	Player 310 moved to (R:5,C:3)
Sun Dec 02 16:58:47 IST 2012	A Phase Ended: Movement Phase
Sun Dec 02 16:58:47 IST 2012	Swaping roles:
Sun Dec 02 16:58:47 IST 2012	Proposer is: 337
Sun Dec 02 16:58:47 IST 2012	Responder is: 310
Sun Dec 02 16:58:47 IST 2012	Protocol: A New Phase Began: Feedback Phase
Sun Dec 02 16:58:47 IST 2012	Protocol: Feedback phase, Round: 3
Sun Dec 02 16:58:47 IST 2012	Number of consecutive no movements for player 337 is 1
Sun Dec 02 16:58:47 IST 2012	Number of consecutive no movements for player 310 is 0
Sun Dec 02 16:58:52 IST 2012	A Phase Ended: Feedback Phase
Sun Dec 02 16:58:52 IST 2012	Protocol: A New Phase Began: Communication Phase
Sun Dec 02 16:58:52 IST 2012	Protocol: Communication phase, Round: 4
Sun Dec 02 16:59:52 IST 2012	Received communication message 
Sun Dec 02 16:59:52 IST 2012	From player: 337
Sun Dec 02 16:59:52 IST 2012	To player: 310
Sun Dec 02 16:59:52 IST 2012	Message type: basicproposal
Sun Dec 02 16:59:52 IST 2012	Chips to send by proposer: { chips  'CTGreen':1 }
Sun Dec 02 16:59:52 IST 2012	Chips to send by responder: { chips  'grey78':1 }
Sun Dec 02 17:00:07 IST 2012	Received communication message 
Sun Dec 02 17:00:07 IST 2012	From player: 310
Sun Dec 02 17:00:07 IST 2012	To player: 337
Sun Dec 02 17:00:07 IST 2012	Message type: basicproposaldiscussion
Sun Dec 02 17:00:07 IST 2012	Player 310 accepted offer
Sun Dec 02 17:00:07 IST 2012	Prop accepted, set counter offers count to: 0
Sun Dec 02 17:00:07 IST 2012	Prop accepted, get counter offers returned: 0
Sun Dec 02 17:00:07 IST 2012	A Phase Ended: Communication Phase
Sun Dec 02 17:00:07 IST 2012	Protocol: A New Phase Began: Exchange Phase
Sun Dec 02 17:00:07 IST 2012	Protocol: Exchange phase, Round: 4
Sun Dec 02 17:00:07 IST 2012	In begin exch.phase, get counter offers returned: 0
Sun Dec 02 17:00:23 IST 2012	A Phase Ended: Exchange Phase
Sun Dec 02 17:00:23 IST 2012	Proposer 337 sent: { chips  'CTRed':0 'CTPurple':0 'CTGreen':0 'grey78':0 'CTYellow':0 }
Sun Dec 02 17:00:23 IST 2012	Responder 310 sent: { chips  }
Sun Dec 02 17:00:23 IST 2012	Protocol: A New Phase Began: Movement Phase
Sun Dec 02 17:00:23 IST 2012	Protocol: Movement phase, Round: 4
Sun Dec 02 17:00:23 IST 2012	Player 310 moved to (R:4,C:3)
Sun Dec 02 17:00:43 IST 2012	A Phase Ended: Movement Phase
Sun Dec 02 17:00:43 IST 2012	Swaping roles:
Sun Dec 02 17:00:43 IST 2012	Proposer is: 310
Sun Dec 02 17:00:43 IST 2012	Responder is: 337
Sun Dec 02 17:00:43 IST 2012	Protocol: A New Phase Began: Feedback Phase
Sun Dec 02 17:00:43 IST 2012	Protocol: Feedback phase, Round: 4
Sun Dec 02 17:00:43 IST 2012	Number of consecutive no movements for player 337 is 2
Sun Dec 02 17:00:43 IST 2012	Number of consecutive no movements for player 310 is 0
Sun Dec 02 17:00:48 IST 2012	A Phase Ended: Feedback Phase
Sun Dec 02 17:00:48 IST 2012	Protocol: A New Phase Began: Communication Phase
Sun Dec 02 17:00:48 IST 2012	Protocol: Communication phase, Round: 5
Sun Dec 02 17:01:04 IST 2012	Received communication message 
Sun Dec 02 17:01:04 IST 2012	From player: 310
Sun Dec 02 17:01:04 IST 2012	To player: 337
Sun Dec 02 17:01:04 IST 2012	Message type: basicproposal
Sun Dec 02 17:01:04 IST 2012	Chips to send by proposer: { chips  'CTRed':0 'CTPurple':0 'CTGreen':0 'grey78':1 'CTYellow':0 }
Sun Dec 02 17:01:04 IST 2012	Chips to send by responder: { chips  'CTRed':0 'CTPurple':0 'CTGreen':2 'grey78':0 'CTYellow':0 }
Sun Dec 02 17:01:36 IST 2012	Received communication message 
Sun Dec 02 17:01:36 IST 2012	From player: 337
Sun Dec 02 17:01:36 IST 2012	To player: 310
Sun Dec 02 17:01:36 IST 2012	Message type: basicproposaldiscussion
Sun Dec 02 17:01:36 IST 2012	Player 337 rejected offer
Sun Dec 02 17:01:36 IST 2012	Swaping roles:
Sun Dec 02 17:01:36 IST 2012	Proposer is: 337
Sun Dec 02 17:01:36 IST 2012	Responder is: 310
Sun Dec 02 17:01:36 IST 2012	Prop rejected, set counter offers count to: 1
Sun Dec 02 17:01:36 IST 2012	Prop rejected, get counter offers returned: 1
Sun Dec 02 17:01:41 IST 2012	Slept 4 seconds
Sun Dec 02 17:01:41 IST 2012	Sent role changed msgs
Sun Dec 02 17:02:41 IST 2012	Received communication message 
Sun Dec 02 17:02:41 IST 2012	From player: 337
Sun Dec 02 17:02:41 IST 2012	To player: 310
Sun Dec 02 17:02:41 IST 2012	Message type: basicproposal
Sun Dec 02 17:02:41 IST 2012	Chips to send by proposer: { chips  'CTRed':0 'CTPurple':0 'CTGreen':0 'grey78':0 'CTYellow':1 }
Sun Dec 02 17:02:41 IST 2012	Chips to send by responder: { chips  'CTRed':0 'CTPurple':0 'CTGreen':0 'grey78':1 'CTYellow':0 }
Sun Dec 02 17:02:49 IST 2012	Received communication message 
Sun Dec 02 17:02:49 IST 2012	From player: 310
Sun Dec 02 17:02:49 IST 2012	To player: 337
Sun Dec 02 17:02:49 IST 2012	Message type: basicproposaldiscussion
Sun Dec 02 17:02:49 IST 2012	Player 310 accepted offer
Sun Dec 02 17:02:49 IST 2012	Prop accepted, set counter offers count to: 0
Sun Dec 02 17:02:49 IST 2012	Prop accepted, get counter offers returned: 0
Sun Dec 02 17:02:49 IST 2012	A Phase Ended: Communication Phase
Sun Dec 02 17:02:49 IST 2012	Protocol: A New Phase Began: Exchange Phase
Sun Dec 02 17:02:49 IST 2012	Protocol: Exchange phase, Round: 5
Sun Dec 02 17:02:49 IST 2012	In begin exch.phase, get counter offers returned: 0
Sun Dec 02 17:03:15 IST 2012	A Phase Ended: Exchange Phase
Sun Dec 02 17:03:15 IST 2012	Proposer 337 sent: { chips  'CTRed':0 'CTPurple':0 'CTGreen':0 'grey78':0 'CTYellow':1 }
Sun Dec 02 17:03:15 IST 2012	Responder 310 sent: { chips  }
Sun Dec 02 17:03:15 IST 2012	Protocol: A New Phase Began: Movement Phase
Sun Dec 02 17:03:15 IST 2012	Protocol: Movement phase, Round: 5
Sun Dec 02 17:03:15 IST 2012	Player 337 moved to (R:5,C:1)
Sun Dec 02 17:03:15 IST 2012	Player 310 moved to (R:3,C:3)
Sun Dec 02 17:03:34 IST 2012	A Phase Ended: Movement Phase
Sun Dec 02 17:03:34 IST 2012	Protocol: A New Phase Began: Feedback Phase
Sun Dec 02 17:03:34 IST 2012	Protocol: Feedback phase, Round: 5
Sun Dec 02 17:03:34 IST 2012	Number of consecutive no movements for player 337 is 0
Sun Dec 02 17:03:34 IST 2012	Number of consecutive no movements for player 310 is 0
Sun Dec 02 17:03:39 IST 2012	A Phase Ended: Feedback Phase
Sun Dec 02 17:03:39 IST 2012	Protocol: A New Phase Began: Communication Phase
Sun Dec 02 17:03:39 IST 2012	Protocol: Communication phase, Round: 6
Sun Dec 02 17:04:39 IST 2012	Received communication message 
Sun Dec 02 17:04:39 IST 2012	From player: 337
Sun Dec 02 17:04:39 IST 2012	To player: 310
Sun Dec 02 17:04:39 IST 2012	Message type: basicproposal
Sun Dec 02 17:04:39 IST 2012	Chips to send by proposer: { chips  'CTGreen':1 }
Sun Dec 02 17:04:39 IST 2012	Chips to send by responder: { chips  'grey78':1 }
Sun Dec 02 17:04:45 IST 2012	Received communication message 
Sun Dec 02 17:04:45 IST 2012	From player: 310
Sun Dec 02 17:04:45 IST 2012	To player: 337
Sun Dec 02 17:04:45 IST 2012	Message type: basicproposaldiscussion
Sun Dec 02 17:04:45 IST 2012	Player 310 accepted offer
Sun Dec 02 17:04:45 IST 2012	Prop accepted, set counter offers count to: 0
Sun Dec 02 17:04:45 IST 2012	Prop accepted, get counter offers returned: 0
Sun Dec 02 17:04:45 IST 2012	A Phase Ended: Communication Phase
Sun Dec 02 17:04:45 IST 2012	Protocol: A New Phase Began: Exchange Phase
Sun Dec 02 17:04:45 IST 2012	Protocol: Exchange phase, Round: 6
Sun Dec 02 17:04:45 IST 2012	In begin exch.phase, get counter offers returned: 0
Sun Dec 02 17:05:03 IST 2012	A Phase Ended: Exchange Phase
Sun Dec 02 17:05:03 IST 2012	Proposer 337 sent: { chips  'CTRed':0 'CTPurple':0 'CTGreen':1 'grey78':0 'CTYellow':0 }
Sun Dec 02 17:05:03 IST 2012	Responder 310 sent: { chips  }
Sun Dec 02 17:05:03 IST 2012	Protocol: A New Phase Began: Movement Phase
Sun Dec 02 17:05:03 IST 2012	Protocol: Movement phase, Round: 6
Sun Dec 02 17:05:03 IST 2012	Player 310 moved to (R:2,C:3)
Sun Dec 02 17:05:23 IST 2012	A Phase Ended: Movement Phase
Sun Dec 02 17:05:23 IST 2012	Swaping roles:
Sun Dec 02 17:05:23 IST 2012	Proposer is: 310
Sun Dec 02 17:05:23 IST 2012	Responder is: 337
Sun Dec 02 17:05:23 IST 2012	Protocol: A New Phase Began: Feedback Phase
Sun Dec 02 17:05:23 IST 2012	Protocol: Feedback phase, Round: 6
Sun Dec 02 17:05:23 IST 2012	Number of consecutive no movements for player 337 is 1
Sun Dec 02 17:05:23 IST 2012	Number of consecutive no movements for player 310 is 0
Sun Dec 02 17:05:28 IST 2012	A Phase Ended: Feedback Phase
Sun Dec 02 17:05:28 IST 2012	Protocol: A New Phase Began: Communication Phase
Sun Dec 02 17:05:28 IST 2012	Protocol: Communication phase, Round: 7
Sun Dec 02 17:05:42 IST 2012	Received communication message 
Sun Dec 02 17:05:42 IST 2012	From player: 310
Sun Dec 02 17:05:42 IST 2012	To player: 337
Sun Dec 02 17:05:42 IST 2012	Message type: basicproposal
Sun Dec 02 17:05:42 IST 2012	Chips to send by proposer: { chips  'CTRed':0 'CTPurple':0 'CTGreen':0 'grey78':1 'CTYellow':0 }
Sun Dec 02 17:05:42 IST 2012	Chips to send by responder: { chips  'CTRed':0 'CTPurple':0 'CTGreen':3 'grey78':0 'CTYellow':0 }
Sun Dec 02 17:06:03 IST 2012	Received communication message 
Sun Dec 02 17:06:03 IST 2012	From player: 337
Sun Dec 02 17:06:03 IST 2012	To player: 310
Sun Dec 02 17:06:03 IST 2012	Message type: basicproposaldiscussion
Sun Dec 02 17:06:03 IST 2012	Player 337 rejected offer
Sun Dec 02 17:06:03 IST 2012	Swaping roles:
Sun Dec 02 17:06:03 IST 2012	Proposer is: 337
Sun Dec 02 17:06:03 IST 2012	Responder is: 310
Sun Dec 02 17:06:03 IST 2012	Prop rejected, set counter offers count to: 1
Sun Dec 02 17:06:03 IST 2012	Prop rejected, get counter offers returned: 1
Sun Dec 02 17:06:07 IST 2012	Slept 4 seconds
Sun Dec 02 17:06:07 IST 2012	Sent role changed msgs
Sun Dec 02 17:07:07 IST 2012	Received communication message 
Sun Dec 02 17:07:07 IST 2012	From player: 337
Sun Dec 02 17:07:07 IST 2012	To player: 310
Sun Dec 02 17:07:07 IST 2012	Message type: basicproposal
Sun Dec 02 17:07:07 IST 2012	Chips to send by proposer: { chips  'CTRed':0 'CTPurple':0 'CTGreen':0 'grey78':0 'CTYellow':1 }
Sun Dec 02 17:07:07 IST 2012	Chips to send by responder: { chips  'CTRed':0 'CTPurple':0 'CTGreen':0 'grey78':1 'CTYellow':0 }
Sun Dec 02 17:07:17 IST 2012	Received communication message 
Sun Dec 02 17:07:17 IST 2012	From player: 310
Sun Dec 02 17:07:17 IST 2012	To player: 337
Sun Dec 02 17:07:17 IST 2012	Message type: basicproposaldiscussion
Sun Dec 02 17:07:17 IST 2012	Player 310 accepted offer
Sun Dec 02 17:07:17 IST 2012	Prop accepted, set counter offers count to: 0
Sun Dec 02 17:07:17 IST 2012	Prop accepted, get counter offers returned: 0
Sun Dec 02 17:07:17 IST 2012	A Phase Ended: Communication Phase
Sun Dec 02 17:07:17 IST 2012	Protocol: A New Phase Began: Exchange Phase
Sun Dec 02 17:07:17 IST 2012	Protocol: Exchange phase, Round: 7
Sun Dec 02 17:07:17 IST 2012	In begin exch.phase, get counter offers returned: 0
Sun Dec 02 17:07:34 IST 2012	A Phase Ended: Exchange Phase
Sun Dec 02 17:07:34 IST 2012	Proposer 337 sent: { chips  'CTRed':0 'CTPurple':0 'CTGreen':0 'grey78':0 'CTYellow':1 }
Sun Dec 02 17:07:34 IST 2012	Responder 310 sent: { chips  }
Sun Dec 02 17:07:34 IST 2012	Protocol: A New Phase Began: Movement Phase
Sun Dec 02 17:07:34 IST 2012	Protocol: Movement phase, Round: 7
Sun Dec 02 17:07:34 IST 2012	Player 310 moved to (R:1,C:3)
Sun Dec 02 17:07:53 IST 2012	A Phase Ended: Movement Phase
Sun Dec 02 17:07:53 IST 2012	Protocol: A New Phase Began: Feedback Phase
Sun Dec 02 17:07:53 IST 2012	Protocol: Feedback phase, Round: 7
Sun Dec 02 17:07:53 IST 2012	Number of consecutive no movements for player 337 is 2
Sun Dec 02 17:07:53 IST 2012	Number of consecutive no movements for player 310 is 0
Sun Dec 02 17:07:58 IST 2012	A Phase Ended: Feedback Phase
Sun Dec 02 17:07:58 IST 2012	Protocol: A New Phase Began: Communication Phase
Sun Dec 02 17:07:58 IST 2012	Protocol: Communication phase, Round: 8
Sun Dec 02 17:08:56 IST 2012	Received communication message 
Sun Dec 02 17:08:56 IST 2012	From player: 337
Sun Dec 02 17:08:56 IST 2012	To player: 310
Sun Dec 02 17:08:56 IST 2012	Message type: basicproposal
Sun Dec 02 17:08:56 IST 2012	Chips to send by proposer: { chips  'CTYellow':1 }
Sun Dec 02 17:08:56 IST 2012	Chips to send by responder: { chips  'grey78':1 }
Sun Dec 02 17:09:08 IST 2012	Received communication message 
Sun Dec 02 17:09:08 IST 2012	From player: 310
Sun Dec 02 17:09:08 IST 2012	To player: 337
Sun Dec 02 17:09:08 IST 2012	Message type: basicproposaldiscussion
Sun Dec 02 17:09:08 IST 2012	Player 310 accepted offer
Sun Dec 02 17:09:08 IST 2012	Prop accepted, set counter offers count to: 0
Sun Dec 02 17:09:08 IST 2012	Prop accepted, get counter offers returned: 0
Sun Dec 02 17:09:08 IST 2012	A Phase Ended: Communication Phase
Sun Dec 02 17:09:08 IST 2012	Protocol: A New Phase Began: Exchange Phase
Sun Dec 02 17:09:08 IST 2012	Protocol: Exchange phase, Round: 8
Sun Dec 02 17:09:08 IST 2012	In begin exch.phase, get counter offers returned: 0
Sun Dec 02 17:09:22 IST 2012	A Phase Ended: Exchange Phase
Sun Dec 02 17:09:22 IST 2012	Proposer 337 sent: { chips  'CTRed':0 'CTPurple':0 'CTGreen':0 'grey78':0 'CTYellow':1 }
Sun Dec 02 17:09:22 IST 2012	Responder 310 sent: { chips  }
Sun Dec 02 17:09:22 IST 2012	Protocol: A New Phase Began: Movement Phase
Sun Dec 02 17:09:22 IST 2012	Protocol: Movement phase, Round: 8
Sun Dec 02 17:09:22 IST 2012	Player 310 moved to (R:0,C:3)
Sun Dec 02 17:09:22 IST 2012	Player 337 moved to (R:4,C:1)
Sun Dec 02 17:09:42 IST 2012	A Phase Ended: Movement Phase
Sun Dec 02 17:09:42 IST 2012	Swaping roles:
Sun Dec 02 17:09:42 IST 2012	Proposer is: 310
Sun Dec 02 17:09:42 IST 2012	Responder is: 337
Sun Dec 02 17:09:42 IST 2012	Protocol: A New Phase Began: Feedback Phase
Sun Dec 02 17:09:42 IST 2012	Protocol: Feedback phase, Round: 8
Sun Dec 02 17:09:42 IST 2012	Number of consecutive no movements for player 337 is 0
Sun Dec 02 17:09:42 IST 2012	Number of consecutive no movements for player 310 is 0
Sun Dec 02 17:09:48 IST 2012	A Phase Ended: Feedback Phase
Sun Dec 02 17:09:48 IST 2012	Protocol: A New Phase Began: Communication Phase
Sun Dec 02 17:09:48 IST 2012	Protocol: Communication phase, Round: 9
Sun Dec 02 17:10:07 IST 2012	Received communication message 
Sun Dec 02 17:10:07 IST 2012	From player: 310
Sun Dec 02 17:10:07 IST 2012	To player: 337
Sun Dec 02 17:10:07 IST 2012	Message type: basicproposal
Sun Dec 02 17:10:07 IST 2012	Chips to send by proposer: { chips  'CTRed':0 'CTPurple':0 'CTGreen':0 'grey78':1 'CTYellow':0 }
Sun Dec 02 17:10:07 IST 2012	Chips to send by responder: { chips  'CTRed':0 'CTPurple':0 'CTGreen':3 'grey78':0 'CTYellow':0 }
Sun Dec 02 17:10:20 IST 2012	Received communication message 
Sun Dec 02 17:10:20 IST 2012	From player: 337
Sun Dec 02 17:10:20 IST 2012	To player: 310
Sun Dec 02 17:10:20 IST 2012	Message type: basicproposaldiscussion
Sun Dec 02 17:10:20 IST 2012	Player 337 rejected offer
Sun Dec 02 17:10:20 IST 2012	Swaping roles:
Sun Dec 02 17:10:20 IST 2012	Proposer is: 337
Sun Dec 02 17:10:20 IST 2012	Responder is: 310
Sun Dec 02 17:10:20 IST 2012	Prop rejected, set counter offers count to: 1
Sun Dec 02 17:10:20 IST 2012	Prop rejected, get counter offers returned: 1
Sun Dec 02 17:10:24 IST 2012	Slept 4 seconds
Sun Dec 02 17:10:24 IST 2012	Sent role changed msgs
Sun Dec 02 17:11:04 IST 2012	Received communication message 
Sun Dec 02 17:11:04 IST 2012	From player: 337
Sun Dec 02 17:11:04 IST 2012	To player: 310
Sun Dec 02 17:11:04 IST 2012	Message type: basicproposal
Sun Dec 02 17:11:04 IST 2012	Chips to send by proposer: { chips  'CTRed':0 'CTPurple':0 'CTGreen':1 'grey78':0 'CTYellow':0 }
Sun Dec 02 17:11:04 IST 2012	Chips to send by responder: { chips  'CTRed':0 'CTPurple':0 'CTGreen':0 'grey78':1 'CTYellow':0 }
Sun Dec 02 17:11:14 IST 2012	Received communication message 
Sun Dec 02 17:11:14 IST 2012	From player: 310
Sun Dec 02 17:11:14 IST 2012	To player: 337
Sun Dec 02 17:11:14 IST 2012	Message type: basicproposaldiscussion
Sun Dec 02 17:11:14 IST 2012	Player 310 accepted offer
Sun Dec 02 17:11:14 IST 2012	Prop accepted, set counter offers count to: 0
Sun Dec 02 17:11:14 IST 2012	Prop accepted, get counter offers returned: 0
Sun Dec 02 17:11:14 IST 2012	A Phase Ended: Communication Phase
Sun Dec 02 17:11:14 IST 2012	Protocol: A New Phase Began: Exchange Phase
Sun Dec 02 17:11:14 IST 2012	Protocol: Exchange phase, Round: 9
Sun Dec 02 17:11:14 IST 2012	In begin exch.phase, get counter offers returned: 0
Sun Dec 02 17:11:25 IST 2012	A Phase Ended: Exchange Phase
Sun Dec 02 17:11:25 IST 2012	Proposer 337 sent: { chips  'CTRed':0 'CTPurple':0 'CTGreen':1 'grey78':0 'CTYellow':0 }
Sun Dec 02 17:11:25 IST 2012	Responder 310 sent: { chips  }
Sun Dec 02 17:11:25 IST 2012	Protocol: A New Phase Began: Movement Phase
Sun Dec 02 17:11:25 IST 2012	Protocol: Movement phase, Round: 9
Sun Dec 02 17:11:25 IST 2012	Player 310 moved to (R:0,C:2)
Sun Dec 02 17:11:29 IST 2012	Slept 4 seconds
Sun Dec 02 17:11:29 IST 2012	Player 310 got to goal, advance the other and end game
Sun Dec 02 17:11:29 IST 2012	Player: 337 ,role: Proposer score is: 35
Sun Dec 02 17:11:29 IST 2012	Player: 310 ,role: Responder score is: 210
