Tue Dec 04 20:03:32 IST 2012	This is the CT debug logger; svn version 638; sep 27 09
Tue Dec 04 20:03:32 IST 2012	Tue Dec 04 20:03:32 IST 2012
Tue Dec 04 20:03:32 IST 2012	A new Alternative Offers game has began
Tue Dec 04 20:03:32 IST 2012	ID Number: 32168
Tue Dec 04 20:03:32 IST 2012	Creating board
Tue Dec 04 20:03:32 IST 2012	<colors>
Tue Dec 04 20:03:32 IST 2012	{ GamePalette  'CTRed':0 'CTPurple':1 'CTGreen':2 'grey78':3 'CTYellow':4 }
Tue Dec 04 20:03:32 IST 2012	<rows>
Tue Dec 04 20:03:32 IST 2012	7
Tue Dec 04 20:03:32 IST 2012	<columns>
Tue Dec 04 20:03:32 IST 2012	5
Tue Dec 04 20:03:32 IST 2012	<squaresColors>
Tue Dec 04 20:03:32 IST 2012	CTPurple CTRed CTRed CTGreen CTPurple 
Tue Dec 04 20:03:32 IST 2012	CTPurple grey78 CTPurple CTYellow CTPurple 
Tue Dec 04 20:03:32 IST 2012	CTPurple CTRed CTPurple CTGreen CTPurple 
Tue Dec 04 20:03:32 IST 2012	CTPurple grey78 CTPurple CTYellow CTPurple 
Tue Dec 04 20:03:32 IST 2012	CTPurple CTRed CTPurple CTGreen CTPurple 
Tue Dec 04 20:03:32 IST 2012	CTPurple grey78 CTPurple CTYellow CTPurple 
Tue Dec 04 20:03:32 IST 2012	CTPurple CTRed CTPurple CTGreen CTPurple 
Tue Dec 04 20:03:32 IST 2012	</squareColors>
Tue Dec 04 20:03:32 IST 2012	<goalPosition>
Tue Dec 04 20:03:32 IST 2012	Goal position: (R:0,C:2)
Tue Dec 04 20:03:32 IST 2012	<numberOfPlayers>
Tue Dec 04 20:03:32 IST 2012	2
Tue Dec 04 20:03:32 IST 2012	<firstPlayerChips>
Tue Dec 04 20:03:32 IST 2012	Setting chips for player: 337 id:0
Tue Dec 04 20:03:32 IST 2012	{ chips  'CTRed':5 'CTGreen':10 'CTPurple':0 'grey78':0 'CTYellow':9 }
Tue Dec 04 20:03:32 IST 2012	Player position: (R:6,C:0)
Tue Dec 04 20:03:32 IST 2012	Setting chips for player: 310 id:1
Tue Dec 04 20:03:32 IST 2012	{ chips  'CTRed':1 'CTGreen':13 'CTPurple':0 'grey78':10 'CTYellow':0 }
Tue Dec 04 20:03:32 IST 2012	Player position: (R:6,C:4)
Tue Dec 04 20:03:32 IST 2012	Protocol: A New Phase Began: Strategy Prep Phase
Tue Dec 04 20:03:32 IST 2012	Protocol: Strategy Preparation phase, Round: 0
Tue Dec 04 20:03:32 IST 2012	Maximum number of rounds with no consecutive movement is 3
Tue Dec 04 20:03:32 IST 2012	In begin comm. phase, set counter offers count to: 0
Tue Dec 04 20:03:32 IST 2012	In begin comm. phase, get counter offers returned: 0
Tue Dec 04 20:03:52 IST 2012	A Phase Ended: Strategy Prep Phase
Tue Dec 04 20:03:52 IST 2012	Protocol: A New Phase Began: Communication Phase
Tue Dec 04 20:03:52 IST 2012	Protocol: Communication phase, Round: 0
Tue Dec 04 20:04:52 IST 2012	Received communication message 
Tue Dec 04 20:04:52 IST 2012	From player: 337
Tue Dec 04 20:04:52 IST 2012	To player: 310
Tue Dec 04 20:04:52 IST 2012	Message type: basicproposal
Tue Dec 04 20:04:52 IST 2012	Chips to send by proposer: { chips  'CTYellow':1 }
Tue Dec 04 20:04:52 IST 2012	Chips to send by responder: { chips  'CTGreen':3 }
Tue Dec 04 20:05:01 IST 2012	Received communication message 
Tue Dec 04 20:05:01 IST 2012	From player: 310
Tue Dec 04 20:05:01 IST 2012	To player: 337
Tue Dec 04 20:05:01 IST 2012	Message type: basicproposaldiscussion
Tue Dec 04 20:05:01 IST 2012	Player 310 accepted offer
Tue Dec 04 20:05:01 IST 2012	Prop accepted, set counter offers count to: 0
Tue Dec 04 20:05:01 IST 2012	Prop accepted, get counter offers returned: 0
Tue Dec 04 20:05:01 IST 2012	A Phase Ended: Communication Phase
Tue Dec 04 20:05:01 IST 2012	Protocol: A New Phase Began: Exchange Phase
Tue Dec 04 20:05:01 IST 2012	Protocol: Exchange phase, Round: 0
Tue Dec 04 20:05:01 IST 2012	In begin exch.phase, get counter offers returned: 0
Tue Dec 04 20:05:30 IST 2012	A Phase Ended: Exchange Phase
Tue Dec 04 20:05:30 IST 2012	Proposer 337 sent: { chips  'CTRed':0 'CTPurple':0 'CTGreen':0 'grey78':0 'CTYellow':1 }
Tue Dec 04 20:05:30 IST 2012	Responder 310 sent: { chips  'CTRed':0 'CTPurple':0 'CTGreen':3 'grey78':0 'CTYellow':0 }
Tue Dec 04 20:05:30 IST 2012	Protocol: A New Phase Began: Movement Phase
Tue Dec 04 20:05:30 IST 2012	Protocol: Movement phase, Round: 0
Tue Dec 04 20:05:49 IST 2012	A Phase Ended: Movement Phase
Tue Dec 04 20:05:49 IST 2012	Swaping roles:
Tue Dec 04 20:05:49 IST 2012	Proposer is: 310
Tue Dec 04 20:05:49 IST 2012	Responder is: 337
Tue Dec 04 20:05:49 IST 2012	Protocol: A New Phase Began: Feedback Phase
Tue Dec 04 20:05:49 IST 2012	Protocol: Feedback phase, Round: 0
Tue Dec 04 20:05:49 IST 2012	Number of consecutive no movements for player 337 is 1
Tue Dec 04 20:05:49 IST 2012	Number of consecutive no movements for player 310 is 1
Tue Dec 04 20:05:54 IST 2012	A Phase Ended: Feedback Phase
Tue Dec 04 20:05:54 IST 2012	Protocol: A New Phase Began: Communication Phase
Tue Dec 04 20:05:54 IST 2012	Protocol: Communication phase, Round: 1
Tue Dec 04 20:06:32 IST 2012	Received communication message 
Tue Dec 04 20:06:32 IST 2012	From player: 310
Tue Dec 04 20:06:32 IST 2012	To player: 337
Tue Dec 04 20:06:32 IST 2012	Message type: basicproposal
Tue Dec 04 20:06:32 IST 2012	Chips to send by proposer: { chips  'CTRed':0 'CTPurple':0 'CTGreen':3 'grey78':3 'CTYellow':0 }
Tue Dec 04 20:06:32 IST 2012	Chips to send by responder: { chips  'CTRed':0 'CTPurple':0 'CTGreen':0 'grey78':0 'CTYellow':2 }
Tue Dec 04 20:07:17 IST 2012	Received communication message 
Tue Dec 04 20:07:17 IST 2012	From player: 337
Tue Dec 04 20:07:17 IST 2012	To player: 310
Tue Dec 04 20:07:17 IST 2012	Message type: basicproposaldiscussion
Tue Dec 04 20:07:17 IST 2012	Player 337 rejected offer
Tue Dec 04 20:07:17 IST 2012	Swaping roles:
Tue Dec 04 20:07:17 IST 2012	Proposer is: 337
Tue Dec 04 20:07:17 IST 2012	Responder is: 310
Tue Dec 04 20:07:17 IST 2012	Prop rejected, set counter offers count to: 1
Tue Dec 04 20:07:17 IST 2012	Prop rejected, get counter offers returned: 1
Tue Dec 04 20:07:21 IST 2012	Slept 4 seconds
Tue Dec 04 20:07:21 IST 2012	Sent role changed msgs
Tue Dec 04 20:08:21 IST 2012	Received communication message 
Tue Dec 04 20:08:21 IST 2012	From player: 337
Tue Dec 04 20:08:21 IST 2012	To player: 310
Tue Dec 04 20:08:21 IST 2012	Message type: basicproposal
Tue Dec 04 20:08:21 IST 2012	Chips to send by proposer: { chips  'CTRed':0 'CTPurple':0 'CTGreen':0 'grey78':0 'CTYellow':1 }
Tue Dec 04 20:08:21 IST 2012	Chips to send by responder: { chips  'CTRed':0 'CTPurple':0 'CTGreen':1 'grey78':2 'CTYellow':0 }
Tue Dec 04 20:08:32 IST 2012	Received communication message 
Tue Dec 04 20:08:32 IST 2012	From player: 310
Tue Dec 04 20:08:32 IST 2012	To player: 337
Tue Dec 04 20:08:32 IST 2012	Message type: basicproposaldiscussion
Tue Dec 04 20:08:32 IST 2012	Player 310 accepted offer
Tue Dec 04 20:08:32 IST 2012	Prop accepted, set counter offers count to: 0
Tue Dec 04 20:08:32 IST 2012	Prop accepted, get counter offers returned: 0
Tue Dec 04 20:08:32 IST 2012	A Phase Ended: Communication Phase
Tue Dec 04 20:08:32 IST 2012	Protocol: A New Phase Began: Exchange Phase
Tue Dec 04 20:08:32 IST 2012	Protocol: Exchange phase, Round: 1
Tue Dec 04 20:08:32 IST 2012	In begin exch.phase, get counter offers returned: 0
Tue Dec 04 20:09:01 IST 2012	A Phase Ended: Exchange Phase
Tue Dec 04 20:09:01 IST 2012	Proposer 337 sent: { chips  'CTRed':0 'CTPurple':0 'CTGreen':0 'grey78':0 'CTYellow':1 }
Tue Dec 04 20:09:01 IST 2012	Responder 310 sent: { chips  'CTRed':0 'CTPurple':0 'CTGreen':0 'grey78':2 'CTYellow':0 }
Tue Dec 04 20:09:01 IST 2012	Protocol: A New Phase Began: Movement Phase
Tue Dec 04 20:09:01 IST 2012	Protocol: Movement phase, Round: 1
Tue Dec 04 20:09:20 IST 2012	A Phase Ended: Movement Phase
Tue Dec 04 20:09:20 IST 2012	Protocol: A New Phase Began: Feedback Phase
Tue Dec 04 20:09:20 IST 2012	Protocol: Feedback phase, Round: 1
Tue Dec 04 20:09:20 IST 2012	Number of consecutive no movements for player 337 is 2
Tue Dec 04 20:09:20 IST 2012	Number of consecutive no movements for player 310 is 2
Tue Dec 04 20:09:25 IST 2012	A Phase Ended: Feedback Phase
Tue Dec 04 20:09:25 IST 2012	Protocol: A New Phase Began: Communication Phase
Tue Dec 04 20:09:25 IST 2012	Protocol: Communication phase, Round: 2
Tue Dec 04 20:10:25 IST 2012	Received communication message 
Tue Dec 04 20:10:25 IST 2012	From player: 337
Tue Dec 04 20:10:25 IST 2012	To player: 310
Tue Dec 04 20:10:25 IST 2012	Message type: basicproposal
Tue Dec 04 20:10:25 IST 2012	Chips to send by proposer: { chips  'CTYellow':1 }
Tue Dec 04 20:10:25 IST 2012	Chips to send by responder: { chips  'CTGreen':2 'grey78':1 }
Tue Dec 04 20:10:35 IST 2012	Received communication message 
Tue Dec 04 20:10:35 IST 2012	From player: 310
Tue Dec 04 20:10:35 IST 2012	To player: 337
Tue Dec 04 20:10:35 IST 2012	Message type: basicproposaldiscussion
Tue Dec 04 20:10:35 IST 2012	Player 310 accepted offer
Tue Dec 04 20:10:35 IST 2012	Prop accepted, set counter offers count to: 0
Tue Dec 04 20:10:35 IST 2012	Prop accepted, get counter offers returned: 0
Tue Dec 04 20:10:35 IST 2012	A Phase Ended: Communication Phase
Tue Dec 04 20:10:35 IST 2012	Protocol: A New Phase Began: Exchange Phase
Tue Dec 04 20:10:35 IST 2012	Protocol: Exchange phase, Round: 2
Tue Dec 04 20:10:35 IST 2012	In begin exch.phase, get counter offers returned: 0
Tue Dec 04 20:10:57 IST 2012	A Phase Ended: Exchange Phase
Tue Dec 04 20:10:57 IST 2012	Proposer 337 sent: { chips  'CTRed':0 'CTPurple':0 'CTGreen':0 'grey78':0 'CTYellow':1 }
Tue Dec 04 20:10:57 IST 2012	Responder 310 sent: { chips  }
Tue Dec 04 20:10:57 IST 2012	Protocol: A New Phase Began: Movement Phase
Tue Dec 04 20:10:57 IST 2012	Protocol: Movement phase, Round: 2
Tue Dec 04 20:10:57 IST 2012	Player 310 moved to (R:6,C:3)
Tue Dec 04 20:10:57 IST 2012	Player 337 moved to (R:6,C:1)
Tue Dec 04 20:11:16 IST 2012	A Phase Ended: Movement Phase
Tue Dec 04 20:11:16 IST 2012	Swaping roles:
Tue Dec 04 20:11:16 IST 2012	Proposer is: 310
Tue Dec 04 20:11:16 IST 2012	Responder is: 337
Tue Dec 04 20:11:16 IST 2012	Protocol: A New Phase Began: Feedback Phase
Tue Dec 04 20:11:16 IST 2012	Protocol: Feedback phase, Round: 2
Tue Dec 04 20:11:16 IST 2012	Number of consecutive no movements for player 337 is 0
Tue Dec 04 20:11:16 IST 2012	Number of consecutive no movements for player 310 is 0
Tue Dec 04 20:11:21 IST 2012	A Phase Ended: Feedback Phase
Tue Dec 04 20:11:21 IST 2012	Protocol: A New Phase Began: Communication Phase
Tue Dec 04 20:11:21 IST 2012	Protocol: Communication phase, Round: 3
Tue Dec 04 20:11:34 IST 2012	Received communication message 
Tue Dec 04 20:11:34 IST 2012	From player: 310
Tue Dec 04 20:11:34 IST 2012	To player: 337
Tue Dec 04 20:11:34 IST 2012	Message type: basicproposal
Tue Dec 04 20:11:34 IST 2012	Chips to send by proposer: { chips  'CTRed':0 'CTPurple':0 'CTGreen':0 'grey78':1 'CTYellow':0 }
Tue Dec 04 20:11:34 IST 2012	Chips to send by responder: { chips  'CTRed':0 'CTPurple':0 'CTGreen':3 'grey78':0 'CTYellow':0 }
Tue Dec 04 20:11:52 IST 2012	Received communication message 
Tue Dec 04 20:11:52 IST 2012	From player: 337
Tue Dec 04 20:11:52 IST 2012	To player: 310
Tue Dec 04 20:11:52 IST 2012	Message type: basicproposaldiscussion
Tue Dec 04 20:11:52 IST 2012	Player 337 rejected offer
Tue Dec 04 20:11:52 IST 2012	Swaping roles:
Tue Dec 04 20:11:52 IST 2012	Proposer is: 337
Tue Dec 04 20:11:52 IST 2012	Responder is: 310
Tue Dec 04 20:11:52 IST 2012	Prop rejected, set counter offers count to: 1
Tue Dec 04 20:11:52 IST 2012	Prop rejected, get counter offers returned: 1
Tue Dec 04 20:11:56 IST 2012	Slept 4 seconds
Tue Dec 04 20:11:56 IST 2012	Sent role changed msgs
Tue Dec 04 20:12:53 IST 2012	Received communication message 
Tue Dec 04 20:12:53 IST 2012	From player: 337
Tue Dec 04 20:12:53 IST 2012	To player: 310
Tue Dec 04 20:12:53 IST 2012	Message type: basicproposal
Tue Dec 04 20:12:53 IST 2012	Chips to send by proposer: { chips  'CTRed':0 'CTPurple':0 'CTGreen':0 'grey78':0 'CTYellow':1 }
Tue Dec 04 20:12:53 IST 2012	Chips to send by responder: { chips  'CTRed':0 'CTPurple':0 'CTGreen':0 'grey78':1 'CTYellow':0 }
Tue Dec 04 20:13:05 IST 2012	Received communication message 
Tue Dec 04 20:13:05 IST 2012	From player: 310
Tue Dec 04 20:13:05 IST 2012	To player: 337
Tue Dec 04 20:13:05 IST 2012	Message type: basicproposaldiscussion
Tue Dec 04 20:13:05 IST 2012	Player 310 accepted offer
Tue Dec 04 20:13:05 IST 2012	Prop accepted, set counter offers count to: 0
Tue Dec 04 20:13:05 IST 2012	Prop accepted, get counter offers returned: 0
Tue Dec 04 20:13:05 IST 2012	A Phase Ended: Communication Phase
Tue Dec 04 20:13:05 IST 2012	Protocol: A New Phase Began: Exchange Phase
Tue Dec 04 20:13:05 IST 2012	Protocol: Exchange phase, Round: 3
Tue Dec 04 20:13:05 IST 2012	In begin exch.phase, get counter offers returned: 0
Tue Dec 04 20:13:19 IST 2012	A Phase Ended: Exchange Phase
Tue Dec 04 20:13:19 IST 2012	Proposer 337 sent: { chips  'CTRed':0 'CTPurple':0 'CTGreen':0 'grey78':0 'CTYellow':1 }
Tue Dec 04 20:13:19 IST 2012	Responder 310 sent: { chips  }
Tue Dec 04 20:13:19 IST 2012	Protocol: A New Phase Began: Movement Phase
Tue Dec 04 20:13:19 IST 2012	Protocol: Movement phase, Round: 3
Tue Dec 04 20:13:19 IST 2012	Player 310 moved to (R:5,C:3)
Tue Dec 04 20:13:39 IST 2012	A Phase Ended: Movement Phase
Tue Dec 04 20:13:39 IST 2012	Protocol: A New Phase Began: Feedback Phase
Tue Dec 04 20:13:39 IST 2012	Protocol: Feedback phase, Round: 3
Tue Dec 04 20:13:39 IST 2012	Number of consecutive no movements for player 337 is 1
Tue Dec 04 20:13:39 IST 2012	Number of consecutive no movements for player 310 is 0
Tue Dec 04 20:13:44 IST 2012	A Phase Ended: Feedback Phase
Tue Dec 04 20:13:44 IST 2012	Protocol: A New Phase Began: Communication Phase
Tue Dec 04 20:13:44 IST 2012	Protocol: Communication phase, Round: 4
Tue Dec 04 20:14:44 IST 2012	Received communication message 
Tue Dec 04 20:14:44 IST 2012	From player: 337
Tue Dec 04 20:14:44 IST 2012	To player: 310
Tue Dec 04 20:14:44 IST 2012	Message type: basicproposal
Tue Dec 04 20:14:44 IST 2012	Chips to send by proposer: { chips  'CTYellow':1 }
Tue Dec 04 20:14:44 IST 2012	Chips to send by responder: { chips  'grey78':1 }
Tue Dec 04 20:14:55 IST 2012	Received communication message 
Tue Dec 04 20:14:55 IST 2012	From player: 310
Tue Dec 04 20:14:55 IST 2012	To player: 337
Tue Dec 04 20:14:55 IST 2012	Message type: basicproposaldiscussion
Tue Dec 04 20:14:55 IST 2012	Player 310 accepted offer
Tue Dec 04 20:14:55 IST 2012	Prop accepted, set counter offers count to: 0
Tue Dec 04 20:14:55 IST 2012	Prop accepted, get counter offers returned: 0
Tue Dec 04 20:14:55 IST 2012	A Phase Ended: Communication Phase
Tue Dec 04 20:14:55 IST 2012	Protocol: A New Phase Began: Exchange Phase
Tue Dec 04 20:14:55 IST 2012	Protocol: Exchange phase, Round: 4
Tue Dec 04 20:14:55 IST 2012	In begin exch.phase, get counter offers returned: 0
Tue Dec 04 20:15:18 IST 2012	A Phase Ended: Exchange Phase
Tue Dec 04 20:15:18 IST 2012	Proposer 337 sent: { chips  'CTRed':0 'CTPurple':0 'CTGreen':0 'grey78':0 'CTYellow':1 }
Tue Dec 04 20:15:18 IST 2012	Responder 310 sent: { chips  }
Tue Dec 04 20:15:18 IST 2012	Protocol: A New Phase Began: Movement Phase
Tue Dec 04 20:15:18 IST 2012	Protocol: Movement phase, Round: 4
Tue Dec 04 20:15:18 IST 2012	Player 310 moved to (R:4,C:3)
Tue Dec 04 20:15:37 IST 2012	A Phase Ended: Movement Phase
Tue Dec 04 20:15:37 IST 2012	Swaping roles:
Tue Dec 04 20:15:37 IST 2012	Proposer is: 310
Tue Dec 04 20:15:37 IST 2012	Responder is: 337
Tue Dec 04 20:15:37 IST 2012	Protocol: A New Phase Began: Feedback Phase
Tue Dec 04 20:15:37 IST 2012	Protocol: Feedback phase, Round: 4
Tue Dec 04 20:15:37 IST 2012	Number of consecutive no movements for player 337 is 2
Tue Dec 04 20:15:37 IST 2012	Number of consecutive no movements for player 310 is 0
Tue Dec 04 20:15:43 IST 2012	A Phase Ended: Feedback Phase
Tue Dec 04 20:15:43 IST 2012	Protocol: A New Phase Began: Communication Phase
Tue Dec 04 20:15:43 IST 2012	Protocol: Communication phase, Round: 5
Tue Dec 04 20:16:00 IST 2012	Received communication message 
Tue Dec 04 20:16:00 IST 2012	From player: 310
Tue Dec 04 20:16:00 IST 2012	To player: 337
Tue Dec 04 20:16:00 IST 2012	Message type: basicproposal
Tue Dec 04 20:16:00 IST 2012	Chips to send by proposer: { chips  'CTRed':0 'CTPurple':0 'CTGreen':0 'grey78':1 'CTYellow':0 }
Tue Dec 04 20:16:00 IST 2012	Chips to send by responder: { chips  'CTRed':0 'CTPurple':0 'CTGreen':2 'grey78':0 'CTYellow':0 }
Tue Dec 04 20:16:35 IST 2012	Received communication message 
Tue Dec 04 20:16:35 IST 2012	From player: 337
Tue Dec 04 20:16:35 IST 2012	To player: 310
Tue Dec 04 20:16:35 IST 2012	Message type: basicproposaldiscussion
Tue Dec 04 20:16:35 IST 2012	Player 337 rejected offer
Tue Dec 04 20:16:35 IST 2012	Swaping roles:
Tue Dec 04 20:16:35 IST 2012	Proposer is: 337
Tue Dec 04 20:16:35 IST 2012	Responder is: 310
Tue Dec 04 20:16:35 IST 2012	Prop rejected, set counter offers count to: 1
Tue Dec 04 20:16:35 IST 2012	Prop rejected, get counter offers returned: 1
Tue Dec 04 20:16:40 IST 2012	Slept 4 seconds
Tue Dec 04 20:16:40 IST 2012	Sent role changed msgs
Tue Dec 04 20:17:40 IST 2012	Received communication message 
Tue Dec 04 20:17:40 IST 2012	From player: 337
Tue Dec 04 20:17:40 IST 2012	To player: 310
Tue Dec 04 20:17:40 IST 2012	Message type: basicproposal
Tue Dec 04 20:17:40 IST 2012	Chips to send by proposer: { chips  'CTRed':0 'CTPurple':0 'CTGreen':1 'grey78':0 'CTYellow':0 }
Tue Dec 04 20:17:40 IST 2012	Chips to send by responder: { chips  'CTRed':0 'CTPurple':0 'CTGreen':0 'grey78':1 'CTYellow':0 }
Tue Dec 04 20:17:53 IST 2012	Received communication message 
Tue Dec 04 20:17:53 IST 2012	From player: 310
Tue Dec 04 20:17:53 IST 2012	To player: 337
Tue Dec 04 20:17:53 IST 2012	Message type: basicproposaldiscussion
Tue Dec 04 20:17:53 IST 2012	Player 310 accepted offer
Tue Dec 04 20:17:53 IST 2012	Prop accepted, set counter offers count to: 0
Tue Dec 04 20:17:53 IST 2012	Prop accepted, get counter offers returned: 0
Tue Dec 04 20:17:53 IST 2012	A Phase Ended: Communication Phase
Tue Dec 04 20:17:53 IST 2012	Protocol: A New Phase Began: Exchange Phase
Tue Dec 04 20:17:53 IST 2012	Protocol: Exchange phase, Round: 5
Tue Dec 04 20:17:53 IST 2012	In begin exch.phase, get counter offers returned: 0
Tue Dec 04 20:18:21 IST 2012	A Phase Ended: Exchange Phase
Tue Dec 04 20:18:21 IST 2012	Proposer 337 sent: { chips  'CTRed':0 'CTPurple':0 'CTGreen':1 'grey78':0 'CTYellow':0 }
Tue Dec 04 20:18:21 IST 2012	Responder 310 sent: { chips  }
Tue Dec 04 20:18:21 IST 2012	Protocol: A New Phase Began: Movement Phase
Tue Dec 04 20:18:21 IST 2012	Protocol: Movement phase, Round: 5
Tue Dec 04 20:18:21 IST 2012	Player 310 moved to (R:3,C:3)
Tue Dec 04 20:18:21 IST 2012	Player 337 moved to (R:5,C:1)
Tue Dec 04 20:18:41 IST 2012	A Phase Ended: Movement Phase
Tue Dec 04 20:18:41 IST 2012	Protocol: A New Phase Began: Feedback Phase
Tue Dec 04 20:18:41 IST 2012	Protocol: Feedback phase, Round: 5
Tue Dec 04 20:18:41 IST 2012	Number of consecutive no movements for player 337 is 0
Tue Dec 04 20:18:41 IST 2012	Number of consecutive no movements for player 310 is 0
Tue Dec 04 20:18:46 IST 2012	A Phase Ended: Feedback Phase
Tue Dec 04 20:18:46 IST 2012	Protocol: A New Phase Began: Communication Phase
Tue Dec 04 20:18:46 IST 2012	Protocol: Communication phase, Round: 6
Tue Dec 04 20:19:46 IST 2012	Received communication message 
Tue Dec 04 20:19:46 IST 2012	From player: 337
Tue Dec 04 20:19:46 IST 2012	To player: 310
Tue Dec 04 20:19:46 IST 2012	Message type: basicproposal
Tue Dec 04 20:19:46 IST 2012	Chips to send by proposer: { chips  'CTGreen':1 }
Tue Dec 04 20:19:46 IST 2012	Chips to send by responder: { chips  'grey78':1 }
Tue Dec 04 20:19:57 IST 2012	Received communication message 
Tue Dec 04 20:19:57 IST 2012	From player: 310
Tue Dec 04 20:19:57 IST 2012	To player: 337
Tue Dec 04 20:19:57 IST 2012	Message type: basicproposaldiscussion
Tue Dec 04 20:19:57 IST 2012	Player 310 accepted offer
Tue Dec 04 20:19:57 IST 2012	Prop accepted, set counter offers count to: 0
Tue Dec 04 20:19:57 IST 2012	Prop accepted, get counter offers returned: 0
Tue Dec 04 20:19:57 IST 2012	A Phase Ended: Communication Phase
Tue Dec 04 20:19:57 IST 2012	Protocol: A New Phase Began: Exchange Phase
Tue Dec 04 20:19:57 IST 2012	Protocol: Exchange phase, Round: 6
Tue Dec 04 20:19:57 IST 2012	In begin exch.phase, get counter offers returned: 0
Tue Dec 04 20:20:18 IST 2012	A Phase Ended: Exchange Phase
Tue Dec 04 20:20:18 IST 2012	Proposer 337 sent: { chips  'CTRed':0 'CTPurple':0 'CTGreen':1 'grey78':0 'CTYellow':0 }
Tue Dec 04 20:20:18 IST 2012	Responder 310 sent: { chips  }
Tue Dec 04 20:20:18 IST 2012	Protocol: A New Phase Began: Movement Phase
Tue Dec 04 20:20:18 IST 2012	Protocol: Movement phase, Round: 6
Tue Dec 04 20:20:18 IST 2012	Player 310 moved to (R:2,C:3)
Tue Dec 04 20:20:38 IST 2012	A Phase Ended: Movement Phase
Tue Dec 04 20:20:38 IST 2012	Swaping roles:
Tue Dec 04 20:20:38 IST 2012	Proposer is: 310
Tue Dec 04 20:20:38 IST 2012	Responder is: 337
Tue Dec 04 20:20:38 IST 2012	Protocol: A New Phase Began: Feedback Phase
Tue Dec 04 20:20:38 IST 2012	Protocol: Feedback phase, Round: 6
Tue Dec 04 20:20:38 IST 2012	Number of consecutive no movements for player 337 is 1
Tue Dec 04 20:20:38 IST 2012	Number of consecutive no movements for player 310 is 0
Tue Dec 04 20:20:43 IST 2012	A Phase Ended: Feedback Phase
Tue Dec 04 20:20:43 IST 2012	Protocol: A New Phase Began: Communication Phase
Tue Dec 04 20:20:43 IST 2012	Protocol: Communication phase, Round: 7
Tue Dec 04 20:21:03 IST 2012	Received communication message 
Tue Dec 04 20:21:03 IST 2012	From player: 310
Tue Dec 04 20:21:03 IST 2012	To player: 337
Tue Dec 04 20:21:03 IST 2012	Message type: basicproposal
Tue Dec 04 20:21:03 IST 2012	Chips to send by proposer: { chips  'CTRed':0 'CTPurple':0 'CTGreen':0 'grey78':1 'CTYellow':0 }
Tue Dec 04 20:21:03 IST 2012	Chips to send by responder: { chips  'CTRed':0 'CTPurple':0 'CTGreen':3 'grey78':0 'CTYellow':0 }
Tue Dec 04 20:21:26 IST 2012	Received communication message 
Tue Dec 04 20:21:26 IST 2012	From player: 337
Tue Dec 04 20:21:26 IST 2012	To player: 310
Tue Dec 04 20:21:26 IST 2012	Message type: basicproposaldiscussion
Tue Dec 04 20:21:26 IST 2012	Player 337 rejected offer
Tue Dec 04 20:21:26 IST 2012	Swaping roles:
Tue Dec 04 20:21:26 IST 2012	Proposer is: 337
Tue Dec 04 20:21:26 IST 2012	Responder is: 310
Tue Dec 04 20:21:26 IST 2012	Prop rejected, set counter offers count to: 1
Tue Dec 04 20:21:26 IST 2012	Prop rejected, get counter offers returned: 1
Tue Dec 04 20:21:30 IST 2012	Slept 4 seconds
Tue Dec 04 20:21:30 IST 2012	Sent role changed msgs
Tue Dec 04 20:22:30 IST 2012	Received communication message 
Tue Dec 04 20:22:30 IST 2012	From player: 337
Tue Dec 04 20:22:30 IST 2012	To player: 310
Tue Dec 04 20:22:30 IST 2012	Message type: basicproposal
Tue Dec 04 20:22:30 IST 2012	Chips to send by proposer: { chips  'CTRed':0 'CTPurple':0 'CTGreen':0 'grey78':0 'CTYellow':1 }
Tue Dec 04 20:22:30 IST 2012	Chips to send by responder: { chips  'CTRed':0 'CTPurple':0 'CTGreen':0 'grey78':1 'CTYellow':0 }
Tue Dec 04 20:22:40 IST 2012	Received communication message 
Tue Dec 04 20:22:40 IST 2012	From player: 310
Tue Dec 04 20:22:40 IST 2012	To player: 337
Tue Dec 04 20:22:40 IST 2012	Message type: basicproposaldiscussion
Tue Dec 04 20:22:40 IST 2012	Player 310 accepted offer
Tue Dec 04 20:22:40 IST 2012	Prop accepted, set counter offers count to: 0
Tue Dec 04 20:22:40 IST 2012	Prop accepted, get counter offers returned: 0
Tue Dec 04 20:22:40 IST 2012	A Phase Ended: Communication Phase
Tue Dec 04 20:22:40 IST 2012	Protocol: A New Phase Began: Exchange Phase
Tue Dec 04 20:22:40 IST 2012	Protocol: Exchange phase, Round: 7
Tue Dec 04 20:22:40 IST 2012	In begin exch.phase, get counter offers returned: 0
Tue Dec 04 20:22:58 IST 2012	A Phase Ended: Exchange Phase
Tue Dec 04 20:22:58 IST 2012	Proposer 337 sent: { chips  'CTRed':0 'CTPurple':0 'CTGreen':0 'grey78':0 'CTYellow':1 }
Tue Dec 04 20:22:58 IST 2012	Responder 310 sent: { chips  }
Tue Dec 04 20:22:58 IST 2012	Protocol: A New Phase Began: Movement Phase
Tue Dec 04 20:22:58 IST 2012	Protocol: Movement phase, Round: 7
Tue Dec 04 20:22:58 IST 2012	Player 310 moved to (R:1,C:3)
Tue Dec 04 20:23:18 IST 2012	A Phase Ended: Movement Phase
Tue Dec 04 20:23:18 IST 2012	Protocol: A New Phase Began: Feedback Phase
Tue Dec 04 20:23:18 IST 2012	Protocol: Feedback phase, Round: 7
Tue Dec 04 20:23:18 IST 2012	Number of consecutive no movements for player 337 is 2
Tue Dec 04 20:23:18 IST 2012	Number of consecutive no movements for player 310 is 0
Tue Dec 04 20:23:23 IST 2012	A Phase Ended: Feedback Phase
Tue Dec 04 20:23:23 IST 2012	Protocol: A New Phase Began: Communication Phase
Tue Dec 04 20:23:23 IST 2012	Protocol: Communication phase, Round: 8
Tue Dec 04 20:24:22 IST 2012	Received communication message 
Tue Dec 04 20:24:22 IST 2012	From player: 337
Tue Dec 04 20:24:22 IST 2012	To player: 310
Tue Dec 04 20:24:22 IST 2012	Message type: basicproposal
Tue Dec 04 20:24:22 IST 2012	Chips to send by proposer: { chips  'CTGreen':1 }
Tue Dec 04 20:24:22 IST 2012	Chips to send by responder: { chips  'grey78':1 }
Tue Dec 04 20:24:34 IST 2012	Received communication message 
Tue Dec 04 20:24:34 IST 2012	From player: 310
Tue Dec 04 20:24:34 IST 2012	To player: 337
Tue Dec 04 20:24:34 IST 2012	Message type: basicproposaldiscussion
Tue Dec 04 20:24:34 IST 2012	Player 310 accepted offer
Tue Dec 04 20:24:34 IST 2012	Prop accepted, set counter offers count to: 0
Tue Dec 04 20:24:34 IST 2012	Prop accepted, get counter offers returned: 0
Tue Dec 04 20:24:34 IST 2012	A Phase Ended: Communication Phase
Tue Dec 04 20:24:34 IST 2012	Protocol: A New Phase Began: Exchange Phase
Tue Dec 04 20:24:34 IST 2012	Protocol: Exchange phase, Round: 8
Tue Dec 04 20:24:34 IST 2012	In begin exch.phase, get counter offers returned: 0
Tue Dec 04 20:24:48 IST 2012	A Phase Ended: Exchange Phase
Tue Dec 04 20:24:48 IST 2012	Proposer 337 sent: { chips  'CTRed':0 'CTPurple':0 'CTGreen':1 'grey78':0 'CTYellow':0 }
Tue Dec 04 20:24:48 IST 2012	Responder 310 sent: { chips  }
Tue Dec 04 20:24:48 IST 2012	Protocol: A New Phase Began: Movement Phase
Tue Dec 04 20:24:48 IST 2012	Protocol: Movement phase, Round: 8
Tue Dec 04 20:24:48 IST 2012	Player 310 moved to (R:0,C:3)
Tue Dec 04 20:24:48 IST 2012	Player 337 moved to (R:4,C:1)
Tue Dec 04 20:25:08 IST 2012	A Phase Ended: Movement Phase
Tue Dec 04 20:25:08 IST 2012	Swaping roles:
Tue Dec 04 20:25:08 IST 2012	Proposer is: 310
Tue Dec 04 20:25:08 IST 2012	Responder is: 337
Tue Dec 04 20:25:08 IST 2012	Protocol: A New Phase Began: Feedback Phase
Tue Dec 04 20:25:08 IST 2012	Protocol: Feedback phase, Round: 8
Tue Dec 04 20:25:08 IST 2012	Number of consecutive no movements for player 337 is 0
Tue Dec 04 20:25:08 IST 2012	Number of consecutive no movements for player 310 is 0
Tue Dec 04 20:25:13 IST 2012	A Phase Ended: Feedback Phase
Tue Dec 04 20:25:13 IST 2012	Protocol: A New Phase Began: Communication Phase
Tue Dec 04 20:25:13 IST 2012	Protocol: Communication phase, Round: 9
Tue Dec 04 20:25:33 IST 2012	Received communication message 
Tue Dec 04 20:25:33 IST 2012	From player: 310
Tue Dec 04 20:25:33 IST 2012	To player: 337
Tue Dec 04 20:25:33 IST 2012	Message type: basicproposal
Tue Dec 04 20:25:33 IST 2012	Chips to send by proposer: { chips  'CTRed':0 'CTPurple':0 'CTGreen':0 'grey78':1 'CTYellow':0 }
Tue Dec 04 20:25:33 IST 2012	Chips to send by responder: { chips  'CTRed':0 'CTPurple':0 'CTGreen':3 'grey78':0 'CTYellow':0 }
Tue Dec 04 20:25:46 IST 2012	Received communication message 
Tue Dec 04 20:25:46 IST 2012	From player: 337
Tue Dec 04 20:25:46 IST 2012	To player: 310
Tue Dec 04 20:25:46 IST 2012	Message type: basicproposaldiscussion
Tue Dec 04 20:25:46 IST 2012	Player 337 rejected offer
Tue Dec 04 20:25:46 IST 2012	Swaping roles:
Tue Dec 04 20:25:46 IST 2012	Proposer is: 337
Tue Dec 04 20:25:46 IST 2012	Responder is: 310
Tue Dec 04 20:25:46 IST 2012	Prop rejected, set counter offers count to: 1
Tue Dec 04 20:25:46 IST 2012	Prop rejected, get counter offers returned: 1
Tue Dec 04 20:25:50 IST 2012	Slept 4 seconds
Tue Dec 04 20:25:50 IST 2012	Sent role changed msgs
Tue Dec 04 20:26:30 IST 2012	Received communication message 
Tue Dec 04 20:26:30 IST 2012	From player: 337
Tue Dec 04 20:26:30 IST 2012	To player: 310
Tue Dec 04 20:26:30 IST 2012	Message type: basicproposal
Tue Dec 04 20:26:30 IST 2012	Chips to send by proposer: { chips  'CTRed':0 'CTPurple':0 'CTGreen':1 'grey78':0 'CTYellow':0 }
Tue Dec 04 20:26:30 IST 2012	Chips to send by responder: { chips  'CTRed':0 'CTPurple':0 'CTGreen':0 'grey78':1 'CTYellow':0 }
Tue Dec 04 20:26:36 IST 2012	Received communication message 
Tue Dec 04 20:26:36 IST 2012	From player: 310
Tue Dec 04 20:26:36 IST 2012	To player: 337
Tue Dec 04 20:26:36 IST 2012	Message type: basicproposaldiscussion
Tue Dec 04 20:26:36 IST 2012	Player 310 accepted offer
Tue Dec 04 20:26:36 IST 2012	Prop accepted, set counter offers count to: 0
Tue Dec 04 20:26:36 IST 2012	Prop accepted, get counter offers returned: 0
Tue Dec 04 20:26:36 IST 2012	A Phase Ended: Communication Phase
Tue Dec 04 20:26:36 IST 2012	Protocol: A New Phase Began: Exchange Phase
Tue Dec 04 20:26:36 IST 2012	Protocol: Exchange phase, Round: 9
Tue Dec 04 20:26:36 IST 2012	In begin exch.phase, get counter offers returned: 0
Tue Dec 04 20:26:46 IST 2012	A Phase Ended: Exchange Phase
Tue Dec 04 20:26:46 IST 2012	Proposer 337 sent: { chips  'CTRed':0 'CTPurple':0 'CTGreen':1 'grey78':0 'CTYellow':0 }
Tue Dec 04 20:26:46 IST 2012	Responder 310 sent: { chips  }
Tue Dec 04 20:26:46 IST 2012	Protocol: A New Phase Began: Movement Phase
Tue Dec 04 20:26:46 IST 2012	Protocol: Movement phase, Round: 9
Tue Dec 04 20:26:46 IST 2012	Player 310 moved to (R:0,C:2)
Tue Dec 04 20:26:50 IST 2012	Slept 4 seconds
Tue Dec 04 20:26:50 IST 2012	Player 310 got to goal, advance the other and end game
Tue Dec 04 20:26:50 IST 2012	Player: 337 ,role: Proposer score is: 40
Tue Dec 04 20:26:50 IST 2012	Player: 310 ,role: Responder score is: 205
