Tue Dec 04 10:11:01 IST 2012	This is the CT debug logger; svn version 638; sep 27 09
Tue Dec 04 10:11:01 IST 2012	Tue Dec 04 10:11:01 IST 2012
Tue Dec 04 10:11:01 IST 2012	A new Alternative Offers game has began
Tue Dec 04 10:11:01 IST 2012	ID Number: 31425
Tue Dec 04 10:11:01 IST 2012	Creating board
Tue Dec 04 10:11:01 IST 2012	<colors>
Tue Dec 04 10:11:01 IST 2012	{ GamePalette  'CTRed':0 'CTPurple':1 'CTGreen':2 'grey78':3 'CTYellow':4 }
Tue Dec 04 10:11:01 IST 2012	<rows>
Tue Dec 04 10:11:01 IST 2012	7
Tue Dec 04 10:11:01 IST 2012	<columns>
Tue Dec 04 10:11:01 IST 2012	5
Tue Dec 04 10:11:01 IST 2012	<squaresColors>
Tue Dec 04 10:11:01 IST 2012	CTPurple CTRed CTRed CTGreen CTPurple 
Tue Dec 04 10:11:01 IST 2012	CTPurple grey78 CTPurple CTYellow CTPurple 
Tue Dec 04 10:11:01 IST 2012	CTPurple CTRed CTPurple CTGreen CTPurple 
Tue Dec 04 10:11:01 IST 2012	CTPurple grey78 CTPurple CTYellow CTPurple 
Tue Dec 04 10:11:01 IST 2012	CTPurple CTRed CTPurple CTGreen CTPurple 
Tue Dec 04 10:11:01 IST 2012	CTPurple grey78 CTPurple CTYellow CTPurple 
Tue Dec 04 10:11:01 IST 2012	CTPurple CTRed CTPurple CTGreen CTPurple 
Tue Dec 04 10:11:01 IST 2012	</squareColors>
Tue Dec 04 10:11:01 IST 2012	<goalPosition>
Tue Dec 04 10:11:01 IST 2012	Goal position: (R:0,C:2)
Tue Dec 04 10:11:01 IST 2012	<numberOfPlayers>
Tue Dec 04 10:11:01 IST 2012	2
Tue Dec 04 10:11:01 IST 2012	<firstPlayerChips>
Tue Dec 04 10:11:01 IST 2012	Setting chips for player: 337 id:0
Tue Dec 04 10:11:01 IST 2012	{ chips  'CTRed':5 'CTGreen':10 'CTPurple':0 'grey78':0 'CTYellow':9 }
Tue Dec 04 10:11:01 IST 2012	Player position: (R:6,C:0)
Tue Dec 04 10:11:01 IST 2012	Setting chips for player: 310 id:1
Tue Dec 04 10:11:01 IST 2012	{ chips  'CTRed':1 'CTGreen':13 'CTPurple':0 'grey78':10 'CTYellow':0 }
Tue Dec 04 10:11:01 IST 2012	Player position: (R:6,C:4)
Tue Dec 04 10:11:01 IST 2012	Protocol: A New Phase Began: Strategy Prep Phase
Tue Dec 04 10:11:01 IST 2012	Protocol: Strategy Preparation phase, Round: 0
Tue Dec 04 10:11:01 IST 2012	Maximum number of rounds with no consecutive movement is 3
Tue Dec 04 10:11:01 IST 2012	In begin comm. phase, set counter offers count to: 0
Tue Dec 04 10:11:01 IST 2012	In begin comm. phase, get counter offers returned: 0
Tue Dec 04 10:11:21 IST 2012	A Phase Ended: Strategy Prep Phase
Tue Dec 04 10:11:21 IST 2012	Protocol: A New Phase Began: Communication Phase
Tue Dec 04 10:11:21 IST 2012	Protocol: Communication phase, Round: 0
Tue Dec 04 10:12:21 IST 2012	Received communication message 
Tue Dec 04 10:12:21 IST 2012	From player: 337
Tue Dec 04 10:12:21 IST 2012	To player: 310
Tue Dec 04 10:12:21 IST 2012	Message type: basicproposal
Tue Dec 04 10:12:21 IST 2012	Chips to send by proposer: { chips  'CTGreen':1 }
Tue Dec 04 10:12:21 IST 2012	Chips to send by responder: { chips  'grey78':1 }
Tue Dec 04 10:12:31 IST 2012	Received communication message 
Tue Dec 04 10:12:31 IST 2012	From player: 310
Tue Dec 04 10:12:31 IST 2012	To player: 337
Tue Dec 04 10:12:31 IST 2012	Message type: basicproposaldiscussion
Tue Dec 04 10:12:31 IST 2012	Player 310 accepted offer
Tue Dec 04 10:12:31 IST 2012	Prop accepted, set counter offers count to: 0
Tue Dec 04 10:12:31 IST 2012	Prop accepted, get counter offers returned: 0
Tue Dec 04 10:12:31 IST 2012	A Phase Ended: Communication Phase
Tue Dec 04 10:12:31 IST 2012	Protocol: A New Phase Began: Exchange Phase
Tue Dec 04 10:12:31 IST 2012	Protocol: Exchange phase, Round: 0
Tue Dec 04 10:12:31 IST 2012	In begin exch.phase, get counter offers returned: 0
Tue Dec 04 10:13:00 IST 2012	A Phase Ended: Exchange Phase
Tue Dec 04 10:13:00 IST 2012	Proposer 337 sent: { chips  'CTRed':0 'CTPurple':0 'CTGreen':1 'grey78':0 'CTYellow':0 }
Tue Dec 04 10:13:00 IST 2012	Responder 310 sent: { chips  'CTRed':0 'CTPurple':0 'CTGreen':0 'grey78':1 'CTYellow':0 }
Tue Dec 04 10:13:00 IST 2012	Protocol: A New Phase Began: Movement Phase
Tue Dec 04 10:13:00 IST 2012	Protocol: Movement phase, Round: 0
Tue Dec 04 10:13:19 IST 2012	A Phase Ended: Movement Phase
Tue Dec 04 10:13:19 IST 2012	Swaping roles:
Tue Dec 04 10:13:19 IST 2012	Proposer is: 310
Tue Dec 04 10:13:19 IST 2012	Responder is: 337
Tue Dec 04 10:13:19 IST 2012	Protocol: A New Phase Began: Feedback Phase
Tue Dec 04 10:13:19 IST 2012	Protocol: Feedback phase, Round: 0
Tue Dec 04 10:13:19 IST 2012	Number of consecutive no movements for player 337 is 1
Tue Dec 04 10:13:19 IST 2012	Number of consecutive no movements for player 310 is 1
Tue Dec 04 10:13:24 IST 2012	A Phase Ended: Feedback Phase
Tue Dec 04 10:13:24 IST 2012	Protocol: A New Phase Began: Communication Phase
Tue Dec 04 10:13:24 IST 2012	Protocol: Communication phase, Round: 1
Tue Dec 04 10:14:08 IST 2012	Received communication message 
Tue Dec 04 10:14:08 IST 2012	From player: 310
Tue Dec 04 10:14:08 IST 2012	To player: 337
Tue Dec 04 10:14:08 IST 2012	Message type: basicproposal
Tue Dec 04 10:14:08 IST 2012	Chips to send by proposer: { chips  'CTRed':0 'CTPurple':0 'CTGreen':0 'grey78':2 'CTYellow':0 }
Tue Dec 04 10:14:08 IST 2012	Chips to send by responder: { chips  'CTRed':0 'CTPurple':0 'CTGreen':4 'grey78':0 'CTYellow':2 }
Tue Dec 04 10:14:53 IST 2012	Received communication message 
Tue Dec 04 10:14:53 IST 2012	From player: 337
Tue Dec 04 10:14:53 IST 2012	To player: 310
Tue Dec 04 10:14:53 IST 2012	Message type: basicproposaldiscussion
Tue Dec 04 10:14:53 IST 2012	Player 337 rejected offer
Tue Dec 04 10:14:53 IST 2012	Swaping roles:
Tue Dec 04 10:14:53 IST 2012	Proposer is: 337
Tue Dec 04 10:14:53 IST 2012	Responder is: 310
Tue Dec 04 10:14:53 IST 2012	Prop rejected, set counter offers count to: 1
Tue Dec 04 10:14:53 IST 2012	Prop rejected, get counter offers returned: 1
Tue Dec 04 10:14:57 IST 2012	Slept 4 seconds
Tue Dec 04 10:14:57 IST 2012	Sent role changed msgs
Tue Dec 04 10:15:57 IST 2012	Received communication message 
Tue Dec 04 10:15:57 IST 2012	From player: 337
Tue Dec 04 10:15:57 IST 2012	To player: 310
Tue Dec 04 10:15:57 IST 2012	Message type: basicproposal
Tue Dec 04 10:15:57 IST 2012	Chips to send by proposer: { chips  'CTRed':0 'CTPurple':0 'CTGreen':0 'grey78':0 'CTYellow':1 }
Tue Dec 04 10:15:57 IST 2012	Chips to send by responder: { chips  'CTRed':0 'CTPurple':0 'CTGreen':1 'grey78':1 'CTYellow':0 }
Tue Dec 04 10:16:12 IST 2012	Received communication message 
Tue Dec 04 10:16:12 IST 2012	From player: 310
Tue Dec 04 10:16:12 IST 2012	To player: 337
Tue Dec 04 10:16:12 IST 2012	Message type: basicproposaldiscussion
Tue Dec 04 10:16:12 IST 2012	Player 310 accepted offer
Tue Dec 04 10:16:12 IST 2012	Prop accepted, set counter offers count to: 0
Tue Dec 04 10:16:12 IST 2012	Prop accepted, get counter offers returned: 0
Tue Dec 04 10:16:12 IST 2012	A Phase Ended: Communication Phase
Tue Dec 04 10:16:12 IST 2012	Protocol: A New Phase Began: Exchange Phase
Tue Dec 04 10:16:12 IST 2012	Protocol: Exchange phase, Round: 1
Tue Dec 04 10:16:12 IST 2012	In begin exch.phase, get counter offers returned: 0
Tue Dec 04 10:16:41 IST 2012	A Phase Ended: Exchange Phase
Tue Dec 04 10:16:41 IST 2012	Proposer 337 sent: { chips  'CTRed':0 'CTPurple':0 'CTGreen':0 'grey78':0 'CTYellow':1 }
Tue Dec 04 10:16:41 IST 2012	Responder 310 sent: { chips  'CTRed':0 'CTPurple':0 'CTGreen':0 'grey78':1 'CTYellow':0 }
Tue Dec 04 10:16:41 IST 2012	Protocol: A New Phase Began: Movement Phase
Tue Dec 04 10:16:41 IST 2012	Protocol: Movement phase, Round: 1
Tue Dec 04 10:17:00 IST 2012	A Phase Ended: Movement Phase
Tue Dec 04 10:17:00 IST 2012	Protocol: A New Phase Began: Feedback Phase
Tue Dec 04 10:17:00 IST 2012	Protocol: Feedback phase, Round: 1
Tue Dec 04 10:17:00 IST 2012	Number of consecutive no movements for player 337 is 2
Tue Dec 04 10:17:00 IST 2012	Number of consecutive no movements for player 310 is 2
Tue Dec 04 10:17:06 IST 2012	A Phase Ended: Feedback Phase
Tue Dec 04 10:17:06 IST 2012	Protocol: A New Phase Began: Communication Phase
Tue Dec 04 10:17:06 IST 2012	Protocol: Communication phase, Round: 2
Tue Dec 04 10:18:06 IST 2012	Received communication message 
Tue Dec 04 10:18:06 IST 2012	From player: 337
Tue Dec 04 10:18:06 IST 2012	To player: 310
Tue Dec 04 10:18:06 IST 2012	Message type: basicproposal
Tue Dec 04 10:18:06 IST 2012	Chips to send by proposer: { chips  'CTYellow':1 }
Tue Dec 04 10:18:06 IST 2012	Chips to send by responder: { chips  'CTGreen':1 'grey78':1 }
Tue Dec 04 10:18:12 IST 2012	Received communication message 
Tue Dec 04 10:18:12 IST 2012	From player: 310
Tue Dec 04 10:18:12 IST 2012	To player: 337
Tue Dec 04 10:18:12 IST 2012	Message type: basicproposaldiscussion
Tue Dec 04 10:18:12 IST 2012	Player 310 rejected offer
Tue Dec 04 10:18:12 IST 2012	Swaping roles:
Tue Dec 04 10:18:12 IST 2012	Proposer is: 310
Tue Dec 04 10:18:12 IST 2012	Responder is: 337
Tue Dec 04 10:18:12 IST 2012	Prop rejected, set counter offers count to: 1
Tue Dec 04 10:18:12 IST 2012	Prop rejected, get counter offers returned: 1
Tue Dec 04 10:18:16 IST 2012	Slept 4 seconds
Tue Dec 04 10:18:16 IST 2012	Sent role changed msgs
Tue Dec 04 10:18:40 IST 2012	Received communication message 
Tue Dec 04 10:18:40 IST 2012	From player: 310
Tue Dec 04 10:18:40 IST 2012	To player: 337
Tue Dec 04 10:18:40 IST 2012	Message type: basicproposal
Tue Dec 04 10:18:40 IST 2012	Chips to send by proposer: { chips  'CTRed':0 'CTPurple':0 'CTGreen':0 'grey78':1 'CTYellow':0 }
Tue Dec 04 10:18:40 IST 2012	Chips to send by responder: { chips  'CTRed':0 'CTPurple':0 'CTGreen':2 'grey78':0 'CTYellow':1 }
Tue Dec 04 10:19:14 IST 2012	Received communication message 
Tue Dec 04 10:19:14 IST 2012	From player: 337
Tue Dec 04 10:19:14 IST 2012	To player: 310
Tue Dec 04 10:19:14 IST 2012	Message type: basicproposaldiscussion
Tue Dec 04 10:19:14 IST 2012	Player 337 rejected offer
Tue Dec 04 10:19:14 IST 2012	Set counter offers count to: 0
Tue Dec 04 10:19:14 IST 2012	A Phase Ended: Communication Phase
Tue Dec 04 10:19:14 IST 2012	Protocol: A New Phase Began: Exchange Phase
Tue Dec 04 10:19:14 IST 2012	Protocol: Exchange phase, Round: 2
Tue Dec 04 10:19:14 IST 2012	In begin exch.phase, get counter offers returned: 0
Tue Dec 04 10:19:53 IST 2012	A Phase Ended: Exchange Phase
Tue Dec 04 10:19:53 IST 2012	Responder 337 sent: { chips  }
Tue Dec 04 10:19:53 IST 2012	Protocol: A New Phase Began: Movement Phase
Tue Dec 04 10:19:53 IST 2012	Protocol: Movement phase, Round: 2
Tue Dec 04 10:19:53 IST 2012	Player 310 moved to (R:6,C:3)
Tue Dec 04 10:19:53 IST 2012	Player 337 moved to (R:6,C:1)
Tue Dec 04 10:20:13 IST 2012	A Phase Ended: Movement Phase
Tue Dec 04 10:20:13 IST 2012	Protocol: A New Phase Began: Feedback Phase
Tue Dec 04 10:20:13 IST 2012	Protocol: Feedback phase, Round: 2
Tue Dec 04 10:20:13 IST 2012	Number of consecutive no movements for player 337 is 0
Tue Dec 04 10:20:13 IST 2012	Number of consecutive no movements for player 310 is 0
Tue Dec 04 10:20:18 IST 2012	A Phase Ended: Feedback Phase
Tue Dec 04 10:20:18 IST 2012	Protocol: A New Phase Began: Communication Phase
Tue Dec 04 10:20:18 IST 2012	Protocol: Communication phase, Round: 3
Tue Dec 04 10:20:41 IST 2012	Received communication message 
Tue Dec 04 10:20:41 IST 2012	From player: 310
Tue Dec 04 10:20:41 IST 2012	To player: 337
Tue Dec 04 10:20:41 IST 2012	Message type: basicproposal
Tue Dec 04 10:20:41 IST 2012	Chips to send by proposer: { chips  'CTRed':0 'CTPurple':0 'CTGreen':3 'grey78':1 'CTYellow':0 }
Tue Dec 04 10:20:41 IST 2012	Chips to send by responder: { chips  'CTRed':0 'CTPurple':0 'CTGreen':0 'grey78':0 'CTYellow':2 }
Tue Dec 04 10:21:17 IST 2012	Received communication message 
Tue Dec 04 10:21:17 IST 2012	From player: 337
Tue Dec 04 10:21:17 IST 2012	To player: 310
Tue Dec 04 10:21:17 IST 2012	Message type: basicproposaldiscussion
Tue Dec 04 10:21:17 IST 2012	Player 337 rejected offer
Tue Dec 04 10:21:17 IST 2012	Swaping roles:
Tue Dec 04 10:21:17 IST 2012	Proposer is: 337
Tue Dec 04 10:21:17 IST 2012	Responder is: 310
Tue Dec 04 10:21:17 IST 2012	Prop rejected, set counter offers count to: 1
Tue Dec 04 10:21:17 IST 2012	Prop rejected, get counter offers returned: 1
Tue Dec 04 10:21:21 IST 2012	Slept 4 seconds
Tue Dec 04 10:21:21 IST 2012	Sent role changed msgs
Tue Dec 04 10:22:21 IST 2012	Received communication message 
Tue Dec 04 10:22:21 IST 2012	From player: 337
Tue Dec 04 10:22:21 IST 2012	To player: 310
Tue Dec 04 10:22:21 IST 2012	Message type: basicproposal
Tue Dec 04 10:22:21 IST 2012	Chips to send by proposer: { chips  'CTRed':0 'CTPurple':0 'CTGreen':0 'grey78':0 'CTYellow':1 }
Tue Dec 04 10:22:21 IST 2012	Chips to send by responder: { chips  'CTRed':0 'CTPurple':0 'CTGreen':1 'grey78':1 'CTYellow':0 }
Tue Dec 04 10:22:35 IST 2012	Received communication message 
Tue Dec 04 10:22:35 IST 2012	From player: 310
Tue Dec 04 10:22:35 IST 2012	To player: 337
Tue Dec 04 10:22:35 IST 2012	Message type: basicproposaldiscussion
Tue Dec 04 10:22:35 IST 2012	Player 310 rejected offer
Tue Dec 04 10:22:35 IST 2012	Set counter offers count to: 0
Tue Dec 04 10:22:35 IST 2012	A Phase Ended: Communication Phase
Tue Dec 04 10:22:35 IST 2012	Protocol: A New Phase Began: Exchange Phase
Tue Dec 04 10:22:35 IST 2012	Protocol: Exchange phase, Round: 3
Tue Dec 04 10:22:35 IST 2012	In begin exch.phase, get counter offers returned: 0
Tue Dec 04 10:23:14 IST 2012	A Phase Ended: Exchange Phase
Tue Dec 04 10:23:14 IST 2012	Proposer 337 sent: { chips  }
Tue Dec 04 10:23:14 IST 2012	Protocol: A New Phase Began: Movement Phase
Tue Dec 04 10:23:14 IST 2012	Protocol: Movement phase, Round: 3
Tue Dec 04 10:23:34 IST 2012	A Phase Ended: Movement Phase
Tue Dec 04 10:23:34 IST 2012	Protocol: A New Phase Began: Feedback Phase
Tue Dec 04 10:23:34 IST 2012	Protocol: Feedback phase, Round: 3
Tue Dec 04 10:23:34 IST 2012	Number of consecutive no movements for player 337 is 1
Tue Dec 04 10:23:34 IST 2012	Number of consecutive no movements for player 310 is 1
Tue Dec 04 10:23:39 IST 2012	A Phase Ended: Feedback Phase
Tue Dec 04 10:23:39 IST 2012	Protocol: A New Phase Began: Communication Phase
Tue Dec 04 10:23:39 IST 2012	Protocol: Communication phase, Round: 4
Tue Dec 04 10:24:39 IST 2012	Received communication message 
Tue Dec 04 10:24:39 IST 2012	From player: 337
Tue Dec 04 10:24:39 IST 2012	To player: 310
Tue Dec 04 10:24:39 IST 2012	Message type: basicproposal
Tue Dec 04 10:24:39 IST 2012	Chips to send by proposer: { chips  'CTYellow':1 }
Tue Dec 04 10:24:39 IST 2012	Chips to send by responder: { chips  'CTGreen':1 'grey78':1 }
Tue Dec 04 10:24:48 IST 2012	Received communication message 
Tue Dec 04 10:24:48 IST 2012	From player: 310
Tue Dec 04 10:24:48 IST 2012	To player: 337
Tue Dec 04 10:24:48 IST 2012	Message type: basicproposaldiscussion
Tue Dec 04 10:24:48 IST 2012	Player 310 accepted offer
Tue Dec 04 10:24:48 IST 2012	Prop accepted, set counter offers count to: 0
Tue Dec 04 10:24:48 IST 2012	Prop accepted, get counter offers returned: 0
Tue Dec 04 10:24:48 IST 2012	A Phase Ended: Communication Phase
Tue Dec 04 10:24:48 IST 2012	Protocol: A New Phase Began: Exchange Phase
Tue Dec 04 10:24:48 IST 2012	Protocol: Exchange phase, Round: 4
Tue Dec 04 10:24:48 IST 2012	In begin exch.phase, get counter offers returned: 0
Tue Dec 04 10:25:17 IST 2012	A Phase Ended: Exchange Phase
Tue Dec 04 10:25:17 IST 2012	Proposer 337 sent: { chips  'CTRed':0 'CTPurple':0 'CTGreen':0 'grey78':0 'CTYellow':1 }
Tue Dec 04 10:25:17 IST 2012	Responder 310 sent: { chips  }
Tue Dec 04 10:25:17 IST 2012	Protocol: A New Phase Began: Movement Phase
Tue Dec 04 10:25:17 IST 2012	Protocol: Movement phase, Round: 4
Tue Dec 04 10:25:37 IST 2012	A Phase Ended: Movement Phase
Tue Dec 04 10:25:37 IST 2012	Swaping roles:
Tue Dec 04 10:25:37 IST 2012	Proposer is: 310
Tue Dec 04 10:25:37 IST 2012	Responder is: 337
Tue Dec 04 10:25:37 IST 2012	Protocol: A New Phase Began: Feedback Phase
Tue Dec 04 10:25:37 IST 2012	Protocol: Feedback phase, Round: 4
Tue Dec 04 10:25:37 IST 2012	Number of consecutive no movements for player 337 is 2
Tue Dec 04 10:25:37 IST 2012	Number of consecutive no movements for player 310 is 2
Tue Dec 04 10:25:42 IST 2012	A Phase Ended: Feedback Phase
Tue Dec 04 10:25:42 IST 2012	Protocol: A New Phase Began: Communication Phase
Tue Dec 04 10:25:42 IST 2012	Protocol: Communication phase, Round: 5
Tue Dec 04 10:25:56 IST 2012	Received communication message 
Tue Dec 04 10:25:56 IST 2012	From player: 310
Tue Dec 04 10:25:56 IST 2012	To player: 337
Tue Dec 04 10:25:56 IST 2012	Message type: basicproposal
Tue Dec 04 10:25:56 IST 2012	Chips to send by proposer: { chips  'CTRed':0 'CTPurple':0 'CTGreen':1 'grey78':1 'CTYellow':0 }
Tue Dec 04 10:25:56 IST 2012	Chips to send by responder: { chips  'CTRed':0 'CTPurple':0 'CTGreen':0 'grey78':0 'CTYellow':1 }
Tue Dec 04 10:26:21 IST 2012	Received communication message 
Tue Dec 04 10:26:21 IST 2012	From player: 337
Tue Dec 04 10:26:21 IST 2012	To player: 310
Tue Dec 04 10:26:21 IST 2012	Message type: basicproposaldiscussion
Tue Dec 04 10:26:21 IST 2012	Player 337 accepted offer
Tue Dec 04 10:26:21 IST 2012	Prop accepted, set counter offers count to: 0
Tue Dec 04 10:26:21 IST 2012	Prop accepted, get counter offers returned: 0
Tue Dec 04 10:26:21 IST 2012	A Phase Ended: Communication Phase
Tue Dec 04 10:26:21 IST 2012	Protocol: A New Phase Began: Exchange Phase
Tue Dec 04 10:26:21 IST 2012	Protocol: Exchange phase, Round: 5
Tue Dec 04 10:26:21 IST 2012	In begin exch.phase, get counter offers returned: 0
Tue Dec 04 10:26:45 IST 2012	A Phase Ended: Exchange Phase
Tue Dec 04 10:26:45 IST 2012	Proposer 310 sent: { chips  }
Tue Dec 04 10:26:45 IST 2012	Responder 337 sent: { chips  'CTRed':0 'CTPurple':0 'CTGreen':0 'grey78':0 'CTYellow':1 }
Tue Dec 04 10:26:45 IST 2012	Protocol: A New Phase Began: Movement Phase
Tue Dec 04 10:26:45 IST 2012	Protocol: Movement phase, Round: 5
Tue Dec 04 10:26:45 IST 2012	Player 310 moved to (R:5,C:3)
Tue Dec 04 10:26:45 IST 2012	Player 337 moved to (R:5,C:1)
Tue Dec 04 10:27:05 IST 2012	A Phase Ended: Movement Phase
Tue Dec 04 10:27:05 IST 2012	Swaping roles:
Tue Dec 04 10:27:05 IST 2012	Proposer is: 337
Tue Dec 04 10:27:05 IST 2012	Responder is: 310
Tue Dec 04 10:27:05 IST 2012	Protocol: A New Phase Began: Feedback Phase
Tue Dec 04 10:27:05 IST 2012	Protocol: Feedback phase, Round: 5
Tue Dec 04 10:27:05 IST 2012	Number of consecutive no movements for player 337 is 0
Tue Dec 04 10:27:05 IST 2012	Number of consecutive no movements for player 310 is 0
Tue Dec 04 10:27:10 IST 2012	A Phase Ended: Feedback Phase
Tue Dec 04 10:27:10 IST 2012	Protocol: A New Phase Began: Communication Phase
Tue Dec 04 10:27:10 IST 2012	Protocol: Communication phase, Round: 6
Tue Dec 04 10:27:59 IST 2012	Received communication message 
Tue Dec 04 10:27:59 IST 2012	From player: 337
Tue Dec 04 10:27:59 IST 2012	To player: 310
Tue Dec 04 10:27:59 IST 2012	Message type: basicproposal
Tue Dec 04 10:27:59 IST 2012	Chips to send by proposer: { chips  'CTGreen':1 }
Tue Dec 04 10:27:59 IST 2012	Chips to send by responder: { chips  'grey78':1 }
Tue Dec 04 10:28:14 IST 2012	Received communication message 
Tue Dec 04 10:28:14 IST 2012	From player: 310
Tue Dec 04 10:28:14 IST 2012	To player: 337
Tue Dec 04 10:28:14 IST 2012	Message type: basicproposaldiscussion
Tue Dec 04 10:28:14 IST 2012	Player 310 accepted offer
Tue Dec 04 10:28:14 IST 2012	Prop accepted, set counter offers count to: 0
Tue Dec 04 10:28:14 IST 2012	Prop accepted, get counter offers returned: 0
Tue Dec 04 10:28:14 IST 2012	A Phase Ended: Communication Phase
Tue Dec 04 10:28:14 IST 2012	Protocol: A New Phase Began: Exchange Phase
Tue Dec 04 10:28:14 IST 2012	Protocol: Exchange phase, Round: 6
Tue Dec 04 10:28:14 IST 2012	In begin exch.phase, get counter offers returned: 0
Tue Dec 04 10:28:25 IST 2012	A Phase Ended: Exchange Phase
Tue Dec 04 10:28:25 IST 2012	Proposer 337 sent: { chips  'CTRed':0 'CTPurple':0 'CTGreen':0 'grey78':0 'CTYellow':0 }
Tue Dec 04 10:28:25 IST 2012	Responder 310 sent: { chips  }
Tue Dec 04 10:28:25 IST 2012	Protocol: A New Phase Began: Movement Phase
Tue Dec 04 10:28:25 IST 2012	Protocol: Movement phase, Round: 6
Tue Dec 04 10:28:25 IST 2012	Player 310 moved to (R:4,C:3)
Tue Dec 04 10:28:45 IST 2012	A Phase Ended: Movement Phase
Tue Dec 04 10:28:45 IST 2012	Swaping roles:
Tue Dec 04 10:28:45 IST 2012	Proposer is: 310
Tue Dec 04 10:28:45 IST 2012	Responder is: 337
Tue Dec 04 10:28:45 IST 2012	Protocol: A New Phase Began: Feedback Phase
Tue Dec 04 10:28:45 IST 2012	Protocol: Feedback phase, Round: 6
Tue Dec 04 10:28:45 IST 2012	Number of consecutive no movements for player 337 is 1
Tue Dec 04 10:28:45 IST 2012	Number of consecutive no movements for player 310 is 0
Tue Dec 04 10:28:50 IST 2012	A Phase Ended: Feedback Phase
Tue Dec 04 10:28:50 IST 2012	Protocol: A New Phase Began: Communication Phase
Tue Dec 04 10:28:50 IST 2012	Protocol: Communication phase, Round: 7
Tue Dec 04 10:29:02 IST 2012	Received communication message 
Tue Dec 04 10:29:02 IST 2012	From player: 310
Tue Dec 04 10:29:02 IST 2012	To player: 337
Tue Dec 04 10:29:02 IST 2012	Message type: basicproposal
Tue Dec 04 10:29:02 IST 2012	Chips to send by proposer: { chips  'CTRed':0 'CTPurple':0 'CTGreen':0 'grey78':1 'CTYellow':0 }
Tue Dec 04 10:29:02 IST 2012	Chips to send by responder: { chips  'CTRed':0 'CTPurple':0 'CTGreen':2 'grey78':0 'CTYellow':0 }
Tue Dec 04 10:29:24 IST 2012	Received communication message 
Tue Dec 04 10:29:24 IST 2012	From player: 337
Tue Dec 04 10:29:24 IST 2012	To player: 310
Tue Dec 04 10:29:24 IST 2012	Message type: basicproposaldiscussion
Tue Dec 04 10:29:24 IST 2012	Player 337 rejected offer
Tue Dec 04 10:29:24 IST 2012	Swaping roles:
Tue Dec 04 10:29:24 IST 2012	Proposer is: 337
Tue Dec 04 10:29:24 IST 2012	Responder is: 310
Tue Dec 04 10:29:24 IST 2012	Prop rejected, set counter offers count to: 1
Tue Dec 04 10:29:24 IST 2012	Prop rejected, get counter offers returned: 1
Tue Dec 04 10:29:28 IST 2012	Slept 4 seconds
Tue Dec 04 10:29:28 IST 2012	Sent role changed msgs
Tue Dec 04 10:30:28 IST 2012	Received communication message 
Tue Dec 04 10:30:28 IST 2012	From player: 337
Tue Dec 04 10:30:28 IST 2012	To player: 310
Tue Dec 04 10:30:28 IST 2012	Message type: basicproposal
Tue Dec 04 10:30:28 IST 2012	Chips to send by proposer: { chips  'CTRed':0 'CTPurple':0 'CTGreen':1 'grey78':0 'CTYellow':0 }
Tue Dec 04 10:30:28 IST 2012	Chips to send by responder: { chips  'CTRed':0 'CTPurple':0 'CTGreen':0 'grey78':1 'CTYellow':0 }
Tue Dec 04 10:30:34 IST 2012	Received communication message 
Tue Dec 04 10:30:34 IST 2012	From player: 310
Tue Dec 04 10:30:34 IST 2012	To player: 337
Tue Dec 04 10:30:34 IST 2012	Message type: basicproposaldiscussion
Tue Dec 04 10:30:34 IST 2012	Player 310 accepted offer
Tue Dec 04 10:30:34 IST 2012	Prop accepted, set counter offers count to: 0
Tue Dec 04 10:30:34 IST 2012	Prop accepted, get counter offers returned: 0
Tue Dec 04 10:30:34 IST 2012	A Phase Ended: Communication Phase
Tue Dec 04 10:30:34 IST 2012	Protocol: A New Phase Began: Exchange Phase
Tue Dec 04 10:30:34 IST 2012	Protocol: Exchange phase, Round: 7
Tue Dec 04 10:30:34 IST 2012	In begin exch.phase, get counter offers returned: 0
Tue Dec 04 10:30:53 IST 2012	A Phase Ended: Exchange Phase
Tue Dec 04 10:30:53 IST 2012	Proposer 337 sent: { chips  'CTRed':0 'CTPurple':0 'CTGreen':1 'grey78':0 'CTYellow':0 }
Tue Dec 04 10:30:53 IST 2012	Responder 310 sent: { chips  }
Tue Dec 04 10:30:53 IST 2012	Protocol: A New Phase Began: Movement Phase
Tue Dec 04 10:30:53 IST 2012	Protocol: Movement phase, Round: 7
Tue Dec 04 10:30:53 IST 2012	Player 310 moved to (R:3,C:3)
Tue Dec 04 10:31:12 IST 2012	A Phase Ended: Movement Phase
Tue Dec 04 10:31:12 IST 2012	Protocol: A New Phase Began: Feedback Phase
Tue Dec 04 10:31:12 IST 2012	Protocol: Feedback phase, Round: 7
Tue Dec 04 10:31:12 IST 2012	Number of consecutive no movements for player 337 is 2
Tue Dec 04 10:31:12 IST 2012	Number of consecutive no movements for player 310 is 0
Tue Dec 04 10:31:17 IST 2012	A Phase Ended: Feedback Phase
Tue Dec 04 10:31:17 IST 2012	Protocol: A New Phase Began: Communication Phase
Tue Dec 04 10:31:17 IST 2012	Protocol: Communication phase, Round: 8
Tue Dec 04 10:32:17 IST 2012	Received communication message 
Tue Dec 04 10:32:17 IST 2012	From player: 337
Tue Dec 04 10:32:17 IST 2012	To player: 310
Tue Dec 04 10:32:17 IST 2012	Message type: basicproposal
Tue Dec 04 10:32:17 IST 2012	Chips to send by proposer: { chips  'CTGreen':1 }
Tue Dec 04 10:32:17 IST 2012	Chips to send by responder: { chips  'grey78':1 }
Tue Dec 04 10:32:29 IST 2012	Received communication message 
Tue Dec 04 10:32:29 IST 2012	From player: 310
Tue Dec 04 10:32:29 IST 2012	To player: 337
Tue Dec 04 10:32:29 IST 2012	Message type: basicproposaldiscussion
Tue Dec 04 10:32:29 IST 2012	Player 310 accepted offer
Tue Dec 04 10:32:29 IST 2012	Prop accepted, set counter offers count to: 0
Tue Dec 04 10:32:29 IST 2012	Prop accepted, get counter offers returned: 0
Tue Dec 04 10:32:29 IST 2012	A Phase Ended: Communication Phase
Tue Dec 04 10:32:29 IST 2012	Protocol: A New Phase Began: Exchange Phase
Tue Dec 04 10:32:29 IST 2012	Protocol: Exchange phase, Round: 8
Tue Dec 04 10:32:29 IST 2012	In begin exch.phase, get counter offers returned: 0
Tue Dec 04 10:32:49 IST 2012	A Phase Ended: Exchange Phase
Tue Dec 04 10:32:49 IST 2012	Proposer 337 sent: { chips  'CTRed':0 'CTPurple':0 'CTGreen':1 'grey78':0 'CTYellow':0 }
Tue Dec 04 10:32:49 IST 2012	Responder 310 sent: { chips  }
Tue Dec 04 10:32:49 IST 2012	Protocol: A New Phase Began: Movement Phase
Tue Dec 04 10:32:49 IST 2012	Protocol: Movement phase, Round: 8
Tue Dec 04 10:32:49 IST 2012	Player 337 moved to (R:4,C:1)
Tue Dec 04 10:32:49 IST 2012	Player 310 moved to (R:2,C:3)
Tue Dec 04 10:33:08 IST 2012	A Phase Ended: Movement Phase
Tue Dec 04 10:33:08 IST 2012	Swaping roles:
Tue Dec 04 10:33:08 IST 2012	Proposer is: 310
Tue Dec 04 10:33:08 IST 2012	Responder is: 337
Tue Dec 04 10:33:08 IST 2012	Protocol: A New Phase Began: Feedback Phase
Tue Dec 04 10:33:08 IST 2012	Protocol: Feedback phase, Round: 8
Tue Dec 04 10:33:08 IST 2012	Number of consecutive no movements for player 337 is 0
Tue Dec 04 10:33:08 IST 2012	Number of consecutive no movements for player 310 is 0
Tue Dec 04 10:33:13 IST 2012	A Phase Ended: Feedback Phase
Tue Dec 04 10:33:13 IST 2012	Protocol: A New Phase Began: Communication Phase
Tue Dec 04 10:33:13 IST 2012	Protocol: Communication phase, Round: 9
Tue Dec 04 10:33:30 IST 2012	Received communication message 
Tue Dec 04 10:33:30 IST 2012	From player: 310
Tue Dec 04 10:33:30 IST 2012	To player: 337
Tue Dec 04 10:33:30 IST 2012	Message type: basicproposal
Tue Dec 04 10:33:30 IST 2012	Chips to send by proposer: { chips  'CTRed':0 'CTPurple':0 'CTGreen':0 'grey78':1 'CTYellow':0 }
Tue Dec 04 10:33:30 IST 2012	Chips to send by responder: { chips  'CTRed':0 'CTPurple':0 'CTGreen':3 'grey78':0 'CTYellow':0 }
Tue Dec 04 10:33:54 IST 2012	Received communication message 
Tue Dec 04 10:33:54 IST 2012	From player: 337
Tue Dec 04 10:33:54 IST 2012	To player: 310
Tue Dec 04 10:33:54 IST 2012	Message type: basicproposaldiscussion
Tue Dec 04 10:33:54 IST 2012	Player 337 rejected offer
Tue Dec 04 10:33:54 IST 2012	Swaping roles:
Tue Dec 04 10:33:54 IST 2012	Proposer is: 337
Tue Dec 04 10:33:54 IST 2012	Responder is: 310
Tue Dec 04 10:33:54 IST 2012	Prop rejected, set counter offers count to: 1
Tue Dec 04 10:33:54 IST 2012	Prop rejected, get counter offers returned: 1
Tue Dec 04 10:33:58 IST 2012	Slept 4 seconds
Tue Dec 04 10:33:58 IST 2012	Sent role changed msgs
Tue Dec 04 10:34:58 IST 2012	Received communication message 
Tue Dec 04 10:34:58 IST 2012	From player: 337
Tue Dec 04 10:34:58 IST 2012	To player: 310
Tue Dec 04 10:34:58 IST 2012	Message type: basicproposal
Tue Dec 04 10:34:58 IST 2012	Chips to send by proposer: { chips  'CTRed':0 'CTPurple':0 'CTGreen':0 'grey78':0 'CTYellow':1 }
Tue Dec 04 10:34:58 IST 2012	Chips to send by responder: { chips  'CTRed':0 'CTPurple':0 'CTGreen':0 'grey78':1 'CTYellow':0 }
Tue Dec 04 10:35:10 IST 2012	Received communication message 
Tue Dec 04 10:35:10 IST 2012	From player: 310
Tue Dec 04 10:35:10 IST 2012	To player: 337
Tue Dec 04 10:35:10 IST 2012	Message type: basicproposaldiscussion
Tue Dec 04 10:35:10 IST 2012	Player 310 accepted offer
Tue Dec 04 10:35:10 IST 2012	Prop accepted, set counter offers count to: 0
Tue Dec 04 10:35:10 IST 2012	Prop accepted, get counter offers returned: 0
Tue Dec 04 10:35:10 IST 2012	A Phase Ended: Communication Phase
Tue Dec 04 10:35:10 IST 2012	Protocol: A New Phase Began: Exchange Phase
Tue Dec 04 10:35:10 IST 2012	Protocol: Exchange phase, Round: 9
Tue Dec 04 10:35:10 IST 2012	In begin exch.phase, get counter offers returned: 0
Tue Dec 04 10:35:29 IST 2012	A Phase Ended: Exchange Phase
Tue Dec 04 10:35:29 IST 2012	Proposer 337 sent: { chips  'CTRed':0 'CTPurple':0 'CTGreen':0 'grey78':0 'CTYellow':1 }
Tue Dec 04 10:35:29 IST 2012	Responder 310 sent: { chips  }
Tue Dec 04 10:35:29 IST 2012	Protocol: A New Phase Began: Movement Phase
Tue Dec 04 10:35:29 IST 2012	Protocol: Movement phase, Round: 9
Tue Dec 04 10:35:29 IST 2012	Player 310 moved to (R:1,C:3)
Tue Dec 04 10:35:49 IST 2012	A Phase Ended: Movement Phase
Tue Dec 04 10:35:49 IST 2012	Protocol: A New Phase Began: Feedback Phase
Tue Dec 04 10:35:49 IST 2012	Protocol: Feedback phase, Round: 9
Tue Dec 04 10:35:49 IST 2012	Number of consecutive no movements for player 337 is 1
Tue Dec 04 10:35:49 IST 2012	Number of consecutive no movements for player 310 is 0
Tue Dec 04 10:35:54 IST 2012	A Phase Ended: Feedback Phase
Tue Dec 04 10:35:54 IST 2012	Protocol: A New Phase Began: Communication Phase
Tue Dec 04 10:35:54 IST 2012	Protocol: Communication phase, Round: 10
Tue Dec 04 10:36:54 IST 2012	Received communication message 
Tue Dec 04 10:36:54 IST 2012	From player: 337
Tue Dec 04 10:36:54 IST 2012	To player: 310
Tue Dec 04 10:36:54 IST 2012	Message type: basicproposal
Tue Dec 04 10:36:54 IST 2012	Chips to send by proposer: { chips  'CTGreen':1 }
Tue Dec 04 10:36:54 IST 2012	Chips to send by responder: { chips  'grey78':1 }
Tue Dec 04 10:37:01 IST 2012	Received communication message 
Tue Dec 04 10:37:01 IST 2012	From player: 310
Tue Dec 04 10:37:01 IST 2012	To player: 337
Tue Dec 04 10:37:01 IST 2012	Message type: basicproposaldiscussion
Tue Dec 04 10:37:01 IST 2012	Player 310 accepted offer
Tue Dec 04 10:37:01 IST 2012	Prop accepted, set counter offers count to: 0
Tue Dec 04 10:37:01 IST 2012	Prop accepted, get counter offers returned: 0
Tue Dec 04 10:37:01 IST 2012	A Phase Ended: Communication Phase
Tue Dec 04 10:37:01 IST 2012	Protocol: A New Phase Began: Exchange Phase
Tue Dec 04 10:37:01 IST 2012	Protocol: Exchange phase, Round: 10
Tue Dec 04 10:37:01 IST 2012	In begin exch.phase, get counter offers returned: 0
Tue Dec 04 10:37:17 IST 2012	A Phase Ended: Exchange Phase
Tue Dec 04 10:37:17 IST 2012	Proposer 337 sent: { chips  'CTRed':0 'CTPurple':0 'CTGreen':1 'grey78':0 'CTYellow':0 }
Tue Dec 04 10:37:17 IST 2012	Responder 310 sent: { chips  }
Tue Dec 04 10:37:17 IST 2012	Protocol: A New Phase Began: Movement Phase
Tue Dec 04 10:37:17 IST 2012	Protocol: Movement phase, Round: 10
Tue Dec 04 10:37:17 IST 2012	Player 310 moved to (R:0,C:3)
Tue Dec 04 10:37:37 IST 2012	A Phase Ended: Movement Phase
Tue Dec 04 10:37:37 IST 2012	Swaping roles:
Tue Dec 04 10:37:37 IST 2012	Proposer is: 310
Tue Dec 04 10:37:37 IST 2012	Responder is: 337
Tue Dec 04 10:37:37 IST 2012	Protocol: A New Phase Began: Feedback Phase
Tue Dec 04 10:37:37 IST 2012	Protocol: Feedback phase, Round: 10
Tue Dec 04 10:37:37 IST 2012	Number of consecutive no movements for player 337 is 2
Tue Dec 04 10:37:37 IST 2012	Number of consecutive no movements for player 310 is 0
Tue Dec 04 10:37:42 IST 2012	A Phase Ended: Feedback Phase
Tue Dec 04 10:37:42 IST 2012	Protocol: A New Phase Began: Communication Phase
Tue Dec 04 10:37:42 IST 2012	Protocol: Communication phase, Round: 11
Tue Dec 04 10:38:00 IST 2012	Received communication message 
Tue Dec 04 10:38:00 IST 2012	From player: 310
Tue Dec 04 10:38:00 IST 2012	To player: 337
Tue Dec 04 10:38:00 IST 2012	Message type: basicproposal
Tue Dec 04 10:38:00 IST 2012	Chips to send by proposer: { chips  'CTRed':0 'CTPurple':0 'CTGreen':0 'grey78':1 'CTYellow':0 }
Tue Dec 04 10:38:00 IST 2012	Chips to send by responder: { chips  'CTRed':0 'CTPurple':0 'CTGreen':1 'grey78':0 'CTYellow':0 }
Tue Dec 04 10:38:13 IST 2012	Received communication message 
Tue Dec 04 10:38:13 IST 2012	From player: 337
Tue Dec 04 10:38:13 IST 2012	To player: 310
Tue Dec 04 10:38:13 IST 2012	Message type: basicproposaldiscussion
Tue Dec 04 10:38:13 IST 2012	Player 337 accepted offer
Tue Dec 04 10:38:13 IST 2012	Prop accepted, set counter offers count to: 0
Tue Dec 04 10:38:13 IST 2012	Prop accepted, get counter offers returned: 0
Tue Dec 04 10:38:13 IST 2012	A Phase Ended: Communication Phase
Tue Dec 04 10:38:13 IST 2012	Protocol: A New Phase Began: Exchange Phase
Tue Dec 04 10:38:13 IST 2012	Protocol: Exchange phase, Round: 11
Tue Dec 04 10:38:13 IST 2012	In begin exch.phase, get counter offers returned: 0
Tue Dec 04 10:38:25 IST 2012	A Phase Ended: Exchange Phase
Tue Dec 04 10:38:25 IST 2012	Proposer 310 sent: { chips  }
Tue Dec 04 10:38:25 IST 2012	Responder 337 sent: { chips  'CTRed':0 'CTPurple':0 'CTGreen':1 'grey78':0 'CTYellow':0 }
Tue Dec 04 10:38:25 IST 2012	Protocol: A New Phase Began: Movement Phase
Tue Dec 04 10:38:25 IST 2012	Protocol: Movement phase, Round: 11
Tue Dec 04 10:38:25 IST 2012	Player 337 moved to (R:3,C:1)
Tue Dec 04 10:38:25 IST 2012	Player 310 moved to (R:0,C:2)
Tue Dec 04 10:38:29 IST 2012	Slept 4 seconds
Tue Dec 04 10:38:29 IST 2012	Player 310 got to goal, advance the other and end game
Tue Dec 04 10:38:29 IST 2012	Player: 310 ,role: Proposer score is: 215
Tue Dec 04 10:38:29 IST 2012	Player: 337 ,role: Responder score is: 30
