Sun Dec 02 10:09:33 IST 2012	This is the CT debug logger; svn version 638; sep 27 09
Sun Dec 02 10:09:33 IST 2012	Sun Dec 02 10:09:33 IST 2012
Sun Dec 02 10:09:33 IST 2012	A new Alternative Offers game has began
Sun Dec 02 10:09:33 IST 2012	ID Number: 33653
Sun Dec 02 10:09:33 IST 2012	Creating board
Sun Dec 02 10:09:33 IST 2012	<colors>
Sun Dec 02 10:09:33 IST 2012	{ GamePalette  'CTRed':0 'CTPurple':1 'CTGreen':2 'grey78':3 'CTYellow':4 }
Sun Dec 02 10:09:33 IST 2012	<rows>
Sun Dec 02 10:09:33 IST 2012	7
Sun Dec 02 10:09:33 IST 2012	<columns>
Sun Dec 02 10:09:33 IST 2012	5
Sun Dec 02 10:09:33 IST 2012	<squaresColors>
Sun Dec 02 10:09:33 IST 2012	CTPurple CTRed CTRed CTGreen CTPurple 
Sun Dec 02 10:09:33 IST 2012	CTPurple grey78 CTPurple CTYellow CTPurple 
Sun Dec 02 10:09:33 IST 2012	CTPurple CTRed CTPurple CTGreen CTPurple 
Sun Dec 02 10:09:33 IST 2012	CTPurple grey78 CTPurple CTYellow CTPurple 
Sun Dec 02 10:09:33 IST 2012	CTPurple CTRed CTPurple CTGreen CTPurple 
Sun Dec 02 10:09:33 IST 2012	CTPurple grey78 CTPurple CTYellow CTPurple 
Sun Dec 02 10:09:33 IST 2012	CTPurple CTRed CTPurple CTGreen CTPurple 
Sun Dec 02 10:09:33 IST 2012	</squareColors>
Sun Dec 02 10:09:33 IST 2012	<goalPosition>
Sun Dec 02 10:09:33 IST 2012	Goal position: (R:0,C:2)
Sun Dec 02 10:09:33 IST 2012	<numberOfPlayers>
Sun Dec 02 10:09:33 IST 2012	2
Sun Dec 02 10:09:33 IST 2012	<firstPlayerChips>
Sun Dec 02 10:09:33 IST 2012	Setting chips for player: 337 id:0
Sun Dec 02 10:09:33 IST 2012	{ chips  'CTRed':5 'CTGreen':10 'CTPurple':0 'grey78':0 'CTYellow':9 }
Sun Dec 02 10:09:33 IST 2012	Player position: (R:6,C:0)
Sun Dec 02 10:09:33 IST 2012	Setting chips for player: 310 id:1
Sun Dec 02 10:09:33 IST 2012	{ chips  'CTRed':1 'CTGreen':13 'CTPurple':0 'grey78':10 'CTYellow':0 }
Sun Dec 02 10:09:33 IST 2012	Player position: (R:6,C:4)
Sun Dec 02 10:09:33 IST 2012	Protocol: A New Phase Began: Strategy Prep Phase
Sun Dec 02 10:09:33 IST 2012	Protocol: Strategy Preparation phase, Round: 0
Sun Dec 02 10:09:33 IST 2012	Maximum number of rounds with no consecutive movement is 3
Sun Dec 02 10:09:33 IST 2012	In begin comm. phase, set counter offers count to: 0
Sun Dec 02 10:09:33 IST 2012	In begin comm. phase, get counter offers returned: 0
Sun Dec 02 10:09:54 IST 2012	A Phase Ended: Strategy Prep Phase
Sun Dec 02 10:09:54 IST 2012	Protocol: A New Phase Began: Communication Phase
Sun Dec 02 10:09:54 IST 2012	Protocol: Communication phase, Round: 0
Sun Dec 02 10:10:54 IST 2012	Received communication message 
Sun Dec 02 10:10:54 IST 2012	From player: 337
Sun Dec 02 10:10:54 IST 2012	To player: 310
Sun Dec 02 10:10:54 IST 2012	Message type: basicproposal
Sun Dec 02 10:10:54 IST 2012	Chips to send by proposer: { chips  'CTGreen':1 }
Sun Dec 02 10:10:54 IST 2012	Chips to send by responder: { chips  'grey78':1 }
Sun Dec 02 10:11:05 IST 2012	Received communication message 
Sun Dec 02 10:11:05 IST 2012	From player: 310
Sun Dec 02 10:11:05 IST 2012	To player: 337
Sun Dec 02 10:11:05 IST 2012	Message type: basicproposaldiscussion
Sun Dec 02 10:11:05 IST 2012	Player 310 accepted offer
Sun Dec 02 10:11:05 IST 2012	Prop accepted, set counter offers count to: 0
Sun Dec 02 10:11:05 IST 2012	Prop accepted, get counter offers returned: 0
Sun Dec 02 10:11:05 IST 2012	A Phase Ended: Communication Phase
Sun Dec 02 10:11:05 IST 2012	Protocol: A New Phase Began: Exchange Phase
Sun Dec 02 10:11:05 IST 2012	Protocol: Exchange phase, Round: 0
Sun Dec 02 10:11:05 IST 2012	In begin exch.phase, get counter offers returned: 0
Sun Dec 02 10:11:34 IST 2012	A Phase Ended: Exchange Phase
Sun Dec 02 10:11:34 IST 2012	Proposer 337 sent: { chips  'CTRed':0 'CTPurple':0 'CTGreen':1 'grey78':0 'CTYellow':0 }
Sun Dec 02 10:11:34 IST 2012	Responder 310 sent: { chips  'CTRed':0 'CTPurple':0 'CTGreen':0 'grey78':1 'CTYellow':0 }
Sun Dec 02 10:11:34 IST 2012	Protocol: A New Phase Began: Movement Phase
Sun Dec 02 10:11:34 IST 2012	Protocol: Movement phase, Round: 0
Sun Dec 02 10:11:54 IST 2012	A Phase Ended: Movement Phase
Sun Dec 02 10:11:54 IST 2012	Swaping roles:
Sun Dec 02 10:11:54 IST 2012	Proposer is: 310
Sun Dec 02 10:11:54 IST 2012	Responder is: 337
Sun Dec 02 10:11:54 IST 2012	Protocol: A New Phase Began: Feedback Phase
Sun Dec 02 10:11:54 IST 2012	Protocol: Feedback phase, Round: 0
Sun Dec 02 10:11:54 IST 2012	Number of consecutive no movements for player 337 is 1
Sun Dec 02 10:11:54 IST 2012	Number of consecutive no movements for player 310 is 1
Sun Dec 02 10:11:59 IST 2012	A Phase Ended: Feedback Phase
Sun Dec 02 10:11:59 IST 2012	Protocol: A New Phase Began: Communication Phase
Sun Dec 02 10:11:59 IST 2012	Protocol: Communication phase, Round: 1
Sun Dec 02 10:12:39 IST 2012	Received communication message 
Sun Dec 02 10:12:39 IST 2012	From player: 310
Sun Dec 02 10:12:39 IST 2012	To player: 337
Sun Dec 02 10:12:39 IST 2012	Message type: basicproposal
Sun Dec 02 10:12:39 IST 2012	Chips to send by proposer: { chips  'CTRed':0 'CTPurple':0 'CTGreen':0 'grey78':2 'CTYellow':0 }
Sun Dec 02 10:12:39 IST 2012	Chips to send by responder: { chips  'CTRed':0 'CTPurple':0 'CTGreen':3 'grey78':0 'CTYellow':2 }
Sun Dec 02 10:13:26 IST 2012	Received communication message 
Sun Dec 02 10:13:26 IST 2012	From player: 337
Sun Dec 02 10:13:26 IST 2012	To player: 310
Sun Dec 02 10:13:26 IST 2012	Message type: basicproposaldiscussion
Sun Dec 02 10:13:26 IST 2012	Player 337 rejected offer
Sun Dec 02 10:13:26 IST 2012	Swaping roles:
Sun Dec 02 10:13:26 IST 2012	Proposer is: 337
Sun Dec 02 10:13:26 IST 2012	Responder is: 310
Sun Dec 02 10:13:26 IST 2012	Prop rejected, set counter offers count to: 1
Sun Dec 02 10:13:26 IST 2012	Prop rejected, get counter offers returned: 1
Sun Dec 02 10:13:30 IST 2012	Slept 4 seconds
Sun Dec 02 10:13:30 IST 2012	Sent role changed msgs
Sun Dec 02 10:14:30 IST 2012	Received communication message 
Sun Dec 02 10:14:30 IST 2012	From player: 337
Sun Dec 02 10:14:30 IST 2012	To player: 310
Sun Dec 02 10:14:30 IST 2012	Message type: basicproposal
Sun Dec 02 10:14:30 IST 2012	Chips to send by proposer: { chips  'CTRed':0 'CTPurple':0 'CTGreen':0 'grey78':0 'CTYellow':1 }
Sun Dec 02 10:14:30 IST 2012	Chips to send by responder: { chips  'CTRed':0 'CTPurple':0 'CTGreen':0 'grey78':1 'CTYellow':0 }
Sun Dec 02 10:14:40 IST 2012	Received communication message 
Sun Dec 02 10:14:40 IST 2012	From player: 310
Sun Dec 02 10:14:40 IST 2012	To player: 337
Sun Dec 02 10:14:40 IST 2012	Message type: basicproposaldiscussion
Sun Dec 02 10:14:40 IST 2012	Player 310 accepted offer
Sun Dec 02 10:14:40 IST 2012	Prop accepted, set counter offers count to: 0
Sun Dec 02 10:14:40 IST 2012	Prop accepted, get counter offers returned: 0
Sun Dec 02 10:14:40 IST 2012	A Phase Ended: Communication Phase
Sun Dec 02 10:14:40 IST 2012	Protocol: A New Phase Began: Exchange Phase
Sun Dec 02 10:14:40 IST 2012	Protocol: Exchange phase, Round: 1
Sun Dec 02 10:14:40 IST 2012	In begin exch.phase, get counter offers returned: 0
Sun Dec 02 10:15:09 IST 2012	A Phase Ended: Exchange Phase
Sun Dec 02 10:15:09 IST 2012	Proposer 337 sent: { chips  'CTRed':0 'CTPurple':0 'CTGreen':0 'grey78':0 'CTYellow':1 }
Sun Dec 02 10:15:09 IST 2012	Responder 310 sent: { chips  'CTRed':0 'CTPurple':0 'CTGreen':0 'grey78':1 'CTYellow':0 }
Sun Dec 02 10:15:09 IST 2012	Protocol: A New Phase Began: Movement Phase
Sun Dec 02 10:15:09 IST 2012	Protocol: Movement phase, Round: 1
Sun Dec 02 10:15:29 IST 2012	A Phase Ended: Movement Phase
Sun Dec 02 10:15:29 IST 2012	Protocol: A New Phase Began: Feedback Phase
Sun Dec 02 10:15:29 IST 2012	Protocol: Feedback phase, Round: 1
Sun Dec 02 10:15:29 IST 2012	Number of consecutive no movements for player 337 is 2
Sun Dec 02 10:15:29 IST 2012	Number of consecutive no movements for player 310 is 2
Sun Dec 02 10:15:34 IST 2012	A Phase Ended: Feedback Phase
Sun Dec 02 10:15:34 IST 2012	Protocol: A New Phase Began: Communication Phase
Sun Dec 02 10:15:34 IST 2012	Protocol: Communication phase, Round: 2
Sun Dec 02 10:16:34 IST 2012	Received communication message 
Sun Dec 02 10:16:34 IST 2012	From player: 337
Sun Dec 02 10:16:34 IST 2012	To player: 310
Sun Dec 02 10:16:34 IST 2012	Message type: basicproposal
Sun Dec 02 10:16:34 IST 2012	Chips to send by proposer: { chips  'CTYellow':1 }
Sun Dec 02 10:16:34 IST 2012	Chips to send by responder: { chips  'CTGreen':1 'grey78':2 }
Sun Dec 02 10:16:49 IST 2012	Received communication message 
Sun Dec 02 10:16:49 IST 2012	From player: 310
Sun Dec 02 10:16:49 IST 2012	To player: 337
Sun Dec 02 10:16:49 IST 2012	Message type: basicproposaldiscussion
Sun Dec 02 10:16:49 IST 2012	Player 310 rejected offer
Sun Dec 02 10:16:49 IST 2012	Swaping roles:
Sun Dec 02 10:16:49 IST 2012	Proposer is: 310
Sun Dec 02 10:16:49 IST 2012	Responder is: 337
Sun Dec 02 10:16:49 IST 2012	Prop rejected, set counter offers count to: 1
Sun Dec 02 10:16:49 IST 2012	Prop rejected, get counter offers returned: 1
Sun Dec 02 10:16:53 IST 2012	Slept 4 seconds
Sun Dec 02 10:16:53 IST 2012	Sent role changed msgs
Sun Dec 02 10:17:15 IST 2012	Received communication message 
Sun Dec 02 10:17:15 IST 2012	From player: 310
Sun Dec 02 10:17:15 IST 2012	To player: 337
Sun Dec 02 10:17:15 IST 2012	Message type: basicproposal
Sun Dec 02 10:17:15 IST 2012	Chips to send by proposer: { chips  'CTRed':0 'CTPurple':0 'CTGreen':6 'grey78':1 'CTYellow':0 }
Sun Dec 02 10:17:15 IST 2012	Chips to send by responder: { chips  'CTRed':0 'CTPurple':0 'CTGreen':0 'grey78':0 'CTYellow':2 }
Sun Dec 02 10:17:57 IST 2012	Received communication message 
Sun Dec 02 10:17:57 IST 2012	From player: 337
Sun Dec 02 10:17:57 IST 2012	To player: 310
Sun Dec 02 10:17:57 IST 2012	Message type: basicproposaldiscussion
Sun Dec 02 10:17:57 IST 2012	Player 337 rejected offer
Sun Dec 02 10:17:57 IST 2012	Set counter offers count to: 0
Sun Dec 02 10:17:57 IST 2012	A Phase Ended: Communication Phase
Sun Dec 02 10:17:57 IST 2012	Protocol: A New Phase Began: Exchange Phase
Sun Dec 02 10:17:57 IST 2012	Protocol: Exchange phase, Round: 2
Sun Dec 02 10:17:57 IST 2012	In begin exch.phase, get counter offers returned: 0
Sun Dec 02 10:18:38 IST 2012	A Phase Ended: Exchange Phase
Sun Dec 02 10:18:38 IST 2012	Responder 337 sent: { chips  }
Sun Dec 02 10:18:38 IST 2012	Protocol: A New Phase Began: Movement Phase
Sun Dec 02 10:18:38 IST 2012	Protocol: Movement phase, Round: 2
Sun Dec 02 10:18:38 IST 2012	Player 310 moved to (R:6,C:3)
Sun Dec 02 10:18:38 IST 2012	Player 337 moved to (R:6,C:1)
Sun Dec 02 10:18:58 IST 2012	A Phase Ended: Movement Phase
Sun Dec 02 10:18:58 IST 2012	Protocol: A New Phase Began: Feedback Phase
Sun Dec 02 10:18:58 IST 2012	Protocol: Feedback phase, Round: 2
Sun Dec 02 10:18:58 IST 2012	Number of consecutive no movements for player 337 is 0
Sun Dec 02 10:18:58 IST 2012	Number of consecutive no movements for player 310 is 0
Sun Dec 02 10:19:03 IST 2012	A Phase Ended: Feedback Phase
Sun Dec 02 10:19:03 IST 2012	Protocol: A New Phase Began: Communication Phase
Sun Dec 02 10:19:03 IST 2012	Protocol: Communication phase, Round: 3
Sun Dec 02 10:19:20 IST 2012	Received communication message 
Sun Dec 02 10:19:20 IST 2012	From player: 310
Sun Dec 02 10:19:20 IST 2012	To player: 337
Sun Dec 02 10:19:20 IST 2012	Message type: basicproposal
Sun Dec 02 10:19:20 IST 2012	Chips to send by proposer: { chips  'CTRed':0 'CTPurple':0 'CTGreen':5 'grey78':1 'CTYellow':0 }
Sun Dec 02 10:19:20 IST 2012	Chips to send by responder: { chips  'CTRed':0 'CTPurple':0 'CTGreen':0 'grey78':0 'CTYellow':2 }
Sun Dec 02 10:20:01 IST 2012	Received communication message 
Sun Dec 02 10:20:01 IST 2012	From player: 337
Sun Dec 02 10:20:01 IST 2012	To player: 310
Sun Dec 02 10:20:01 IST 2012	Message type: basicproposaldiscussion
Sun Dec 02 10:20:01 IST 2012	Player 337 rejected offer
Sun Dec 02 10:20:01 IST 2012	Swaping roles:
Sun Dec 02 10:20:01 IST 2012	Proposer is: 337
Sun Dec 02 10:20:01 IST 2012	Responder is: 310
Sun Dec 02 10:20:01 IST 2012	Prop rejected, set counter offers count to: 1
Sun Dec 02 10:20:01 IST 2012	Prop rejected, get counter offers returned: 1
Sun Dec 02 10:20:05 IST 2012	Slept 4 seconds
Sun Dec 02 10:20:05 IST 2012	Sent role changed msgs
Sun Dec 02 10:21:05 IST 2012	Received communication message 
Sun Dec 02 10:21:05 IST 2012	From player: 337
Sun Dec 02 10:21:05 IST 2012	To player: 310
Sun Dec 02 10:21:05 IST 2012	Message type: basicproposal
Sun Dec 02 10:21:05 IST 2012	Chips to send by proposer: { chips  'CTRed':0 'CTPurple':0 'CTGreen':0 'grey78':0 'CTYellow':1 }
Sun Dec 02 10:21:05 IST 2012	Chips to send by responder: { chips  'CTRed':0 'CTPurple':0 'CTGreen':0 'grey78':2 'CTYellow':0 }
Sun Dec 02 10:21:16 IST 2012	Received communication message 
Sun Dec 02 10:21:16 IST 2012	From player: 310
Sun Dec 02 10:21:16 IST 2012	To player: 337
Sun Dec 02 10:21:16 IST 2012	Message type: basicproposaldiscussion
Sun Dec 02 10:21:16 IST 2012	Player 310 rejected offer
Sun Dec 02 10:21:16 IST 2012	Set counter offers count to: 0
Sun Dec 02 10:21:16 IST 2012	A Phase Ended: Communication Phase
Sun Dec 02 10:21:16 IST 2012	Protocol: A New Phase Began: Exchange Phase
Sun Dec 02 10:21:16 IST 2012	Protocol: Exchange phase, Round: 3
Sun Dec 02 10:21:16 IST 2012	In begin exch.phase, get counter offers returned: 0
Sun Dec 02 10:21:57 IST 2012	A Phase Ended: Exchange Phase
Sun Dec 02 10:21:57 IST 2012	Proposer 337 sent: { chips  }
Sun Dec 02 10:21:57 IST 2012	Protocol: A New Phase Began: Movement Phase
Sun Dec 02 10:21:57 IST 2012	Protocol: Movement phase, Round: 3
Sun Dec 02 10:22:17 IST 2012	A Phase Ended: Movement Phase
Sun Dec 02 10:22:17 IST 2012	Protocol: A New Phase Began: Feedback Phase
Sun Dec 02 10:22:17 IST 2012	Protocol: Feedback phase, Round: 3
Sun Dec 02 10:22:17 IST 2012	Number of consecutive no movements for player 337 is 1
Sun Dec 02 10:22:17 IST 2012	Number of consecutive no movements for player 310 is 1
Sun Dec 02 10:22:22 IST 2012	A Phase Ended: Feedback Phase
Sun Dec 02 10:22:22 IST 2012	Protocol: A New Phase Began: Communication Phase
Sun Dec 02 10:22:22 IST 2012	Protocol: Communication phase, Round: 4
Sun Dec 02 10:23:22 IST 2012	Received communication message 
Sun Dec 02 10:23:22 IST 2012	From player: 337
Sun Dec 02 10:23:22 IST 2012	To player: 310
Sun Dec 02 10:23:22 IST 2012	Message type: basicproposal
Sun Dec 02 10:23:22 IST 2012	Chips to send by proposer: { chips  'CTYellow':1 }
Sun Dec 02 10:23:22 IST 2012	Chips to send by responder: { chips  'grey78':2 }
Sun Dec 02 10:23:31 IST 2012	Received communication message 
Sun Dec 02 10:23:31 IST 2012	From player: 310
Sun Dec 02 10:23:31 IST 2012	To player: 337
Sun Dec 02 10:23:31 IST 2012	Message type: basicproposaldiscussion
Sun Dec 02 10:23:31 IST 2012	Player 310 rejected offer
Sun Dec 02 10:23:31 IST 2012	Swaping roles:
Sun Dec 02 10:23:31 IST 2012	Proposer is: 310
Sun Dec 02 10:23:31 IST 2012	Responder is: 337
Sun Dec 02 10:23:31 IST 2012	Prop rejected, set counter offers count to: 1
Sun Dec 02 10:23:31 IST 2012	Prop rejected, get counter offers returned: 1
Sun Dec 02 10:23:35 IST 2012	Slept 4 seconds
Sun Dec 02 10:23:35 IST 2012	Sent role changed msgs
Sun Dec 02 10:23:54 IST 2012	Received communication message 
Sun Dec 02 10:23:54 IST 2012	From player: 310
Sun Dec 02 10:23:54 IST 2012	To player: 337
Sun Dec 02 10:23:54 IST 2012	Message type: basicproposal
Sun Dec 02 10:23:54 IST 2012	Chips to send by proposer: { chips  'CTRed':0 'CTPurple':0 'CTGreen':6 'grey78':1 'CTYellow':0 }
Sun Dec 02 10:23:54 IST 2012	Chips to send by responder: { chips  'CTRed':0 'CTPurple':0 'CTGreen':0 'grey78':0 'CTYellow':2 }
Sun Dec 02 10:24:33 IST 2012	Received communication message 
Sun Dec 02 10:24:33 IST 2012	From player: 337
Sun Dec 02 10:24:33 IST 2012	To player: 310
Sun Dec 02 10:24:33 IST 2012	Message type: basicproposaldiscussion
Sun Dec 02 10:24:33 IST 2012	Player 337 rejected offer
Sun Dec 02 10:24:33 IST 2012	Set counter offers count to: 0
Sun Dec 02 10:24:33 IST 2012	A Phase Ended: Communication Phase
Sun Dec 02 10:24:33 IST 2012	Protocol: A New Phase Began: Exchange Phase
Sun Dec 02 10:24:33 IST 2012	Protocol: Exchange phase, Round: 4
Sun Dec 02 10:24:33 IST 2012	In begin exch.phase, get counter offers returned: 0
Sun Dec 02 10:25:13 IST 2012	A Phase Ended: Exchange Phase
Sun Dec 02 10:25:13 IST 2012	Responder 337 sent: { chips  }
Sun Dec 02 10:25:13 IST 2012	Protocol: A New Phase Began: Movement Phase
Sun Dec 02 10:25:13 IST 2012	Protocol: Movement phase, Round: 4
Sun Dec 02 10:25:34 IST 2012	A Phase Ended: Movement Phase
Sun Dec 02 10:25:34 IST 2012	Protocol: A New Phase Began: Feedback Phase
Sun Dec 02 10:25:34 IST 2012	Protocol: Feedback phase, Round: 4
Sun Dec 02 10:25:34 IST 2012	Number of consecutive no movements for player 337 is 2
Sun Dec 02 10:25:34 IST 2012	Number of consecutive no movements for player 310 is 2
Sun Dec 02 10:25:39 IST 2012	A Phase Ended: Feedback Phase
Sun Dec 02 10:25:39 IST 2012	Protocol: A New Phase Began: Communication Phase
Sun Dec 02 10:25:39 IST 2012	Protocol: Communication phase, Round: 5
Sun Dec 02 10:25:54 IST 2012	Received communication message 
Sun Dec 02 10:25:54 IST 2012	From player: 310
Sun Dec 02 10:25:54 IST 2012	To player: 337
Sun Dec 02 10:25:54 IST 2012	Message type: basicproposal
Sun Dec 02 10:25:54 IST 2012	Chips to send by proposer: { chips  'CTRed':0 'CTPurple':0 'CTGreen':0 'grey78':1 'CTYellow':0 }
Sun Dec 02 10:25:54 IST 2012	Chips to send by responder: { chips  'CTRed':0 'CTPurple':0 'CTGreen':0 'grey78':0 'CTYellow':1 }
Sun Dec 02 10:26:27 IST 2012	Received communication message 
Sun Dec 02 10:26:27 IST 2012	From player: 337
Sun Dec 02 10:26:27 IST 2012	To player: 310
Sun Dec 02 10:26:27 IST 2012	Message type: basicproposaldiscussion
Sun Dec 02 10:26:27 IST 2012	Player 337 accepted offer
Sun Dec 02 10:26:27 IST 2012	Prop accepted, set counter offers count to: 0
Sun Dec 02 10:26:27 IST 2012	Prop accepted, get counter offers returned: 0
Sun Dec 02 10:26:27 IST 2012	A Phase Ended: Communication Phase
Sun Dec 02 10:26:27 IST 2012	Protocol: A New Phase Began: Exchange Phase
Sun Dec 02 10:26:27 IST 2012	Protocol: Exchange phase, Round: 5
Sun Dec 02 10:26:27 IST 2012	In begin exch.phase, get counter offers returned: 0
Sun Dec 02 10:26:56 IST 2012	A Phase Ended: Exchange Phase
Sun Dec 02 10:26:56 IST 2012	Proposer 310 sent: { chips  }
Sun Dec 02 10:26:56 IST 2012	Responder 337 sent: { chips  'CTRed':0 'CTPurple':0 'CTGreen':0 'grey78':0 'CTYellow':1 }
Sun Dec 02 10:26:56 IST 2012	Protocol: A New Phase Began: Movement Phase
Sun Dec 02 10:26:56 IST 2012	Protocol: Movement phase, Round: 5
Sun Dec 02 10:26:56 IST 2012	Player 310 moved to (R:5,C:3)
Sun Dec 02 10:26:56 IST 2012	Player 337 moved to (R:5,C:1)
Sun Dec 02 10:27:15 IST 2012	A Phase Ended: Movement Phase
Sun Dec 02 10:27:15 IST 2012	Swaping roles:
Sun Dec 02 10:27:15 IST 2012	Proposer is: 337
Sun Dec 02 10:27:15 IST 2012	Responder is: 310
Sun Dec 02 10:27:15 IST 2012	Protocol: A New Phase Began: Feedback Phase
Sun Dec 02 10:27:15 IST 2012	Protocol: Feedback phase, Round: 5
Sun Dec 02 10:27:15 IST 2012	Number of consecutive no movements for player 337 is 0
Sun Dec 02 10:27:15 IST 2012	Number of consecutive no movements for player 310 is 0
Sun Dec 02 10:27:20 IST 2012	A Phase Ended: Feedback Phase
Sun Dec 02 10:27:20 IST 2012	Protocol: A New Phase Began: Communication Phase
Sun Dec 02 10:27:20 IST 2012	Protocol: Communication phase, Round: 6
Sun Dec 02 10:28:20 IST 2012	Received communication message 
Sun Dec 02 10:28:20 IST 2012	From player: 337
Sun Dec 02 10:28:20 IST 2012	To player: 310
Sun Dec 02 10:28:20 IST 2012	Message type: basicproposal
Sun Dec 02 10:28:20 IST 2012	Chips to send by proposer: { chips  'CTYellow':1 }
Sun Dec 02 10:28:20 IST 2012	Chips to send by responder: { chips  'CTGreen':2 'grey78':1 }
Sun Dec 02 10:28:29 IST 2012	Received communication message 
Sun Dec 02 10:28:29 IST 2012	From player: 310
Sun Dec 02 10:28:29 IST 2012	To player: 337
Sun Dec 02 10:28:29 IST 2012	Message type: basicproposaldiscussion
Sun Dec 02 10:28:29 IST 2012	Player 310 accepted offer
Sun Dec 02 10:28:29 IST 2012	Prop accepted, set counter offers count to: 0
Sun Dec 02 10:28:29 IST 2012	Prop accepted, get counter offers returned: 0
Sun Dec 02 10:28:29 IST 2012	A Phase Ended: Communication Phase
Sun Dec 02 10:28:29 IST 2012	Protocol: A New Phase Began: Exchange Phase
Sun Dec 02 10:28:29 IST 2012	Protocol: Exchange phase, Round: 6
Sun Dec 02 10:28:29 IST 2012	In begin exch.phase, get counter offers returned: 0
Sun Dec 02 10:28:47 IST 2012	A Phase Ended: Exchange Phase
Sun Dec 02 10:28:47 IST 2012	Proposer 337 sent: { chips  'CTRed':0 'CTPurple':0 'CTGreen':0 'grey78':0 'CTYellow':1 }
Sun Dec 02 10:28:48 IST 2012	Responder 310 sent: { chips  }
Sun Dec 02 10:28:48 IST 2012	Protocol: A New Phase Began: Movement Phase
Sun Dec 02 10:28:48 IST 2012	Protocol: Movement phase, Round: 6
Sun Dec 02 10:28:48 IST 2012	Player 310 moved to (R:4,C:3)
Sun Dec 02 10:29:08 IST 2012	A Phase Ended: Movement Phase
Sun Dec 02 10:29:08 IST 2012	Swaping roles:
Sun Dec 02 10:29:08 IST 2012	Proposer is: 310
Sun Dec 02 10:29:08 IST 2012	Responder is: 337
Sun Dec 02 10:29:08 IST 2012	Protocol: A New Phase Began: Feedback Phase
Sun Dec 02 10:29:08 IST 2012	Protocol: Feedback phase, Round: 6
Sun Dec 02 10:29:08 IST 2012	Number of consecutive no movements for player 337 is 1
Sun Dec 02 10:29:08 IST 2012	Number of consecutive no movements for player 310 is 0
Sun Dec 02 10:29:13 IST 2012	A Phase Ended: Feedback Phase
Sun Dec 02 10:29:13 IST 2012	Protocol: A New Phase Began: Communication Phase
Sun Dec 02 10:29:13 IST 2012	Protocol: Communication phase, Round: 7
Sun Dec 02 10:29:25 IST 2012	Received communication message 
Sun Dec 02 10:29:25 IST 2012	From player: 310
Sun Dec 02 10:29:25 IST 2012	To player: 337
Sun Dec 02 10:29:25 IST 2012	Message type: basicproposal
Sun Dec 02 10:29:25 IST 2012	Chips to send by proposer: { chips  'CTRed':0 'CTPurple':0 'CTGreen':0 'grey78':1 'CTYellow':0 }
Sun Dec 02 10:29:25 IST 2012	Chips to send by responder: { chips  'CTRed':0 'CTPurple':0 'CTGreen':3 'grey78':0 'CTYellow':0 }
Sun Dec 02 10:29:42 IST 2012	Received communication message 
Sun Dec 02 10:29:42 IST 2012	From player: 337
Sun Dec 02 10:29:42 IST 2012	To player: 310
Sun Dec 02 10:29:42 IST 2012	Message type: basicproposaldiscussion
Sun Dec 02 10:29:42 IST 2012	Player 337 rejected offer
Sun Dec 02 10:29:42 IST 2012	Swaping roles:
Sun Dec 02 10:29:42 IST 2012	Proposer is: 337
Sun Dec 02 10:29:42 IST 2012	Responder is: 310
Sun Dec 02 10:29:42 IST 2012	Prop rejected, set counter offers count to: 1
Sun Dec 02 10:29:42 IST 2012	Prop rejected, get counter offers returned: 1
Sun Dec 02 10:29:46 IST 2012	Slept 4 seconds
Sun Dec 02 10:29:46 IST 2012	Sent role changed msgs
Sun Dec 02 10:30:39 IST 2012	Received communication message 
Sun Dec 02 10:30:39 IST 2012	From player: 337
Sun Dec 02 10:30:39 IST 2012	To player: 310
Sun Dec 02 10:30:39 IST 2012	Message type: basicproposal
Sun Dec 02 10:30:39 IST 2012	Chips to send by proposer: { chips  'CTRed':0 'CTPurple':0 'CTGreen':0 'grey78':0 'CTYellow':1 }
Sun Dec 02 10:30:39 IST 2012	Chips to send by responder: { chips  'CTRed':0 'CTPurple':0 'CTGreen':0 'grey78':1 'CTYellow':0 }
Sun Dec 02 10:30:46 IST 2012	Received communication message 
Sun Dec 02 10:30:46 IST 2012	From player: 310
Sun Dec 02 10:30:46 IST 2012	To player: 337
Sun Dec 02 10:30:46 IST 2012	Message type: basicproposaldiscussion
Sun Dec 02 10:30:46 IST 2012	Player 310 accepted offer
Sun Dec 02 10:30:46 IST 2012	Prop accepted, set counter offers count to: 0
Sun Dec 02 10:30:46 IST 2012	Prop accepted, get counter offers returned: 0
Sun Dec 02 10:30:46 IST 2012	A Phase Ended: Communication Phase
Sun Dec 02 10:30:46 IST 2012	Protocol: A New Phase Began: Exchange Phase
Sun Dec 02 10:30:46 IST 2012	Protocol: Exchange phase, Round: 7
Sun Dec 02 10:30:46 IST 2012	In begin exch.phase, get counter offers returned: 0
Sun Dec 02 10:30:59 IST 2012	A Phase Ended: Exchange Phase
Sun Dec 02 10:30:59 IST 2012	Proposer 337 sent: { chips  'CTRed':0 'CTPurple':0 'CTGreen':0 'grey78':0 'CTYellow':0 }
Sun Dec 02 10:30:59 IST 2012	Responder 310 sent: { chips  }
Sun Dec 02 10:30:59 IST 2012	Protocol: A New Phase Began: Movement Phase
Sun Dec 02 10:30:59 IST 2012	Protocol: Movement phase, Round: 7
Sun Dec 02 10:30:59 IST 2012	Player 310 moved to (R:3,C:3)
Sun Dec 02 10:31:18 IST 2012	A Phase Ended: Movement Phase
Sun Dec 02 10:31:18 IST 2012	Protocol: A New Phase Began: Feedback Phase
Sun Dec 02 10:31:18 IST 2012	Protocol: Feedback phase, Round: 7
Sun Dec 02 10:31:18 IST 2012	Number of consecutive no movements for player 337 is 2
Sun Dec 02 10:31:18 IST 2012	Number of consecutive no movements for player 310 is 0
Sun Dec 02 10:31:23 IST 2012	A Phase Ended: Feedback Phase
Sun Dec 02 10:31:23 IST 2012	Protocol: A New Phase Began: Communication Phase
Sun Dec 02 10:31:23 IST 2012	Protocol: Communication phase, Round: 8
Sun Dec 02 10:32:23 IST 2012	Received communication message 
Sun Dec 02 10:32:23 IST 2012	From player: 337
Sun Dec 02 10:32:23 IST 2012	To player: 310
Sun Dec 02 10:32:23 IST 2012	Message type: basicproposal
Sun Dec 02 10:32:23 IST 2012	Chips to send by proposer: { chips  'CTYellow':1 }
Sun Dec 02 10:32:23 IST 2012	Chips to send by responder: { chips  'grey78':1 }
Sun Dec 02 10:32:37 IST 2012	Received communication message 
Sun Dec 02 10:32:37 IST 2012	From player: 310
Sun Dec 02 10:32:37 IST 2012	To player: 337
Sun Dec 02 10:32:37 IST 2012	Message type: basicproposaldiscussion
Sun Dec 02 10:32:37 IST 2012	Player 310 accepted offer
Sun Dec 02 10:32:37 IST 2012	Prop accepted, set counter offers count to: 0
Sun Dec 02 10:32:37 IST 2012	Prop accepted, get counter offers returned: 0
Sun Dec 02 10:32:37 IST 2012	A Phase Ended: Communication Phase
Sun Dec 02 10:32:37 IST 2012	Protocol: A New Phase Began: Exchange Phase
Sun Dec 02 10:32:37 IST 2012	Protocol: Exchange phase, Round: 8
Sun Dec 02 10:32:37 IST 2012	In begin exch.phase, get counter offers returned: 0
Sun Dec 02 10:32:57 IST 2012	A Phase Ended: Exchange Phase
Sun Dec 02 10:32:57 IST 2012	Proposer 337 sent: { chips  'CTRed':0 'CTPurple':0 'CTGreen':0 'grey78':0 'CTYellow':1 }
Sun Dec 02 10:32:57 IST 2012	Responder 310 sent: { chips  }
Sun Dec 02 10:32:57 IST 2012	Protocol: A New Phase Began: Movement Phase
Sun Dec 02 10:32:57 IST 2012	Protocol: Movement phase, Round: 8
Sun Dec 02 10:32:57 IST 2012	Player 337 moved to (R:4,C:1)
Sun Dec 02 10:32:57 IST 2012	Player 310 moved to (R:2,C:3)
Sun Dec 02 10:33:16 IST 2012	A Phase Ended: Movement Phase
Sun Dec 02 10:33:16 IST 2012	Swaping roles:
Sun Dec 02 10:33:16 IST 2012	Proposer is: 310
Sun Dec 02 10:33:16 IST 2012	Responder is: 337
Sun Dec 02 10:33:16 IST 2012	Protocol: A New Phase Began: Feedback Phase
Sun Dec 02 10:33:16 IST 2012	Protocol: Feedback phase, Round: 8
Sun Dec 02 10:33:16 IST 2012	Number of consecutive no movements for player 337 is 0
Sun Dec 02 10:33:16 IST 2012	Number of consecutive no movements for player 310 is 0
Sun Dec 02 10:33:21 IST 2012	A Phase Ended: Feedback Phase
Sun Dec 02 10:33:21 IST 2012	Protocol: A New Phase Began: Communication Phase
Sun Dec 02 10:33:21 IST 2012	Protocol: Communication phase, Round: 9
Sun Dec 02 10:33:37 IST 2012	Received communication message 
Sun Dec 02 10:33:37 IST 2012	From player: 310
Sun Dec 02 10:33:37 IST 2012	To player: 337
Sun Dec 02 10:33:37 IST 2012	Message type: basicproposal
Sun Dec 02 10:33:37 IST 2012	Chips to send by proposer: { chips  'CTRed':0 'CTPurple':0 'CTGreen':0 'grey78':1 'CTYellow':0 }
Sun Dec 02 10:33:37 IST 2012	Chips to send by responder: { chips  'CTRed':0 'CTPurple':0 'CTGreen':3 'grey78':0 'CTYellow':0 }
Sun Dec 02 10:34:01 IST 2012	Received communication message 
Sun Dec 02 10:34:01 IST 2012	From player: 337
Sun Dec 02 10:34:01 IST 2012	To player: 310
Sun Dec 02 10:34:01 IST 2012	Message type: basicproposaldiscussion
Sun Dec 02 10:34:01 IST 2012	Player 337 rejected offer
Sun Dec 02 10:34:01 IST 2012	Swaping roles:
Sun Dec 02 10:34:01 IST 2012	Proposer is: 337
Sun Dec 02 10:34:01 IST 2012	Responder is: 310
Sun Dec 02 10:34:01 IST 2012	Prop rejected, set counter offers count to: 1
Sun Dec 02 10:34:01 IST 2012	Prop rejected, get counter offers returned: 1
Sun Dec 02 10:34:05 IST 2012	Slept 4 seconds
Sun Dec 02 10:34:05 IST 2012	Sent role changed msgs
Sun Dec 02 10:35:05 IST 2012	Received communication message 
Sun Dec 02 10:35:05 IST 2012	From player: 337
Sun Dec 02 10:35:05 IST 2012	To player: 310
Sun Dec 02 10:35:05 IST 2012	Message type: basicproposal
Sun Dec 02 10:35:05 IST 2012	Chips to send by proposer: { chips  'CTRed':0 'CTPurple':0 'CTGreen':1 'grey78':0 'CTYellow':0 }
Sun Dec 02 10:35:05 IST 2012	Chips to send by responder: { chips  'CTRed':0 'CTPurple':0 'CTGreen':0 'grey78':1 'CTYellow':0 }
Sun Dec 02 10:35:19 IST 2012	Received communication message 
Sun Dec 02 10:35:19 IST 2012	From player: 310
Sun Dec 02 10:35:19 IST 2012	To player: 337
Sun Dec 02 10:35:19 IST 2012	Message type: basicproposaldiscussion
Sun Dec 02 10:35:19 IST 2012	Player 310 accepted offer
Sun Dec 02 10:35:19 IST 2012	Prop accepted, set counter offers count to: 0
Sun Dec 02 10:35:19 IST 2012	Prop accepted, get counter offers returned: 0
Sun Dec 02 10:35:19 IST 2012	A Phase Ended: Communication Phase
Sun Dec 02 10:35:19 IST 2012	Protocol: A New Phase Began: Exchange Phase
Sun Dec 02 10:35:19 IST 2012	Protocol: Exchange phase, Round: 9
Sun Dec 02 10:35:19 IST 2012	In begin exch.phase, get counter offers returned: 0
Sun Dec 02 10:35:37 IST 2012	A Phase Ended: Exchange Phase
Sun Dec 02 10:35:37 IST 2012	Proposer 337 sent: { chips  'CTRed':0 'CTPurple':0 'CTGreen':1 'grey78':0 'CTYellow':0 }
Sun Dec 02 10:35:37 IST 2012	Responder 310 sent: { chips  }
Sun Dec 02 10:35:37 IST 2012	Protocol: A New Phase Began: Movement Phase
Sun Dec 02 10:35:37 IST 2012	Protocol: Movement phase, Round: 9
Sun Dec 02 10:35:37 IST 2012	Player 310 moved to (R:1,C:3)
Sun Dec 02 10:35:57 IST 2012	A Phase Ended: Movement Phase
Sun Dec 02 10:35:57 IST 2012	Protocol: A New Phase Began: Feedback Phase
Sun Dec 02 10:35:57 IST 2012	Protocol: Feedback phase, Round: 9
Sun Dec 02 10:35:57 IST 2012	Number of consecutive no movements for player 337 is 1
Sun Dec 02 10:35:57 IST 2012	Number of consecutive no movements for player 310 is 0
Sun Dec 02 10:36:02 IST 2012	A Phase Ended: Feedback Phase
Sun Dec 02 10:36:02 IST 2012	Protocol: A New Phase Began: Communication Phase
Sun Dec 02 10:36:02 IST 2012	Protocol: Communication phase, Round: 10
Sun Dec 02 10:37:02 IST 2012	Received communication message 
Sun Dec 02 10:37:02 IST 2012	From player: 337
Sun Dec 02 10:37:02 IST 2012	To player: 310
Sun Dec 02 10:37:02 IST 2012	Message type: basicproposal
Sun Dec 02 10:37:02 IST 2012	Chips to send by proposer: { chips  'CTGreen':1 }
Sun Dec 02 10:37:02 IST 2012	Chips to send by responder: { chips  'grey78':1 }
Sun Dec 02 10:37:10 IST 2012	Received communication message 
Sun Dec 02 10:37:10 IST 2012	From player: 310
Sun Dec 02 10:37:10 IST 2012	To player: 337
Sun Dec 02 10:37:10 IST 2012	Message type: basicproposaldiscussion
Sun Dec 02 10:37:10 IST 2012	Player 310 accepted offer
Sun Dec 02 10:37:10 IST 2012	Prop accepted, set counter offers count to: 0
Sun Dec 02 10:37:10 IST 2012	Prop accepted, get counter offers returned: 0
Sun Dec 02 10:37:10 IST 2012	A Phase Ended: Communication Phase
Sun Dec 02 10:37:10 IST 2012	Protocol: A New Phase Began: Exchange Phase
Sun Dec 02 10:37:10 IST 2012	Protocol: Exchange phase, Round: 10
Sun Dec 02 10:37:10 IST 2012	In begin exch.phase, get counter offers returned: 0
Sun Dec 02 10:37:26 IST 2012	A Phase Ended: Exchange Phase
Sun Dec 02 10:37:26 IST 2012	Proposer 337 sent: { chips  'CTRed':0 'CTPurple':0 'CTGreen':1 'grey78':0 'CTYellow':0 }
Sun Dec 02 10:37:26 IST 2012	Responder 310 sent: { chips  }
Sun Dec 02 10:37:26 IST 2012	Protocol: A New Phase Began: Movement Phase
Sun Dec 02 10:37:26 IST 2012	Protocol: Movement phase, Round: 10
Sun Dec 02 10:37:26 IST 2012	Player 310 moved to (R:0,C:3)
Sun Dec 02 10:37:46 IST 2012	A Phase Ended: Movement Phase
Sun Dec 02 10:37:46 IST 2012	Swaping roles:
Sun Dec 02 10:37:46 IST 2012	Proposer is: 310
Sun Dec 02 10:37:46 IST 2012	Responder is: 337
Sun Dec 02 10:37:46 IST 2012	Protocol: A New Phase Began: Feedback Phase
Sun Dec 02 10:37:46 IST 2012	Protocol: Feedback phase, Round: 10
Sun Dec 02 10:37:46 IST 2012	Number of consecutive no movements for player 337 is 2
Sun Dec 02 10:37:46 IST 2012	Number of consecutive no movements for player 310 is 0
Sun Dec 02 10:37:51 IST 2012	A Phase Ended: Feedback Phase
Sun Dec 02 10:37:51 IST 2012	Protocol: A New Phase Began: Communication Phase
Sun Dec 02 10:37:51 IST 2012	Protocol: Communication phase, Round: 11
Sun Dec 02 10:38:10 IST 2012	Received communication message 
Sun Dec 02 10:38:10 IST 2012	From player: 310
Sun Dec 02 10:38:10 IST 2012	To player: 337
Sun Dec 02 10:38:10 IST 2012	Message type: basicproposal
Sun Dec 02 10:38:10 IST 2012	Chips to send by proposer: { chips  'CTRed':0 'CTPurple':0 'CTGreen':0 'grey78':1 'CTYellow':0 }
Sun Dec 02 10:38:10 IST 2012	Chips to send by responder: { chips  'CTRed':0 'CTPurple':0 'CTGreen':3 'grey78':0 'CTYellow':0 }
Sun Dec 02 10:38:24 IST 2012	Received communication message 
Sun Dec 02 10:38:24 IST 2012	From player: 337
Sun Dec 02 10:38:24 IST 2012	To player: 310
Sun Dec 02 10:38:24 IST 2012	Message type: basicproposaldiscussion
Sun Dec 02 10:38:24 IST 2012	Player 337 rejected offer
Sun Dec 02 10:38:24 IST 2012	Swaping roles:
Sun Dec 02 10:38:24 IST 2012	Proposer is: 337
Sun Dec 02 10:38:24 IST 2012	Responder is: 310
Sun Dec 02 10:38:24 IST 2012	Prop rejected, set counter offers count to: 1
Sun Dec 02 10:38:24 IST 2012	Prop rejected, get counter offers returned: 1
Sun Dec 02 10:38:28 IST 2012	Slept 4 seconds
Sun Dec 02 10:38:28 IST 2012	Sent role changed msgs
Sun Dec 02 10:39:12 IST 2012	Received communication message 
Sun Dec 02 10:39:12 IST 2012	From player: 337
Sun Dec 02 10:39:12 IST 2012	To player: 310
Sun Dec 02 10:39:12 IST 2012	Message type: basicproposal
Sun Dec 02 10:39:12 IST 2012	Chips to send by proposer: { chips  'CTRed':0 'CTPurple':0 'CTGreen':1 'grey78':0 'CTYellow':0 }
Sun Dec 02 10:39:12 IST 2012	Chips to send by responder: { chips  'CTRed':0 'CTPurple':0 'CTGreen':0 'grey78':1 'CTYellow':0 }
Sun Dec 02 10:39:22 IST 2012	Received communication message 
Sun Dec 02 10:39:22 IST 2012	From player: 310
Sun Dec 02 10:39:22 IST 2012	To player: 337
Sun Dec 02 10:39:22 IST 2012	Message type: basicproposaldiscussion
Sun Dec 02 10:39:22 IST 2012	Player 310 accepted offer
Sun Dec 02 10:39:22 IST 2012	Prop accepted, set counter offers count to: 0
Sun Dec 02 10:39:22 IST 2012	Prop accepted, get counter offers returned: 0
Sun Dec 02 10:39:22 IST 2012	A Phase Ended: Communication Phase
Sun Dec 02 10:39:22 IST 2012	Protocol: A New Phase Began: Exchange Phase
Sun Dec 02 10:39:22 IST 2012	Protocol: Exchange phase, Round: 11
Sun Dec 02 10:39:22 IST 2012	In begin exch.phase, get counter offers returned: 0
Sun Dec 02 10:39:33 IST 2012	A Phase Ended: Exchange Phase
Sun Dec 02 10:39:33 IST 2012	Proposer 337 sent: { chips  'CTRed':0 'CTPurple':0 'CTGreen':1 'grey78':0 'CTYellow':0 }
Sun Dec 02 10:39:33 IST 2012	Responder 310 sent: { chips  }
Sun Dec 02 10:39:33 IST 2012	Protocol: A New Phase Began: Movement Phase
Sun Dec 02 10:39:33 IST 2012	Protocol: Movement phase, Round: 11
Sun Dec 02 10:39:33 IST 2012	Player 310 moved to (R:0,C:2)
Sun Dec 02 10:39:37 IST 2012	Slept 4 seconds
Sun Dec 02 10:39:37 IST 2012	Player 310 got to goal, advance the other and end game
Sun Dec 02 10:39:37 IST 2012	Player: 310 ,role: Responder score is: 210
Sun Dec 02 10:39:37 IST 2012	Player: 337 ,role: Proposer score is: 35
