Tue Dec 04 15:45:34 IST 2012	This is the CT debug logger; svn version 638; sep 27 09
Tue Dec 04 15:45:34 IST 2012	Tue Dec 04 15:45:34 IST 2012
Tue Dec 04 15:45:34 IST 2012	A new Alternative Offers game has began
Tue Dec 04 15:45:34 IST 2012	ID Number: 34442
Tue Dec 04 15:45:34 IST 2012	Creating board
Tue Dec 04 15:45:34 IST 2012	<colors>
Tue Dec 04 15:45:34 IST 2012	{ GamePalette  'CTRed':0 'CTPurple':1 'CTGreen':2 'grey78':3 'CTYellow':4 }
Tue Dec 04 15:45:34 IST 2012	<rows>
Tue Dec 04 15:45:34 IST 2012	7
Tue Dec 04 15:45:34 IST 2012	<columns>
Tue Dec 04 15:45:34 IST 2012	5
Tue Dec 04 15:45:34 IST 2012	<squaresColors>
Tue Dec 04 15:45:34 IST 2012	CTPurple CTRed CTRed CTGreen CTPurple 
Tue Dec 04 15:45:34 IST 2012	CTPurple grey78 CTPurple CTYellow CTPurple 
Tue Dec 04 15:45:34 IST 2012	CTPurple CTRed CTPurple CTGreen CTPurple 
Tue Dec 04 15:45:34 IST 2012	CTPurple grey78 CTPurple CTYellow CTPurple 
Tue Dec 04 15:45:34 IST 2012	CTPurple CTRed CTPurple CTGreen CTPurple 
Tue Dec 04 15:45:34 IST 2012	CTPurple grey78 CTPurple CTYellow CTPurple 
Tue Dec 04 15:45:34 IST 2012	CTPurple CTRed CTPurple CTGreen CTPurple 
Tue Dec 04 15:45:34 IST 2012	</squareColors>
Tue Dec 04 15:45:34 IST 2012	<goalPosition>
Tue Dec 04 15:45:34 IST 2012	Goal position: (R:0,C:2)
Tue Dec 04 15:45:34 IST 2012	<numberOfPlayers>
Tue Dec 04 15:45:34 IST 2012	2
Tue Dec 04 15:45:34 IST 2012	<firstPlayerChips>
Tue Dec 04 15:45:34 IST 2012	Setting chips for player: 337 id:0
Tue Dec 04 15:45:34 IST 2012	{ chips  'CTRed':5 'CTGreen':10 'CTPurple':0 'grey78':0 'CTYellow':9 }
Tue Dec 04 15:45:34 IST 2012	Player position: (R:6,C:0)
Tue Dec 04 15:45:34 IST 2012	Setting chips for player: 310 id:1
Tue Dec 04 15:45:34 IST 2012	{ chips  'CTRed':1 'CTGreen':13 'CTPurple':0 'grey78':10 'CTYellow':0 }
Tue Dec 04 15:45:34 IST 2012	Player position: (R:6,C:4)
Tue Dec 04 15:45:34 IST 2012	Protocol: A New Phase Began: Strategy Prep Phase
Tue Dec 04 15:45:34 IST 2012	Protocol: Strategy Preparation phase, Round: 0
Tue Dec 04 15:45:34 IST 2012	Maximum number of rounds with no consecutive movement is 3
Tue Dec 04 15:45:34 IST 2012	In begin comm. phase, set counter offers count to: 0
Tue Dec 04 15:45:34 IST 2012	In begin comm. phase, get counter offers returned: 0
Tue Dec 04 15:45:54 IST 2012	A Phase Ended: Strategy Prep Phase
Tue Dec 04 15:45:54 IST 2012	Protocol: A New Phase Began: Communication Phase
Tue Dec 04 15:45:54 IST 2012	Protocol: Communication phase, Round: 0
Tue Dec 04 15:46:54 IST 2012	Received communication message 
Tue Dec 04 15:46:54 IST 2012	From player: 337
Tue Dec 04 15:46:54 IST 2012	To player: 310
Tue Dec 04 15:46:54 IST 2012	Message type: basicproposal
Tue Dec 04 15:46:54 IST 2012	Chips to send by proposer: { chips  'CTYellow':1 }
Tue Dec 04 15:46:54 IST 2012	Chips to send by responder: { chips  'CTGreen':1 'grey78':2 }
Tue Dec 04 15:47:07 IST 2012	Received communication message 
Tue Dec 04 15:47:07 IST 2012	From player: 310
Tue Dec 04 15:47:07 IST 2012	To player: 337
Tue Dec 04 15:47:07 IST 2012	Message type: basicproposaldiscussion
Tue Dec 04 15:47:07 IST 2012	Player 310 accepted offer
Tue Dec 04 15:47:07 IST 2012	Prop accepted, set counter offers count to: 0
Tue Dec 04 15:47:07 IST 2012	Prop accepted, get counter offers returned: 0
Tue Dec 04 15:47:07 IST 2012	A Phase Ended: Communication Phase
Tue Dec 04 15:47:07 IST 2012	Protocol: A New Phase Began: Exchange Phase
Tue Dec 04 15:47:07 IST 2012	Protocol: Exchange phase, Round: 0
Tue Dec 04 15:47:07 IST 2012	In begin exch.phase, get counter offers returned: 0
Tue Dec 04 15:47:36 IST 2012	A Phase Ended: Exchange Phase
Tue Dec 04 15:47:36 IST 2012	Proposer 337 sent: { chips  'CTRed':0 'CTPurple':0 'CTGreen':0 'grey78':0 'CTYellow':1 }
Tue Dec 04 15:47:36 IST 2012	Responder 310 sent: { chips  'CTRed':0 'CTPurple':0 'CTGreen':0 'grey78':2 'CTYellow':0 }
Tue Dec 04 15:47:36 IST 2012	Protocol: A New Phase Began: Movement Phase
Tue Dec 04 15:47:36 IST 2012	Protocol: Movement phase, Round: 0
Tue Dec 04 15:47:56 IST 2012	A Phase Ended: Movement Phase
Tue Dec 04 15:47:56 IST 2012	Swaping roles:
Tue Dec 04 15:47:56 IST 2012	Proposer is: 310
Tue Dec 04 15:47:56 IST 2012	Responder is: 337
Tue Dec 04 15:47:56 IST 2012	Protocol: A New Phase Began: Feedback Phase
Tue Dec 04 15:47:56 IST 2012	Protocol: Feedback phase, Round: 0
Tue Dec 04 15:47:56 IST 2012	Number of consecutive no movements for player 337 is 1
Tue Dec 04 15:47:56 IST 2012	Number of consecutive no movements for player 310 is 1
Tue Dec 04 15:48:01 IST 2012	A Phase Ended: Feedback Phase
Tue Dec 04 15:48:01 IST 2012	Protocol: A New Phase Began: Communication Phase
Tue Dec 04 15:48:01 IST 2012	Protocol: Communication phase, Round: 1
Tue Dec 04 15:48:21 IST 2012	Received communication message 
Tue Dec 04 15:48:21 IST 2012	From player: 310
Tue Dec 04 15:48:21 IST 2012	To player: 337
Tue Dec 04 15:48:21 IST 2012	Message type: basicproposal
Tue Dec 04 15:48:21 IST 2012	Chips to send by proposer: { chips  'CTRed':0 'CTPurple':0 'CTGreen':0 'grey78':1 'CTYellow':0 }
Tue Dec 04 15:48:21 IST 2012	Chips to send by responder: { chips  'CTRed':0 'CTPurple':0 'CTGreen':0 'grey78':0 'CTYellow':1 }
Tue Dec 04 15:49:05 IST 2012	Received communication message 
Tue Dec 04 15:49:05 IST 2012	From player: 337
Tue Dec 04 15:49:05 IST 2012	To player: 310
Tue Dec 04 15:49:05 IST 2012	Message type: basicproposaldiscussion
Tue Dec 04 15:49:05 IST 2012	Player 337 rejected offer
Tue Dec 04 15:49:05 IST 2012	Swaping roles:
Tue Dec 04 15:49:05 IST 2012	Proposer is: 337
Tue Dec 04 15:49:05 IST 2012	Responder is: 310
Tue Dec 04 15:49:05 IST 2012	Prop rejected, set counter offers count to: 1
Tue Dec 04 15:49:05 IST 2012	Prop rejected, get counter offers returned: 1
Tue Dec 04 15:49:09 IST 2012	Slept 4 seconds
Tue Dec 04 15:49:09 IST 2012	Sent role changed msgs
Tue Dec 04 15:50:09 IST 2012	Received communication message 
Tue Dec 04 15:50:09 IST 2012	From player: 337
Tue Dec 04 15:50:09 IST 2012	To player: 310
Tue Dec 04 15:50:09 IST 2012	Message type: basicproposal
Tue Dec 04 15:50:09 IST 2012	Chips to send by proposer: { chips  'CTRed':0 'CTPurple':0 'CTGreen':0 'grey78':0 'CTYellow':2 }
Tue Dec 04 15:50:09 IST 2012	Chips to send by responder: { chips  'CTRed':0 'CTPurple':0 'CTGreen':0 'grey78':1 'CTYellow':0 }
Tue Dec 04 15:50:17 IST 2012	Received communication message 
Tue Dec 04 15:50:17 IST 2012	From player: 310
Tue Dec 04 15:50:17 IST 2012	To player: 337
Tue Dec 04 15:50:17 IST 2012	Message type: basicproposaldiscussion
Tue Dec 04 15:50:17 IST 2012	Player 310 rejected offer
Tue Dec 04 15:50:17 IST 2012	Set counter offers count to: 0
Tue Dec 04 15:50:17 IST 2012	A Phase Ended: Communication Phase
Tue Dec 04 15:50:17 IST 2012	Protocol: A New Phase Began: Exchange Phase
Tue Dec 04 15:50:17 IST 2012	Protocol: Exchange phase, Round: 1
Tue Dec 04 15:50:17 IST 2012	In begin exch.phase, get counter offers returned: 0
Tue Dec 04 15:50:57 IST 2012	A Phase Ended: Exchange Phase
Tue Dec 04 15:50:57 IST 2012	Proposer 337 sent: { chips  }
Tue Dec 04 15:50:57 IST 2012	Protocol: A New Phase Began: Movement Phase
Tue Dec 04 15:50:57 IST 2012	Protocol: Movement phase, Round: 1
Tue Dec 04 15:51:17 IST 2012	A Phase Ended: Movement Phase
Tue Dec 04 15:51:17 IST 2012	Protocol: A New Phase Began: Feedback Phase
Tue Dec 04 15:51:17 IST 2012	Protocol: Feedback phase, Round: 1
Tue Dec 04 15:51:17 IST 2012	Number of consecutive no movements for player 337 is 2
Tue Dec 04 15:51:17 IST 2012	Number of consecutive no movements for player 310 is 2
Tue Dec 04 15:51:22 IST 2012	A Phase Ended: Feedback Phase
Tue Dec 04 15:51:22 IST 2012	Protocol: A New Phase Began: Communication Phase
Tue Dec 04 15:51:22 IST 2012	Protocol: Communication phase, Round: 2
Tue Dec 04 15:52:22 IST 2012	Received communication message 
Tue Dec 04 15:52:22 IST 2012	From player: 337
Tue Dec 04 15:52:22 IST 2012	To player: 310
Tue Dec 04 15:52:22 IST 2012	Message type: basicproposal
Tue Dec 04 15:52:22 IST 2012	Chips to send by proposer: { chips  'CTYellow':2 }
Tue Dec 04 15:52:22 IST 2012	Chips to send by responder: { chips  'CTGreen':1 'grey78':2 }
Tue Dec 04 15:52:32 IST 2012	Received communication message 
Tue Dec 04 15:52:32 IST 2012	From player: 310
Tue Dec 04 15:52:32 IST 2012	To player: 337
Tue Dec 04 15:52:32 IST 2012	Message type: basicproposaldiscussion
Tue Dec 04 15:52:32 IST 2012	Player 310 rejected offer
Tue Dec 04 15:52:32 IST 2012	Swaping roles:
Tue Dec 04 15:52:32 IST 2012	Proposer is: 310
Tue Dec 04 15:52:32 IST 2012	Responder is: 337
Tue Dec 04 15:52:32 IST 2012	Prop rejected, set counter offers count to: 1
Tue Dec 04 15:52:32 IST 2012	Prop rejected, get counter offers returned: 1
Tue Dec 04 15:52:36 IST 2012	Slept 4 seconds
Tue Dec 04 15:52:36 IST 2012	Sent role changed msgs
Tue Dec 04 15:52:58 IST 2012	Received communication message 
Tue Dec 04 15:52:58 IST 2012	From player: 310
Tue Dec 04 15:52:58 IST 2012	To player: 337
Tue Dec 04 15:52:58 IST 2012	Message type: basicproposal
Tue Dec 04 15:52:58 IST 2012	Chips to send by proposer: { chips  'CTRed':0 'CTPurple':0 'CTGreen':6 'grey78':1 'CTYellow':0 }
Tue Dec 04 15:52:58 IST 2012	Chips to send by responder: { chips  'CTRed':0 'CTPurple':0 'CTGreen':0 'grey78':0 'CTYellow':2 }
Tue Dec 04 15:53:47 IST 2012	Received communication message 
Tue Dec 04 15:53:47 IST 2012	From player: 337
Tue Dec 04 15:53:47 IST 2012	To player: 310
Tue Dec 04 15:53:47 IST 2012	Message type: basicproposaldiscussion
Tue Dec 04 15:53:47 IST 2012	Player 337 rejected offer
Tue Dec 04 15:53:47 IST 2012	Set counter offers count to: 0
Tue Dec 04 15:53:47 IST 2012	A Phase Ended: Communication Phase
Tue Dec 04 15:53:47 IST 2012	Protocol: A New Phase Began: Exchange Phase
Tue Dec 04 15:53:47 IST 2012	Protocol: Exchange phase, Round: 2
Tue Dec 04 15:53:47 IST 2012	In begin exch.phase, get counter offers returned: 0
Tue Dec 04 15:54:27 IST 2012	A Phase Ended: Exchange Phase
Tue Dec 04 15:54:27 IST 2012	Responder 337 sent: { chips  }
Tue Dec 04 15:54:27 IST 2012	Protocol: A New Phase Began: Movement Phase
Tue Dec 04 15:54:27 IST 2012	Protocol: Movement phase, Round: 2
Tue Dec 04 15:54:27 IST 2012	Player 337 moved to (R:6,C:1)
Tue Dec 04 15:54:27 IST 2012	Player 310 moved to (R:6,C:3)
Tue Dec 04 15:54:47 IST 2012	A Phase Ended: Movement Phase
Tue Dec 04 15:54:47 IST 2012	Protocol: A New Phase Began: Feedback Phase
Tue Dec 04 15:54:47 IST 2012	Protocol: Feedback phase, Round: 2
Tue Dec 04 15:54:47 IST 2012	Number of consecutive no movements for player 337 is 0
Tue Dec 04 15:54:47 IST 2012	Number of consecutive no movements for player 310 is 0
Tue Dec 04 15:54:52 IST 2012	A Phase Ended: Feedback Phase
Tue Dec 04 15:54:52 IST 2012	Protocol: A New Phase Began: Communication Phase
Tue Dec 04 15:54:52 IST 2012	Protocol: Communication phase, Round: 3
Tue Dec 04 15:55:08 IST 2012	Received communication message 
Tue Dec 04 15:55:08 IST 2012	From player: 310
Tue Dec 04 15:55:08 IST 2012	To player: 337
Tue Dec 04 15:55:08 IST 2012	Message type: basicproposal
Tue Dec 04 15:55:08 IST 2012	Chips to send by proposer: { chips  'CTRed':0 'CTPurple':0 'CTGreen':3 'grey78':1 'CTYellow':0 }
Tue Dec 04 15:55:08 IST 2012	Chips to send by responder: { chips  'CTRed':0 'CTPurple':0 'CTGreen':0 'grey78':0 'CTYellow':2 }
Tue Dec 04 15:55:53 IST 2012	Received communication message 
Tue Dec 04 15:55:53 IST 2012	From player: 337
Tue Dec 04 15:55:53 IST 2012	To player: 310
Tue Dec 04 15:55:53 IST 2012	Message type: basicproposaldiscussion
Tue Dec 04 15:55:53 IST 2012	Player 337 rejected offer
Tue Dec 04 15:55:53 IST 2012	Swaping roles:
Tue Dec 04 15:55:53 IST 2012	Proposer is: 337
Tue Dec 04 15:55:53 IST 2012	Responder is: 310
Tue Dec 04 15:55:53 IST 2012	Prop rejected, set counter offers count to: 1
Tue Dec 04 15:55:53 IST 2012	Prop rejected, get counter offers returned: 1
Tue Dec 04 15:55:57 IST 2012	Slept 4 seconds
Tue Dec 04 15:55:57 IST 2012	Sent role changed msgs
Tue Dec 04 15:56:57 IST 2012	Received communication message 
Tue Dec 04 15:56:57 IST 2012	From player: 337
Tue Dec 04 15:56:57 IST 2012	To player: 310
Tue Dec 04 15:56:57 IST 2012	Message type: basicproposal
Tue Dec 04 15:56:57 IST 2012	Chips to send by proposer: { chips  'CTRed':0 'CTPurple':0 'CTGreen':0 'grey78':0 'CTYellow':3 }
Tue Dec 04 15:56:57 IST 2012	Chips to send by responder: { chips  'CTRed':0 'CTPurple':0 'CTGreen':0 'grey78':1 'CTYellow':0 }
Tue Dec 04 15:57:07 IST 2012	Received communication message 
Tue Dec 04 15:57:07 IST 2012	From player: 310
Tue Dec 04 15:57:07 IST 2012	To player: 337
Tue Dec 04 15:57:07 IST 2012	Message type: basicproposaldiscussion
Tue Dec 04 15:57:07 IST 2012	Player 310 rejected offer
Tue Dec 04 15:57:07 IST 2012	Set counter offers count to: 0
Tue Dec 04 15:57:07 IST 2012	A Phase Ended: Communication Phase
Tue Dec 04 15:57:07 IST 2012	Protocol: A New Phase Began: Exchange Phase
Tue Dec 04 15:57:07 IST 2012	Protocol: Exchange phase, Round: 3
Tue Dec 04 15:57:07 IST 2012	In begin exch.phase, get counter offers returned: 0
Tue Dec 04 15:57:47 IST 2012	A Phase Ended: Exchange Phase
Tue Dec 04 15:57:47 IST 2012	Proposer 337 sent: { chips  }
Tue Dec 04 15:57:47 IST 2012	Protocol: A New Phase Began: Movement Phase
Tue Dec 04 15:57:47 IST 2012	Protocol: Movement phase, Round: 3
Tue Dec 04 15:58:07 IST 2012	A Phase Ended: Movement Phase
Tue Dec 04 15:58:07 IST 2012	Protocol: A New Phase Began: Feedback Phase
Tue Dec 04 15:58:07 IST 2012	Protocol: Feedback phase, Round: 3
Tue Dec 04 15:58:07 IST 2012	Number of consecutive no movements for player 337 is 1
Tue Dec 04 15:58:07 IST 2012	Number of consecutive no movements for player 310 is 1
Tue Dec 04 15:58:12 IST 2012	A Phase Ended: Feedback Phase
Tue Dec 04 15:58:12 IST 2012	Protocol: A New Phase Began: Communication Phase
Tue Dec 04 15:58:12 IST 2012	Protocol: Communication phase, Round: 4
Tue Dec 04 15:59:12 IST 2012	Received communication message 
Tue Dec 04 15:59:12 IST 2012	From player: 337
Tue Dec 04 15:59:12 IST 2012	To player: 310
Tue Dec 04 15:59:12 IST 2012	Message type: basicproposal
Tue Dec 04 15:59:12 IST 2012	Chips to send by proposer: { chips  'CTYellow':2 }
Tue Dec 04 15:59:12 IST 2012	Chips to send by responder: { chips  'grey78':1 }
Tue Dec 04 15:59:24 IST 2012	Received communication message 
Tue Dec 04 15:59:24 IST 2012	From player: 310
Tue Dec 04 15:59:24 IST 2012	To player: 337
Tue Dec 04 15:59:24 IST 2012	Message type: basicproposaldiscussion
Tue Dec 04 15:59:24 IST 2012	Player 310 rejected offer
Tue Dec 04 15:59:24 IST 2012	Swaping roles:
Tue Dec 04 15:59:24 IST 2012	Proposer is: 310
Tue Dec 04 15:59:24 IST 2012	Responder is: 337
Tue Dec 04 15:59:24 IST 2012	Prop rejected, set counter offers count to: 1
Tue Dec 04 15:59:24 IST 2012	Prop rejected, get counter offers returned: 1
Tue Dec 04 15:59:28 IST 2012	Slept 4 seconds
Tue Dec 04 15:59:28 IST 2012	Sent role changed msgs
Tue Dec 04 15:59:44 IST 2012	Received communication message 
Tue Dec 04 15:59:44 IST 2012	From player: 310
Tue Dec 04 15:59:44 IST 2012	To player: 337
Tue Dec 04 15:59:44 IST 2012	Message type: basicproposal
Tue Dec 04 15:59:44 IST 2012	Chips to send by proposer: { chips  'CTRed':0 'CTPurple':0 'CTGreen':3 'grey78':1 'CTYellow':0 }
Tue Dec 04 15:59:44 IST 2012	Chips to send by responder: { chips  'CTRed':0 'CTPurple':0 'CTGreen':0 'grey78':0 'CTYellow':2 }
Tue Dec 04 16:00:26 IST 2012	Received communication message 
Tue Dec 04 16:00:26 IST 2012	From player: 337
Tue Dec 04 16:00:26 IST 2012	To player: 310
Tue Dec 04 16:00:26 IST 2012	Message type: basicproposaldiscussion
Tue Dec 04 16:00:26 IST 2012	Player 337 rejected offer
Tue Dec 04 16:00:26 IST 2012	Set counter offers count to: 0
Tue Dec 04 16:00:26 IST 2012	A Phase Ended: Communication Phase
Tue Dec 04 16:00:26 IST 2012	Protocol: A New Phase Began: Exchange Phase
Tue Dec 04 16:00:26 IST 2012	Protocol: Exchange phase, Round: 4
Tue Dec 04 16:00:26 IST 2012	In begin exch.phase, get counter offers returned: 0
Tue Dec 04 16:01:06 IST 2012	A Phase Ended: Exchange Phase
Tue Dec 04 16:01:06 IST 2012	Responder 337 sent: { chips  }
Tue Dec 04 16:01:06 IST 2012	Protocol: A New Phase Began: Movement Phase
Tue Dec 04 16:01:06 IST 2012	Protocol: Movement phase, Round: 4
Tue Dec 04 16:01:26 IST 2012	A Phase Ended: Movement Phase
Tue Dec 04 16:01:26 IST 2012	Protocol: A New Phase Began: Feedback Phase
Tue Dec 04 16:01:26 IST 2012	Protocol: Feedback phase, Round: 4
Tue Dec 04 16:01:26 IST 2012	Number of consecutive no movements for player 337 is 2
Tue Dec 04 16:01:26 IST 2012	Number of consecutive no movements for player 310 is 2
Tue Dec 04 16:01:31 IST 2012	A Phase Ended: Feedback Phase
Tue Dec 04 16:01:31 IST 2012	Protocol: A New Phase Began: Communication Phase
Tue Dec 04 16:01:31 IST 2012	Protocol: Communication phase, Round: 5
Tue Dec 04 16:01:46 IST 2012	Received communication message 
Tue Dec 04 16:01:46 IST 2012	From player: 310
Tue Dec 04 16:01:46 IST 2012	To player: 337
Tue Dec 04 16:01:46 IST 2012	Message type: basicproposal
Tue Dec 04 16:01:46 IST 2012	Chips to send by proposer: { chips  'CTRed':0 'CTPurple':0 'CTGreen':0 'grey78':1 'CTYellow':0 }
Tue Dec 04 16:01:46 IST 2012	Chips to send by responder: { chips  'CTRed':0 'CTPurple':0 'CTGreen':0 'grey78':0 'CTYellow':1 }
Tue Dec 04 16:02:29 IST 2012	Received communication message 
Tue Dec 04 16:02:29 IST 2012	From player: 337
Tue Dec 04 16:02:29 IST 2012	To player: 310
Tue Dec 04 16:02:29 IST 2012	Message type: basicproposaldiscussion
Tue Dec 04 16:02:29 IST 2012	Player 337 rejected offer
Tue Dec 04 16:02:29 IST 2012	Swaping roles:
Tue Dec 04 16:02:29 IST 2012	Proposer is: 337
Tue Dec 04 16:02:29 IST 2012	Responder is: 310
Tue Dec 04 16:02:29 IST 2012	Prop rejected, set counter offers count to: 1
Tue Dec 04 16:02:29 IST 2012	Prop rejected, get counter offers returned: 1
Tue Dec 04 16:02:33 IST 2012	Slept 4 seconds
Tue Dec 04 16:02:33 IST 2012	Sent role changed msgs
Tue Dec 04 16:03:33 IST 2012	Received communication message 
Tue Dec 04 16:03:33 IST 2012	From player: 337
Tue Dec 04 16:03:33 IST 2012	To player: 310
Tue Dec 04 16:03:33 IST 2012	Message type: basicproposal
Tue Dec 04 16:03:33 IST 2012	Chips to send by proposer: { chips  'CTRed':0 'CTPurple':0 'CTGreen':0 'grey78':0 'CTYellow':2 }
Tue Dec 04 16:03:33 IST 2012	Chips to send by responder: { chips  'CTRed':0 'CTPurple':0 'CTGreen':0 'grey78':1 'CTYellow':0 }
Tue Dec 04 16:03:46 IST 2012	Received communication message 
Tue Dec 04 16:03:46 IST 2012	From player: 310
Tue Dec 04 16:03:46 IST 2012	To player: 337
Tue Dec 04 16:03:46 IST 2012	Message type: basicproposaldiscussion
Tue Dec 04 16:03:46 IST 2012	Player 310 rejected offer
Tue Dec 04 16:03:46 IST 2012	Set counter offers count to: 0
Tue Dec 04 16:03:46 IST 2012	A Phase Ended: Communication Phase
Tue Dec 04 16:03:46 IST 2012	Protocol: A New Phase Began: Exchange Phase
Tue Dec 04 16:03:46 IST 2012	Protocol: Exchange phase, Round: 5
Tue Dec 04 16:03:46 IST 2012	In begin exch.phase, get counter offers returned: 0
Tue Dec 04 16:04:26 IST 2012	A Phase Ended: Exchange Phase
Tue Dec 04 16:04:26 IST 2012	Proposer 337 sent: { chips  }
Tue Dec 04 16:04:26 IST 2012	Protocol: A New Phase Began: Movement Phase
Tue Dec 04 16:04:26 IST 2012	Protocol: Movement phase, Round: 5
Tue Dec 04 16:04:26 IST 2012	Player 337 moved to (R:5,C:1)
Tue Dec 04 16:04:26 IST 2012	Player 310 moved to (R:5,C:3)
Tue Dec 04 16:04:46 IST 2012	A Phase Ended: Movement Phase
Tue Dec 04 16:04:46 IST 2012	Protocol: A New Phase Began: Feedback Phase
Tue Dec 04 16:04:46 IST 2012	Protocol: Feedback phase, Round: 5
Tue Dec 04 16:04:46 IST 2012	Number of consecutive no movements for player 337 is 0
Tue Dec 04 16:04:46 IST 2012	Number of consecutive no movements for player 310 is 0
Tue Dec 04 16:04:51 IST 2012	A Phase Ended: Feedback Phase
Tue Dec 04 16:04:51 IST 2012	Protocol: A New Phase Began: Communication Phase
Tue Dec 04 16:04:51 IST 2012	Protocol: Communication phase, Round: 6
Tue Dec 04 16:05:51 IST 2012	Received communication message 
Tue Dec 04 16:05:51 IST 2012	From player: 337
Tue Dec 04 16:05:51 IST 2012	To player: 310
Tue Dec 04 16:05:51 IST 2012	Message type: basicproposal
Tue Dec 04 16:05:51 IST 2012	Chips to send by proposer: { chips  'CTYellow':2 }
Tue Dec 04 16:05:51 IST 2012	Chips to send by responder: { chips  'CTGreen':1 'grey78':1 }
Tue Dec 04 16:06:04 IST 2012	Received communication message 
Tue Dec 04 16:06:04 IST 2012	From player: 310
Tue Dec 04 16:06:04 IST 2012	To player: 337
Tue Dec 04 16:06:04 IST 2012	Message type: basicproposaldiscussion
Tue Dec 04 16:06:04 IST 2012	Player 310 rejected offer
Tue Dec 04 16:06:04 IST 2012	Swaping roles:
Tue Dec 04 16:06:04 IST 2012	Proposer is: 310
Tue Dec 04 16:06:04 IST 2012	Responder is: 337
Tue Dec 04 16:06:04 IST 2012	Prop rejected, set counter offers count to: 1
Tue Dec 04 16:06:04 IST 2012	Prop rejected, get counter offers returned: 1
Tue Dec 04 16:06:08 IST 2012	Slept 4 seconds
Tue Dec 04 16:06:08 IST 2012	Sent role changed msgs
Tue Dec 04 16:06:24 IST 2012	Received communication message 
Tue Dec 04 16:06:24 IST 2012	From player: 310
Tue Dec 04 16:06:24 IST 2012	To player: 337
Tue Dec 04 16:06:24 IST 2012	Message type: basicproposal
Tue Dec 04 16:06:24 IST 2012	Chips to send by proposer: { chips  'CTRed':0 'CTPurple':0 'CTGreen':5 'grey78':1 'CTYellow':0 }
Tue Dec 04 16:06:24 IST 2012	Chips to send by responder: { chips  'CTRed':0 'CTPurple':0 'CTGreen':0 'grey78':0 'CTYellow':2 }
Tue Dec 04 16:06:58 IST 2012	Received communication message 
Tue Dec 04 16:06:58 IST 2012	From player: 337
Tue Dec 04 16:06:58 IST 2012	To player: 310
Tue Dec 04 16:06:58 IST 2012	Message type: basicproposaldiscussion
Tue Dec 04 16:06:58 IST 2012	Player 337 rejected offer
Tue Dec 04 16:06:58 IST 2012	Set counter offers count to: 0
Tue Dec 04 16:06:58 IST 2012	A Phase Ended: Communication Phase
Tue Dec 04 16:06:58 IST 2012	Protocol: A New Phase Began: Exchange Phase
Tue Dec 04 16:06:58 IST 2012	Protocol: Exchange phase, Round: 6
Tue Dec 04 16:06:58 IST 2012	In begin exch.phase, get counter offers returned: 0
Tue Dec 04 16:07:37 IST 2012	A Phase Ended: Exchange Phase
Tue Dec 04 16:07:37 IST 2012	Responder 337 sent: { chips  }
Tue Dec 04 16:07:37 IST 2012	Protocol: A New Phase Began: Movement Phase
Tue Dec 04 16:07:37 IST 2012	Protocol: Movement phase, Round: 6
Tue Dec 04 16:07:57 IST 2012	A Phase Ended: Movement Phase
Tue Dec 04 16:07:57 IST 2012	Protocol: A New Phase Began: Feedback Phase
Tue Dec 04 16:07:57 IST 2012	Protocol: Feedback phase, Round: 6
Tue Dec 04 16:07:57 IST 2012	Number of consecutive no movements for player 337 is 1
Tue Dec 04 16:07:57 IST 2012	Number of consecutive no movements for player 310 is 1
Tue Dec 04 16:08:02 IST 2012	A Phase Ended: Feedback Phase
Tue Dec 04 16:08:02 IST 2012	Protocol: A New Phase Began: Communication Phase
Tue Dec 04 16:08:02 IST 2012	Protocol: Communication phase, Round: 7
Tue Dec 04 16:08:23 IST 2012	Received communication message 
Tue Dec 04 16:08:23 IST 2012	From player: 310
Tue Dec 04 16:08:23 IST 2012	To player: 337
Tue Dec 04 16:08:23 IST 2012	Message type: basicproposal
Tue Dec 04 16:08:23 IST 2012	Chips to send by proposer: { chips  'CTRed':0 'CTPurple':0 'CTGreen':3 'grey78':1 'CTYellow':0 }
Tue Dec 04 16:08:23 IST 2012	Chips to send by responder: { chips  'CTRed':0 'CTPurple':0 'CTGreen':0 'grey78':0 'CTYellow':2 }
Tue Dec 04 16:08:53 IST 2012	Received communication message 
Tue Dec 04 16:08:53 IST 2012	From player: 337
Tue Dec 04 16:08:53 IST 2012	To player: 310
Tue Dec 04 16:08:53 IST 2012	Message type: basicproposaldiscussion
Tue Dec 04 16:08:53 IST 2012	Player 337 rejected offer
Tue Dec 04 16:08:53 IST 2012	Swaping roles:
Tue Dec 04 16:08:53 IST 2012	Proposer is: 337
Tue Dec 04 16:08:53 IST 2012	Responder is: 310
Tue Dec 04 16:08:53 IST 2012	Prop rejected, set counter offers count to: 1
Tue Dec 04 16:08:53 IST 2012	Prop rejected, get counter offers returned: 1
Tue Dec 04 16:08:57 IST 2012	Slept 4 seconds
Tue Dec 04 16:08:57 IST 2012	Sent role changed msgs
Tue Dec 04 16:09:57 IST 2012	Received communication message 
Tue Dec 04 16:09:57 IST 2012	From player: 337
Tue Dec 04 16:09:57 IST 2012	To player: 310
Tue Dec 04 16:09:57 IST 2012	Message type: basicproposal
Tue Dec 04 16:09:57 IST 2012	Chips to send by proposer: { chips  'CTRed':0 'CTPurple':0 'CTGreen':0 'grey78':0 'CTYellow':2 }
Tue Dec 04 16:09:57 IST 2012	Chips to send by responder: { chips  'CTRed':0 'CTPurple':0 'CTGreen':0 'grey78':1 'CTYellow':0 }
Tue Dec 04 16:10:06 IST 2012	Received communication message 
Tue Dec 04 16:10:06 IST 2012	From player: 310
Tue Dec 04 16:10:06 IST 2012	To player: 337
Tue Dec 04 16:10:06 IST 2012	Message type: basicproposaldiscussion
Tue Dec 04 16:10:06 IST 2012	Player 310 rejected offer
Tue Dec 04 16:10:06 IST 2012	Set counter offers count to: 0
Tue Dec 04 16:10:06 IST 2012	A Phase Ended: Communication Phase
Tue Dec 04 16:10:06 IST 2012	Protocol: A New Phase Began: Exchange Phase
Tue Dec 04 16:10:06 IST 2012	Protocol: Exchange phase, Round: 7
Tue Dec 04 16:10:06 IST 2012	In begin exch.phase, get counter offers returned: 0
Tue Dec 04 16:10:45 IST 2012	A Phase Ended: Exchange Phase
Tue Dec 04 16:10:45 IST 2012	Proposer 337 sent: { chips  }
Tue Dec 04 16:10:45 IST 2012	Protocol: A New Phase Began: Movement Phase
Tue Dec 04 16:10:45 IST 2012	Protocol: Movement phase, Round: 7
Tue Dec 04 16:11:06 IST 2012	A Phase Ended: Movement Phase
Tue Dec 04 16:11:06 IST 2012	Protocol: A New Phase Began: Feedback Phase
Tue Dec 04 16:11:06 IST 2012	Protocol: Feedback phase, Round: 7
Tue Dec 04 16:11:06 IST 2012	Number of consecutive no movements for player 337 is 2
Tue Dec 04 16:11:06 IST 2012	Number of consecutive no movements for player 310 is 2
Tue Dec 04 16:11:11 IST 2012	A Phase Ended: Feedback Phase
Tue Dec 04 16:11:11 IST 2012	Protocol: A New Phase Began: Communication Phase
Tue Dec 04 16:11:11 IST 2012	Protocol: Communication phase, Round: 8
Tue Dec 04 16:12:11 IST 2012	Received communication message 
Tue Dec 04 16:12:11 IST 2012	From player: 337
Tue Dec 04 16:12:11 IST 2012	To player: 310
Tue Dec 04 16:12:11 IST 2012	Message type: basicproposal
Tue Dec 04 16:12:11 IST 2012	Chips to send by proposer: { chips  'CTYellow':1 }
Tue Dec 04 16:12:11 IST 2012	Chips to send by responder: { chips  'CTGreen':2 'grey78':1 }
Tue Dec 04 16:12:23 IST 2012	Received communication message 
Tue Dec 04 16:12:23 IST 2012	From player: 310
Tue Dec 04 16:12:23 IST 2012	To player: 337
Tue Dec 04 16:12:23 IST 2012	Message type: basicproposaldiscussion
Tue Dec 04 16:12:23 IST 2012	Player 310 rejected offer
Tue Dec 04 16:12:23 IST 2012	Swaping roles:
Tue Dec 04 16:12:23 IST 2012	Proposer is: 310
Tue Dec 04 16:12:23 IST 2012	Responder is: 337
Tue Dec 04 16:12:23 IST 2012	Prop rejected, set counter offers count to: 1
Tue Dec 04 16:12:23 IST 2012	Prop rejected, get counter offers returned: 1
Tue Dec 04 16:12:27 IST 2012	Slept 4 seconds
Tue Dec 04 16:12:27 IST 2012	Sent role changed msgs
Tue Dec 04 16:12:43 IST 2012	Received communication message 
Tue Dec 04 16:12:43 IST 2012	From player: 310
Tue Dec 04 16:12:43 IST 2012	To player: 337
Tue Dec 04 16:12:43 IST 2012	Message type: basicproposal
Tue Dec 04 16:12:43 IST 2012	Chips to send by proposer: { chips  'CTRed':0 'CTPurple':0 'CTGreen':3 'grey78':1 'CTYellow':0 }
Tue Dec 04 16:12:43 IST 2012	Chips to send by responder: { chips  'CTRed':0 'CTPurple':0 'CTGreen':0 'grey78':0 'CTYellow':2 }
Tue Dec 04 16:13:10 IST 2012	Received communication message 
Tue Dec 04 16:13:10 IST 2012	From player: 337
Tue Dec 04 16:13:10 IST 2012	To player: 310
Tue Dec 04 16:13:10 IST 2012	Message type: basicproposaldiscussion
Tue Dec 04 16:13:10 IST 2012	Player 337 rejected offer
Tue Dec 04 16:13:10 IST 2012	Set counter offers count to: 0
Tue Dec 04 16:13:10 IST 2012	A Phase Ended: Communication Phase
Tue Dec 04 16:13:10 IST 2012	Protocol: A New Phase Began: Exchange Phase
Tue Dec 04 16:13:10 IST 2012	Protocol: Exchange phase, Round: 8
Tue Dec 04 16:13:10 IST 2012	In begin exch.phase, get counter offers returned: 0
Tue Dec 04 16:13:49 IST 2012	A Phase Ended: Exchange Phase
Tue Dec 04 16:13:49 IST 2012	Responder 337 sent: { chips  }
Tue Dec 04 16:13:49 IST 2012	Protocol: A New Phase Began: Movement Phase
Tue Dec 04 16:13:49 IST 2012	Protocol: Movement phase, Round: 8
Tue Dec 04 16:13:49 IST 2012	Player 337 moved to (R:4,C:1)
Tue Dec 04 16:13:49 IST 2012	Player 310 moved to (R:4,C:3)
Tue Dec 04 16:14:09 IST 2012	A Phase Ended: Movement Phase
Tue Dec 04 16:14:09 IST 2012	Protocol: A New Phase Began: Feedback Phase
Tue Dec 04 16:14:09 IST 2012	Protocol: Feedback phase, Round: 8
Tue Dec 04 16:14:09 IST 2012	Number of consecutive no movements for player 337 is 0
Tue Dec 04 16:14:09 IST 2012	Number of consecutive no movements for player 310 is 0
Tue Dec 04 16:14:14 IST 2012	A Phase Ended: Feedback Phase
Tue Dec 04 16:14:14 IST 2012	Protocol: A New Phase Began: Communication Phase
Tue Dec 04 16:14:14 IST 2012	Protocol: Communication phase, Round: 9
Tue Dec 04 16:14:33 IST 2012	Received communication message 
Tue Dec 04 16:14:33 IST 2012	From player: 310
Tue Dec 04 16:14:33 IST 2012	To player: 337
Tue Dec 04 16:14:33 IST 2012	Message type: basicproposal
Tue Dec 04 16:14:33 IST 2012	Chips to send by proposer: { chips  'CTRed':0 'CTPurple':0 'CTGreen':4 'grey78':1 'CTYellow':0 }
Tue Dec 04 16:14:33 IST 2012	Chips to send by responder: { chips  'CTRed':0 'CTPurple':0 'CTGreen':0 'grey78':0 'CTYellow':2 }
Tue Dec 04 16:14:58 IST 2012	Received communication message 
Tue Dec 04 16:14:58 IST 2012	From player: 337
Tue Dec 04 16:14:58 IST 2012	To player: 310
Tue Dec 04 16:14:58 IST 2012	Message type: basicproposaldiscussion
Tue Dec 04 16:14:58 IST 2012	Player 337 rejected offer
Tue Dec 04 16:14:58 IST 2012	Swaping roles:
Tue Dec 04 16:14:58 IST 2012	Proposer is: 337
Tue Dec 04 16:14:58 IST 2012	Responder is: 310
Tue Dec 04 16:14:58 IST 2012	Prop rejected, set counter offers count to: 1
Tue Dec 04 16:14:58 IST 2012	Prop rejected, get counter offers returned: 1
Tue Dec 04 16:15:02 IST 2012	Slept 4 seconds
Tue Dec 04 16:15:02 IST 2012	Sent role changed msgs
Tue Dec 04 16:16:02 IST 2012	Received communication message 
Tue Dec 04 16:16:02 IST 2012	From player: 337
Tue Dec 04 16:16:02 IST 2012	To player: 310
Tue Dec 04 16:16:02 IST 2012	Message type: basicproposal
Tue Dec 04 16:16:02 IST 2012	Chips to send by proposer: { chips  'CTRed':0 'CTPurple':0 'CTGreen':1 'grey78':0 'CTYellow':2 }
Tue Dec 04 16:16:02 IST 2012	Chips to send by responder: { chips  'CTRed':0 'CTPurple':0 'CTGreen':0 'grey78':1 'CTYellow':0 }
Tue Dec 04 16:16:14 IST 2012	Received communication message 
Tue Dec 04 16:16:14 IST 2012	From player: 310
Tue Dec 04 16:16:14 IST 2012	To player: 337
Tue Dec 04 16:16:14 IST 2012	Message type: basicproposaldiscussion
Tue Dec 04 16:16:14 IST 2012	Player 310 rejected offer
Tue Dec 04 16:16:14 IST 2012	Set counter offers count to: 0
Tue Dec 04 16:16:14 IST 2012	A Phase Ended: Communication Phase
Tue Dec 04 16:16:14 IST 2012	Protocol: A New Phase Began: Exchange Phase
Tue Dec 04 16:16:14 IST 2012	Protocol: Exchange phase, Round: 9
Tue Dec 04 16:16:14 IST 2012	In begin exch.phase, get counter offers returned: 0
Tue Dec 04 16:16:54 IST 2012	A Phase Ended: Exchange Phase
Tue Dec 04 16:16:54 IST 2012	Proposer 337 sent: { chips  }
Tue Dec 04 16:16:54 IST 2012	Protocol: A New Phase Began: Movement Phase
Tue Dec 04 16:16:54 IST 2012	Protocol: Movement phase, Round: 9
Tue Dec 04 16:17:14 IST 2012	A Phase Ended: Movement Phase
Tue Dec 04 16:17:14 IST 2012	Protocol: A New Phase Began: Feedback Phase
Tue Dec 04 16:17:14 IST 2012	Protocol: Feedback phase, Round: 9
Tue Dec 04 16:17:14 IST 2012	Number of consecutive no movements for player 337 is 1
Tue Dec 04 16:17:14 IST 2012	Number of consecutive no movements for player 310 is 1
Tue Dec 04 16:17:19 IST 2012	A Phase Ended: Feedback Phase
Tue Dec 04 16:17:19 IST 2012	Protocol: A New Phase Began: Communication Phase
Tue Dec 04 16:17:19 IST 2012	Protocol: Communication phase, Round: 10
Tue Dec 04 16:18:19 IST 2012	Received communication message 
Tue Dec 04 16:18:19 IST 2012	From player: 337
Tue Dec 04 16:18:19 IST 2012	To player: 310
Tue Dec 04 16:18:19 IST 2012	Message type: basicproposal
Tue Dec 04 16:18:19 IST 2012	Chips to send by proposer: { chips  'CTYellow':2 }
Tue Dec 04 16:18:19 IST 2012	Chips to send by responder: { chips  'grey78':2 }
Tue Dec 04 16:18:25 IST 2012	Received communication message 
Tue Dec 04 16:18:25 IST 2012	From player: 310
Tue Dec 04 16:18:25 IST 2012	To player: 337
Tue Dec 04 16:18:25 IST 2012	Message type: basicproposaldiscussion
Tue Dec 04 16:18:25 IST 2012	Player 310 rejected offer
Tue Dec 04 16:18:25 IST 2012	Swaping roles:
Tue Dec 04 16:18:25 IST 2012	Proposer is: 310
Tue Dec 04 16:18:25 IST 2012	Responder is: 337
Tue Dec 04 16:18:25 IST 2012	Prop rejected, set counter offers count to: 1
Tue Dec 04 16:18:25 IST 2012	Prop rejected, get counter offers returned: 1
Tue Dec 04 16:18:29 IST 2012	Slept 4 seconds
Tue Dec 04 16:18:29 IST 2012	Sent role changed msgs
Tue Dec 04 16:18:52 IST 2012	Received communication message 
Tue Dec 04 16:18:52 IST 2012	From player: 310
Tue Dec 04 16:18:52 IST 2012	To player: 337
Tue Dec 04 16:18:52 IST 2012	Message type: basicproposal
Tue Dec 04 16:18:52 IST 2012	Chips to send by proposer: { chips  'CTRed':0 'CTPurple':0 'CTGreen':5 'grey78':1 'CTYellow':0 }
Tue Dec 04 16:18:52 IST 2012	Chips to send by responder: { chips  'CTRed':0 'CTPurple':0 'CTGreen':0 'grey78':0 'CTYellow':2 }
Tue Dec 04 16:19:09 IST 2012	Received communication message 
Tue Dec 04 16:19:09 IST 2012	From player: 337
Tue Dec 04 16:19:09 IST 2012	To player: 310
Tue Dec 04 16:19:09 IST 2012	Message type: basicproposaldiscussion
Tue Dec 04 16:19:09 IST 2012	Player 337 rejected offer
Tue Dec 04 16:19:09 IST 2012	Set counter offers count to: 0
Tue Dec 04 16:19:09 IST 2012	A Phase Ended: Communication Phase
Tue Dec 04 16:19:09 IST 2012	Protocol: A New Phase Began: Exchange Phase
Tue Dec 04 16:19:09 IST 2012	Protocol: Exchange phase, Round: 10
Tue Dec 04 16:19:09 IST 2012	In begin exch.phase, get counter offers returned: 0
Tue Dec 04 16:19:49 IST 2012	A Phase Ended: Exchange Phase
Tue Dec 04 16:19:49 IST 2012	Responder 337 sent: { chips  }
Tue Dec 04 16:19:49 IST 2012	Protocol: A New Phase Began: Movement Phase
Tue Dec 04 16:19:49 IST 2012	Protocol: Movement phase, Round: 10
Tue Dec 04 16:20:09 IST 2012	A Phase Ended: Movement Phase
Tue Dec 04 16:20:09 IST 2012	Protocol: A New Phase Began: Feedback Phase
Tue Dec 04 16:20:09 IST 2012	Protocol: Feedback phase, Round: 10
Tue Dec 04 16:20:09 IST 2012	Number of consecutive no movements for player 337 is 2
Tue Dec 04 16:20:09 IST 2012	Number of consecutive no movements for player 310 is 2
Tue Dec 04 16:20:14 IST 2012	A Phase Ended: Feedback Phase
Tue Dec 04 16:20:14 IST 2012	Protocol: A New Phase Began: Communication Phase
Tue Dec 04 16:20:14 IST 2012	Protocol: Communication phase, Round: 11
Tue Dec 04 16:20:35 IST 2012	Received communication message 
Tue Dec 04 16:20:35 IST 2012	From player: 310
Tue Dec 04 16:20:35 IST 2012	To player: 337
Tue Dec 04 16:20:35 IST 2012	Message type: basicproposal
Tue Dec 04 16:20:35 IST 2012	Chips to send by proposer: { chips  'CTRed':0 'CTPurple':0 'CTGreen':6 'grey78':1 'CTYellow':0 }
Tue Dec 04 16:20:35 IST 2012	Chips to send by responder: { chips  'CTRed':0 'CTPurple':0 'CTGreen':0 'grey78':0 'CTYellow':2 }
Tue Dec 04 16:20:47 IST 2012	Received communication message 
Tue Dec 04 16:20:47 IST 2012	From player: 337
Tue Dec 04 16:20:47 IST 2012	To player: 310
Tue Dec 04 16:20:47 IST 2012	Message type: basicproposaldiscussion
Tue Dec 04 16:20:47 IST 2012	Player 337 rejected offer
Tue Dec 04 16:20:47 IST 2012	Swaping roles:
Tue Dec 04 16:20:47 IST 2012	Proposer is: 337
Tue Dec 04 16:20:47 IST 2012	Responder is: 310
Tue Dec 04 16:20:47 IST 2012	Prop rejected, set counter offers count to: 1
Tue Dec 04 16:20:47 IST 2012	Prop rejected, get counter offers returned: 1
Tue Dec 04 16:20:51 IST 2012	Slept 4 seconds
Tue Dec 04 16:20:51 IST 2012	Sent role changed msgs
Tue Dec 04 16:21:34 IST 2012	Received communication message 
Tue Dec 04 16:21:34 IST 2012	From player: 337
Tue Dec 04 16:21:34 IST 2012	To player: 310
Tue Dec 04 16:21:34 IST 2012	Message type: basicproposal
Tue Dec 04 16:21:34 IST 2012	Chips to send by proposer: { chips  'CTRed':0 'CTPurple':0 'CTGreen':1 'grey78':0 'CTYellow':1 }
Tue Dec 04 16:21:34 IST 2012	Chips to send by responder: { chips  'CTRed':0 'CTPurple':0 'CTGreen':0 'grey78':1 'CTYellow':0 }
Tue Dec 04 16:21:43 IST 2012	Received communication message 
Tue Dec 04 16:21:43 IST 2012	From player: 310
Tue Dec 04 16:21:43 IST 2012	To player: 337
Tue Dec 04 16:21:43 IST 2012	Message type: basicproposaldiscussion
Tue Dec 04 16:21:43 IST 2012	Player 310 rejected offer
Tue Dec 04 16:21:43 IST 2012	Set counter offers count to: 0
Tue Dec 04 16:21:43 IST 2012	A Phase Ended: Communication Phase
Tue Dec 04 16:21:43 IST 2012	Protocol: A New Phase Began: Exchange Phase
Tue Dec 04 16:21:43 IST 2012	Protocol: Exchange phase, Round: 11
Tue Dec 04 16:21:43 IST 2012	In begin exch.phase, get counter offers returned: 0
Tue Dec 04 16:22:22 IST 2012	A Phase Ended: Exchange Phase
Tue Dec 04 16:22:22 IST 2012	Proposer 337 sent: { chips  }
Tue Dec 04 16:22:22 IST 2012	Protocol: A New Phase Began: Movement Phase
Tue Dec 04 16:22:22 IST 2012	Protocol: Movement phase, Round: 11
Tue Dec 04 16:22:22 IST 2012	Player 337 moved to (R:3,C:1)
Tue Dec 04 16:22:42 IST 2012	A Phase Ended: Movement Phase
Tue Dec 04 16:22:42 IST 2012	Protocol: A New Phase Began: Feedback Phase
Tue Dec 04 16:22:42 IST 2012	Protocol: Feedback phase, Round: 11
Tue Dec 04 16:22:42 IST 2012	Number of consecutive no movements for player 337 is 0
Tue Dec 04 16:22:42 IST 2012	Number of consecutive no movements for player 310 is 3
Tue Dec 04 16:22:42 IST 2012	Ending game, all players move as much as they can towards goal
Tue Dec 04 16:22:42 IST 2012	Player: 337 ,role: Proposer score is: 70
Tue Dec 04 16:22:42 IST 2012	Player: 310 ,role: Responder score is: 50
