Mon Dec 03 07:12:25 IST 2012	This is the CT debug logger; svn version 638; sep 27 09
Mon Dec 03 07:12:25 IST 2012	Mon Dec 03 07:12:25 IST 2012
Mon Dec 03 07:12:25 IST 2012	A new Alternative Offers game has began
Mon Dec 03 07:12:25 IST 2012	ID Number: 35101
Mon Dec 03 07:12:25 IST 2012	Creating board
Mon Dec 03 07:12:25 IST 2012	<colors>
Mon Dec 03 07:12:25 IST 2012	{ GamePalette  'CTRed':0 'CTPurple':1 'CTGreen':2 'grey78':3 'CTYellow':4 }
Mon Dec 03 07:12:25 IST 2012	<rows>
Mon Dec 03 07:12:25 IST 2012	7
Mon Dec 03 07:12:25 IST 2012	<columns>
Mon Dec 03 07:12:25 IST 2012	5
Mon Dec 03 07:12:25 IST 2012	<squaresColors>
Mon Dec 03 07:12:25 IST 2012	CTPurple CTRed CTRed CTGreen CTPurple 
Mon Dec 03 07:12:25 IST 2012	CTPurple grey78 CTPurple CTYellow CTPurple 
Mon Dec 03 07:12:25 IST 2012	CTPurple CTRed CTPurple CTGreen CTPurple 
Mon Dec 03 07:12:25 IST 2012	CTPurple grey78 CTPurple CTYellow CTPurple 
Mon Dec 03 07:12:25 IST 2012	CTPurple CTRed CTPurple CTGreen CTPurple 
Mon Dec 03 07:12:25 IST 2012	CTPurple grey78 CTPurple CTYellow CTPurple 
Mon Dec 03 07:12:25 IST 2012	CTPurple CTRed CTPurple CTGreen CTPurple 
Mon Dec 03 07:12:25 IST 2012	</squareColors>
Mon Dec 03 07:12:25 IST 2012	<goalPosition>
Mon Dec 03 07:12:25 IST 2012	Goal position: (R:0,C:2)
Mon Dec 03 07:12:25 IST 2012	<numberOfPlayers>
Mon Dec 03 07:12:25 IST 2012	2
Mon Dec 03 07:12:25 IST 2012	<firstPlayerChips>
Mon Dec 03 07:12:25 IST 2012	Setting chips for player: 337 id:0
Mon Dec 03 07:12:25 IST 2012	{ chips  'CTRed':5 'CTGreen':10 'CTPurple':0 'grey78':0 'CTYellow':9 }
Mon Dec 03 07:12:25 IST 2012	Player position: (R:6,C:0)
Mon Dec 03 07:12:25 IST 2012	Setting chips for player: 310 id:1
Mon Dec 03 07:12:25 IST 2012	{ chips  'CTRed':1 'CTGreen':13 'CTPurple':0 'grey78':10 'CTYellow':0 }
Mon Dec 03 07:12:25 IST 2012	Player position: (R:6,C:4)
Mon Dec 03 07:12:25 IST 2012	Protocol: A New Phase Began: Strategy Prep Phase
Mon Dec 03 07:12:25 IST 2012	Protocol: Strategy Preparation phase, Round: 0
Mon Dec 03 07:12:25 IST 2012	Maximum number of rounds with no consecutive movement is 3
Mon Dec 03 07:12:25 IST 2012	In begin comm. phase, set counter offers count to: 0
Mon Dec 03 07:12:25 IST 2012	In begin comm. phase, get counter offers returned: 0
Mon Dec 03 07:12:45 IST 2012	A Phase Ended: Strategy Prep Phase
Mon Dec 03 07:12:45 IST 2012	Protocol: A New Phase Began: Communication Phase
Mon Dec 03 07:12:45 IST 2012	Protocol: Communication phase, Round: 0
Mon Dec 03 07:13:45 IST 2012	Received communication message 
Mon Dec 03 07:13:45 IST 2012	From player: 337
Mon Dec 03 07:13:45 IST 2012	To player: 310
Mon Dec 03 07:13:45 IST 2012	Message type: basicproposal
Mon Dec 03 07:13:45 IST 2012	Chips to send by proposer: { chips  'CTYellow':1 }
Mon Dec 03 07:13:45 IST 2012	Chips to send by responder: { chips  'grey78':1 }
Mon Dec 03 07:13:58 IST 2012	Received communication message 
Mon Dec 03 07:13:58 IST 2012	From player: 310
Mon Dec 03 07:13:58 IST 2012	To player: 337
Mon Dec 03 07:13:58 IST 2012	Message type: basicproposaldiscussion
Mon Dec 03 07:13:58 IST 2012	Player 310 accepted offer
Mon Dec 03 07:13:58 IST 2012	Prop accepted, set counter offers count to: 0
Mon Dec 03 07:13:58 IST 2012	Prop accepted, get counter offers returned: 0
Mon Dec 03 07:13:58 IST 2012	A Phase Ended: Communication Phase
Mon Dec 03 07:13:58 IST 2012	Protocol: A New Phase Began: Exchange Phase
Mon Dec 03 07:13:58 IST 2012	Protocol: Exchange phase, Round: 0
Mon Dec 03 07:13:58 IST 2012	In begin exch.phase, get counter offers returned: 0
Mon Dec 03 07:14:27 IST 2012	A Phase Ended: Exchange Phase
Mon Dec 03 07:14:27 IST 2012	Proposer 337 sent: { chips  'CTRed':0 'CTPurple':0 'CTGreen':0 'grey78':0 'CTYellow':1 }
Mon Dec 03 07:14:27 IST 2012	Responder 310 sent: { chips  'CTRed':0 'CTPurple':0 'CTGreen':0 'grey78':1 'CTYellow':0 }
Mon Dec 03 07:14:27 IST 2012	Protocol: A New Phase Began: Movement Phase
Mon Dec 03 07:14:27 IST 2012	Protocol: Movement phase, Round: 0
Mon Dec 03 07:14:48 IST 2012	A Phase Ended: Movement Phase
Mon Dec 03 07:14:48 IST 2012	Swaping roles:
Mon Dec 03 07:14:48 IST 2012	Proposer is: 310
Mon Dec 03 07:14:48 IST 2012	Responder is: 337
Mon Dec 03 07:14:48 IST 2012	Protocol: A New Phase Began: Feedback Phase
Mon Dec 03 07:14:48 IST 2012	Protocol: Feedback phase, Round: 0
Mon Dec 03 07:14:48 IST 2012	Number of consecutive no movements for player 337 is 1
Mon Dec 03 07:14:48 IST 2012	Number of consecutive no movements for player 310 is 1
Mon Dec 03 07:14:53 IST 2012	A Phase Ended: Feedback Phase
Mon Dec 03 07:14:53 IST 2012	Protocol: A New Phase Began: Communication Phase
Mon Dec 03 07:14:53 IST 2012	Protocol: Communication phase, Round: 1
Mon Dec 03 07:15:23 IST 2012	Received communication message 
Mon Dec 03 07:15:23 IST 2012	From player: 310
Mon Dec 03 07:15:23 IST 2012	To player: 337
Mon Dec 03 07:15:23 IST 2012	Message type: basicproposal
Mon Dec 03 07:15:23 IST 2012	Chips to send by proposer: { chips  'CTRed':0 'CTPurple':0 'CTGreen':5 'grey78':2 'CTYellow':0 }
Mon Dec 03 07:15:23 IST 2012	Chips to send by responder: { chips  'CTRed':0 'CTPurple':0 'CTGreen':0 'grey78':0 'CTYellow':2 }
Mon Dec 03 07:16:14 IST 2012	Received communication message 
Mon Dec 03 07:16:14 IST 2012	From player: 337
Mon Dec 03 07:16:14 IST 2012	To player: 310
Mon Dec 03 07:16:14 IST 2012	Message type: basicproposaldiscussion
Mon Dec 03 07:16:14 IST 2012	Player 337 accepted offer
Mon Dec 03 07:16:14 IST 2012	Prop accepted, set counter offers count to: 0
Mon Dec 03 07:16:14 IST 2012	Prop accepted, get counter offers returned: 0
Mon Dec 03 07:16:14 IST 2012	A Phase Ended: Communication Phase
Mon Dec 03 07:16:14 IST 2012	Protocol: A New Phase Began: Exchange Phase
Mon Dec 03 07:16:14 IST 2012	Protocol: Exchange phase, Round: 1
Mon Dec 03 07:16:14 IST 2012	In begin exch.phase, get counter offers returned: 0
Mon Dec 03 07:16:43 IST 2012	A Phase Ended: Exchange Phase
Mon Dec 03 07:16:43 IST 2012	Proposer 310 sent: { chips  }
Mon Dec 03 07:16:43 IST 2012	Responder 337 sent: { chips  'CTRed':0 'CTPurple':0 'CTGreen':0 'grey78':0 'CTYellow':2 }
Mon Dec 03 07:16:43 IST 2012	Protocol: A New Phase Began: Movement Phase
Mon Dec 03 07:16:43 IST 2012	Protocol: Movement phase, Round: 1
Mon Dec 03 07:16:43 IST 2012	Player 310 moved to (R:6,C:3)
Mon Dec 03 07:17:03 IST 2012	A Phase Ended: Movement Phase
Mon Dec 03 07:17:03 IST 2012	Swaping roles:
Mon Dec 03 07:17:03 IST 2012	Proposer is: 337
Mon Dec 03 07:17:03 IST 2012	Responder is: 310
Mon Dec 03 07:17:03 IST 2012	Protocol: A New Phase Began: Feedback Phase
Mon Dec 03 07:17:03 IST 2012	Protocol: Feedback phase, Round: 1
Mon Dec 03 07:17:03 IST 2012	Number of consecutive no movements for player 337 is 2
Mon Dec 03 07:17:03 IST 2012	Number of consecutive no movements for player 310 is 0
Mon Dec 03 07:17:08 IST 2012	A Phase Ended: Feedback Phase
Mon Dec 03 07:17:08 IST 2012	Protocol: A New Phase Began: Communication Phase
Mon Dec 03 07:17:08 IST 2012	Protocol: Communication phase, Round: 2
Mon Dec 03 07:18:08 IST 2012	Received communication message 
Mon Dec 03 07:18:08 IST 2012	From player: 337
Mon Dec 03 07:18:08 IST 2012	To player: 310
Mon Dec 03 07:18:08 IST 2012	Message type: basicproposal
Mon Dec 03 07:18:08 IST 2012	Chips to send by proposer: { chips  'CTYellow':1 }
Mon Dec 03 07:18:08 IST 2012	Chips to send by responder: { chips  'grey78':2 }
Mon Dec 03 07:18:15 IST 2012	Received communication message 
Mon Dec 03 07:18:15 IST 2012	From player: 310
Mon Dec 03 07:18:15 IST 2012	To player: 337
Mon Dec 03 07:18:15 IST 2012	Message type: basicproposaldiscussion
Mon Dec 03 07:18:15 IST 2012	Player 310 accepted offer
Mon Dec 03 07:18:15 IST 2012	Prop accepted, set counter offers count to: 0
Mon Dec 03 07:18:15 IST 2012	Prop accepted, get counter offers returned: 0
Mon Dec 03 07:18:15 IST 2012	A Phase Ended: Communication Phase
Mon Dec 03 07:18:15 IST 2012	Protocol: A New Phase Began: Exchange Phase
Mon Dec 03 07:18:15 IST 2012	Protocol: Exchange phase, Round: 2
Mon Dec 03 07:18:15 IST 2012	In begin exch.phase, get counter offers returned: 0
Mon Dec 03 07:18:44 IST 2012	A Phase Ended: Exchange Phase
Mon Dec 03 07:18:44 IST 2012	Proposer 337 sent: { chips  'CTRed':0 'CTPurple':0 'CTGreen':0 'grey78':0 'CTYellow':1 }
Mon Dec 03 07:18:44 IST 2012	Responder 310 sent: { chips  }
Mon Dec 03 07:18:44 IST 2012	Protocol: A New Phase Began: Movement Phase
Mon Dec 03 07:18:44 IST 2012	Protocol: Movement phase, Round: 2
Mon Dec 03 07:18:44 IST 2012	Player 310 moved to (R:5,C:3)
Mon Dec 03 07:18:44 IST 2012	Player 337 moved to (R:6,C:1)
Mon Dec 03 07:19:03 IST 2012	A Phase Ended: Movement Phase
Mon Dec 03 07:19:03 IST 2012	Swaping roles:
Mon Dec 03 07:19:03 IST 2012	Proposer is: 310
Mon Dec 03 07:19:03 IST 2012	Responder is: 337
Mon Dec 03 07:19:03 IST 2012	Protocol: A New Phase Began: Feedback Phase
Mon Dec 03 07:19:03 IST 2012	Protocol: Feedback phase, Round: 2
Mon Dec 03 07:19:03 IST 2012	Number of consecutive no movements for player 337 is 0
Mon Dec 03 07:19:03 IST 2012	Number of consecutive no movements for player 310 is 0
Mon Dec 03 07:19:08 IST 2012	A Phase Ended: Feedback Phase
Mon Dec 03 07:19:08 IST 2012	Protocol: A New Phase Began: Communication Phase
Mon Dec 03 07:19:08 IST 2012	Protocol: Communication phase, Round: 3
Mon Dec 03 07:19:25 IST 2012	Received communication message 
Mon Dec 03 07:19:25 IST 2012	From player: 310
Mon Dec 03 07:19:25 IST 2012	To player: 337
Mon Dec 03 07:19:25 IST 2012	Message type: basicproposal
Mon Dec 03 07:19:25 IST 2012	Chips to send by proposer: { chips  'CTRed':0 'CTPurple':0 'CTGreen':0 'grey78':1 'CTYellow':0 }
Mon Dec 03 07:19:25 IST 2012	Chips to send by responder: { chips  'CTRed':0 'CTPurple':0 'CTGreen':1 'grey78':0 'CTYellow':0 }
Mon Dec 03 07:20:22 IST 2012	Received communication message 
Mon Dec 03 07:20:22 IST 2012	From player: 337
Mon Dec 03 07:20:22 IST 2012	To player: 310
Mon Dec 03 07:20:22 IST 2012	Message type: basicproposaldiscussion
Mon Dec 03 07:20:22 IST 2012	Player 337 accepted offer
Mon Dec 03 07:20:22 IST 2012	Prop accepted, set counter offers count to: 0
Mon Dec 03 07:20:22 IST 2012	Prop accepted, get counter offers returned: 0
Mon Dec 03 07:20:22 IST 2012	A Phase Ended: Communication Phase
Mon Dec 03 07:20:22 IST 2012	Protocol: A New Phase Began: Exchange Phase
Mon Dec 03 07:20:22 IST 2012	Protocol: Exchange phase, Round: 3
Mon Dec 03 07:20:22 IST 2012	In begin exch.phase, get counter offers returned: 0
Mon Dec 03 07:20:51 IST 2012	A Phase Ended: Exchange Phase
Mon Dec 03 07:20:51 IST 2012	Proposer 310 sent: { chips  }
Mon Dec 03 07:20:51 IST 2012	Responder 337 sent: { chips  'CTRed':0 'CTPurple':0 'CTGreen':1 'grey78':0 'CTYellow':0 }
Mon Dec 03 07:20:51 IST 2012	Protocol: A New Phase Began: Movement Phase
Mon Dec 03 07:20:51 IST 2012	Protocol: Movement phase, Round: 3
Mon Dec 03 07:20:51 IST 2012	Player 310 moved to (R:4,C:3)
Mon Dec 03 07:21:11 IST 2012	A Phase Ended: Movement Phase
Mon Dec 03 07:21:11 IST 2012	Swaping roles:
Mon Dec 03 07:21:11 IST 2012	Proposer is: 337
Mon Dec 03 07:21:11 IST 2012	Responder is: 310
Mon Dec 03 07:21:11 IST 2012	Protocol: A New Phase Began: Feedback Phase
Mon Dec 03 07:21:11 IST 2012	Protocol: Feedback phase, Round: 3
Mon Dec 03 07:21:11 IST 2012	Number of consecutive no movements for player 337 is 1
Mon Dec 03 07:21:11 IST 2012	Number of consecutive no movements for player 310 is 0
Mon Dec 03 07:21:16 IST 2012	A Phase Ended: Feedback Phase
Mon Dec 03 07:21:16 IST 2012	Protocol: A New Phase Began: Communication Phase
Mon Dec 03 07:21:16 IST 2012	Protocol: Communication phase, Round: 4
Mon Dec 03 07:22:16 IST 2012	Received communication message 
Mon Dec 03 07:22:16 IST 2012	From player: 337
Mon Dec 03 07:22:16 IST 2012	To player: 310
Mon Dec 03 07:22:16 IST 2012	Message type: basicproposal
Mon Dec 03 07:22:16 IST 2012	Chips to send by proposer: { chips  'CTGreen':1 'CTYellow':1 }
Mon Dec 03 07:22:16 IST 2012	Chips to send by responder: { chips  'grey78':1 }
Mon Dec 03 07:22:23 IST 2012	Received communication message 
Mon Dec 03 07:22:23 IST 2012	From player: 310
Mon Dec 03 07:22:23 IST 2012	To player: 337
Mon Dec 03 07:22:23 IST 2012	Message type: basicproposaldiscussion
Mon Dec 03 07:22:23 IST 2012	Player 310 rejected offer
Mon Dec 03 07:22:23 IST 2012	Swaping roles:
Mon Dec 03 07:22:23 IST 2012	Proposer is: 310
Mon Dec 03 07:22:23 IST 2012	Responder is: 337
Mon Dec 03 07:22:23 IST 2012	Prop rejected, set counter offers count to: 1
Mon Dec 03 07:22:23 IST 2012	Prop rejected, get counter offers returned: 1
Mon Dec 03 07:22:27 IST 2012	Slept 4 seconds
Mon Dec 03 07:22:27 IST 2012	Sent role changed msgs
Mon Dec 03 07:22:47 IST 2012	Received communication message 
Mon Dec 03 07:22:47 IST 2012	From player: 310
Mon Dec 03 07:22:47 IST 2012	To player: 337
Mon Dec 03 07:22:47 IST 2012	Message type: basicproposal
Mon Dec 03 07:22:47 IST 2012	Chips to send by proposer: { chips  'CTRed':0 'CTPurple':0 'CTGreen':0 'grey78':1 'CTYellow':0 }
Mon Dec 03 07:22:47 IST 2012	Chips to send by responder: { chips  'CTRed':0 'CTPurple':0 'CTGreen':1 'grey78':0 'CTYellow':0 }
Mon Dec 03 07:23:43 IST 2012	Received communication message 
Mon Dec 03 07:23:43 IST 2012	From player: 337
Mon Dec 03 07:23:43 IST 2012	To player: 310
Mon Dec 03 07:23:43 IST 2012	Message type: basicproposaldiscussion
Mon Dec 03 07:23:43 IST 2012	Player 337 accepted offer
Mon Dec 03 07:23:43 IST 2012	Prop accepted, set counter offers count to: 0
Mon Dec 03 07:23:43 IST 2012	Prop accepted, get counter offers returned: 0
Mon Dec 03 07:23:43 IST 2012	A Phase Ended: Communication Phase
Mon Dec 03 07:23:43 IST 2012	Protocol: A New Phase Began: Exchange Phase
Mon Dec 03 07:23:43 IST 2012	Protocol: Exchange phase, Round: 4
Mon Dec 03 07:23:43 IST 2012	In begin exch.phase, get counter offers returned: 0
Mon Dec 03 07:24:12 IST 2012	A Phase Ended: Exchange Phase
Mon Dec 03 07:24:12 IST 2012	Proposer 310 sent: { chips  }
Mon Dec 03 07:24:12 IST 2012	Responder 337 sent: { chips  'CTRed':0 'CTPurple':0 'CTGreen':1 'grey78':0 'CTYellow':0 }
Mon Dec 03 07:24:12 IST 2012	Protocol: A New Phase Began: Movement Phase
Mon Dec 03 07:24:12 IST 2012	Protocol: Movement phase, Round: 4
Mon Dec 03 07:24:12 IST 2012	Player 310 moved to (R:3,C:3)
Mon Dec 03 07:24:32 IST 2012	A Phase Ended: Movement Phase
Mon Dec 03 07:24:32 IST 2012	Protocol: A New Phase Began: Feedback Phase
Mon Dec 03 07:24:32 IST 2012	Protocol: Feedback phase, Round: 4
Mon Dec 03 07:24:32 IST 2012	Number of consecutive no movements for player 337 is 2
Mon Dec 03 07:24:32 IST 2012	Number of consecutive no movements for player 310 is 0
Mon Dec 03 07:24:37 IST 2012	A Phase Ended: Feedback Phase
Mon Dec 03 07:24:37 IST 2012	Protocol: A New Phase Began: Communication Phase
Mon Dec 03 07:24:37 IST 2012	Protocol: Communication phase, Round: 5
Mon Dec 03 07:24:52 IST 2012	Received communication message 
Mon Dec 03 07:24:52 IST 2012	From player: 310
Mon Dec 03 07:24:52 IST 2012	To player: 337
Mon Dec 03 07:24:52 IST 2012	Message type: basicproposal
Mon Dec 03 07:24:52 IST 2012	Chips to send by proposer: { chips  'CTRed':0 'CTPurple':0 'CTGreen':0 'grey78':2 'CTYellow':0 }
Mon Dec 03 07:24:52 IST 2012	Chips to send by responder: { chips  'CTRed':0 'CTPurple':0 'CTGreen':4 'grey78':0 'CTYellow':0 }
Mon Dec 03 07:25:40 IST 2012	Received communication message 
Mon Dec 03 07:25:40 IST 2012	From player: 337
Mon Dec 03 07:25:40 IST 2012	To player: 310
Mon Dec 03 07:25:40 IST 2012	Message type: basicproposaldiscussion
Mon Dec 03 07:25:40 IST 2012	Player 337 rejected offer
Mon Dec 03 07:25:40 IST 2012	Swaping roles:
Mon Dec 03 07:25:40 IST 2012	Proposer is: 337
Mon Dec 03 07:25:40 IST 2012	Responder is: 310
Mon Dec 03 07:25:40 IST 2012	Prop rejected, set counter offers count to: 1
Mon Dec 03 07:25:40 IST 2012	Prop rejected, get counter offers returned: 1
Mon Dec 03 07:25:44 IST 2012	Slept 4 seconds
Mon Dec 03 07:25:44 IST 2012	Sent role changed msgs
Mon Dec 03 07:26:44 IST 2012	Received communication message 
Mon Dec 03 07:26:44 IST 2012	From player: 337
Mon Dec 03 07:26:44 IST 2012	To player: 310
Mon Dec 03 07:26:44 IST 2012	Message type: basicproposal
Mon Dec 03 07:26:44 IST 2012	Chips to send by proposer: { chips  'CTRed':0 'CTPurple':0 'CTGreen':0 'grey78':0 'CTYellow':1 }
Mon Dec 03 07:26:44 IST 2012	Chips to send by responder: { chips  'CTRed':0 'CTPurple':0 'CTGreen':0 'grey78':2 'CTYellow':0 }
Mon Dec 03 07:26:55 IST 2012	Received communication message 
Mon Dec 03 07:26:55 IST 2012	From player: 310
Mon Dec 03 07:26:55 IST 2012	To player: 337
Mon Dec 03 07:26:55 IST 2012	Message type: basicproposaldiscussion
Mon Dec 03 07:26:55 IST 2012	Player 310 accepted offer
Mon Dec 03 07:26:55 IST 2012	Prop accepted, set counter offers count to: 0
Mon Dec 03 07:26:55 IST 2012	Prop accepted, get counter offers returned: 0
Mon Dec 03 07:26:55 IST 2012	A Phase Ended: Communication Phase
Mon Dec 03 07:26:55 IST 2012	Protocol: A New Phase Began: Exchange Phase
Mon Dec 03 07:26:55 IST 2012	Protocol: Exchange phase, Round: 5
Mon Dec 03 07:26:55 IST 2012	In begin exch.phase, get counter offers returned: 0
Mon Dec 03 07:27:24 IST 2012	A Phase Ended: Exchange Phase
Mon Dec 03 07:27:24 IST 2012	Proposer 337 sent: { chips  'CTRed':0 'CTPurple':0 'CTGreen':0 'grey78':0 'CTYellow':1 }
Mon Dec 03 07:27:24 IST 2012	Responder 310 sent: { chips  }
Mon Dec 03 07:27:24 IST 2012	Protocol: A New Phase Began: Movement Phase
Mon Dec 03 07:27:24 IST 2012	Protocol: Movement phase, Round: 5
Mon Dec 03 07:27:24 IST 2012	Player 310 moved to (R:2,C:3)
Mon Dec 03 07:27:24 IST 2012	Player 337 moved to (R:5,C:1)
Mon Dec 03 07:27:44 IST 2012	A Phase Ended: Movement Phase
Mon Dec 03 07:27:44 IST 2012	Protocol: A New Phase Began: Feedback Phase
Mon Dec 03 07:27:44 IST 2012	Protocol: Feedback phase, Round: 5
Mon Dec 03 07:27:44 IST 2012	Number of consecutive no movements for player 337 is 0
Mon Dec 03 07:27:44 IST 2012	Number of consecutive no movements for player 310 is 0
Mon Dec 03 07:27:49 IST 2012	A Phase Ended: Feedback Phase
Mon Dec 03 07:27:49 IST 2012	Protocol: A New Phase Began: Communication Phase
Mon Dec 03 07:27:49 IST 2012	Protocol: Communication phase, Round: 6
Mon Dec 03 07:28:49 IST 2012	Received communication message 
Mon Dec 03 07:28:49 IST 2012	From player: 337
Mon Dec 03 07:28:49 IST 2012	To player: 310
Mon Dec 03 07:28:49 IST 2012	Message type: basicproposal
Mon Dec 03 07:28:49 IST 2012	Chips to send by proposer: { chips  'CTYellow':1 }
Mon Dec 03 07:28:49 IST 2012	Chips to send by responder: { chips  'grey78':2 }
Mon Dec 03 07:28:59 IST 2012	Received communication message 
Mon Dec 03 07:28:59 IST 2012	From player: 310
Mon Dec 03 07:28:59 IST 2012	To player: 337
Mon Dec 03 07:28:59 IST 2012	Message type: basicproposaldiscussion
Mon Dec 03 07:28:59 IST 2012	Player 310 accepted offer
Mon Dec 03 07:28:59 IST 2012	Prop accepted, set counter offers count to: 0
Mon Dec 03 07:28:59 IST 2012	Prop accepted, get counter offers returned: 0
Mon Dec 03 07:28:59 IST 2012	A Phase Ended: Communication Phase
Mon Dec 03 07:28:59 IST 2012	Protocol: A New Phase Began: Exchange Phase
Mon Dec 03 07:28:59 IST 2012	Protocol: Exchange phase, Round: 6
Mon Dec 03 07:28:59 IST 2012	In begin exch.phase, get counter offers returned: 0
Mon Dec 03 07:29:28 IST 2012	A Phase Ended: Exchange Phase
Mon Dec 03 07:29:28 IST 2012	Proposer 337 sent: { chips  'CTRed':0 'CTPurple':0 'CTGreen':0 'grey78':0 'CTYellow':1 }
Mon Dec 03 07:29:28 IST 2012	Responder 310 sent: { chips  }
Mon Dec 03 07:29:28 IST 2012	Protocol: A New Phase Began: Movement Phase
Mon Dec 03 07:29:28 IST 2012	Protocol: Movement phase, Round: 6
Mon Dec 03 07:29:28 IST 2012	Player 310 moved to (R:1,C:3)
Mon Dec 03 07:29:47 IST 2012	A Phase Ended: Movement Phase
Mon Dec 03 07:29:47 IST 2012	Swaping roles:
Mon Dec 03 07:29:47 IST 2012	Proposer is: 310
Mon Dec 03 07:29:47 IST 2012	Responder is: 337
Mon Dec 03 07:29:47 IST 2012	Protocol: A New Phase Began: Feedback Phase
Mon Dec 03 07:29:47 IST 2012	Protocol: Feedback phase, Round: 6
Mon Dec 03 07:29:47 IST 2012	Number of consecutive no movements for player 337 is 1
Mon Dec 03 07:29:47 IST 2012	Number of consecutive no movements for player 310 is 0
Mon Dec 03 07:29:52 IST 2012	A Phase Ended: Feedback Phase
Mon Dec 03 07:29:52 IST 2012	Protocol: A New Phase Began: Communication Phase
Mon Dec 03 07:29:52 IST 2012	Protocol: Communication phase, Round: 7
Mon Dec 03 07:30:11 IST 2012	Received communication message 
Mon Dec 03 07:30:11 IST 2012	From player: 310
Mon Dec 03 07:30:11 IST 2012	To player: 337
Mon Dec 03 07:30:11 IST 2012	Message type: basicproposal
Mon Dec 03 07:30:11 IST 2012	Chips to send by proposer: { chips  'CTRed':0 'CTPurple':0 'CTGreen':0 'grey78':2 'CTYellow':0 }
Mon Dec 03 07:30:11 IST 2012	Chips to send by responder: { chips  'CTRed':0 'CTPurple':0 'CTGreen':4 'grey78':0 'CTYellow':0 }
Mon Dec 03 07:30:39 IST 2012	Received communication message 
Mon Dec 03 07:30:39 IST 2012	From player: 337
Mon Dec 03 07:30:39 IST 2012	To player: 310
Mon Dec 03 07:30:39 IST 2012	Message type: basicproposaldiscussion
Mon Dec 03 07:30:39 IST 2012	Player 337 rejected offer
Mon Dec 03 07:30:39 IST 2012	Swaping roles:
Mon Dec 03 07:30:39 IST 2012	Proposer is: 337
Mon Dec 03 07:30:39 IST 2012	Responder is: 310
Mon Dec 03 07:30:39 IST 2012	Prop rejected, set counter offers count to: 1
Mon Dec 03 07:30:39 IST 2012	Prop rejected, get counter offers returned: 1
Mon Dec 03 07:30:43 IST 2012	Slept 4 seconds
Mon Dec 03 07:30:43 IST 2012	Sent role changed msgs
Mon Dec 03 07:31:43 IST 2012	Received communication message 
Mon Dec 03 07:31:43 IST 2012	From player: 337
Mon Dec 03 07:31:43 IST 2012	To player: 310
Mon Dec 03 07:31:43 IST 2012	Message type: basicproposal
Mon Dec 03 07:31:43 IST 2012	Chips to send by proposer: { chips  'CTRed':0 'CTPurple':0 'CTGreen':1 'grey78':0 'CTYellow':0 }
Mon Dec 03 07:31:43 IST 2012	Chips to send by responder: { chips  'CTRed':0 'CTPurple':0 'CTGreen':0 'grey78':1 'CTYellow':0 }
Mon Dec 03 07:31:52 IST 2012	Received communication message 
Mon Dec 03 07:31:52 IST 2012	From player: 310
Mon Dec 03 07:31:52 IST 2012	To player: 337
Mon Dec 03 07:31:52 IST 2012	Message type: basicproposaldiscussion
Mon Dec 03 07:31:52 IST 2012	Player 310 rejected offer
Mon Dec 03 07:31:52 IST 2012	Set counter offers count to: 0
Mon Dec 03 07:31:52 IST 2012	A Phase Ended: Communication Phase
Mon Dec 03 07:31:52 IST 2012	Protocol: A New Phase Began: Exchange Phase
Mon Dec 03 07:31:52 IST 2012	Protocol: Exchange phase, Round: 7
Mon Dec 03 07:31:52 IST 2012	In begin exch.phase, get counter offers returned: 0
Mon Dec 03 07:32:32 IST 2012	A Phase Ended: Exchange Phase
Mon Dec 03 07:32:32 IST 2012	Proposer 337 sent: { chips  }
Mon Dec 03 07:32:32 IST 2012	Protocol: A New Phase Began: Movement Phase
Mon Dec 03 07:32:32 IST 2012	Protocol: Movement phase, Round: 7
Mon Dec 03 07:32:32 IST 2012	Player 310 moved to (R:0,C:3)
Mon Dec 03 07:32:53 IST 2012	A Phase Ended: Movement Phase
Mon Dec 03 07:32:53 IST 2012	Protocol: A New Phase Began: Feedback Phase
Mon Dec 03 07:32:53 IST 2012	Protocol: Feedback phase, Round: 7
Mon Dec 03 07:32:53 IST 2012	Number of consecutive no movements for player 337 is 2
Mon Dec 03 07:32:53 IST 2012	Number of consecutive no movements for player 310 is 0
Mon Dec 03 07:32:58 IST 2012	A Phase Ended: Feedback Phase
Mon Dec 03 07:32:58 IST 2012	Protocol: A New Phase Began: Communication Phase
Mon Dec 03 07:32:58 IST 2012	Protocol: Communication phase, Round: 8
Mon Dec 03 07:33:50 IST 2012	Received communication message 
Mon Dec 03 07:33:50 IST 2012	From player: 337
Mon Dec 03 07:33:50 IST 2012	To player: 310
Mon Dec 03 07:33:50 IST 2012	Message type: basicproposal
Mon Dec 03 07:33:50 IST 2012	Chips to send by proposer: { chips  'CTYellow':1 }
Mon Dec 03 07:33:50 IST 2012	Chips to send by responder: { chips  'grey78':2 }
Mon Dec 03 07:33:59 IST 2012	Received communication message 
Mon Dec 03 07:33:59 IST 2012	From player: 310
Mon Dec 03 07:33:59 IST 2012	To player: 337
Mon Dec 03 07:33:59 IST 2012	Message type: basicproposaldiscussion
Mon Dec 03 07:33:59 IST 2012	Player 310 accepted offer
Mon Dec 03 07:33:59 IST 2012	Prop accepted, set counter offers count to: 0
Mon Dec 03 07:33:59 IST 2012	Prop accepted, get counter offers returned: 0
Mon Dec 03 07:33:59 IST 2012	A Phase Ended: Communication Phase
Mon Dec 03 07:33:59 IST 2012	Protocol: A New Phase Began: Exchange Phase
Mon Dec 03 07:33:59 IST 2012	Protocol: Exchange phase, Round: 8
Mon Dec 03 07:33:59 IST 2012	In begin exch.phase, get counter offers returned: 0
Mon Dec 03 07:34:13 IST 2012	A Phase Ended: Exchange Phase
Mon Dec 03 07:34:13 IST 2012	Proposer 337 sent: { chips  'CTRed':0 'CTPurple':0 'CTGreen':0 'grey78':0 'CTYellow':1 }
Mon Dec 03 07:34:13 IST 2012	Responder 310 sent: { chips  }
Mon Dec 03 07:34:13 IST 2012	Protocol: A New Phase Began: Movement Phase
Mon Dec 03 07:34:13 IST 2012	Protocol: Movement phase, Round: 8
Mon Dec 03 07:34:13 IST 2012	Player 310 moved to (R:0,C:2)
Mon Dec 03 07:34:17 IST 2012	Slept 4 seconds
Mon Dec 03 07:34:17 IST 2012	Player 310 got to goal, advance the other and end game
Mon Dec 03 07:34:17 IST 2012	Player: 310 ,role: Responder score is: 220
Mon Dec 03 07:34:17 IST 2012	Player: 337 ,role: Proposer score is: 15
