Sun Dec 02 18:43:32 IST 2012	This is the CT debug logger; svn version 638; sep 27 09
Sun Dec 02 18:43:32 IST 2012	Sun Dec 02 18:43:32 IST 2012
Sun Dec 02 18:43:32 IST 2012	A new Alternative Offers game has began
Sun Dec 02 18:43:32 IST 2012	ID Number: 32806
Sun Dec 02 18:43:32 IST 2012	Creating board
Sun Dec 02 18:43:32 IST 2012	<colors>
Sun Dec 02 18:43:32 IST 2012	{ GamePalette  'CTRed':0 'CTPurple':1 'CTGreen':2 'grey78':3 'CTYellow':4 }
Sun Dec 02 18:43:32 IST 2012	<rows>
Sun Dec 02 18:43:32 IST 2012	7
Sun Dec 02 18:43:32 IST 2012	<columns>
Sun Dec 02 18:43:32 IST 2012	5
Sun Dec 02 18:43:32 IST 2012	<squaresColors>
Sun Dec 02 18:43:32 IST 2012	CTPurple CTRed CTRed CTGreen CTPurple 
Sun Dec 02 18:43:32 IST 2012	CTPurple grey78 CTPurple CTYellow CTPurple 
Sun Dec 02 18:43:32 IST 2012	CTPurple CTRed CTPurple CTGreen CTPurple 
Sun Dec 02 18:43:32 IST 2012	CTPurple grey78 CTPurple CTYellow CTPurple 
Sun Dec 02 18:43:32 IST 2012	CTPurple CTRed CTPurple CTGreen CTPurple 
Sun Dec 02 18:43:32 IST 2012	CTPurple grey78 CTPurple CTYellow CTPurple 
Sun Dec 02 18:43:32 IST 2012	CTPurple CTRed CTPurple CTGreen CTPurple 
Sun Dec 02 18:43:32 IST 2012	</squareColors>
Sun Dec 02 18:43:32 IST 2012	<goalPosition>
Sun Dec 02 18:43:32 IST 2012	Goal position: (R:0,C:2)
Sun Dec 02 18:43:32 IST 2012	<numberOfPlayers>
Sun Dec 02 18:43:32 IST 2012	2
Sun Dec 02 18:43:32 IST 2012	<firstPlayerChips>
Sun Dec 02 18:43:32 IST 2012	Setting chips for player: 337 id:0
Sun Dec 02 18:43:32 IST 2012	{ chips  'CTRed':5 'CTGreen':10 'CTPurple':0 'grey78':0 'CTYellow':9 }
Sun Dec 02 18:43:32 IST 2012	Player position: (R:6,C:0)
Sun Dec 02 18:43:32 IST 2012	Setting chips for player: 310 id:1
Sun Dec 02 18:43:32 IST 2012	{ chips  'CTRed':1 'CTGreen':13 'CTPurple':0 'grey78':10 'CTYellow':0 }
Sun Dec 02 18:43:32 IST 2012	Player position: (R:6,C:4)
Sun Dec 02 18:43:32 IST 2012	Protocol: A New Phase Began: Strategy Prep Phase
Sun Dec 02 18:43:32 IST 2012	Protocol: Strategy Preparation phase, Round: 0
Sun Dec 02 18:43:32 IST 2012	Maximum number of rounds with no consecutive movement is 3
Sun Dec 02 18:43:32 IST 2012	In begin comm. phase, set counter offers count to: 0
Sun Dec 02 18:43:32 IST 2012	In begin comm. phase, get counter offers returned: 0
Sun Dec 02 18:43:53 IST 2012	A Phase Ended: Strategy Prep Phase
Sun Dec 02 18:43:53 IST 2012	Protocol: A New Phase Began: Communication Phase
Sun Dec 02 18:43:53 IST 2012	Protocol: Communication phase, Round: 0
Sun Dec 02 18:44:53 IST 2012	Received communication message 
Sun Dec 02 18:44:53 IST 2012	From player: 337
Sun Dec 02 18:44:53 IST 2012	To player: 310
Sun Dec 02 18:44:53 IST 2012	Message type: basicproposal
Sun Dec 02 18:44:53 IST 2012	Chips to send by proposer: { chips  'CTGreen':1 }
Sun Dec 02 18:44:53 IST 2012	Chips to send by responder: { chips  'grey78':1 }
Sun Dec 02 18:45:06 IST 2012	Received communication message 
Sun Dec 02 18:45:06 IST 2012	From player: 310
Sun Dec 02 18:45:06 IST 2012	To player: 337
Sun Dec 02 18:45:06 IST 2012	Message type: basicproposaldiscussion
Sun Dec 02 18:45:06 IST 2012	Player 310 accepted offer
Sun Dec 02 18:45:06 IST 2012	Prop accepted, set counter offers count to: 0
Sun Dec 02 18:45:06 IST 2012	Prop accepted, get counter offers returned: 0
Sun Dec 02 18:45:06 IST 2012	A Phase Ended: Communication Phase
Sun Dec 02 18:45:06 IST 2012	Protocol: A New Phase Began: Exchange Phase
Sun Dec 02 18:45:06 IST 2012	Protocol: Exchange phase, Round: 0
Sun Dec 02 18:45:06 IST 2012	In begin exch.phase, get counter offers returned: 0
Sun Dec 02 18:45:35 IST 2012	A Phase Ended: Exchange Phase
Sun Dec 02 18:45:35 IST 2012	Proposer 337 sent: { chips  'CTRed':0 'CTPurple':0 'CTGreen':1 'grey78':0 'CTYellow':0 }
Sun Dec 02 18:45:35 IST 2012	Responder 310 sent: { chips  'CTRed':0 'CTPurple':0 'CTGreen':0 'grey78':1 'CTYellow':0 }
Sun Dec 02 18:45:35 IST 2012	Protocol: A New Phase Began: Movement Phase
Sun Dec 02 18:45:35 IST 2012	Protocol: Movement phase, Round: 0
Sun Dec 02 18:45:55 IST 2012	A Phase Ended: Movement Phase
Sun Dec 02 18:45:55 IST 2012	Swaping roles:
Sun Dec 02 18:45:55 IST 2012	Proposer is: 310
Sun Dec 02 18:45:55 IST 2012	Responder is: 337
Sun Dec 02 18:45:55 IST 2012	Protocol: A New Phase Began: Feedback Phase
Sun Dec 02 18:45:55 IST 2012	Protocol: Feedback phase, Round: 0
Sun Dec 02 18:45:55 IST 2012	Number of consecutive no movements for player 337 is 1
Sun Dec 02 18:45:55 IST 2012	Number of consecutive no movements for player 310 is 1
Sun Dec 02 18:46:01 IST 2012	A Phase Ended: Feedback Phase
Sun Dec 02 18:46:01 IST 2012	Protocol: A New Phase Began: Communication Phase
Sun Dec 02 18:46:01 IST 2012	Protocol: Communication phase, Round: 1
Sun Dec 02 18:46:40 IST 2012	Received communication message 
Sun Dec 02 18:46:40 IST 2012	From player: 310
Sun Dec 02 18:46:40 IST 2012	To player: 337
Sun Dec 02 18:46:40 IST 2012	Message type: basicproposal
Sun Dec 02 18:46:40 IST 2012	Chips to send by proposer: { chips  'CTRed':0 'CTPurple':0 'CTGreen':0 'grey78':2 'CTYellow':0 }
Sun Dec 02 18:46:40 IST 2012	Chips to send by responder: { chips  'CTRed':0 'CTPurple':0 'CTGreen':0 'grey78':0 'CTYellow':2 }
Sun Dec 02 18:47:25 IST 2012	Received communication message 
Sun Dec 02 18:47:25 IST 2012	From player: 337
Sun Dec 02 18:47:25 IST 2012	To player: 310
Sun Dec 02 18:47:25 IST 2012	Message type: basicproposaldiscussion
Sun Dec 02 18:47:25 IST 2012	Player 337 rejected offer
Sun Dec 02 18:47:25 IST 2012	Swaping roles:
Sun Dec 02 18:47:25 IST 2012	Proposer is: 337
Sun Dec 02 18:47:25 IST 2012	Responder is: 310
Sun Dec 02 18:47:25 IST 2012	Prop rejected, set counter offers count to: 1
Sun Dec 02 18:47:25 IST 2012	Prop rejected, get counter offers returned: 1
Sun Dec 02 18:47:29 IST 2012	Slept 4 seconds
Sun Dec 02 18:47:29 IST 2012	Sent role changed msgs
Sun Dec 02 18:48:29 IST 2012	Received communication message 
Sun Dec 02 18:48:29 IST 2012	From player: 337
Sun Dec 02 18:48:29 IST 2012	To player: 310
Sun Dec 02 18:48:29 IST 2012	Message type: basicproposal
Sun Dec 02 18:48:29 IST 2012	Chips to send by proposer: { chips  'CTRed':0 'CTPurple':0 'CTGreen':0 'grey78':0 'CTYellow':1 }
Sun Dec 02 18:48:29 IST 2012	Chips to send by responder: { chips  'CTRed':0 'CTPurple':0 'CTGreen':0 'grey78':1 'CTYellow':0 }
Sun Dec 02 18:48:40 IST 2012	Received communication message 
Sun Dec 02 18:48:40 IST 2012	From player: 310
Sun Dec 02 18:48:40 IST 2012	To player: 337
Sun Dec 02 18:48:40 IST 2012	Message type: basicproposaldiscussion
Sun Dec 02 18:48:40 IST 2012	Player 310 accepted offer
Sun Dec 02 18:48:40 IST 2012	Prop accepted, set counter offers count to: 0
Sun Dec 02 18:48:40 IST 2012	Prop accepted, get counter offers returned: 0
Sun Dec 02 18:48:40 IST 2012	A Phase Ended: Communication Phase
Sun Dec 02 18:48:40 IST 2012	Protocol: A New Phase Began: Exchange Phase
Sun Dec 02 18:48:40 IST 2012	Protocol: Exchange phase, Round: 1
Sun Dec 02 18:48:40 IST 2012	In begin exch.phase, get counter offers returned: 0
Sun Dec 02 18:49:09 IST 2012	A Phase Ended: Exchange Phase
Sun Dec 02 18:49:09 IST 2012	Proposer 337 sent: { chips  'CTRed':0 'CTPurple':0 'CTGreen':0 'grey78':0 'CTYellow':1 }
Sun Dec 02 18:49:09 IST 2012	Responder 310 sent: { chips  'CTRed':0 'CTPurple':0 'CTGreen':0 'grey78':1 'CTYellow':0 }
Sun Dec 02 18:49:09 IST 2012	Protocol: A New Phase Began: Movement Phase
Sun Dec 02 18:49:09 IST 2012	Protocol: Movement phase, Round: 1
Sun Dec 02 18:49:29 IST 2012	A Phase Ended: Movement Phase
Sun Dec 02 18:49:29 IST 2012	Protocol: A New Phase Began: Feedback Phase
Sun Dec 02 18:49:29 IST 2012	Protocol: Feedback phase, Round: 1
Sun Dec 02 18:49:29 IST 2012	Number of consecutive no movements for player 337 is 2
Sun Dec 02 18:49:29 IST 2012	Number of consecutive no movements for player 310 is 2
Sun Dec 02 18:49:34 IST 2012	A Phase Ended: Feedback Phase
Sun Dec 02 18:49:34 IST 2012	Protocol: A New Phase Began: Communication Phase
Sun Dec 02 18:49:34 IST 2012	Protocol: Communication phase, Round: 2
Sun Dec 02 18:50:34 IST 2012	Received communication message 
Sun Dec 02 18:50:34 IST 2012	From player: 337
Sun Dec 02 18:50:34 IST 2012	To player: 310
Sun Dec 02 18:50:34 IST 2012	Message type: basicproposal
Sun Dec 02 18:50:34 IST 2012	Chips to send by proposer: { chips  'CTYellow':1 }
Sun Dec 02 18:50:34 IST 2012	Chips to send by responder: { chips  'CTGreen':1 'grey78':1 }
Sun Dec 02 18:50:49 IST 2012	Received communication message 
Sun Dec 02 18:50:49 IST 2012	From player: 310
Sun Dec 02 18:50:49 IST 2012	To player: 337
Sun Dec 02 18:50:49 IST 2012	Message type: basicproposaldiscussion
Sun Dec 02 18:50:49 IST 2012	Player 310 rejected offer
Sun Dec 02 18:50:49 IST 2012	Swaping roles:
Sun Dec 02 18:50:49 IST 2012	Proposer is: 310
Sun Dec 02 18:50:49 IST 2012	Responder is: 337
Sun Dec 02 18:50:49 IST 2012	Prop rejected, set counter offers count to: 1
Sun Dec 02 18:50:49 IST 2012	Prop rejected, get counter offers returned: 1
Sun Dec 02 18:50:53 IST 2012	Slept 4 seconds
Sun Dec 02 18:50:53 IST 2012	Sent role changed msgs
Sun Dec 02 18:51:11 IST 2012	Received communication message 
Sun Dec 02 18:51:11 IST 2012	From player: 310
Sun Dec 02 18:51:11 IST 2012	To player: 337
Sun Dec 02 18:51:11 IST 2012	Message type: basicproposal
Sun Dec 02 18:51:11 IST 2012	Chips to send by proposer: { chips  'CTRed':0 'CTPurple':0 'CTGreen':3 'grey78':1 'CTYellow':0 }
Sun Dec 02 18:51:11 IST 2012	Chips to send by responder: { chips  'CTRed':0 'CTPurple':0 'CTGreen':0 'grey78':0 'CTYellow':2 }
Sun Dec 02 18:51:49 IST 2012	Received communication message 
Sun Dec 02 18:51:49 IST 2012	From player: 337
Sun Dec 02 18:51:49 IST 2012	To player: 310
Sun Dec 02 18:51:49 IST 2012	Message type: basicproposaldiscussion
Sun Dec 02 18:51:49 IST 2012	Player 337 rejected offer
Sun Dec 02 18:51:49 IST 2012	Set counter offers count to: 0
Sun Dec 02 18:51:49 IST 2012	A Phase Ended: Communication Phase
Sun Dec 02 18:51:49 IST 2012	Protocol: A New Phase Began: Exchange Phase
Sun Dec 02 18:51:49 IST 2012	Protocol: Exchange phase, Round: 2
Sun Dec 02 18:51:49 IST 2012	In begin exch.phase, get counter offers returned: 0
Sun Dec 02 18:52:29 IST 2012	A Phase Ended: Exchange Phase
Sun Dec 02 18:52:29 IST 2012	Responder 337 sent: { chips  }
Sun Dec 02 18:52:29 IST 2012	Protocol: A New Phase Began: Movement Phase
Sun Dec 02 18:52:29 IST 2012	Protocol: Movement phase, Round: 2
Sun Dec 02 18:52:29 IST 2012	Player 337 moved to (R:6,C:1)
Sun Dec 02 18:52:29 IST 2012	Player 310 moved to (R:6,C:3)
Sun Dec 02 18:52:49 IST 2012	A Phase Ended: Movement Phase
Sun Dec 02 18:52:49 IST 2012	Protocol: A New Phase Began: Feedback Phase
Sun Dec 02 18:52:49 IST 2012	Protocol: Feedback phase, Round: 2
Sun Dec 02 18:52:49 IST 2012	Number of consecutive no movements for player 337 is 0
Sun Dec 02 18:52:49 IST 2012	Number of consecutive no movements for player 310 is 0
Sun Dec 02 18:52:54 IST 2012	A Phase Ended: Feedback Phase
Sun Dec 02 18:52:54 IST 2012	Protocol: A New Phase Began: Communication Phase
Sun Dec 02 18:52:54 IST 2012	Protocol: Communication phase, Round: 3
Sun Dec 02 18:53:11 IST 2012	Received communication message 
Sun Dec 02 18:53:11 IST 2012	From player: 310
Sun Dec 02 18:53:11 IST 2012	To player: 337
Sun Dec 02 18:53:11 IST 2012	Message type: basicproposal
Sun Dec 02 18:53:11 IST 2012	Chips to send by proposer: { chips  'CTRed':0 'CTPurple':0 'CTGreen':0 'grey78':1 'CTYellow':0 }
Sun Dec 02 18:53:11 IST 2012	Chips to send by responder: { chips  'CTRed':0 'CTPurple':0 'CTGreen':1 'grey78':0 'CTYellow':1 }
Sun Dec 02 18:53:43 IST 2012	Received communication message 
Sun Dec 02 18:53:43 IST 2012	From player: 337
Sun Dec 02 18:53:43 IST 2012	To player: 310
Sun Dec 02 18:53:43 IST 2012	Message type: basicproposaldiscussion
Sun Dec 02 18:53:43 IST 2012	Player 337 rejected offer
Sun Dec 02 18:53:43 IST 2012	Swaping roles:
Sun Dec 02 18:53:43 IST 2012	Proposer is: 337
Sun Dec 02 18:53:43 IST 2012	Responder is: 310
Sun Dec 02 18:53:43 IST 2012	Prop rejected, set counter offers count to: 1
Sun Dec 02 18:53:43 IST 2012	Prop rejected, get counter offers returned: 1
Sun Dec 02 18:53:47 IST 2012	Slept 4 seconds
Sun Dec 02 18:53:47 IST 2012	Sent role changed msgs
Sun Dec 02 18:54:47 IST 2012	Received communication message 
Sun Dec 02 18:54:47 IST 2012	From player: 337
Sun Dec 02 18:54:47 IST 2012	To player: 310
Sun Dec 02 18:54:47 IST 2012	Message type: basicproposal
Sun Dec 02 18:54:47 IST 2012	Chips to send by proposer: { chips  'CTRed':0 'CTPurple':0 'CTGreen':0 'grey78':0 'CTYellow':1 }
Sun Dec 02 18:54:47 IST 2012	Chips to send by responder: { chips  'CTRed':0 'CTPurple':0 'CTGreen':1 'grey78':1 'CTYellow':0 }
Sun Dec 02 18:54:58 IST 2012	Received communication message 
Sun Dec 02 18:54:58 IST 2012	From player: 310
Sun Dec 02 18:54:58 IST 2012	To player: 337
Sun Dec 02 18:54:58 IST 2012	Message type: basicproposaldiscussion
Sun Dec 02 18:54:58 IST 2012	Player 310 rejected offer
Sun Dec 02 18:54:58 IST 2012	Set counter offers count to: 0
Sun Dec 02 18:54:58 IST 2012	A Phase Ended: Communication Phase
Sun Dec 02 18:54:58 IST 2012	Protocol: A New Phase Began: Exchange Phase
Sun Dec 02 18:54:58 IST 2012	Protocol: Exchange phase, Round: 3
Sun Dec 02 18:54:58 IST 2012	In begin exch.phase, get counter offers returned: 0
Sun Dec 02 18:55:38 IST 2012	A Phase Ended: Exchange Phase
Sun Dec 02 18:55:38 IST 2012	Proposer 337 sent: { chips  }
Sun Dec 02 18:55:39 IST 2012	Protocol: A New Phase Began: Movement Phase
Sun Dec 02 18:55:39 IST 2012	Protocol: Movement phase, Round: 3
Sun Dec 02 18:55:59 IST 2012	A Phase Ended: Movement Phase
Sun Dec 02 18:55:59 IST 2012	Protocol: A New Phase Began: Feedback Phase
Sun Dec 02 18:55:59 IST 2012	Protocol: Feedback phase, Round: 3
Sun Dec 02 18:55:59 IST 2012	Number of consecutive no movements for player 337 is 1
Sun Dec 02 18:55:59 IST 2012	Number of consecutive no movements for player 310 is 1
Sun Dec 02 18:56:04 IST 2012	A Phase Ended: Feedback Phase
Sun Dec 02 18:56:04 IST 2012	Protocol: A New Phase Began: Communication Phase
Sun Dec 02 18:56:04 IST 2012	Protocol: Communication phase, Round: 4
Sun Dec 02 18:57:04 IST 2012	Received communication message 
Sun Dec 02 18:57:04 IST 2012	From player: 337
Sun Dec 02 18:57:04 IST 2012	To player: 310
Sun Dec 02 18:57:04 IST 2012	Message type: basicproposal
Sun Dec 02 18:57:04 IST 2012	Chips to send by proposer: { chips  'CTYellow':1 }
Sun Dec 02 18:57:04 IST 2012	Chips to send by responder: { chips  'grey78':3 }
Sun Dec 02 18:57:13 IST 2012	Received communication message 
Sun Dec 02 18:57:13 IST 2012	From player: 310
Sun Dec 02 18:57:13 IST 2012	To player: 337
Sun Dec 02 18:57:13 IST 2012	Message type: basicproposaldiscussion
Sun Dec 02 18:57:13 IST 2012	Player 310 rejected offer
Sun Dec 02 18:57:13 IST 2012	Swaping roles:
Sun Dec 02 18:57:13 IST 2012	Proposer is: 310
Sun Dec 02 18:57:13 IST 2012	Responder is: 337
Sun Dec 02 18:57:13 IST 2012	Prop rejected, set counter offers count to: 1
Sun Dec 02 18:57:13 IST 2012	Prop rejected, get counter offers returned: 1
Sun Dec 02 18:57:17 IST 2012	Slept 4 seconds
Sun Dec 02 18:57:17 IST 2012	Sent role changed msgs
Sun Dec 02 18:57:35 IST 2012	Received communication message 
Sun Dec 02 18:57:35 IST 2012	From player: 310
Sun Dec 02 18:57:35 IST 2012	To player: 337
Sun Dec 02 18:57:35 IST 2012	Message type: basicproposal
Sun Dec 02 18:57:35 IST 2012	Chips to send by proposer: { chips  'CTRed':0 'CTPurple':0 'CTGreen':0 'grey78':1 'CTYellow':0 }
Sun Dec 02 18:57:35 IST 2012	Chips to send by responder: { chips  'CTRed':0 'CTPurple':0 'CTGreen':0 'grey78':0 'CTYellow':1 }
Sun Dec 02 18:58:07 IST 2012	Received communication message 
Sun Dec 02 18:58:07 IST 2012	From player: 337
Sun Dec 02 18:58:07 IST 2012	To player: 310
Sun Dec 02 18:58:07 IST 2012	Message type: basicproposaldiscussion
Sun Dec 02 18:58:07 IST 2012	Player 337 accepted offer
Sun Dec 02 18:58:07 IST 2012	Prop accepted, set counter offers count to: 0
Sun Dec 02 18:58:07 IST 2012	Prop accepted, get counter offers returned: 0
Sun Dec 02 18:58:07 IST 2012	A Phase Ended: Communication Phase
Sun Dec 02 18:58:07 IST 2012	Protocol: A New Phase Began: Exchange Phase
Sun Dec 02 18:58:07 IST 2012	Protocol: Exchange phase, Round: 4
Sun Dec 02 18:58:07 IST 2012	In begin exch.phase, get counter offers returned: 0
Sun Dec 02 18:58:36 IST 2012	A Phase Ended: Exchange Phase
Sun Dec 02 18:58:36 IST 2012	Proposer 310 sent: { chips  }
Sun Dec 02 18:58:36 IST 2012	Responder 337 sent: { chips  'CTRed':0 'CTPurple':0 'CTGreen':0 'grey78':0 'CTYellow':1 }
Sun Dec 02 18:58:36 IST 2012	Protocol: A New Phase Began: Movement Phase
Sun Dec 02 18:58:36 IST 2012	Protocol: Movement phase, Round: 4
Sun Dec 02 18:58:55 IST 2012	A Phase Ended: Movement Phase
Sun Dec 02 18:58:55 IST 2012	Protocol: A New Phase Began: Feedback Phase
Sun Dec 02 18:58:55 IST 2012	Protocol: Feedback phase, Round: 4
Sun Dec 02 18:58:55 IST 2012	Number of consecutive no movements for player 337 is 2
Sun Dec 02 18:58:55 IST 2012	Number of consecutive no movements for player 310 is 2
Sun Dec 02 18:59:00 IST 2012	A Phase Ended: Feedback Phase
Sun Dec 02 18:59:00 IST 2012	Protocol: A New Phase Began: Communication Phase
Sun Dec 02 18:59:00 IST 2012	Protocol: Communication phase, Round: 5
Sun Dec 02 18:59:21 IST 2012	Received communication message 
Sun Dec 02 18:59:21 IST 2012	From player: 310
Sun Dec 02 18:59:21 IST 2012	To player: 337
Sun Dec 02 18:59:21 IST 2012	Message type: basicproposal
Sun Dec 02 18:59:21 IST 2012	Chips to send by proposer: { chips  'CTRed':0 'CTPurple':0 'CTGreen':2 'grey78':1 'CTYellow':0 }
Sun Dec 02 18:59:21 IST 2012	Chips to send by responder: { chips  'CTRed':0 'CTPurple':0 'CTGreen':0 'grey78':0 'CTYellow':1 }
Sun Dec 02 18:59:49 IST 2012	Received communication message 
Sun Dec 02 18:59:49 IST 2012	From player: 337
Sun Dec 02 18:59:49 IST 2012	To player: 310
Sun Dec 02 18:59:49 IST 2012	Message type: basicproposaldiscussion
Sun Dec 02 18:59:49 IST 2012	Player 337 accepted offer
Sun Dec 02 18:59:49 IST 2012	Prop accepted, set counter offers count to: 0
Sun Dec 02 18:59:49 IST 2012	Prop accepted, get counter offers returned: 0
Sun Dec 02 18:59:49 IST 2012	A Phase Ended: Communication Phase
Sun Dec 02 18:59:49 IST 2012	Protocol: A New Phase Began: Exchange Phase
Sun Dec 02 18:59:49 IST 2012	Protocol: Exchange phase, Round: 5
Sun Dec 02 18:59:49 IST 2012	In begin exch.phase, get counter offers returned: 0
Sun Dec 02 19:00:14 IST 2012	A Phase Ended: Exchange Phase
Sun Dec 02 19:00:14 IST 2012	Proposer 310 sent: { chips  }
Sun Dec 02 19:00:14 IST 2012	Responder 337 sent: { chips  'CTRed':0 'CTPurple':0 'CTGreen':0 'grey78':0 'CTYellow':1 }
Sun Dec 02 19:00:14 IST 2012	Protocol: A New Phase Began: Movement Phase
Sun Dec 02 19:00:14 IST 2012	Protocol: Movement phase, Round: 5
Sun Dec 02 19:00:14 IST 2012	Player 310 moved to (R:5,C:3)
Sun Dec 02 19:00:14 IST 2012	Player 337 moved to (R:5,C:1)
Sun Dec 02 19:00:35 IST 2012	A Phase Ended: Movement Phase
Sun Dec 02 19:00:35 IST 2012	Swaping roles:
Sun Dec 02 19:00:35 IST 2012	Proposer is: 337
Sun Dec 02 19:00:35 IST 2012	Responder is: 310
Sun Dec 02 19:00:35 IST 2012	Protocol: A New Phase Began: Feedback Phase
Sun Dec 02 19:00:35 IST 2012	Protocol: Feedback phase, Round: 5
Sun Dec 02 19:00:35 IST 2012	Number of consecutive no movements for player 337 is 0
Sun Dec 02 19:00:35 IST 2012	Number of consecutive no movements for player 310 is 0
Sun Dec 02 19:00:40 IST 2012	A Phase Ended: Feedback Phase
Sun Dec 02 19:00:40 IST 2012	Protocol: A New Phase Began: Communication Phase
Sun Dec 02 19:00:40 IST 2012	Protocol: Communication phase, Round: 6
Sun Dec 02 19:01:28 IST 2012	Received communication message 
Sun Dec 02 19:01:28 IST 2012	From player: 337
Sun Dec 02 19:01:28 IST 2012	To player: 310
Sun Dec 02 19:01:28 IST 2012	Message type: basicproposal
Sun Dec 02 19:01:28 IST 2012	Chips to send by proposer: { chips  'CTGreen':1 }
Sun Dec 02 19:01:28 IST 2012	Chips to send by responder: { chips  'grey78':1 }
Sun Dec 02 19:01:39 IST 2012	Received communication message 
Sun Dec 02 19:01:39 IST 2012	From player: 310
Sun Dec 02 19:01:39 IST 2012	To player: 337
Sun Dec 02 19:01:39 IST 2012	Message type: basicproposaldiscussion
Sun Dec 02 19:01:39 IST 2012	Player 310 accepted offer
Sun Dec 02 19:01:39 IST 2012	Prop accepted, set counter offers count to: 0
Sun Dec 02 19:01:39 IST 2012	Prop accepted, get counter offers returned: 0
Sun Dec 02 19:01:39 IST 2012	A Phase Ended: Communication Phase
Sun Dec 02 19:01:39 IST 2012	Protocol: A New Phase Began: Exchange Phase
Sun Dec 02 19:01:39 IST 2012	Protocol: Exchange phase, Round: 6
Sun Dec 02 19:01:39 IST 2012	In begin exch.phase, get counter offers returned: 0
Sun Dec 02 19:01:51 IST 2012	A Phase Ended: Exchange Phase
Sun Dec 02 19:01:51 IST 2012	Proposer 337 sent: { chips  'CTRed':0 'CTPurple':0 'CTGreen':0 'grey78':0 'CTYellow':0 }
Sun Dec 02 19:01:51 IST 2012	Responder 310 sent: { chips  }
Sun Dec 02 19:01:51 IST 2012	Protocol: A New Phase Began: Movement Phase
Sun Dec 02 19:01:51 IST 2012	Protocol: Movement phase, Round: 6
Sun Dec 02 19:01:51 IST 2012	Player 310 moved to (R:4,C:3)
Sun Dec 02 19:02:11 IST 2012	A Phase Ended: Movement Phase
Sun Dec 02 19:02:11 IST 2012	Swaping roles:
Sun Dec 02 19:02:11 IST 2012	Proposer is: 310
Sun Dec 02 19:02:11 IST 2012	Responder is: 337
Sun Dec 02 19:02:11 IST 2012	Protocol: A New Phase Began: Feedback Phase
Sun Dec 02 19:02:11 IST 2012	Protocol: Feedback phase, Round: 6
Sun Dec 02 19:02:11 IST 2012	Number of consecutive no movements for player 337 is 1
Sun Dec 02 19:02:11 IST 2012	Number of consecutive no movements for player 310 is 0
Sun Dec 02 19:02:16 IST 2012	A Phase Ended: Feedback Phase
Sun Dec 02 19:02:16 IST 2012	Protocol: A New Phase Began: Communication Phase
Sun Dec 02 19:02:16 IST 2012	Protocol: Communication phase, Round: 7
Sun Dec 02 19:02:35 IST 2012	Received communication message 
Sun Dec 02 19:02:35 IST 2012	From player: 310
Sun Dec 02 19:02:35 IST 2012	To player: 337
Sun Dec 02 19:02:35 IST 2012	Message type: basicproposal
Sun Dec 02 19:02:35 IST 2012	Chips to send by proposer: { chips  'CTRed':0 'CTPurple':0 'CTGreen':0 'grey78':1 'CTYellow':0 }
Sun Dec 02 19:02:35 IST 2012	Chips to send by responder: { chips  'CTRed':0 'CTPurple':0 'CTGreen':2 'grey78':0 'CTYellow':0 }
Sun Dec 02 19:02:57 IST 2012	Received communication message 
Sun Dec 02 19:02:57 IST 2012	From player: 337
Sun Dec 02 19:02:57 IST 2012	To player: 310
Sun Dec 02 19:02:57 IST 2012	Message type: basicproposaldiscussion
Sun Dec 02 19:02:57 IST 2012	Player 337 rejected offer
Sun Dec 02 19:02:57 IST 2012	Swaping roles:
Sun Dec 02 19:02:57 IST 2012	Proposer is: 337
Sun Dec 02 19:02:57 IST 2012	Responder is: 310
Sun Dec 02 19:02:57 IST 2012	Prop rejected, set counter offers count to: 1
Sun Dec 02 19:02:57 IST 2012	Prop rejected, get counter offers returned: 1
Sun Dec 02 19:03:01 IST 2012	Slept 4 seconds
Sun Dec 02 19:03:01 IST 2012	Sent role changed msgs
Sun Dec 02 19:04:01 IST 2012	Received communication message 
Sun Dec 02 19:04:01 IST 2012	From player: 337
Sun Dec 02 19:04:01 IST 2012	To player: 310
Sun Dec 02 19:04:01 IST 2012	Message type: basicproposal
Sun Dec 02 19:04:01 IST 2012	Chips to send by proposer: { chips  'CTRed':0 'CTPurple':0 'CTGreen':0 'grey78':0 'CTYellow':1 }
Sun Dec 02 19:04:01 IST 2012	Chips to send by responder: { chips  'CTRed':0 'CTPurple':0 'CTGreen':0 'grey78':1 'CTYellow':0 }
Sun Dec 02 19:04:07 IST 2012	Received communication message 
Sun Dec 02 19:04:07 IST 2012	From player: 310
Sun Dec 02 19:04:07 IST 2012	To player: 337
Sun Dec 02 19:04:07 IST 2012	Message type: basicproposaldiscussion
Sun Dec 02 19:04:07 IST 2012	Player 310 accepted offer
Sun Dec 02 19:04:07 IST 2012	Prop accepted, set counter offers count to: 0
Sun Dec 02 19:04:07 IST 2012	Prop accepted, get counter offers returned: 0
Sun Dec 02 19:04:07 IST 2012	A Phase Ended: Communication Phase
Sun Dec 02 19:04:07 IST 2012	Protocol: A New Phase Began: Exchange Phase
Sun Dec 02 19:04:07 IST 2012	Protocol: Exchange phase, Round: 7
Sun Dec 02 19:04:07 IST 2012	In begin exch.phase, get counter offers returned: 0
Sun Dec 02 19:04:26 IST 2012	A Phase Ended: Exchange Phase
Sun Dec 02 19:04:26 IST 2012	Proposer 337 sent: { chips  'CTRed':0 'CTPurple':0 'CTGreen':0 'grey78':0 'CTYellow':1 }
Sun Dec 02 19:04:26 IST 2012	Responder 310 sent: { chips  }
Sun Dec 02 19:04:26 IST 2012	Protocol: A New Phase Began: Movement Phase
Sun Dec 02 19:04:26 IST 2012	Protocol: Movement phase, Round: 7
Sun Dec 02 19:04:26 IST 2012	Player 310 moved to (R:3,C:3)
Sun Dec 02 19:04:46 IST 2012	A Phase Ended: Movement Phase
Sun Dec 02 19:04:46 IST 2012	Protocol: A New Phase Began: Feedback Phase
Sun Dec 02 19:04:46 IST 2012	Protocol: Feedback phase, Round: 7
Sun Dec 02 19:04:46 IST 2012	Number of consecutive no movements for player 337 is 2
Sun Dec 02 19:04:46 IST 2012	Number of consecutive no movements for player 310 is 0
Sun Dec 02 19:04:51 IST 2012	A Phase Ended: Feedback Phase
Sun Dec 02 19:04:51 IST 2012	Protocol: A New Phase Began: Communication Phase
Sun Dec 02 19:04:51 IST 2012	Protocol: Communication phase, Round: 8
Sun Dec 02 19:05:51 IST 2012	Received communication message 
Sun Dec 02 19:05:51 IST 2012	From player: 337
Sun Dec 02 19:05:51 IST 2012	To player: 310
Sun Dec 02 19:05:51 IST 2012	Message type: basicproposal
Sun Dec 02 19:05:51 IST 2012	Chips to send by proposer: { chips  'CTYellow':1 }
Sun Dec 02 19:05:51 IST 2012	Chips to send by responder: { chips  'grey78':1 }
Sun Dec 02 19:06:03 IST 2012	Received communication message 
Sun Dec 02 19:06:03 IST 2012	From player: 310
Sun Dec 02 19:06:03 IST 2012	To player: 337
Sun Dec 02 19:06:03 IST 2012	Message type: basicproposaldiscussion
Sun Dec 02 19:06:03 IST 2012	Player 310 accepted offer
Sun Dec 02 19:06:03 IST 2012	Prop accepted, set counter offers count to: 0
Sun Dec 02 19:06:03 IST 2012	Prop accepted, get counter offers returned: 0
Sun Dec 02 19:06:03 IST 2012	A Phase Ended: Communication Phase
Sun Dec 02 19:06:03 IST 2012	Protocol: A New Phase Began: Exchange Phase
Sun Dec 02 19:06:03 IST 2012	Protocol: Exchange phase, Round: 8
Sun Dec 02 19:06:03 IST 2012	In begin exch.phase, get counter offers returned: 0
Sun Dec 02 19:06:22 IST 2012	A Phase Ended: Exchange Phase
Sun Dec 02 19:06:22 IST 2012	Proposer 337 sent: { chips  'CTRed':0 'CTPurple':0 'CTGreen':0 'grey78':0 'CTYellow':1 }
Sun Dec 02 19:06:22 IST 2012	Responder 310 sent: { chips  }
Sun Dec 02 19:06:22 IST 2012	Protocol: A New Phase Began: Movement Phase
Sun Dec 02 19:06:22 IST 2012	Protocol: Movement phase, Round: 8
Sun Dec 02 19:06:22 IST 2012	Player 310 moved to (R:2,C:3)
Sun Dec 02 19:06:22 IST 2012	Player 337 moved to (R:4,C:1)
Sun Dec 02 19:06:42 IST 2012	A Phase Ended: Movement Phase
Sun Dec 02 19:06:42 IST 2012	Swaping roles:
Sun Dec 02 19:06:42 IST 2012	Proposer is: 310
Sun Dec 02 19:06:42 IST 2012	Responder is: 337
Sun Dec 02 19:06:42 IST 2012	Protocol: A New Phase Began: Feedback Phase
Sun Dec 02 19:06:42 IST 2012	Protocol: Feedback phase, Round: 8
Sun Dec 02 19:06:42 IST 2012	Number of consecutive no movements for player 337 is 0
Sun Dec 02 19:06:42 IST 2012	Number of consecutive no movements for player 310 is 0
Sun Dec 02 19:06:47 IST 2012	A Phase Ended: Feedback Phase
Sun Dec 02 19:06:47 IST 2012	Protocol: A New Phase Began: Communication Phase
Sun Dec 02 19:06:47 IST 2012	Protocol: Communication phase, Round: 9
Sun Dec 02 19:07:01 IST 2012	Received communication message 
Sun Dec 02 19:07:01 IST 2012	From player: 310
Sun Dec 02 19:07:01 IST 2012	To player: 337
Sun Dec 02 19:07:01 IST 2012	Message type: basicproposal
Sun Dec 02 19:07:01 IST 2012	Chips to send by proposer: { chips  'CTRed':0 'CTPurple':0 'CTGreen':0 'grey78':1 'CTYellow':0 }
Sun Dec 02 19:07:01 IST 2012	Chips to send by responder: { chips  'CTRed':0 'CTPurple':0 'CTGreen':3 'grey78':0 'CTYellow':0 }
Sun Dec 02 19:07:25 IST 2012	Received communication message 
Sun Dec 02 19:07:25 IST 2012	From player: 337
Sun Dec 02 19:07:25 IST 2012	To player: 310
Sun Dec 02 19:07:25 IST 2012	Message type: basicproposaldiscussion
Sun Dec 02 19:07:25 IST 2012	Player 337 rejected offer
Sun Dec 02 19:07:25 IST 2012	Swaping roles:
Sun Dec 02 19:07:25 IST 2012	Proposer is: 337
Sun Dec 02 19:07:25 IST 2012	Responder is: 310
Sun Dec 02 19:07:25 IST 2012	Prop rejected, set counter offers count to: 1
Sun Dec 02 19:07:25 IST 2012	Prop rejected, get counter offers returned: 1
Sun Dec 02 19:07:29 IST 2012	Slept 4 seconds
Sun Dec 02 19:07:29 IST 2012	Sent role changed msgs
Sun Dec 02 19:08:29 IST 2012	Received communication message 
Sun Dec 02 19:08:29 IST 2012	From player: 337
Sun Dec 02 19:08:29 IST 2012	To player: 310
Sun Dec 02 19:08:29 IST 2012	Message type: basicproposal
Sun Dec 02 19:08:29 IST 2012	Chips to send by proposer: { chips  'CTRed':0 'CTPurple':0 'CTGreen':0 'grey78':0 'CTYellow':1 }
Sun Dec 02 19:08:29 IST 2012	Chips to send by responder: { chips  'CTRed':0 'CTPurple':0 'CTGreen':0 'grey78':1 'CTYellow':0 }
Sun Dec 02 19:08:37 IST 2012	Received communication message 
Sun Dec 02 19:08:37 IST 2012	From player: 310
Sun Dec 02 19:08:37 IST 2012	To player: 337
Sun Dec 02 19:08:37 IST 2012	Message type: basicproposaldiscussion
Sun Dec 02 19:08:37 IST 2012	Player 310 accepted offer
Sun Dec 02 19:08:37 IST 2012	Prop accepted, set counter offers count to: 0
Sun Dec 02 19:08:37 IST 2012	Prop accepted, get counter offers returned: 0
Sun Dec 02 19:08:37 IST 2012	A Phase Ended: Communication Phase
Sun Dec 02 19:08:37 IST 2012	Protocol: A New Phase Began: Exchange Phase
Sun Dec 02 19:08:37 IST 2012	Protocol: Exchange phase, Round: 9
Sun Dec 02 19:08:37 IST 2012	In begin exch.phase, get counter offers returned: 0
Sun Dec 02 19:08:58 IST 2012	A Phase Ended: Exchange Phase
Sun Dec 02 19:08:58 IST 2012	Proposer 337 sent: { chips  'CTRed':0 'CTPurple':0 'CTGreen':0 'grey78':0 'CTYellow':1 }
Sun Dec 02 19:08:58 IST 2012	Responder 310 sent: { chips  }
Sun Dec 02 19:08:58 IST 2012	Protocol: A New Phase Began: Movement Phase
Sun Dec 02 19:08:58 IST 2012	Protocol: Movement phase, Round: 9
Sun Dec 02 19:08:58 IST 2012	Player 310 moved to (R:1,C:3)
Sun Dec 02 19:09:17 IST 2012	A Phase Ended: Movement Phase
Sun Dec 02 19:09:17 IST 2012	Protocol: A New Phase Began: Feedback Phase
Sun Dec 02 19:09:17 IST 2012	Protocol: Feedback phase, Round: 9
Sun Dec 02 19:09:17 IST 2012	Number of consecutive no movements for player 337 is 1
Sun Dec 02 19:09:17 IST 2012	Number of consecutive no movements for player 310 is 0
Sun Dec 02 19:09:22 IST 2012	A Phase Ended: Feedback Phase
Sun Dec 02 19:09:22 IST 2012	Protocol: A New Phase Began: Communication Phase
Sun Dec 02 19:09:22 IST 2012	Protocol: Communication phase, Round: 10
Sun Dec 02 19:10:22 IST 2012	Received communication message 
Sun Dec 02 19:10:22 IST 2012	From player: 337
Sun Dec 02 19:10:22 IST 2012	To player: 310
Sun Dec 02 19:10:22 IST 2012	Message type: basicproposal
Sun Dec 02 19:10:22 IST 2012	Chips to send by proposer: { chips  'CTGreen':1 }
Sun Dec 02 19:10:22 IST 2012	Chips to send by responder: { chips  'grey78':1 }
Sun Dec 02 19:10:28 IST 2012	Received communication message 
Sun Dec 02 19:10:28 IST 2012	From player: 310
Sun Dec 02 19:10:28 IST 2012	To player: 337
Sun Dec 02 19:10:28 IST 2012	Message type: basicproposaldiscussion
Sun Dec 02 19:10:28 IST 2012	Player 310 accepted offer
Sun Dec 02 19:10:28 IST 2012	Prop accepted, set counter offers count to: 0
Sun Dec 02 19:10:28 IST 2012	Prop accepted, get counter offers returned: 0
Sun Dec 02 19:10:28 IST 2012	A Phase Ended: Communication Phase
Sun Dec 02 19:10:28 IST 2012	Protocol: A New Phase Began: Exchange Phase
Sun Dec 02 19:10:28 IST 2012	Protocol: Exchange phase, Round: 10
Sun Dec 02 19:10:28 IST 2012	In begin exch.phase, get counter offers returned: 0
Sun Dec 02 19:10:48 IST 2012	A Phase Ended: Exchange Phase
Sun Dec 02 19:10:48 IST 2012	Proposer 337 sent: { chips  'CTRed':0 'CTPurple':0 'CTGreen':1 'grey78':0 'CTYellow':0 }
Sun Dec 02 19:10:48 IST 2012	Responder 310 sent: { chips  }
Sun Dec 02 19:10:48 IST 2012	Protocol: A New Phase Began: Movement Phase
Sun Dec 02 19:10:48 IST 2012	Protocol: Movement phase, Round: 10
Sun Dec 02 19:10:48 IST 2012	Player 310 moved to (R:0,C:3)
Sun Dec 02 19:11:08 IST 2012	A Phase Ended: Movement Phase
Sun Dec 02 19:11:08 IST 2012	Swaping roles:
Sun Dec 02 19:11:08 IST 2012	Proposer is: 310
Sun Dec 02 19:11:08 IST 2012	Responder is: 337
Sun Dec 02 19:11:08 IST 2012	Protocol: A New Phase Began: Feedback Phase
Sun Dec 02 19:11:08 IST 2012	Protocol: Feedback phase, Round: 10
Sun Dec 02 19:11:08 IST 2012	Number of consecutive no movements for player 337 is 2
Sun Dec 02 19:11:08 IST 2012	Number of consecutive no movements for player 310 is 0
Sun Dec 02 19:11:13 IST 2012	A Phase Ended: Feedback Phase
Sun Dec 02 19:11:13 IST 2012	Protocol: A New Phase Began: Communication Phase
Sun Dec 02 19:11:13 IST 2012	Protocol: Communication phase, Round: 11
Sun Dec 02 19:11:25 IST 2012	Received communication message 
Sun Dec 02 19:11:25 IST 2012	From player: 310
Sun Dec 02 19:11:25 IST 2012	To player: 337
Sun Dec 02 19:11:25 IST 2012	Message type: basicproposal
Sun Dec 02 19:11:25 IST 2012	Chips to send by proposer: { chips  'CTRed':0 'CTPurple':0 'CTGreen':0 'grey78':1 'CTYellow':0 }
Sun Dec 02 19:11:25 IST 2012	Chips to send by responder: { chips  'CTRed':0 'CTPurple':0 'CTGreen':3 'grey78':0 'CTYellow':0 }
Sun Dec 02 19:11:41 IST 2012	Received communication message 
Sun Dec 02 19:11:41 IST 2012	From player: 337
Sun Dec 02 19:11:41 IST 2012	To player: 310
Sun Dec 02 19:11:41 IST 2012	Message type: basicproposaldiscussion
Sun Dec 02 19:11:41 IST 2012	Player 337 rejected offer
Sun Dec 02 19:11:41 IST 2012	Swaping roles:
Sun Dec 02 19:11:41 IST 2012	Proposer is: 337
Sun Dec 02 19:11:41 IST 2012	Responder is: 310
Sun Dec 02 19:11:41 IST 2012	Prop rejected, set counter offers count to: 1
Sun Dec 02 19:11:41 IST 2012	Prop rejected, get counter offers returned: 1
Sun Dec 02 19:11:45 IST 2012	Slept 4 seconds
Sun Dec 02 19:11:45 IST 2012	Sent role changed msgs
Sun Dec 02 19:12:36 IST 2012	Received communication message 
Sun Dec 02 19:12:36 IST 2012	From player: 337
Sun Dec 02 19:12:36 IST 2012	To player: 310
Sun Dec 02 19:12:36 IST 2012	Message type: basicproposal
Sun Dec 02 19:12:36 IST 2012	Chips to send by proposer: { chips  'CTRed':0 'CTPurple':0 'CTGreen':1 'grey78':0 'CTYellow':0 }
Sun Dec 02 19:12:36 IST 2012	Chips to send by responder: { chips  'CTRed':0 'CTPurple':0 'CTGreen':0 'grey78':1 'CTYellow':0 }
Sun Dec 02 19:12:45 IST 2012	Received communication message 
Sun Dec 02 19:12:45 IST 2012	From player: 310
Sun Dec 02 19:12:45 IST 2012	To player: 337
Sun Dec 02 19:12:45 IST 2012	Message type: basicproposaldiscussion
Sun Dec 02 19:12:45 IST 2012	Player 310 accepted offer
Sun Dec 02 19:12:45 IST 2012	Prop accepted, set counter offers count to: 0
Sun Dec 02 19:12:45 IST 2012	Prop accepted, get counter offers returned: 0
Sun Dec 02 19:12:45 IST 2012	A Phase Ended: Communication Phase
Sun Dec 02 19:12:45 IST 2012	Protocol: A New Phase Began: Exchange Phase
Sun Dec 02 19:12:45 IST 2012	Protocol: Exchange phase, Round: 11
Sun Dec 02 19:12:45 IST 2012	In begin exch.phase, get counter offers returned: 0
Sun Dec 02 19:12:57 IST 2012	A Phase Ended: Exchange Phase
Sun Dec 02 19:12:57 IST 2012	Proposer 337 sent: { chips  'CTRed':0 'CTPurple':0 'CTGreen':1 'grey78':0 'CTYellow':0 }
Sun Dec 02 19:12:57 IST 2012	Responder 310 sent: { chips  }
Sun Dec 02 19:12:57 IST 2012	Protocol: A New Phase Began: Movement Phase
Sun Dec 02 19:12:57 IST 2012	Protocol: Movement phase, Round: 11
Sun Dec 02 19:12:57 IST 2012	Player 310 moved to (R:0,C:2)
Sun Dec 02 19:13:01 IST 2012	Slept 4 seconds
Sun Dec 02 19:13:01 IST 2012	Player 310 got to goal, advance the other and end game
Sun Dec 02 19:13:01 IST 2012	Player: 310 ,role: Responder score is: 215
Sun Dec 02 19:13:01 IST 2012	Player: 337 ,role: Proposer score is: 30
