Tue Dec 04 23:21:29 IST 2012	This is the CT debug logger; svn version 638; sep 27 09
Tue Dec 04 23:21:29 IST 2012	Tue Dec 04 23:21:29 IST 2012
Tue Dec 04 23:21:29 IST 2012	A new Alternative Offers game has began
Tue Dec 04 23:21:29 IST 2012	ID Number: 39747
Tue Dec 04 23:21:29 IST 2012	Creating board
Tue Dec 04 23:21:29 IST 2012	<colors>
Tue Dec 04 23:21:29 IST 2012	{ GamePalette  'CTRed':0 'CTPurple':1 'CTGreen':2 'grey78':3 'CTYellow':4 }
Tue Dec 04 23:21:29 IST 2012	<rows>
Tue Dec 04 23:21:29 IST 2012	7
Tue Dec 04 23:21:29 IST 2012	<columns>
Tue Dec 04 23:21:29 IST 2012	5
Tue Dec 04 23:21:29 IST 2012	<squaresColors>
Tue Dec 04 23:21:29 IST 2012	CTPurple CTRed CTRed CTGreen CTPurple 
Tue Dec 04 23:21:29 IST 2012	CTPurple grey78 CTPurple CTYellow CTPurple 
Tue Dec 04 23:21:29 IST 2012	CTPurple CTRed CTPurple CTGreen CTPurple 
Tue Dec 04 23:21:29 IST 2012	CTPurple grey78 CTPurple CTYellow CTPurple 
Tue Dec 04 23:21:29 IST 2012	CTPurple CTRed CTPurple CTGreen CTPurple 
Tue Dec 04 23:21:29 IST 2012	CTPurple grey78 CTPurple CTYellow CTPurple 
Tue Dec 04 23:21:29 IST 2012	CTPurple CTRed CTPurple CTGreen CTPurple 
Tue Dec 04 23:21:29 IST 2012	</squareColors>
Tue Dec 04 23:21:29 IST 2012	<goalPosition>
Tue Dec 04 23:21:29 IST 2012	Goal position: (R:0,C:2)
Tue Dec 04 23:21:29 IST 2012	<numberOfPlayers>
Tue Dec 04 23:21:29 IST 2012	2
Tue Dec 04 23:21:29 IST 2012	<firstPlayerChips>
Tue Dec 04 23:21:29 IST 2012	Setting chips for player: 337 id:0
Tue Dec 04 23:21:29 IST 2012	{ chips  'CTRed':5 'CTGreen':10 'CTPurple':0 'grey78':0 'CTYellow':9 }
Tue Dec 04 23:21:29 IST 2012	Player position: (R:6,C:0)
Tue Dec 04 23:21:29 IST 2012	Setting chips for player: 310 id:1
Tue Dec 04 23:21:29 IST 2012	{ chips  'CTRed':1 'CTGreen':13 'CTPurple':0 'grey78':10 'CTYellow':0 }
Tue Dec 04 23:21:29 IST 2012	Player position: (R:6,C:4)
Tue Dec 04 23:21:29 IST 2012	Protocol: A New Phase Began: Strategy Prep Phase
Tue Dec 04 23:21:29 IST 2012	Protocol: Strategy Preparation phase, Round: 0
Tue Dec 04 23:21:29 IST 2012	Maximum number of rounds with no consecutive movement is 3
Tue Dec 04 23:21:29 IST 2012	In begin comm. phase, set counter offers count to: 0
Tue Dec 04 23:21:29 IST 2012	In begin comm. phase, get counter offers returned: 0
Tue Dec 04 23:21:50 IST 2012	A Phase Ended: Strategy Prep Phase
Tue Dec 04 23:21:50 IST 2012	Protocol: A New Phase Began: Communication Phase
Tue Dec 04 23:21:50 IST 2012	Protocol: Communication phase, Round: 0
Tue Dec 04 23:22:50 IST 2012	Received communication message 
Tue Dec 04 23:22:50 IST 2012	From player: 337
Tue Dec 04 23:22:50 IST 2012	To player: 310
Tue Dec 04 23:22:50 IST 2012	Message type: basicproposal
Tue Dec 04 23:22:50 IST 2012	Chips to send by proposer: { chips  'CTGreen':2 }
Tue Dec 04 23:22:50 IST 2012	Chips to send by responder: { chips  'grey78':1 }
Tue Dec 04 23:23:02 IST 2012	Received communication message 
Tue Dec 04 23:23:02 IST 2012	From player: 310
Tue Dec 04 23:23:02 IST 2012	To player: 337
Tue Dec 04 23:23:02 IST 2012	Message type: basicproposaldiscussion
Tue Dec 04 23:23:02 IST 2012	Player 310 accepted offer
Tue Dec 04 23:23:02 IST 2012	Prop accepted, set counter offers count to: 0
Tue Dec 04 23:23:02 IST 2012	Prop accepted, get counter offers returned: 0
Tue Dec 04 23:23:02 IST 2012	A Phase Ended: Communication Phase
Tue Dec 04 23:23:02 IST 2012	Protocol: A New Phase Began: Exchange Phase
Tue Dec 04 23:23:02 IST 2012	Protocol: Exchange phase, Round: 0
Tue Dec 04 23:23:02 IST 2012	In begin exch.phase, get counter offers returned: 0
Tue Dec 04 23:23:31 IST 2012	A Phase Ended: Exchange Phase
Tue Dec 04 23:23:31 IST 2012	Proposer 337 sent: { chips  'CTRed':0 'CTPurple':0 'CTGreen':2 'grey78':0 'CTYellow':0 }
Tue Dec 04 23:23:31 IST 2012	Responder 310 sent: { chips  'CTRed':0 'CTPurple':0 'CTGreen':0 'grey78':1 'CTYellow':0 }
Tue Dec 04 23:23:31 IST 2012	Protocol: A New Phase Began: Movement Phase
Tue Dec 04 23:23:31 IST 2012	Protocol: Movement phase, Round: 0
Tue Dec 04 23:23:51 IST 2012	A Phase Ended: Movement Phase
Tue Dec 04 23:23:51 IST 2012	Swaping roles:
Tue Dec 04 23:23:51 IST 2012	Proposer is: 310
Tue Dec 04 23:23:51 IST 2012	Responder is: 337
Tue Dec 04 23:23:51 IST 2012	Protocol: A New Phase Began: Feedback Phase
Tue Dec 04 23:23:51 IST 2012	Protocol: Feedback phase, Round: 0
Tue Dec 04 23:23:51 IST 2012	Number of consecutive no movements for player 337 is 1
Tue Dec 04 23:23:51 IST 2012	Number of consecutive no movements for player 310 is 1
Tue Dec 04 23:23:56 IST 2012	A Phase Ended: Feedback Phase
Tue Dec 04 23:23:56 IST 2012	Protocol: A New Phase Began: Communication Phase
Tue Dec 04 23:23:56 IST 2012	Protocol: Communication phase, Round: 1
Tue Dec 04 23:24:39 IST 2012	Received communication message 
Tue Dec 04 23:24:39 IST 2012	From player: 310
Tue Dec 04 23:24:39 IST 2012	To player: 337
Tue Dec 04 23:24:39 IST 2012	Message type: basicproposal
Tue Dec 04 23:24:39 IST 2012	Chips to send by proposer: { chips  'CTRed':0 'CTPurple':0 'CTGreen':0 'grey78':2 'CTYellow':0 }
Tue Dec 04 23:24:39 IST 2012	Chips to send by responder: { chips  'CTRed':0 'CTPurple':0 'CTGreen':0 'grey78':0 'CTYellow':1 }
Tue Dec 04 23:25:27 IST 2012	Received communication message 
Tue Dec 04 23:25:27 IST 2012	From player: 337
Tue Dec 04 23:25:27 IST 2012	To player: 310
Tue Dec 04 23:25:27 IST 2012	Message type: basicproposaldiscussion
Tue Dec 04 23:25:27 IST 2012	Player 337 rejected offer
Tue Dec 04 23:25:27 IST 2012	Swaping roles:
Tue Dec 04 23:25:27 IST 2012	Proposer is: 337
Tue Dec 04 23:25:27 IST 2012	Responder is: 310
Tue Dec 04 23:25:27 IST 2012	Prop rejected, set counter offers count to: 1
Tue Dec 04 23:25:27 IST 2012	Prop rejected, get counter offers returned: 1
Tue Dec 04 23:25:31 IST 2012	Slept 4 seconds
Tue Dec 04 23:25:31 IST 2012	Sent role changed msgs
Tue Dec 04 23:26:31 IST 2012	Received communication message 
Tue Dec 04 23:26:31 IST 2012	From player: 337
Tue Dec 04 23:26:31 IST 2012	To player: 310
Tue Dec 04 23:26:31 IST 2012	Message type: basicproposal
Tue Dec 04 23:26:31 IST 2012	Chips to send by proposer: { chips  'CTRed':0 'CTPurple':0 'CTGreen':0 'grey78':0 'CTYellow':1 }
Tue Dec 04 23:26:31 IST 2012	Chips to send by responder: { chips  'CTRed':0 'CTPurple':0 'CTGreen':1 'grey78':1 'CTYellow':0 }
Tue Dec 04 23:26:43 IST 2012	Received communication message 
Tue Dec 04 23:26:43 IST 2012	From player: 310
Tue Dec 04 23:26:43 IST 2012	To player: 337
Tue Dec 04 23:26:43 IST 2012	Message type: basicproposaldiscussion
Tue Dec 04 23:26:43 IST 2012	Player 310 accepted offer
Tue Dec 04 23:26:43 IST 2012	Prop accepted, set counter offers count to: 0
Tue Dec 04 23:26:43 IST 2012	Prop accepted, get counter offers returned: 0
Tue Dec 04 23:26:43 IST 2012	A Phase Ended: Communication Phase
Tue Dec 04 23:26:43 IST 2012	Protocol: A New Phase Began: Exchange Phase
Tue Dec 04 23:26:43 IST 2012	Protocol: Exchange phase, Round: 1
Tue Dec 04 23:26:43 IST 2012	In begin exch.phase, get counter offers returned: 0
Tue Dec 04 23:27:12 IST 2012	A Phase Ended: Exchange Phase
Tue Dec 04 23:27:12 IST 2012	Proposer 337 sent: { chips  'CTRed':0 'CTPurple':0 'CTGreen':0 'grey78':0 'CTYellow':1 }
Tue Dec 04 23:27:12 IST 2012	Responder 310 sent: { chips  'CTRed':0 'CTPurple':0 'CTGreen':0 'grey78':1 'CTYellow':0 }
Tue Dec 04 23:27:12 IST 2012	Protocol: A New Phase Began: Movement Phase
Tue Dec 04 23:27:12 IST 2012	Protocol: Movement phase, Round: 1
Tue Dec 04 23:27:32 IST 2012	A Phase Ended: Movement Phase
Tue Dec 04 23:27:32 IST 2012	Protocol: A New Phase Began: Feedback Phase
Tue Dec 04 23:27:32 IST 2012	Protocol: Feedback phase, Round: 1
Tue Dec 04 23:27:32 IST 2012	Number of consecutive no movements for player 337 is 2
Tue Dec 04 23:27:32 IST 2012	Number of consecutive no movements for player 310 is 2
Tue Dec 04 23:27:37 IST 2012	A Phase Ended: Feedback Phase
Tue Dec 04 23:27:37 IST 2012	Protocol: A New Phase Began: Communication Phase
Tue Dec 04 23:27:37 IST 2012	Protocol: Communication phase, Round: 2
Tue Dec 04 23:28:37 IST 2012	Received communication message 
Tue Dec 04 23:28:37 IST 2012	From player: 337
Tue Dec 04 23:28:37 IST 2012	To player: 310
Tue Dec 04 23:28:37 IST 2012	Message type: basicproposal
Tue Dec 04 23:28:37 IST 2012	Chips to send by proposer: { chips  'CTYellow':2 }
Tue Dec 04 23:28:37 IST 2012	Chips to send by responder: { chips  'grey78':2 }
Tue Dec 04 23:28:46 IST 2012	Received communication message 
Tue Dec 04 23:28:46 IST 2012	From player: 310
Tue Dec 04 23:28:46 IST 2012	To player: 337
Tue Dec 04 23:28:46 IST 2012	Message type: basicproposaldiscussion
Tue Dec 04 23:28:46 IST 2012	Player 310 rejected offer
Tue Dec 04 23:28:46 IST 2012	Swaping roles:
Tue Dec 04 23:28:46 IST 2012	Proposer is: 310
Tue Dec 04 23:28:46 IST 2012	Responder is: 337
Tue Dec 04 23:28:46 IST 2012	Prop rejected, set counter offers count to: 1
Tue Dec 04 23:28:46 IST 2012	Prop rejected, get counter offers returned: 1
Tue Dec 04 23:28:50 IST 2012	Slept 4 seconds
Tue Dec 04 23:28:50 IST 2012	Sent role changed msgs
Tue Dec 04 23:29:09 IST 2012	Received communication message 
Tue Dec 04 23:29:09 IST 2012	From player: 310
Tue Dec 04 23:29:09 IST 2012	To player: 337
Tue Dec 04 23:29:09 IST 2012	Message type: basicproposal
Tue Dec 04 23:29:09 IST 2012	Chips to send by proposer: { chips  'CTRed':0 'CTPurple':0 'CTGreen':5 'grey78':1 'CTYellow':0 }
Tue Dec 04 23:29:09 IST 2012	Chips to send by responder: { chips  'CTRed':0 'CTPurple':0 'CTGreen':0 'grey78':0 'CTYellow':2 }
Tue Dec 04 23:29:52 IST 2012	Received communication message 
Tue Dec 04 23:29:52 IST 2012	From player: 337
Tue Dec 04 23:29:52 IST 2012	To player: 310
Tue Dec 04 23:29:52 IST 2012	Message type: basicproposaldiscussion
Tue Dec 04 23:29:52 IST 2012	Player 337 rejected offer
Tue Dec 04 23:29:52 IST 2012	Set counter offers count to: 0
Tue Dec 04 23:29:52 IST 2012	A Phase Ended: Communication Phase
Tue Dec 04 23:29:52 IST 2012	Protocol: A New Phase Began: Exchange Phase
Tue Dec 04 23:29:52 IST 2012	Protocol: Exchange phase, Round: 2
Tue Dec 04 23:29:52 IST 2012	In begin exch.phase, get counter offers returned: 0
Tue Dec 04 23:30:33 IST 2012	A Phase Ended: Exchange Phase
Tue Dec 04 23:30:33 IST 2012	Responder 337 sent: { chips  }
Tue Dec 04 23:30:33 IST 2012	Protocol: A New Phase Began: Movement Phase
Tue Dec 04 23:30:33 IST 2012	Protocol: Movement phase, Round: 2
Tue Dec 04 23:30:33 IST 2012	Player 337 moved to (R:6,C:1)
Tue Dec 04 23:30:33 IST 2012	Player 310 moved to (R:6,C:3)
Tue Dec 04 23:30:53 IST 2012	A Phase Ended: Movement Phase
Tue Dec 04 23:30:53 IST 2012	Protocol: A New Phase Began: Feedback Phase
Tue Dec 04 23:30:53 IST 2012	Protocol: Feedback phase, Round: 2
Tue Dec 04 23:30:53 IST 2012	Number of consecutive no movements for player 337 is 0
Tue Dec 04 23:30:53 IST 2012	Number of consecutive no movements for player 310 is 0
Tue Dec 04 23:30:58 IST 2012	A Phase Ended: Feedback Phase
Tue Dec 04 23:30:58 IST 2012	Protocol: A New Phase Began: Communication Phase
Tue Dec 04 23:30:58 IST 2012	Protocol: Communication phase, Round: 3
Tue Dec 04 23:31:22 IST 2012	Received communication message 
Tue Dec 04 23:31:22 IST 2012	From player: 310
Tue Dec 04 23:31:22 IST 2012	To player: 337
Tue Dec 04 23:31:22 IST 2012	Message type: basicproposal
Tue Dec 04 23:31:22 IST 2012	Chips to send by proposer: { chips  'CTRed':0 'CTPurple':0 'CTGreen':6 'grey78':1 'CTYellow':0 }
Tue Dec 04 23:31:22 IST 2012	Chips to send by responder: { chips  'CTRed':0 'CTPurple':0 'CTGreen':0 'grey78':0 'CTYellow':2 }
Tue Dec 04 23:32:04 IST 2012	Received communication message 
Tue Dec 04 23:32:04 IST 2012	From player: 337
Tue Dec 04 23:32:04 IST 2012	To player: 310
Tue Dec 04 23:32:04 IST 2012	Message type: basicproposaldiscussion
Tue Dec 04 23:32:04 IST 2012	Player 337 rejected offer
Tue Dec 04 23:32:04 IST 2012	Swaping roles:
Tue Dec 04 23:32:04 IST 2012	Proposer is: 337
Tue Dec 04 23:32:04 IST 2012	Responder is: 310
Tue Dec 04 23:32:04 IST 2012	Prop rejected, set counter offers count to: 1
Tue Dec 04 23:32:04 IST 2012	Prop rejected, get counter offers returned: 1
Tue Dec 04 23:32:08 IST 2012	Slept 4 seconds
Tue Dec 04 23:32:08 IST 2012	Sent role changed msgs
Tue Dec 04 23:33:08 IST 2012	Received communication message 
Tue Dec 04 23:33:08 IST 2012	From player: 337
Tue Dec 04 23:33:08 IST 2012	To player: 310
Tue Dec 04 23:33:08 IST 2012	Message type: basicproposal
Tue Dec 04 23:33:08 IST 2012	Chips to send by proposer: { chips  'CTRed':0 'CTPurple':0 'CTGreen':0 'grey78':0 'CTYellow':1 }
Tue Dec 04 23:33:08 IST 2012	Chips to send by responder: { chips  'CTRed':0 'CTPurple':0 'CTGreen':2 'grey78':1 'CTYellow':0 }
Tue Dec 04 23:33:20 IST 2012	Received communication message 
Tue Dec 04 23:33:20 IST 2012	From player: 310
Tue Dec 04 23:33:20 IST 2012	To player: 337
Tue Dec 04 23:33:20 IST 2012	Message type: basicproposaldiscussion
Tue Dec 04 23:33:20 IST 2012	Player 310 rejected offer
Tue Dec 04 23:33:20 IST 2012	Set counter offers count to: 0
Tue Dec 04 23:33:20 IST 2012	A Phase Ended: Communication Phase
Tue Dec 04 23:33:20 IST 2012	Protocol: A New Phase Began: Exchange Phase
Tue Dec 04 23:33:20 IST 2012	Protocol: Exchange phase, Round: 3
Tue Dec 04 23:33:20 IST 2012	In begin exch.phase, get counter offers returned: 0
Tue Dec 04 23:34:00 IST 2012	A Phase Ended: Exchange Phase
Tue Dec 04 23:34:00 IST 2012	Proposer 337 sent: { chips  }
Tue Dec 04 23:34:00 IST 2012	Protocol: A New Phase Began: Movement Phase
Tue Dec 04 23:34:00 IST 2012	Protocol: Movement phase, Round: 3
Tue Dec 04 23:34:20 IST 2012	A Phase Ended: Movement Phase
Tue Dec 04 23:34:20 IST 2012	Protocol: A New Phase Began: Feedback Phase
Tue Dec 04 23:34:20 IST 2012	Protocol: Feedback phase, Round: 3
Tue Dec 04 23:34:20 IST 2012	Number of consecutive no movements for player 337 is 1
Tue Dec 04 23:34:20 IST 2012	Number of consecutive no movements for player 310 is 1
Tue Dec 04 23:34:25 IST 2012	A Phase Ended: Feedback Phase
Tue Dec 04 23:34:25 IST 2012	Protocol: A New Phase Began: Communication Phase
Tue Dec 04 23:34:25 IST 2012	Protocol: Communication phase, Round: 4
Tue Dec 04 23:35:25 IST 2012	Received communication message 
Tue Dec 04 23:35:25 IST 2012	From player: 337
Tue Dec 04 23:35:25 IST 2012	To player: 310
Tue Dec 04 23:35:25 IST 2012	Message type: basicproposal
Tue Dec 04 23:35:25 IST 2012	Chips to send by proposer: { chips  'CTYellow':1 }
Tue Dec 04 23:35:25 IST 2012	Chips to send by responder: { chips  'CTGreen':2 'grey78':1 }
Tue Dec 04 23:35:36 IST 2012	Received communication message 
Tue Dec 04 23:35:36 IST 2012	From player: 310
Tue Dec 04 23:35:36 IST 2012	To player: 337
Tue Dec 04 23:35:36 IST 2012	Message type: basicproposaldiscussion
Tue Dec 04 23:35:36 IST 2012	Player 310 rejected offer
Tue Dec 04 23:35:36 IST 2012	Swaping roles:
Tue Dec 04 23:35:36 IST 2012	Proposer is: 310
Tue Dec 04 23:35:36 IST 2012	Responder is: 337
Tue Dec 04 23:35:36 IST 2012	Prop rejected, set counter offers count to: 1
Tue Dec 04 23:35:36 IST 2012	Prop rejected, get counter offers returned: 1
Tue Dec 04 23:35:40 IST 2012	Slept 4 seconds
Tue Dec 04 23:35:40 IST 2012	Sent role changed msgs
Tue Dec 04 23:35:59 IST 2012	Received communication message 
Tue Dec 04 23:35:59 IST 2012	From player: 310
Tue Dec 04 23:35:59 IST 2012	To player: 337
Tue Dec 04 23:35:59 IST 2012	Message type: basicproposal
Tue Dec 04 23:35:59 IST 2012	Chips to send by proposer: { chips  'CTRed':0 'CTPurple':0 'CTGreen':0 'grey78':1 'CTYellow':0 }
Tue Dec 04 23:35:59 IST 2012	Chips to send by responder: { chips  'CTRed':0 'CTPurple':0 'CTGreen':2 'grey78':0 'CTYellow':1 }
Tue Dec 04 23:36:34 IST 2012	Received communication message 
Tue Dec 04 23:36:34 IST 2012	From player: 337
Tue Dec 04 23:36:34 IST 2012	To player: 310
Tue Dec 04 23:36:34 IST 2012	Message type: basicproposaldiscussion
Tue Dec 04 23:36:34 IST 2012	Player 337 rejected offer
Tue Dec 04 23:36:34 IST 2012	Set counter offers count to: 0
Tue Dec 04 23:36:34 IST 2012	A Phase Ended: Communication Phase
Tue Dec 04 23:36:34 IST 2012	Protocol: A New Phase Began: Exchange Phase
Tue Dec 04 23:36:34 IST 2012	Protocol: Exchange phase, Round: 4
Tue Dec 04 23:36:34 IST 2012	In begin exch.phase, get counter offers returned: 0
Tue Dec 04 23:37:14 IST 2012	A Phase Ended: Exchange Phase
Tue Dec 04 23:37:14 IST 2012	Responder 337 sent: { chips  }
Tue Dec 04 23:37:14 IST 2012	Protocol: A New Phase Began: Movement Phase
Tue Dec 04 23:37:14 IST 2012	Protocol: Movement phase, Round: 4
Tue Dec 04 23:37:35 IST 2012	A Phase Ended: Movement Phase
Tue Dec 04 23:37:35 IST 2012	Protocol: A New Phase Began: Feedback Phase
Tue Dec 04 23:37:35 IST 2012	Protocol: Feedback phase, Round: 4
Tue Dec 04 23:37:35 IST 2012	Number of consecutive no movements for player 337 is 2
Tue Dec 04 23:37:35 IST 2012	Number of consecutive no movements for player 310 is 2
Tue Dec 04 23:37:40 IST 2012	A Phase Ended: Feedback Phase
Tue Dec 04 23:37:40 IST 2012	Protocol: A New Phase Began: Communication Phase
Tue Dec 04 23:37:40 IST 2012	Protocol: Communication phase, Round: 5
Tue Dec 04 23:37:56 IST 2012	Received communication message 
Tue Dec 04 23:37:56 IST 2012	From player: 310
Tue Dec 04 23:37:56 IST 2012	To player: 337
Tue Dec 04 23:37:56 IST 2012	Message type: basicproposal
Tue Dec 04 23:37:56 IST 2012	Chips to send by proposer: { chips  'CTRed':0 'CTPurple':0 'CTGreen':5 'grey78':1 'CTYellow':0 }
Tue Dec 04 23:37:56 IST 2012	Chips to send by responder: { chips  'CTRed':0 'CTPurple':0 'CTGreen':0 'grey78':0 'CTYellow':2 }
Tue Dec 04 23:38:35 IST 2012	Received communication message 
Tue Dec 04 23:38:35 IST 2012	From player: 337
Tue Dec 04 23:38:35 IST 2012	To player: 310
Tue Dec 04 23:38:35 IST 2012	Message type: basicproposaldiscussion
Tue Dec 04 23:38:35 IST 2012	Player 337 rejected offer
Tue Dec 04 23:38:35 IST 2012	Swaping roles:
Tue Dec 04 23:38:35 IST 2012	Proposer is: 337
Tue Dec 04 23:38:35 IST 2012	Responder is: 310
Tue Dec 04 23:38:35 IST 2012	Prop rejected, set counter offers count to: 1
Tue Dec 04 23:38:35 IST 2012	Prop rejected, get counter offers returned: 1
Tue Dec 04 23:38:39 IST 2012	Slept 4 seconds
Tue Dec 04 23:38:39 IST 2012	Sent role changed msgs
Tue Dec 04 23:39:39 IST 2012	Received communication message 
Tue Dec 04 23:39:39 IST 2012	From player: 337
Tue Dec 04 23:39:39 IST 2012	To player: 310
Tue Dec 04 23:39:39 IST 2012	Message type: basicproposal
Tue Dec 04 23:39:39 IST 2012	Chips to send by proposer: { chips  'CTRed':0 'CTPurple':0 'CTGreen':0 'grey78':0 'CTYellow':1 }
Tue Dec 04 23:39:39 IST 2012	Chips to send by responder: { chips  'CTRed':0 'CTPurple':0 'CTGreen':2 'grey78':1 'CTYellow':0 }
Tue Dec 04 23:39:51 IST 2012	Received communication message 
Tue Dec 04 23:39:51 IST 2012	From player: 310
Tue Dec 04 23:39:51 IST 2012	To player: 337
Tue Dec 04 23:39:51 IST 2012	Message type: basicproposaldiscussion
Tue Dec 04 23:39:51 IST 2012	Player 310 rejected offer
Tue Dec 04 23:39:51 IST 2012	Set counter offers count to: 0
Tue Dec 04 23:39:51 IST 2012	A Phase Ended: Communication Phase
Tue Dec 04 23:39:51 IST 2012	Protocol: A New Phase Began: Exchange Phase
Tue Dec 04 23:39:51 IST 2012	Protocol: Exchange phase, Round: 5
Tue Dec 04 23:39:51 IST 2012	In begin exch.phase, get counter offers returned: 0
Tue Dec 04 23:40:31 IST 2012	A Phase Ended: Exchange Phase
Tue Dec 04 23:40:31 IST 2012	Proposer 337 sent: { chips  }
Tue Dec 04 23:40:31 IST 2012	Protocol: A New Phase Began: Movement Phase
Tue Dec 04 23:40:31 IST 2012	Protocol: Movement phase, Round: 5
Tue Dec 04 23:40:31 IST 2012	Player 337 moved to (R:5,C:1)
Tue Dec 04 23:40:31 IST 2012	Player 310 moved to (R:5,C:3)
Tue Dec 04 23:40:51 IST 2012	A Phase Ended: Movement Phase
Tue Dec 04 23:40:51 IST 2012	Protocol: A New Phase Began: Feedback Phase
Tue Dec 04 23:40:51 IST 2012	Protocol: Feedback phase, Round: 5
Tue Dec 04 23:40:51 IST 2012	Number of consecutive no movements for player 337 is 0
Tue Dec 04 23:40:51 IST 2012	Number of consecutive no movements for player 310 is 0
Tue Dec 04 23:40:57 IST 2012	A Phase Ended: Feedback Phase
Tue Dec 04 23:40:57 IST 2012	Protocol: A New Phase Began: Communication Phase
Tue Dec 04 23:40:57 IST 2012	Protocol: Communication phase, Round: 6
Tue Dec 04 23:41:57 IST 2012	Received communication message 
Tue Dec 04 23:41:57 IST 2012	From player: 337
Tue Dec 04 23:41:57 IST 2012	To player: 310
Tue Dec 04 23:41:57 IST 2012	Message type: basicproposal
Tue Dec 04 23:41:57 IST 2012	Chips to send by proposer: { chips  'CTYellow':1 }
Tue Dec 04 23:41:57 IST 2012	Chips to send by responder: { chips  'CTGreen':2 'grey78':1 }
Tue Dec 04 23:42:06 IST 2012	Received communication message 
Tue Dec 04 23:42:06 IST 2012	From player: 310
Tue Dec 04 23:42:06 IST 2012	To player: 337
Tue Dec 04 23:42:06 IST 2012	Message type: basicproposaldiscussion
Tue Dec 04 23:42:06 IST 2012	Player 310 rejected offer
Tue Dec 04 23:42:06 IST 2012	Swaping roles:
Tue Dec 04 23:42:06 IST 2012	Proposer is: 310
Tue Dec 04 23:42:06 IST 2012	Responder is: 337
Tue Dec 04 23:42:06 IST 2012	Prop rejected, set counter offers count to: 1
Tue Dec 04 23:42:06 IST 2012	Prop rejected, get counter offers returned: 1
Tue Dec 04 23:42:10 IST 2012	Slept 4 seconds
Tue Dec 04 23:42:10 IST 2012	Sent role changed msgs
Tue Dec 04 23:42:31 IST 2012	Received communication message 
Tue Dec 04 23:42:31 IST 2012	From player: 310
Tue Dec 04 23:42:31 IST 2012	To player: 337
Tue Dec 04 23:42:31 IST 2012	Message type: basicproposal
Tue Dec 04 23:42:31 IST 2012	Chips to send by proposer: { chips  'CTRed':0 'CTPurple':0 'CTGreen':4 'grey78':1 'CTYellow':0 }
Tue Dec 04 23:42:31 IST 2012	Chips to send by responder: { chips  'CTRed':0 'CTPurple':0 'CTGreen':0 'grey78':0 'CTYellow':2 }
Tue Dec 04 23:43:03 IST 2012	Received communication message 
Tue Dec 04 23:43:03 IST 2012	From player: 337
Tue Dec 04 23:43:03 IST 2012	To player: 310
Tue Dec 04 23:43:03 IST 2012	Message type: basicproposaldiscussion
Tue Dec 04 23:43:03 IST 2012	Player 337 rejected offer
Tue Dec 04 23:43:03 IST 2012	Set counter offers count to: 0
Tue Dec 04 23:43:03 IST 2012	A Phase Ended: Communication Phase
Tue Dec 04 23:43:03 IST 2012	Protocol: A New Phase Began: Exchange Phase
Tue Dec 04 23:43:03 IST 2012	Protocol: Exchange phase, Round: 6
Tue Dec 04 23:43:03 IST 2012	In begin exch.phase, get counter offers returned: 0
Tue Dec 04 23:43:43 IST 2012	A Phase Ended: Exchange Phase
Tue Dec 04 23:43:43 IST 2012	Responder 337 sent: { chips  }
Tue Dec 04 23:43:43 IST 2012	Protocol: A New Phase Began: Movement Phase
Tue Dec 04 23:43:43 IST 2012	Protocol: Movement phase, Round: 6
Tue Dec 04 23:44:03 IST 2012	A Phase Ended: Movement Phase
Tue Dec 04 23:44:03 IST 2012	Protocol: A New Phase Began: Feedback Phase
Tue Dec 04 23:44:03 IST 2012	Protocol: Feedback phase, Round: 6
Tue Dec 04 23:44:03 IST 2012	Number of consecutive no movements for player 337 is 1
Tue Dec 04 23:44:03 IST 2012	Number of consecutive no movements for player 310 is 1
Tue Dec 04 23:44:08 IST 2012	A Phase Ended: Feedback Phase
Tue Dec 04 23:44:08 IST 2012	Protocol: A New Phase Began: Communication Phase
Tue Dec 04 23:44:08 IST 2012	Protocol: Communication phase, Round: 7
Tue Dec 04 23:44:25 IST 2012	Received communication message 
Tue Dec 04 23:44:25 IST 2012	From player: 310
Tue Dec 04 23:44:25 IST 2012	To player: 337
Tue Dec 04 23:44:25 IST 2012	Message type: basicproposal
Tue Dec 04 23:44:25 IST 2012	Chips to send by proposer: { chips  'CTRed':0 'CTPurple':0 'CTGreen':5 'grey78':1 'CTYellow':0 }
Tue Dec 04 23:44:25 IST 2012	Chips to send by responder: { chips  'CTRed':0 'CTPurple':0 'CTGreen':0 'grey78':0 'CTYellow':2 }
Tue Dec 04 23:44:55 IST 2012	Received communication message 
Tue Dec 04 23:44:55 IST 2012	From player: 337
Tue Dec 04 23:44:55 IST 2012	To player: 310
Tue Dec 04 23:44:55 IST 2012	Message type: basicproposaldiscussion
Tue Dec 04 23:44:55 IST 2012	Player 337 rejected offer
Tue Dec 04 23:44:55 IST 2012	Swaping roles:
Tue Dec 04 23:44:55 IST 2012	Proposer is: 337
Tue Dec 04 23:44:55 IST 2012	Responder is: 310
Tue Dec 04 23:44:55 IST 2012	Prop rejected, set counter offers count to: 1
Tue Dec 04 23:44:55 IST 2012	Prop rejected, get counter offers returned: 1
Tue Dec 04 23:44:59 IST 2012	Slept 4 seconds
Tue Dec 04 23:44:59 IST 2012	Sent role changed msgs
Tue Dec 04 23:45:59 IST 2012	Received communication message 
Tue Dec 04 23:45:59 IST 2012	From player: 337
Tue Dec 04 23:45:59 IST 2012	To player: 310
Tue Dec 04 23:45:59 IST 2012	Message type: basicproposal
Tue Dec 04 23:45:59 IST 2012	Chips to send by proposer: { chips  'CTRed':0 'CTPurple':0 'CTGreen':0 'grey78':0 'CTYellow':1 }
Tue Dec 04 23:45:59 IST 2012	Chips to send by responder: { chips  'CTRed':0 'CTPurple':0 'CTGreen':2 'grey78':1 'CTYellow':0 }
Tue Dec 04 23:46:10 IST 2012	Received communication message 
Tue Dec 04 23:46:10 IST 2012	From player: 310
Tue Dec 04 23:46:10 IST 2012	To player: 337
Tue Dec 04 23:46:10 IST 2012	Message type: basicproposaldiscussion
Tue Dec 04 23:46:10 IST 2012	Player 310 rejected offer
Tue Dec 04 23:46:10 IST 2012	Set counter offers count to: 0
Tue Dec 04 23:46:10 IST 2012	A Phase Ended: Communication Phase
Tue Dec 04 23:46:10 IST 2012	Protocol: A New Phase Began: Exchange Phase
Tue Dec 04 23:46:10 IST 2012	Protocol: Exchange phase, Round: 7
Tue Dec 04 23:46:10 IST 2012	In begin exch.phase, get counter offers returned: 0
Tue Dec 04 23:46:50 IST 2012	A Phase Ended: Exchange Phase
Tue Dec 04 23:46:50 IST 2012	Proposer 337 sent: { chips  }
Tue Dec 04 23:46:50 IST 2012	Protocol: A New Phase Began: Movement Phase
Tue Dec 04 23:46:50 IST 2012	Protocol: Movement phase, Round: 7
Tue Dec 04 23:47:11 IST 2012	A Phase Ended: Movement Phase
Tue Dec 04 23:47:11 IST 2012	Protocol: A New Phase Began: Feedback Phase
Tue Dec 04 23:47:11 IST 2012	Protocol: Feedback phase, Round: 7
Tue Dec 04 23:47:11 IST 2012	Number of consecutive no movements for player 337 is 2
Tue Dec 04 23:47:11 IST 2012	Number of consecutive no movements for player 310 is 2
Tue Dec 04 23:47:16 IST 2012	A Phase Ended: Feedback Phase
Tue Dec 04 23:47:16 IST 2012	Protocol: A New Phase Began: Communication Phase
Tue Dec 04 23:47:16 IST 2012	Protocol: Communication phase, Round: 8
Tue Dec 04 23:48:16 IST 2012	Received communication message 
Tue Dec 04 23:48:16 IST 2012	From player: 337
Tue Dec 04 23:48:16 IST 2012	To player: 310
Tue Dec 04 23:48:16 IST 2012	Message type: basicproposal
Tue Dec 04 23:48:16 IST 2012	Chips to send by proposer: { chips  'CTYellow':1 }
Tue Dec 04 23:48:16 IST 2012	Chips to send by responder: { chips  'CTGreen':1 'grey78':1 }
Tue Dec 04 23:48:28 IST 2012	Received communication message 
Tue Dec 04 23:48:28 IST 2012	From player: 310
Tue Dec 04 23:48:28 IST 2012	To player: 337
Tue Dec 04 23:48:28 IST 2012	Message type: basicproposaldiscussion
Tue Dec 04 23:48:28 IST 2012	Player 310 rejected offer
Tue Dec 04 23:48:28 IST 2012	Swaping roles:
Tue Dec 04 23:48:28 IST 2012	Proposer is: 310
Tue Dec 04 23:48:28 IST 2012	Responder is: 337
Tue Dec 04 23:48:28 IST 2012	Prop rejected, set counter offers count to: 1
Tue Dec 04 23:48:28 IST 2012	Prop rejected, get counter offers returned: 1
Tue Dec 04 23:48:32 IST 2012	Slept 4 seconds
Tue Dec 04 23:48:32 IST 2012	Sent role changed msgs
Tue Dec 04 23:48:54 IST 2012	Received communication message 
Tue Dec 04 23:48:54 IST 2012	From player: 310
Tue Dec 04 23:48:54 IST 2012	To player: 337
Tue Dec 04 23:48:54 IST 2012	Message type: basicproposal
Tue Dec 04 23:48:54 IST 2012	Chips to send by proposer: { chips  'CTRed':0 'CTPurple':0 'CTGreen':5 'grey78':1 'CTYellow':0 }
Tue Dec 04 23:48:54 IST 2012	Chips to send by responder: { chips  'CTRed':0 'CTPurple':0 'CTGreen':0 'grey78':0 'CTYellow':2 }
Tue Dec 04 23:49:21 IST 2012	Received communication message 
Tue Dec 04 23:49:21 IST 2012	From player: 337
Tue Dec 04 23:49:21 IST 2012	To player: 310
Tue Dec 04 23:49:21 IST 2012	Message type: basicproposaldiscussion
Tue Dec 04 23:49:21 IST 2012	Player 337 rejected offer
Tue Dec 04 23:49:21 IST 2012	Set counter offers count to: 0
Tue Dec 04 23:49:21 IST 2012	A Phase Ended: Communication Phase
Tue Dec 04 23:49:21 IST 2012	Protocol: A New Phase Began: Exchange Phase
Tue Dec 04 23:49:21 IST 2012	Protocol: Exchange phase, Round: 8
Tue Dec 04 23:49:21 IST 2012	In begin exch.phase, get counter offers returned: 0
Tue Dec 04 23:50:01 IST 2012	A Phase Ended: Exchange Phase
Tue Dec 04 23:50:01 IST 2012	Responder 337 sent: { chips  }
Tue Dec 04 23:50:01 IST 2012	Protocol: A New Phase Began: Movement Phase
Tue Dec 04 23:50:01 IST 2012	Protocol: Movement phase, Round: 8
Tue Dec 04 23:50:01 IST 2012	Player 310 moved to (R:4,C:3)
Tue Dec 04 23:50:01 IST 2012	Player 337 moved to (R:4,C:1)
Tue Dec 04 23:50:21 IST 2012	A Phase Ended: Movement Phase
Tue Dec 04 23:50:21 IST 2012	Protocol: A New Phase Began: Feedback Phase
Tue Dec 04 23:50:21 IST 2012	Protocol: Feedback phase, Round: 8
Tue Dec 04 23:50:21 IST 2012	Number of consecutive no movements for player 337 is 0
Tue Dec 04 23:50:21 IST 2012	Number of consecutive no movements for player 310 is 0
Tue Dec 04 23:50:26 IST 2012	A Phase Ended: Feedback Phase
Tue Dec 04 23:50:26 IST 2012	Protocol: A New Phase Began: Communication Phase
Tue Dec 04 23:50:26 IST 2012	Protocol: Communication phase, Round: 9
Tue Dec 04 23:50:47 IST 2012	Received communication message 
Tue Dec 04 23:50:47 IST 2012	From player: 310
Tue Dec 04 23:50:47 IST 2012	To player: 337
Tue Dec 04 23:50:47 IST 2012	Message type: basicproposal
Tue Dec 04 23:50:47 IST 2012	Chips to send by proposer: { chips  'CTRed':0 'CTPurple':0 'CTGreen':5 'grey78':1 'CTYellow':0 }
Tue Dec 04 23:50:47 IST 2012	Chips to send by responder: { chips  'CTRed':0 'CTPurple':0 'CTGreen':0 'grey78':0 'CTYellow':2 }
Tue Dec 04 23:51:11 IST 2012	Received communication message 
Tue Dec 04 23:51:11 IST 2012	From player: 337
Tue Dec 04 23:51:11 IST 2012	To player: 310
Tue Dec 04 23:51:11 IST 2012	Message type: basicproposaldiscussion
Tue Dec 04 23:51:11 IST 2012	Player 337 rejected offer
Tue Dec 04 23:51:11 IST 2012	Swaping roles:
Tue Dec 04 23:51:11 IST 2012	Proposer is: 337
Tue Dec 04 23:51:11 IST 2012	Responder is: 310
Tue Dec 04 23:51:11 IST 2012	Prop rejected, set counter offers count to: 1
Tue Dec 04 23:51:11 IST 2012	Prop rejected, get counter offers returned: 1
Tue Dec 04 23:51:15 IST 2012	Slept 4 seconds
Tue Dec 04 23:51:15 IST 2012	Sent role changed msgs
Tue Dec 04 23:52:15 IST 2012	Received communication message 
Tue Dec 04 23:52:15 IST 2012	From player: 337
Tue Dec 04 23:52:15 IST 2012	To player: 310
Tue Dec 04 23:52:15 IST 2012	Message type: basicproposal
Tue Dec 04 23:52:15 IST 2012	Chips to send by proposer: { chips  'CTRed':0 'CTPurple':0 'CTGreen':0 'grey78':0 'CTYellow':1 }
Tue Dec 04 23:52:15 IST 2012	Chips to send by responder: { chips  'CTRed':0 'CTPurple':0 'CTGreen':1 'grey78':1 'CTYellow':0 }
Tue Dec 04 23:52:24 IST 2012	Received communication message 
Tue Dec 04 23:52:24 IST 2012	From player: 310
Tue Dec 04 23:52:24 IST 2012	To player: 337
Tue Dec 04 23:52:24 IST 2012	Message type: basicproposaldiscussion
Tue Dec 04 23:52:24 IST 2012	Player 310 rejected offer
Tue Dec 04 23:52:24 IST 2012	Set counter offers count to: 0
Tue Dec 04 23:52:24 IST 2012	A Phase Ended: Communication Phase
Tue Dec 04 23:52:24 IST 2012	Protocol: A New Phase Began: Exchange Phase
Tue Dec 04 23:52:24 IST 2012	Protocol: Exchange phase, Round: 9
Tue Dec 04 23:52:24 IST 2012	In begin exch.phase, get counter offers returned: 0
Tue Dec 04 23:53:04 IST 2012	A Phase Ended: Exchange Phase
Tue Dec 04 23:53:04 IST 2012	Proposer 337 sent: { chips  }
Tue Dec 04 23:53:04 IST 2012	Protocol: A New Phase Began: Movement Phase
Tue Dec 04 23:53:04 IST 2012	Protocol: Movement phase, Round: 9
Tue Dec 04 23:53:24 IST 2012	A Phase Ended: Movement Phase
Tue Dec 04 23:53:24 IST 2012	Protocol: A New Phase Began: Feedback Phase
Tue Dec 04 23:53:24 IST 2012	Protocol: Feedback phase, Round: 9
Tue Dec 04 23:53:24 IST 2012	Number of consecutive no movements for player 337 is 1
Tue Dec 04 23:53:24 IST 2012	Number of consecutive no movements for player 310 is 1
Tue Dec 04 23:53:29 IST 2012	A Phase Ended: Feedback Phase
Tue Dec 04 23:53:29 IST 2012	Protocol: A New Phase Began: Communication Phase
Tue Dec 04 23:53:29 IST 2012	Protocol: Communication phase, Round: 10
Tue Dec 04 23:54:29 IST 2012	Received communication message 
Tue Dec 04 23:54:29 IST 2012	From player: 337
Tue Dec 04 23:54:29 IST 2012	To player: 310
Tue Dec 04 23:54:29 IST 2012	Message type: basicproposal
Tue Dec 04 23:54:29 IST 2012	Chips to send by proposer: { chips  'CTYellow':1 }
Tue Dec 04 23:54:29 IST 2012	Chips to send by responder: { chips  'CTGreen':2 'grey78':1 }
Tue Dec 04 23:54:40 IST 2012	Received communication message 
Tue Dec 04 23:54:40 IST 2012	From player: 310
Tue Dec 04 23:54:40 IST 2012	To player: 337
Tue Dec 04 23:54:40 IST 2012	Message type: basicproposaldiscussion
Tue Dec 04 23:54:40 IST 2012	Player 310 rejected offer
Tue Dec 04 23:54:40 IST 2012	Swaping roles:
Tue Dec 04 23:54:40 IST 2012	Proposer is: 310
Tue Dec 04 23:54:40 IST 2012	Responder is: 337
Tue Dec 04 23:54:40 IST 2012	Prop rejected, set counter offers count to: 1
Tue Dec 04 23:54:40 IST 2012	Prop rejected, get counter offers returned: 1
Tue Dec 04 23:54:44 IST 2012	Slept 4 seconds
Tue Dec 04 23:54:44 IST 2012	Sent role changed msgs
Tue Dec 04 23:55:00 IST 2012	Received communication message 
Tue Dec 04 23:55:00 IST 2012	From player: 310
Tue Dec 04 23:55:00 IST 2012	To player: 337
Tue Dec 04 23:55:00 IST 2012	Message type: basicproposal
Tue Dec 04 23:55:00 IST 2012	Chips to send by proposer: { chips  'CTRed':0 'CTPurple':0 'CTGreen':4 'grey78':1 'CTYellow':0 }
Tue Dec 04 23:55:00 IST 2012	Chips to send by responder: { chips  'CTRed':0 'CTPurple':0 'CTGreen':0 'grey78':0 'CTYellow':2 }
Tue Dec 04 23:55:17 IST 2012	Received communication message 
Tue Dec 04 23:55:17 IST 2012	From player: 337
Tue Dec 04 23:55:17 IST 2012	To player: 310
Tue Dec 04 23:55:17 IST 2012	Message type: basicproposaldiscussion
Tue Dec 04 23:55:17 IST 2012	Player 337 accepted offer
Tue Dec 04 23:55:17 IST 2012	Prop accepted, set counter offers count to: 0
Tue Dec 04 23:55:17 IST 2012	Prop accepted, get counter offers returned: 0
Tue Dec 04 23:55:17 IST 2012	A Phase Ended: Communication Phase
Tue Dec 04 23:55:17 IST 2012	Protocol: A New Phase Began: Exchange Phase
Tue Dec 04 23:55:17 IST 2012	Protocol: Exchange phase, Round: 10
Tue Dec 04 23:55:17 IST 2012	In begin exch.phase, get counter offers returned: 0
Tue Dec 04 23:55:35 IST 2012	A Phase Ended: Exchange Phase
Tue Dec 04 23:55:35 IST 2012	Proposer 310 sent: { chips  }
Tue Dec 04 23:55:35 IST 2012	Responder 337 sent: { chips  'CTRed':0 'CTPurple':0 'CTGreen':0 'grey78':0 'CTYellow':2 }
Tue Dec 04 23:55:35 IST 2012	Protocol: A New Phase Began: Movement Phase
Tue Dec 04 23:55:35 IST 2012	Protocol: Movement phase, Round: 10
Tue Dec 04 23:55:35 IST 2012	Player 310 moved to (R:3,C:3)
Tue Dec 04 23:55:55 IST 2012	A Phase Ended: Movement Phase
Tue Dec 04 23:55:55 IST 2012	Protocol: A New Phase Began: Feedback Phase
Tue Dec 04 23:55:55 IST 2012	Protocol: Feedback phase, Round: 10
Tue Dec 04 23:55:55 IST 2012	Number of consecutive no movements for player 337 is 2
Tue Dec 04 23:55:55 IST 2012	Number of consecutive no movements for player 310 is 0
Tue Dec 04 23:56:00 IST 2012	A Phase Ended: Feedback Phase
Tue Dec 04 23:56:00 IST 2012	Protocol: A New Phase Began: Communication Phase
Tue Dec 04 23:56:00 IST 2012	Protocol: Communication phase, Round: 11
Tue Dec 04 23:56:15 IST 2012	Received communication message 
Tue Dec 04 23:56:15 IST 2012	From player: 310
Tue Dec 04 23:56:15 IST 2012	To player: 337
Tue Dec 04 23:56:15 IST 2012	Message type: basicproposal
Tue Dec 04 23:56:15 IST 2012	Chips to send by proposer: { chips  'CTRed':0 'CTPurple':0 'CTGreen':0 'grey78':1 'CTYellow':0 }
Tue Dec 04 23:56:15 IST 2012	Chips to send by responder: { chips  'CTRed':0 'CTPurple':0 'CTGreen':3 'grey78':0 'CTYellow':0 }
Tue Dec 04 23:56:35 IST 2012	Received communication message 
Tue Dec 04 23:56:35 IST 2012	From player: 337
Tue Dec 04 23:56:35 IST 2012	To player: 310
Tue Dec 04 23:56:35 IST 2012	Message type: basicproposaldiscussion
Tue Dec 04 23:56:35 IST 2012	Player 337 rejected offer
Tue Dec 04 23:56:35 IST 2012	Swaping roles:
Tue Dec 04 23:56:35 IST 2012	Proposer is: 337
Tue Dec 04 23:56:35 IST 2012	Responder is: 310
Tue Dec 04 23:56:35 IST 2012	Prop rejected, set counter offers count to: 1
Tue Dec 04 23:56:35 IST 2012	Prop rejected, get counter offers returned: 1
Tue Dec 04 23:56:39 IST 2012	Slept 4 seconds
Tue Dec 04 23:56:39 IST 2012	Sent role changed msgs
Tue Dec 04 23:57:39 IST 2012	Received communication message 
Tue Dec 04 23:57:39 IST 2012	From player: 337
Tue Dec 04 23:57:39 IST 2012	To player: 310
Tue Dec 04 23:57:39 IST 2012	Message type: basicproposal
Tue Dec 04 23:57:39 IST 2012	Chips to send by proposer: { chips  'CTRed':0 'CTPurple':0 'CTGreen':1 'grey78':0 'CTYellow':0 }
Tue Dec 04 23:57:39 IST 2012	Chips to send by responder: { chips  'CTRed':0 'CTPurple':0 'CTGreen':0 'grey78':1 'CTYellow':0 }
Tue Dec 04 23:57:53 IST 2012	Received communication message 
Tue Dec 04 23:57:53 IST 2012	From player: 310
Tue Dec 04 23:57:53 IST 2012	To player: 337
Tue Dec 04 23:57:53 IST 2012	Message type: basicproposaldiscussion
Tue Dec 04 23:57:53 IST 2012	Player 310 accepted offer
Tue Dec 04 23:57:53 IST 2012	Prop accepted, set counter offers count to: 0
Tue Dec 04 23:57:53 IST 2012	Prop accepted, get counter offers returned: 0
Tue Dec 04 23:57:53 IST 2012	A Phase Ended: Communication Phase
Tue Dec 04 23:57:53 IST 2012	Protocol: A New Phase Began: Exchange Phase
Tue Dec 04 23:57:53 IST 2012	Protocol: Exchange phase, Round: 11
Tue Dec 04 23:57:53 IST 2012	In begin exch.phase, get counter offers returned: 0
Tue Dec 04 23:58:08 IST 2012	A Phase Ended: Exchange Phase
Tue Dec 04 23:58:08 IST 2012	Proposer 337 sent: { chips  'CTRed':0 'CTPurple':0 'CTGreen':1 'grey78':0 'CTYellow':0 }
Tue Dec 04 23:58:08 IST 2012	Responder 310 sent: { chips  }
Tue Dec 04 23:58:08 IST 2012	Protocol: A New Phase Began: Movement Phase
Tue Dec 04 23:58:08 IST 2012	Protocol: Movement phase, Round: 11
Tue Dec 04 23:58:08 IST 2012	Player 337 moved to (R:3,C:1)
Tue Dec 04 23:58:08 IST 2012	Player 310 moved to (R:2,C:3)
Tue Dec 04 23:58:28 IST 2012	A Phase Ended: Movement Phase
Tue Dec 04 23:58:28 IST 2012	Protocol: A New Phase Began: Feedback Phase
Tue Dec 04 23:58:28 IST 2012	Protocol: Feedback phase, Round: 11
Tue Dec 04 23:58:28 IST 2012	Number of consecutive no movements for player 337 is 0
Tue Dec 04 23:58:28 IST 2012	Number of consecutive no movements for player 310 is 0
Tue Dec 04 23:58:33 IST 2012	A Phase Ended: Feedback Phase
Tue Dec 04 23:58:33 IST 2012	Protocol: A New Phase Began: Communication Phase
Tue Dec 04 23:58:33 IST 2012	Protocol: Communication phase, Round: 12
Tue Dec 04 23:59:33 IST 2012	Received communication message 
Tue Dec 04 23:59:33 IST 2012	From player: 337
Tue Dec 04 23:59:33 IST 2012	To player: 310
Tue Dec 04 23:59:33 IST 2012	Message type: basicproposal
Tue Dec 04 23:59:33 IST 2012	Chips to send by proposer: { chips  'CTGreen':1 }
Tue Dec 04 23:59:33 IST 2012	Chips to send by responder: { chips  'grey78':1 }
Tue Dec 04 23:59:47 IST 2012	Received communication message 
Tue Dec 04 23:59:47 IST 2012	From player: 310
Tue Dec 04 23:59:47 IST 2012	To player: 337
Tue Dec 04 23:59:47 IST 2012	Message type: basicproposaldiscussion
Tue Dec 04 23:59:47 IST 2012	Player 310 accepted offer
Tue Dec 04 23:59:47 IST 2012	Prop accepted, set counter offers count to: 0
Tue Dec 04 23:59:47 IST 2012	Prop accepted, get counter offers returned: 0
Tue Dec 04 23:59:47 IST 2012	A Phase Ended: Communication Phase
Tue Dec 04 23:59:47 IST 2012	Protocol: A New Phase Began: Exchange Phase
Tue Dec 04 23:59:47 IST 2012	Protocol: Exchange phase, Round: 12
Tue Dec 04 23:59:47 IST 2012	In begin exch.phase, get counter offers returned: 0
Wed Dec 05 00:00:01 IST 2012	A Phase Ended: Exchange Phase
Wed Dec 05 00:00:01 IST 2012	Proposer 337 sent: { chips  'CTRed':0 'CTPurple':0 'CTGreen':1 'grey78':0 'CTYellow':0 }
Wed Dec 05 00:00:01 IST 2012	Responder 310 sent: { chips  }
Wed Dec 05 00:00:01 IST 2012	Protocol: A New Phase Began: Movement Phase
Wed Dec 05 00:00:01 IST 2012	Protocol: Movement phase, Round: 12
Wed Dec 05 00:00:01 IST 2012	Player 310 moved to (R:1,C:3)
Wed Dec 05 00:00:22 IST 2012	A Phase Ended: Movement Phase
Wed Dec 05 00:00:22 IST 2012	Swaping roles:
Wed Dec 05 00:00:22 IST 2012	Proposer is: 310
Wed Dec 05 00:00:22 IST 2012	Responder is: 337
Wed Dec 05 00:00:22 IST 2012	Protocol: A New Phase Began: Feedback Phase
Wed Dec 05 00:00:22 IST 2012	Protocol: Feedback phase, Round: 12
Wed Dec 05 00:00:22 IST 2012	Number of consecutive no movements for player 337 is 1
Wed Dec 05 00:00:22 IST 2012	Number of consecutive no movements for player 310 is 0
Wed Dec 05 00:00:27 IST 2012	A Phase Ended: Feedback Phase
Wed Dec 05 00:00:27 IST 2012	Protocol: A New Phase Began: Communication Phase
Wed Dec 05 00:00:27 IST 2012	Protocol: Communication phase, Round: 13
Wed Dec 05 00:00:45 IST 2012	Received communication message 
Wed Dec 05 00:00:45 IST 2012	From player: 310
Wed Dec 05 00:00:45 IST 2012	To player: 337
Wed Dec 05 00:00:45 IST 2012	Message type: basicproposal
Wed Dec 05 00:00:45 IST 2012	Chips to send by proposer: { chips  'CTRed':0 'CTPurple':0 'CTGreen':0 'grey78':1 'CTYellow':0 }
Wed Dec 05 00:00:45 IST 2012	Chips to send by responder: { chips  'CTRed':0 'CTPurple':0 'CTGreen':3 'grey78':0 'CTYellow':0 }
Wed Dec 05 00:01:02 IST 2012	Received communication message 
Wed Dec 05 00:01:02 IST 2012	From player: 337
Wed Dec 05 00:01:02 IST 2012	To player: 310
Wed Dec 05 00:01:02 IST 2012	Message type: basicproposaldiscussion
Wed Dec 05 00:01:02 IST 2012	Player 337 rejected offer
Wed Dec 05 00:01:02 IST 2012	Swaping roles:
Wed Dec 05 00:01:02 IST 2012	Proposer is: 337
Wed Dec 05 00:01:02 IST 2012	Responder is: 310
Wed Dec 05 00:01:02 IST 2012	Prop rejected, set counter offers count to: 1
Wed Dec 05 00:01:02 IST 2012	Prop rejected, get counter offers returned: 1
Wed Dec 05 00:01:06 IST 2012	Slept 4 seconds
Wed Dec 05 00:01:06 IST 2012	Sent role changed msgs
Wed Dec 05 00:02:01 IST 2012	Received communication message 
Wed Dec 05 00:02:01 IST 2012	From player: 337
Wed Dec 05 00:02:01 IST 2012	To player: 310
Wed Dec 05 00:02:01 IST 2012	Message type: basicproposal
Wed Dec 05 00:02:01 IST 2012	Chips to send by proposer: { chips  'CTRed':0 'CTPurple':0 'CTGreen':1 'grey78':0 'CTYellow':0 }
Wed Dec 05 00:02:01 IST 2012	Chips to send by responder: { chips  'CTRed':0 'CTPurple':0 'CTGreen':0 'grey78':1 'CTYellow':0 }
Wed Dec 05 00:02:10 IST 2012	Received communication message 
Wed Dec 05 00:02:10 IST 2012	From player: 310
Wed Dec 05 00:02:10 IST 2012	To player: 337
Wed Dec 05 00:02:10 IST 2012	Message type: basicproposaldiscussion
Wed Dec 05 00:02:10 IST 2012	Player 310 accepted offer
Wed Dec 05 00:02:10 IST 2012	Prop accepted, set counter offers count to: 0
Wed Dec 05 00:02:10 IST 2012	Prop accepted, get counter offers returned: 0
Wed Dec 05 00:02:10 IST 2012	A Phase Ended: Communication Phase
Wed Dec 05 00:02:10 IST 2012	Protocol: A New Phase Began: Exchange Phase
Wed Dec 05 00:02:10 IST 2012	Protocol: Exchange phase, Round: 13
Wed Dec 05 00:02:10 IST 2012	In begin exch.phase, get counter offers returned: 0
Wed Dec 05 00:02:24 IST 2012	A Phase Ended: Exchange Phase
Wed Dec 05 00:02:24 IST 2012	Proposer 337 sent: { chips  'CTRed':0 'CTPurple':0 'CTGreen':1 'grey78':0 'CTYellow':0 }
Wed Dec 05 00:02:24 IST 2012	Responder 310 sent: { chips  }
Wed Dec 05 00:02:24 IST 2012	Protocol: A New Phase Began: Movement Phase
Wed Dec 05 00:02:24 IST 2012	Protocol: Movement phase, Round: 13
Wed Dec 05 00:02:24 IST 2012	Player 310 moved to (R:0,C:3)
Wed Dec 05 00:02:44 IST 2012	A Phase Ended: Movement Phase
Wed Dec 05 00:02:44 IST 2012	Protocol: A New Phase Began: Feedback Phase
Wed Dec 05 00:02:44 IST 2012	Protocol: Feedback phase, Round: 13
Wed Dec 05 00:02:44 IST 2012	Number of consecutive no movements for player 337 is 2
Wed Dec 05 00:02:44 IST 2012	Number of consecutive no movements for player 310 is 0
Wed Dec 05 00:02:49 IST 2012	A Phase Ended: Feedback Phase
Wed Dec 05 00:02:49 IST 2012	Protocol: A New Phase Began: Communication Phase
Wed Dec 05 00:02:49 IST 2012	Protocol: Communication phase, Round: 14
Wed Dec 05 00:03:31 IST 2012	Received communication message 
Wed Dec 05 00:03:31 IST 2012	From player: 337
Wed Dec 05 00:03:31 IST 2012	To player: 310
Wed Dec 05 00:03:31 IST 2012	Message type: basicproposal
Wed Dec 05 00:03:31 IST 2012	Chips to send by proposer: { chips  'CTGreen':1 }
Wed Dec 05 00:03:31 IST 2012	Chips to send by responder: { chips  'grey78':1 }
Wed Dec 05 00:03:37 IST 2012	Received communication message 
Wed Dec 05 00:03:37 IST 2012	From player: 310
Wed Dec 05 00:03:37 IST 2012	To player: 337
Wed Dec 05 00:03:37 IST 2012	Message type: basicproposaldiscussion
Wed Dec 05 00:03:37 IST 2012	Player 310 accepted offer
Wed Dec 05 00:03:37 IST 2012	Prop accepted, set counter offers count to: 0
Wed Dec 05 00:03:37 IST 2012	Prop accepted, get counter offers returned: 0
Wed Dec 05 00:03:37 IST 2012	A Phase Ended: Communication Phase
Wed Dec 05 00:03:37 IST 2012	Protocol: A New Phase Began: Exchange Phase
Wed Dec 05 00:03:37 IST 2012	Protocol: Exchange phase, Round: 14
Wed Dec 05 00:03:37 IST 2012	In begin exch.phase, get counter offers returned: 0
Wed Dec 05 00:03:47 IST 2012	A Phase Ended: Exchange Phase
Wed Dec 05 00:03:47 IST 2012	Proposer 337 sent: { chips  'CTRed':0 'CTPurple':0 'CTGreen':1 'grey78':0 'CTYellow':0 }
Wed Dec 05 00:03:47 IST 2012	Responder 310 sent: { chips  }
Wed Dec 05 00:03:47 IST 2012	Protocol: A New Phase Began: Movement Phase
Wed Dec 05 00:03:47 IST 2012	Protocol: Movement phase, Round: 14
Wed Dec 05 00:03:47 IST 2012	Player 310 moved to (R:0,C:2)
Wed Dec 05 00:03:51 IST 2012	Slept 4 seconds
Wed Dec 05 00:03:51 IST 2012	Player 310 got to goal, advance the other and end game
Wed Dec 05 00:03:51 IST 2012	Player: 337 ,role: Proposer score is: 30
Wed Dec 05 00:03:51 IST 2012	Player: 310 ,role: Responder score is: 215
