Sun Dec 02 11:51:12 IST 2012	This is the CT debug logger; svn version 638; sep 27 09
Sun Dec 02 11:51:12 IST 2012	Sun Dec 02 11:51:12 IST 2012
Sun Dec 02 11:51:12 IST 2012	A new Alternative Offers game has began
Sun Dec 02 11:51:12 IST 2012	ID Number: 32831
Sun Dec 02 11:51:12 IST 2012	Creating board
Sun Dec 02 11:51:12 IST 2012	<colors>
Sun Dec 02 11:51:12 IST 2012	{ GamePalette  'CTRed':0 'CTPurple':1 'CTGreen':2 'grey78':3 'CTYellow':4 }
Sun Dec 02 11:51:12 IST 2012	<rows>
Sun Dec 02 11:51:12 IST 2012	7
Sun Dec 02 11:51:12 IST 2012	<columns>
Sun Dec 02 11:51:12 IST 2012	5
Sun Dec 02 11:51:12 IST 2012	<squaresColors>
Sun Dec 02 11:51:12 IST 2012	CTPurple CTRed CTRed CTGreen CTPurple 
Sun Dec 02 11:51:12 IST 2012	CTPurple grey78 CTPurple CTYellow CTPurple 
Sun Dec 02 11:51:12 IST 2012	CTPurple CTRed CTPurple CTGreen CTPurple 
Sun Dec 02 11:51:12 IST 2012	CTPurple grey78 CTPurple CTYellow CTPurple 
Sun Dec 02 11:51:12 IST 2012	CTPurple CTRed CTPurple CTGreen CTPurple 
Sun Dec 02 11:51:12 IST 2012	CTPurple grey78 CTPurple CTYellow CTPurple 
Sun Dec 02 11:51:12 IST 2012	CTPurple CTRed CTPurple CTGreen CTPurple 
Sun Dec 02 11:51:12 IST 2012	</squareColors>
Sun Dec 02 11:51:12 IST 2012	<goalPosition>
Sun Dec 02 11:51:12 IST 2012	Goal position: (R:0,C:2)
Sun Dec 02 11:51:12 IST 2012	<numberOfPlayers>
Sun Dec 02 11:51:12 IST 2012	2
Sun Dec 02 11:51:12 IST 2012	<firstPlayerChips>
Sun Dec 02 11:51:12 IST 2012	Setting chips for player: 337 id:0
Sun Dec 02 11:51:12 IST 2012	{ chips  'CTRed':5 'CTGreen':10 'CTPurple':0 'grey78':0 'CTYellow':9 }
Sun Dec 02 11:51:12 IST 2012	Player position: (R:6,C:0)
Sun Dec 02 11:51:12 IST 2012	Setting chips for player: 310 id:1
Sun Dec 02 11:51:12 IST 2012	{ chips  'CTRed':1 'CTGreen':13 'CTPurple':0 'grey78':10 'CTYellow':0 }
Sun Dec 02 11:51:12 IST 2012	Player position: (R:6,C:4)
Sun Dec 02 11:51:12 IST 2012	Protocol: A New Phase Began: Strategy Prep Phase
Sun Dec 02 11:51:12 IST 2012	Protocol: Strategy Preparation phase, Round: 0
Sun Dec 02 11:51:12 IST 2012	Maximum number of rounds with no consecutive movement is 3
Sun Dec 02 11:51:12 IST 2012	In begin comm. phase, set counter offers count to: 0
Sun Dec 02 11:51:12 IST 2012	In begin comm. phase, get counter offers returned: 0
Sun Dec 02 11:51:33 IST 2012	A Phase Ended: Strategy Prep Phase
Sun Dec 02 11:51:33 IST 2012	Protocol: A New Phase Began: Communication Phase
Sun Dec 02 11:51:33 IST 2012	Protocol: Communication phase, Round: 0
Sun Dec 02 11:52:33 IST 2012	Received communication message 
Sun Dec 02 11:52:33 IST 2012	From player: 337
Sun Dec 02 11:52:33 IST 2012	To player: 310
Sun Dec 02 11:52:33 IST 2012	Message type: basicproposal
Sun Dec 02 11:52:33 IST 2012	Chips to send by proposer: { chips  'CTGreen':1 }
Sun Dec 02 11:52:33 IST 2012	Chips to send by responder: { chips  'grey78':1 }
Sun Dec 02 11:52:40 IST 2012	Received communication message 
Sun Dec 02 11:52:40 IST 2012	From player: 310
Sun Dec 02 11:52:40 IST 2012	To player: 337
Sun Dec 02 11:52:40 IST 2012	Message type: basicproposaldiscussion
Sun Dec 02 11:52:40 IST 2012	Player 310 accepted offer
Sun Dec 02 11:52:40 IST 2012	Prop accepted, set counter offers count to: 0
Sun Dec 02 11:52:40 IST 2012	Prop accepted, get counter offers returned: 0
Sun Dec 02 11:52:40 IST 2012	A Phase Ended: Communication Phase
Sun Dec 02 11:52:40 IST 2012	Protocol: A New Phase Began: Exchange Phase
Sun Dec 02 11:52:40 IST 2012	Protocol: Exchange phase, Round: 0
Sun Dec 02 11:52:40 IST 2012	In begin exch.phase, get counter offers returned: 0
Sun Dec 02 11:53:09 IST 2012	A Phase Ended: Exchange Phase
Sun Dec 02 11:53:09 IST 2012	Proposer 337 sent: { chips  'CTRed':0 'CTPurple':0 'CTGreen':1 'grey78':0 'CTYellow':0 }
Sun Dec 02 11:53:09 IST 2012	Responder 310 sent: { chips  'CTRed':0 'CTPurple':0 'CTGreen':0 'grey78':1 'CTYellow':0 }
Sun Dec 02 11:53:09 IST 2012	Protocol: A New Phase Began: Movement Phase
Sun Dec 02 11:53:09 IST 2012	Protocol: Movement phase, Round: 0
Sun Dec 02 11:53:29 IST 2012	A Phase Ended: Movement Phase
Sun Dec 02 11:53:29 IST 2012	Swaping roles:
Sun Dec 02 11:53:29 IST 2012	Proposer is: 310
Sun Dec 02 11:53:29 IST 2012	Responder is: 337
Sun Dec 02 11:53:29 IST 2012	Protocol: A New Phase Began: Feedback Phase
Sun Dec 02 11:53:29 IST 2012	Protocol: Feedback phase, Round: 0
Sun Dec 02 11:53:29 IST 2012	Number of consecutive no movements for player 337 is 1
Sun Dec 02 11:53:29 IST 2012	Number of consecutive no movements for player 310 is 1
Sun Dec 02 11:53:34 IST 2012	A Phase Ended: Feedback Phase
Sun Dec 02 11:53:34 IST 2012	Protocol: A New Phase Began: Communication Phase
Sun Dec 02 11:53:34 IST 2012	Protocol: Communication phase, Round: 1
Sun Dec 02 11:54:12 IST 2012	Received communication message 
Sun Dec 02 11:54:12 IST 2012	From player: 310
Sun Dec 02 11:54:12 IST 2012	To player: 337
Sun Dec 02 11:54:12 IST 2012	Message type: basicproposal
Sun Dec 02 11:54:12 IST 2012	Chips to send by proposer: { chips  'CTRed':0 'CTPurple':0 'CTGreen':1 'grey78':2 'CTYellow':0 }
Sun Dec 02 11:54:12 IST 2012	Chips to send by responder: { chips  'CTRed':0 'CTPurple':0 'CTGreen':0 'grey78':0 'CTYellow':1 }
Sun Dec 02 11:55:04 IST 2012	Received communication message 
Sun Dec 02 11:55:04 IST 2012	From player: 337
Sun Dec 02 11:55:04 IST 2012	To player: 310
Sun Dec 02 11:55:04 IST 2012	Message type: basicproposaldiscussion
Sun Dec 02 11:55:04 IST 2012	Player 337 rejected offer
Sun Dec 02 11:55:04 IST 2012	Swaping roles:
Sun Dec 02 11:55:04 IST 2012	Proposer is: 337
Sun Dec 02 11:55:04 IST 2012	Responder is: 310
Sun Dec 02 11:55:04 IST 2012	Prop rejected, set counter offers count to: 1
Sun Dec 02 11:55:04 IST 2012	Prop rejected, get counter offers returned: 1
Sun Dec 02 11:55:08 IST 2012	Slept 4 seconds
Sun Dec 02 11:55:08 IST 2012	Sent role changed msgs
Sun Dec 02 11:56:08 IST 2012	Received communication message 
Sun Dec 02 11:56:08 IST 2012	From player: 337
Sun Dec 02 11:56:08 IST 2012	To player: 310
Sun Dec 02 11:56:08 IST 2012	Message type: basicproposal
Sun Dec 02 11:56:08 IST 2012	Chips to send by proposer: { chips  'CTRed':0 'CTPurple':0 'CTGreen':0 'grey78':0 'CTYellow':1 }
Sun Dec 02 11:56:08 IST 2012	Chips to send by responder: { chips  'CTRed':0 'CTPurple':0 'CTGreen':2 'grey78':1 'CTYellow':0 }
Sun Dec 02 11:56:19 IST 2012	Received communication message 
Sun Dec 02 11:56:19 IST 2012	From player: 310
Sun Dec 02 11:56:19 IST 2012	To player: 337
Sun Dec 02 11:56:19 IST 2012	Message type: basicproposaldiscussion
Sun Dec 02 11:56:19 IST 2012	Player 310 accepted offer
Sun Dec 02 11:56:19 IST 2012	Prop accepted, set counter offers count to: 0
Sun Dec 02 11:56:19 IST 2012	Prop accepted, get counter offers returned: 0
Sun Dec 02 11:56:19 IST 2012	A Phase Ended: Communication Phase
Sun Dec 02 11:56:19 IST 2012	Protocol: A New Phase Began: Exchange Phase
Sun Dec 02 11:56:19 IST 2012	Protocol: Exchange phase, Round: 1
Sun Dec 02 11:56:19 IST 2012	In begin exch.phase, get counter offers returned: 0
Sun Dec 02 11:56:48 IST 2012	A Phase Ended: Exchange Phase
Sun Dec 02 11:56:48 IST 2012	Proposer 337 sent: { chips  'CTRed':0 'CTPurple':0 'CTGreen':0 'grey78':0 'CTYellow':1 }
Sun Dec 02 11:56:48 IST 2012	Responder 310 sent: { chips  'CTRed':0 'CTPurple':0 'CTGreen':0 'grey78':1 'CTYellow':0 }
Sun Dec 02 11:56:48 IST 2012	Protocol: A New Phase Began: Movement Phase
Sun Dec 02 11:56:48 IST 2012	Protocol: Movement phase, Round: 1
Sun Dec 02 11:57:07 IST 2012	A Phase Ended: Movement Phase
Sun Dec 02 11:57:07 IST 2012	Protocol: A New Phase Began: Feedback Phase
Sun Dec 02 11:57:07 IST 2012	Protocol: Feedback phase, Round: 1
Sun Dec 02 11:57:07 IST 2012	Number of consecutive no movements for player 337 is 2
Sun Dec 02 11:57:07 IST 2012	Number of consecutive no movements for player 310 is 2
Sun Dec 02 11:57:12 IST 2012	A Phase Ended: Feedback Phase
Sun Dec 02 11:57:12 IST 2012	Protocol: A New Phase Began: Communication Phase
Sun Dec 02 11:57:12 IST 2012	Protocol: Communication phase, Round: 2
Sun Dec 02 11:58:12 IST 2012	Received communication message 
Sun Dec 02 11:58:12 IST 2012	From player: 337
Sun Dec 02 11:58:12 IST 2012	To player: 310
Sun Dec 02 11:58:12 IST 2012	Message type: basicproposal
Sun Dec 02 11:58:12 IST 2012	Chips to send by proposer: { chips  'CTYellow':1 }
Sun Dec 02 11:58:12 IST 2012	Chips to send by responder: { chips  'CTGreen':1 'grey78':1 }
Sun Dec 02 11:58:23 IST 2012	Received communication message 
Sun Dec 02 11:58:23 IST 2012	From player: 310
Sun Dec 02 11:58:23 IST 2012	To player: 337
Sun Dec 02 11:58:23 IST 2012	Message type: basicproposaldiscussion
Sun Dec 02 11:58:23 IST 2012	Player 310 rejected offer
Sun Dec 02 11:58:23 IST 2012	Swaping roles:
Sun Dec 02 11:58:23 IST 2012	Proposer is: 310
Sun Dec 02 11:58:23 IST 2012	Responder is: 337
Sun Dec 02 11:58:23 IST 2012	Prop rejected, set counter offers count to: 1
Sun Dec 02 11:58:23 IST 2012	Prop rejected, get counter offers returned: 1
Sun Dec 02 11:58:27 IST 2012	Slept 4 seconds
Sun Dec 02 11:58:27 IST 2012	Sent role changed msgs
Sun Dec 02 11:58:46 IST 2012	Received communication message 
Sun Dec 02 11:58:46 IST 2012	From player: 310
Sun Dec 02 11:58:46 IST 2012	To player: 337
Sun Dec 02 11:58:46 IST 2012	Message type: basicproposal
Sun Dec 02 11:58:46 IST 2012	Chips to send by proposer: { chips  'CTRed':0 'CTPurple':0 'CTGreen':6 'grey78':1 'CTYellow':0 }
Sun Dec 02 11:58:46 IST 2012	Chips to send by responder: { chips  'CTRed':0 'CTPurple':0 'CTGreen':0 'grey78':0 'CTYellow':2 }
Sun Dec 02 11:59:31 IST 2012	Received communication message 
Sun Dec 02 11:59:31 IST 2012	From player: 337
Sun Dec 02 11:59:31 IST 2012	To player: 310
Sun Dec 02 11:59:31 IST 2012	Message type: basicproposaldiscussion
Sun Dec 02 11:59:31 IST 2012	Player 337 rejected offer
Sun Dec 02 11:59:31 IST 2012	Set counter offers count to: 0
Sun Dec 02 11:59:31 IST 2012	A Phase Ended: Communication Phase
Sun Dec 02 11:59:31 IST 2012	Protocol: A New Phase Began: Exchange Phase
Sun Dec 02 11:59:31 IST 2012	Protocol: Exchange phase, Round: 2
Sun Dec 02 11:59:31 IST 2012	In begin exch.phase, get counter offers returned: 0
Sun Dec 02 12:00:11 IST 2012	A Phase Ended: Exchange Phase
Sun Dec 02 12:00:11 IST 2012	Responder 337 sent: { chips  }
Sun Dec 02 12:00:11 IST 2012	Protocol: A New Phase Began: Movement Phase
Sun Dec 02 12:00:11 IST 2012	Protocol: Movement phase, Round: 2
Sun Dec 02 12:00:11 IST 2012	Player 337 moved to (R:6,C:1)
Sun Dec 02 12:00:11 IST 2012	Player 310 moved to (R:6,C:3)
Sun Dec 02 12:00:31 IST 2012	A Phase Ended: Movement Phase
Sun Dec 02 12:00:31 IST 2012	Protocol: A New Phase Began: Feedback Phase
Sun Dec 02 12:00:31 IST 2012	Protocol: Feedback phase, Round: 2
Sun Dec 02 12:00:31 IST 2012	Number of consecutive no movements for player 337 is 0
Sun Dec 02 12:00:31 IST 2012	Number of consecutive no movements for player 310 is 0
Sun Dec 02 12:00:36 IST 2012	A Phase Ended: Feedback Phase
Sun Dec 02 12:00:36 IST 2012	Protocol: A New Phase Began: Communication Phase
Sun Dec 02 12:00:36 IST 2012	Protocol: Communication phase, Round: 3
Sun Dec 02 12:00:51 IST 2012	Received communication message 
Sun Dec 02 12:00:51 IST 2012	From player: 310
Sun Dec 02 12:00:51 IST 2012	To player: 337
Sun Dec 02 12:00:51 IST 2012	Message type: basicproposal
Sun Dec 02 12:00:51 IST 2012	Chips to send by proposer: { chips  'CTRed':0 'CTPurple':0 'CTGreen':5 'grey78':1 'CTYellow':0 }
Sun Dec 02 12:00:51 IST 2012	Chips to send by responder: { chips  'CTRed':0 'CTPurple':0 'CTGreen':0 'grey78':0 'CTYellow':2 }
Sun Dec 02 12:01:37 IST 2012	Received communication message 
Sun Dec 02 12:01:37 IST 2012	From player: 337
Sun Dec 02 12:01:37 IST 2012	To player: 310
Sun Dec 02 12:01:37 IST 2012	Message type: basicproposaldiscussion
Sun Dec 02 12:01:37 IST 2012	Player 337 rejected offer
Sun Dec 02 12:01:37 IST 2012	Swaping roles:
Sun Dec 02 12:01:37 IST 2012	Proposer is: 337
Sun Dec 02 12:01:37 IST 2012	Responder is: 310
Sun Dec 02 12:01:37 IST 2012	Prop rejected, set counter offers count to: 1
Sun Dec 02 12:01:37 IST 2012	Prop rejected, get counter offers returned: 1
Sun Dec 02 12:01:41 IST 2012	Slept 4 seconds
Sun Dec 02 12:01:41 IST 2012	Sent role changed msgs
Sun Dec 02 12:02:41 IST 2012	Received communication message 
Sun Dec 02 12:02:41 IST 2012	From player: 337
Sun Dec 02 12:02:41 IST 2012	To player: 310
Sun Dec 02 12:02:41 IST 2012	Message type: basicproposal
Sun Dec 02 12:02:41 IST 2012	Chips to send by proposer: { chips  'CTRed':0 'CTPurple':0 'CTGreen':0 'grey78':0 'CTYellow':1 }
Sun Dec 02 12:02:41 IST 2012	Chips to send by responder: { chips  'CTRed':0 'CTPurple':0 'CTGreen':2 'grey78':1 'CTYellow':0 }
Sun Dec 02 12:02:48 IST 2012	Received communication message 
Sun Dec 02 12:02:48 IST 2012	From player: 310
Sun Dec 02 12:02:48 IST 2012	To player: 337
Sun Dec 02 12:02:48 IST 2012	Message type: basicproposaldiscussion
Sun Dec 02 12:02:48 IST 2012	Player 310 rejected offer
Sun Dec 02 12:02:48 IST 2012	Set counter offers count to: 0
Sun Dec 02 12:02:48 IST 2012	A Phase Ended: Communication Phase
Sun Dec 02 12:02:48 IST 2012	Protocol: A New Phase Began: Exchange Phase
Sun Dec 02 12:02:48 IST 2012	Protocol: Exchange phase, Round: 3
Sun Dec 02 12:02:48 IST 2012	In begin exch.phase, get counter offers returned: 0
Sun Dec 02 12:03:29 IST 2012	A Phase Ended: Exchange Phase
Sun Dec 02 12:03:29 IST 2012	Proposer 337 sent: { chips  }
Sun Dec 02 12:03:29 IST 2012	Protocol: A New Phase Began: Movement Phase
Sun Dec 02 12:03:29 IST 2012	Protocol: Movement phase, Round: 3
Sun Dec 02 12:03:49 IST 2012	A Phase Ended: Movement Phase
Sun Dec 02 12:03:49 IST 2012	Protocol: A New Phase Began: Feedback Phase
Sun Dec 02 12:03:49 IST 2012	Protocol: Feedback phase, Round: 3
Sun Dec 02 12:03:49 IST 2012	Number of consecutive no movements for player 337 is 1
Sun Dec 02 12:03:49 IST 2012	Number of consecutive no movements for player 310 is 1
Sun Dec 02 12:03:54 IST 2012	A Phase Ended: Feedback Phase
Sun Dec 02 12:03:54 IST 2012	Protocol: A New Phase Began: Communication Phase
Sun Dec 02 12:03:54 IST 2012	Protocol: Communication phase, Round: 4
Sun Dec 02 12:04:54 IST 2012	Received communication message 
Sun Dec 02 12:04:54 IST 2012	From player: 337
Sun Dec 02 12:04:54 IST 2012	To player: 310
Sun Dec 02 12:04:54 IST 2012	Message type: basicproposal
Sun Dec 02 12:04:54 IST 2012	Chips to send by proposer: { chips  'CTYellow':1 }
Sun Dec 02 12:04:54 IST 2012	Chips to send by responder: { chips  'CTGreen':1 'grey78':1 }
Sun Dec 02 12:05:02 IST 2012	Received communication message 
Sun Dec 02 12:05:02 IST 2012	From player: 310
Sun Dec 02 12:05:02 IST 2012	To player: 337
Sun Dec 02 12:05:02 IST 2012	Message type: basicproposaldiscussion
Sun Dec 02 12:05:02 IST 2012	Player 310 accepted offer
Sun Dec 02 12:05:02 IST 2012	Prop accepted, set counter offers count to: 0
Sun Dec 02 12:05:02 IST 2012	Prop accepted, get counter offers returned: 0
Sun Dec 02 12:05:02 IST 2012	A Phase Ended: Communication Phase
Sun Dec 02 12:05:02 IST 2012	Protocol: A New Phase Began: Exchange Phase
Sun Dec 02 12:05:02 IST 2012	Protocol: Exchange phase, Round: 4
Sun Dec 02 12:05:02 IST 2012	In begin exch.phase, get counter offers returned: 0
Sun Dec 02 12:05:31 IST 2012	A Phase Ended: Exchange Phase
Sun Dec 02 12:05:31 IST 2012	Proposer 337 sent: { chips  'CTRed':0 'CTPurple':0 'CTGreen':0 'grey78':0 'CTYellow':1 }
Sun Dec 02 12:05:31 IST 2012	Responder 310 sent: { chips  }
Sun Dec 02 12:05:31 IST 2012	Protocol: A New Phase Began: Movement Phase
Sun Dec 02 12:05:31 IST 2012	Protocol: Movement phase, Round: 4
Sun Dec 02 12:05:51 IST 2012	A Phase Ended: Movement Phase
Sun Dec 02 12:05:51 IST 2012	Swaping roles:
Sun Dec 02 12:05:51 IST 2012	Proposer is: 310
Sun Dec 02 12:05:51 IST 2012	Responder is: 337
Sun Dec 02 12:05:51 IST 2012	Protocol: A New Phase Began: Feedback Phase
Sun Dec 02 12:05:51 IST 2012	Protocol: Feedback phase, Round: 4
Sun Dec 02 12:05:51 IST 2012	Number of consecutive no movements for player 337 is 2
Sun Dec 02 12:05:51 IST 2012	Number of consecutive no movements for player 310 is 2
Sun Dec 02 12:05:56 IST 2012	A Phase Ended: Feedback Phase
Sun Dec 02 12:05:56 IST 2012	Protocol: A New Phase Began: Communication Phase
Sun Dec 02 12:05:56 IST 2012	Protocol: Communication phase, Round: 5
Sun Dec 02 12:06:15 IST 2012	Received communication message 
Sun Dec 02 12:06:15 IST 2012	From player: 310
Sun Dec 02 12:06:15 IST 2012	To player: 337
Sun Dec 02 12:06:15 IST 2012	Message type: basicproposal
Sun Dec 02 12:06:15 IST 2012	Chips to send by proposer: { chips  'CTRed':0 'CTPurple':0 'CTGreen':0 'grey78':1 'CTYellow':0 }
Sun Dec 02 12:06:15 IST 2012	Chips to send by responder: { chips  'CTRed':0 'CTPurple':0 'CTGreen':0 'grey78':0 'CTYellow':1 }
Sun Dec 02 12:07:09 IST 2012	Received communication message 
Sun Dec 02 12:07:09 IST 2012	From player: 337
Sun Dec 02 12:07:09 IST 2012	To player: 310
Sun Dec 02 12:07:09 IST 2012	Message type: basicproposaldiscussion
Sun Dec 02 12:07:09 IST 2012	Player 337 accepted offer
Sun Dec 02 12:07:09 IST 2012	Prop accepted, set counter offers count to: 0
Sun Dec 02 12:07:09 IST 2012	Prop accepted, get counter offers returned: 0
Sun Dec 02 12:07:09 IST 2012	A Phase Ended: Communication Phase
Sun Dec 02 12:07:09 IST 2012	Protocol: A New Phase Began: Exchange Phase
Sun Dec 02 12:07:09 IST 2012	Protocol: Exchange phase, Round: 5
Sun Dec 02 12:07:09 IST 2012	In begin exch.phase, get counter offers returned: 0
Sun Dec 02 12:07:38 IST 2012	A Phase Ended: Exchange Phase
Sun Dec 02 12:07:38 IST 2012	Proposer 310 sent: { chips  }
Sun Dec 02 12:07:38 IST 2012	Responder 337 sent: { chips  'CTRed':0 'CTPurple':0 'CTGreen':0 'grey78':0 'CTYellow':1 }
Sun Dec 02 12:07:38 IST 2012	Protocol: A New Phase Began: Movement Phase
Sun Dec 02 12:07:38 IST 2012	Protocol: Movement phase, Round: 5
Sun Dec 02 12:07:38 IST 2012	Player 310 moved to (R:5,C:3)
Sun Dec 02 12:07:38 IST 2012	Player 337 moved to (R:5,C:1)
Sun Dec 02 12:07:58 IST 2012	A Phase Ended: Movement Phase
Sun Dec 02 12:07:58 IST 2012	Swaping roles:
Sun Dec 02 12:07:58 IST 2012	Proposer is: 337
Sun Dec 02 12:07:58 IST 2012	Responder is: 310
Sun Dec 02 12:07:58 IST 2012	Protocol: A New Phase Began: Feedback Phase
Sun Dec 02 12:07:58 IST 2012	Protocol: Feedback phase, Round: 5
Sun Dec 02 12:07:58 IST 2012	Number of consecutive no movements for player 337 is 0
Sun Dec 02 12:07:58 IST 2012	Number of consecutive no movements for player 310 is 0
Sun Dec 02 12:08:03 IST 2012	A Phase Ended: Feedback Phase
Sun Dec 02 12:08:03 IST 2012	Protocol: A New Phase Began: Communication Phase
Sun Dec 02 12:08:03 IST 2012	Protocol: Communication phase, Round: 6
Sun Dec 02 12:09:03 IST 2012	Received communication message 
Sun Dec 02 12:09:03 IST 2012	From player: 337
Sun Dec 02 12:09:03 IST 2012	To player: 310
Sun Dec 02 12:09:03 IST 2012	Message type: basicproposal
Sun Dec 02 12:09:03 IST 2012	Chips to send by proposer: { chips  'CTGreen':1 }
Sun Dec 02 12:09:03 IST 2012	Chips to send by responder: { chips  'grey78':1 }
Sun Dec 02 12:09:09 IST 2012	Received communication message 
Sun Dec 02 12:09:09 IST 2012	From player: 310
Sun Dec 02 12:09:09 IST 2012	To player: 337
Sun Dec 02 12:09:09 IST 2012	Message type: basicproposaldiscussion
Sun Dec 02 12:09:09 IST 2012	Player 310 accepted offer
Sun Dec 02 12:09:09 IST 2012	Prop accepted, set counter offers count to: 0
Sun Dec 02 12:09:09 IST 2012	Prop accepted, get counter offers returned: 0
Sun Dec 02 12:09:09 IST 2012	A Phase Ended: Communication Phase
Sun Dec 02 12:09:09 IST 2012	Protocol: A New Phase Began: Exchange Phase
Sun Dec 02 12:09:09 IST 2012	Protocol: Exchange phase, Round: 6
Sun Dec 02 12:09:09 IST 2012	In begin exch.phase, get counter offers returned: 0
Sun Dec 02 12:09:29 IST 2012	A Phase Ended: Exchange Phase
Sun Dec 02 12:09:29 IST 2012	Proposer 337 sent: { chips  'CTRed':0 'CTPurple':0 'CTGreen':1 'grey78':0 'CTYellow':0 }
Sun Dec 02 12:09:29 IST 2012	Responder 310 sent: { chips  }
Sun Dec 02 12:09:29 IST 2012	Protocol: A New Phase Began: Movement Phase
Sun Dec 02 12:09:29 IST 2012	Protocol: Movement phase, Round: 6
Sun Dec 02 12:09:29 IST 2012	Player 310 moved to (R:4,C:3)
Sun Dec 02 12:09:49 IST 2012	A Phase Ended: Movement Phase
Sun Dec 02 12:09:49 IST 2012	Swaping roles:
Sun Dec 02 12:09:49 IST 2012	Proposer is: 310
Sun Dec 02 12:09:49 IST 2012	Responder is: 337
Sun Dec 02 12:09:49 IST 2012	Protocol: A New Phase Began: Feedback Phase
Sun Dec 02 12:09:49 IST 2012	Protocol: Feedback phase, Round: 6
Sun Dec 02 12:09:49 IST 2012	Number of consecutive no movements for player 337 is 1
Sun Dec 02 12:09:49 IST 2012	Number of consecutive no movements for player 310 is 0
Sun Dec 02 12:09:54 IST 2012	A Phase Ended: Feedback Phase
Sun Dec 02 12:09:54 IST 2012	Protocol: A New Phase Began: Communication Phase
Sun Dec 02 12:09:54 IST 2012	Protocol: Communication phase, Round: 7
Sun Dec 02 12:10:14 IST 2012	Received communication message 
Sun Dec 02 12:10:14 IST 2012	From player: 310
Sun Dec 02 12:10:14 IST 2012	To player: 337
Sun Dec 02 12:10:14 IST 2012	Message type: basicproposal
Sun Dec 02 12:10:14 IST 2012	Chips to send by proposer: { chips  'CTRed':0 'CTPurple':0 'CTGreen':0 'grey78':1 'CTYellow':0 }
Sun Dec 02 12:10:14 IST 2012	Chips to send by responder: { chips  'CTRed':0 'CTPurple':0 'CTGreen':3 'grey78':0 'CTYellow':0 }
Sun Dec 02 12:10:43 IST 2012	Received communication message 
Sun Dec 02 12:10:43 IST 2012	From player: 337
Sun Dec 02 12:10:43 IST 2012	To player: 310
Sun Dec 02 12:10:43 IST 2012	Message type: basicproposaldiscussion
Sun Dec 02 12:10:43 IST 2012	Player 337 rejected offer
Sun Dec 02 12:10:43 IST 2012	Swaping roles:
Sun Dec 02 12:10:43 IST 2012	Proposer is: 337
Sun Dec 02 12:10:43 IST 2012	Responder is: 310
Sun Dec 02 12:10:43 IST 2012	Prop rejected, set counter offers count to: 1
Sun Dec 02 12:10:43 IST 2012	Prop rejected, get counter offers returned: 1
Sun Dec 02 12:10:47 IST 2012	Slept 4 seconds
Sun Dec 02 12:10:47 IST 2012	Sent role changed msgs
Sun Dec 02 12:11:47 IST 2012	Received communication message 
Sun Dec 02 12:11:47 IST 2012	From player: 337
Sun Dec 02 12:11:47 IST 2012	To player: 310
Sun Dec 02 12:11:47 IST 2012	Message type: basicproposal
Sun Dec 02 12:11:47 IST 2012	Chips to send by proposer: { chips  'CTRed':0 'CTPurple':0 'CTGreen':0 'grey78':0 'CTYellow':1 }
Sun Dec 02 12:11:47 IST 2012	Chips to send by responder: { chips  'CTRed':0 'CTPurple':0 'CTGreen':0 'grey78':1 'CTYellow':0 }
Sun Dec 02 12:11:59 IST 2012	Received communication message 
Sun Dec 02 12:11:59 IST 2012	From player: 310
Sun Dec 02 12:11:59 IST 2012	To player: 337
Sun Dec 02 12:11:59 IST 2012	Message type: basicproposaldiscussion
Sun Dec 02 12:11:59 IST 2012	Player 310 accepted offer
Sun Dec 02 12:11:59 IST 2012	Prop accepted, set counter offers count to: 0
Sun Dec 02 12:11:59 IST 2012	Prop accepted, get counter offers returned: 0
Sun Dec 02 12:11:59 IST 2012	A Phase Ended: Communication Phase
Sun Dec 02 12:11:59 IST 2012	Protocol: A New Phase Began: Exchange Phase
Sun Dec 02 12:11:59 IST 2012	Protocol: Exchange phase, Round: 7
Sun Dec 02 12:11:59 IST 2012	In begin exch.phase, get counter offers returned: 0
Sun Dec 02 12:12:20 IST 2012	A Phase Ended: Exchange Phase
Sun Dec 02 12:12:20 IST 2012	Proposer 337 sent: { chips  'CTRed':0 'CTPurple':0 'CTGreen':0 'grey78':0 'CTYellow':1 }
Sun Dec 02 12:12:20 IST 2012	Responder 310 sent: { chips  }
Sun Dec 02 12:12:20 IST 2012	Protocol: A New Phase Began: Movement Phase
Sun Dec 02 12:12:20 IST 2012	Protocol: Movement phase, Round: 7
Sun Dec 02 12:12:20 IST 2012	Player 310 moved to (R:3,C:3)
Sun Dec 02 12:12:39 IST 2012	A Phase Ended: Movement Phase
Sun Dec 02 12:12:39 IST 2012	Protocol: A New Phase Began: Feedback Phase
Sun Dec 02 12:12:39 IST 2012	Protocol: Feedback phase, Round: 7
Sun Dec 02 12:12:39 IST 2012	Number of consecutive no movements for player 337 is 2
Sun Dec 02 12:12:39 IST 2012	Number of consecutive no movements for player 310 is 0
Sun Dec 02 12:12:44 IST 2012	A Phase Ended: Feedback Phase
Sun Dec 02 12:12:44 IST 2012	Protocol: A New Phase Began: Communication Phase
Sun Dec 02 12:12:44 IST 2012	Protocol: Communication phase, Round: 8
Sun Dec 02 12:13:44 IST 2012	Received communication message 
Sun Dec 02 12:13:44 IST 2012	From player: 337
Sun Dec 02 12:13:44 IST 2012	To player: 310
Sun Dec 02 12:13:44 IST 2012	Message type: basicproposal
Sun Dec 02 12:13:44 IST 2012	Chips to send by proposer: { chips  'CTGreen':1 }
Sun Dec 02 12:13:44 IST 2012	Chips to send by responder: { chips  'grey78':1 }
Sun Dec 02 12:13:55 IST 2012	Received communication message 
Sun Dec 02 12:13:55 IST 2012	From player: 310
Sun Dec 02 12:13:55 IST 2012	To player: 337
Sun Dec 02 12:13:55 IST 2012	Message type: basicproposaldiscussion
Sun Dec 02 12:13:55 IST 2012	Player 310 accepted offer
Sun Dec 02 12:13:55 IST 2012	Prop accepted, set counter offers count to: 0
Sun Dec 02 12:13:55 IST 2012	Prop accepted, get counter offers returned: 0
Sun Dec 02 12:13:55 IST 2012	A Phase Ended: Communication Phase
Sun Dec 02 12:13:55 IST 2012	Protocol: A New Phase Began: Exchange Phase
Sun Dec 02 12:13:55 IST 2012	Protocol: Exchange phase, Round: 8
Sun Dec 02 12:13:55 IST 2012	In begin exch.phase, get counter offers returned: 0
Sun Dec 02 12:14:16 IST 2012	A Phase Ended: Exchange Phase
Sun Dec 02 12:14:16 IST 2012	Proposer 337 sent: { chips  'CTRed':0 'CTPurple':0 'CTGreen':1 'grey78':0 'CTYellow':0 }
Sun Dec 02 12:14:16 IST 2012	Responder 310 sent: { chips  }
Sun Dec 02 12:14:16 IST 2012	Protocol: A New Phase Began: Movement Phase
Sun Dec 02 12:14:16 IST 2012	Protocol: Movement phase, Round: 8
Sun Dec 02 12:14:16 IST 2012	Player 310 moved to (R:2,C:3)
Sun Dec 02 12:14:16 IST 2012	Player 337 moved to (R:4,C:1)
Sun Dec 02 12:14:36 IST 2012	A Phase Ended: Movement Phase
Sun Dec 02 12:14:36 IST 2012	Swaping roles:
Sun Dec 02 12:14:36 IST 2012	Proposer is: 310
Sun Dec 02 12:14:36 IST 2012	Responder is: 337
Sun Dec 02 12:14:36 IST 2012	Protocol: A New Phase Began: Feedback Phase
Sun Dec 02 12:14:36 IST 2012	Protocol: Feedback phase, Round: 8
Sun Dec 02 12:14:36 IST 2012	Number of consecutive no movements for player 337 is 0
Sun Dec 02 12:14:36 IST 2012	Number of consecutive no movements for player 310 is 0
Sun Dec 02 12:14:41 IST 2012	A Phase Ended: Feedback Phase
Sun Dec 02 12:14:41 IST 2012	Protocol: A New Phase Began: Communication Phase
Sun Dec 02 12:14:41 IST 2012	Protocol: Communication phase, Round: 9
Sun Dec 02 12:14:58 IST 2012	Received communication message 
Sun Dec 02 12:14:58 IST 2012	From player: 310
Sun Dec 02 12:14:58 IST 2012	To player: 337
Sun Dec 02 12:14:58 IST 2012	Message type: basicproposal
Sun Dec 02 12:14:58 IST 2012	Chips to send by proposer: { chips  'CTRed':0 'CTPurple':0 'CTGreen':0 'grey78':1 'CTYellow':0 }
Sun Dec 02 12:14:58 IST 2012	Chips to send by responder: { chips  'CTRed':0 'CTPurple':0 'CTGreen':3 'grey78':0 'CTYellow':0 }
Sun Dec 02 12:15:26 IST 2012	Received communication message 
Sun Dec 02 12:15:26 IST 2012	From player: 337
Sun Dec 02 12:15:26 IST 2012	To player: 310
Sun Dec 02 12:15:26 IST 2012	Message type: basicproposaldiscussion
Sun Dec 02 12:15:26 IST 2012	Player 337 rejected offer
Sun Dec 02 12:15:26 IST 2012	Swaping roles:
Sun Dec 02 12:15:26 IST 2012	Proposer is: 337
Sun Dec 02 12:15:26 IST 2012	Responder is: 310
Sun Dec 02 12:15:26 IST 2012	Prop rejected, set counter offers count to: 1
Sun Dec 02 12:15:26 IST 2012	Prop rejected, get counter offers returned: 1
Sun Dec 02 12:15:30 IST 2012	Slept 4 seconds
Sun Dec 02 12:15:30 IST 2012	Sent role changed msgs
Sun Dec 02 12:16:30 IST 2012	Received communication message 
Sun Dec 02 12:16:30 IST 2012	From player: 337
Sun Dec 02 12:16:30 IST 2012	To player: 310
Sun Dec 02 12:16:30 IST 2012	Message type: basicproposal
Sun Dec 02 12:16:30 IST 2012	Chips to send by proposer: { chips  'CTRed':0 'CTPurple':0 'CTGreen':0 'grey78':0 'CTYellow':1 }
Sun Dec 02 12:16:30 IST 2012	Chips to send by responder: { chips  'CTRed':0 'CTPurple':0 'CTGreen':0 'grey78':1 'CTYellow':0 }
Sun Dec 02 12:16:44 IST 2012	Received communication message 
Sun Dec 02 12:16:44 IST 2012	From player: 310
Sun Dec 02 12:16:44 IST 2012	To player: 337
Sun Dec 02 12:16:44 IST 2012	Message type: basicproposaldiscussion
Sun Dec 02 12:16:44 IST 2012	Player 310 accepted offer
Sun Dec 02 12:16:44 IST 2012	Prop accepted, set counter offers count to: 0
Sun Dec 02 12:16:44 IST 2012	Prop accepted, get counter offers returned: 0
Sun Dec 02 12:16:44 IST 2012	A Phase Ended: Communication Phase
Sun Dec 02 12:16:44 IST 2012	Protocol: A New Phase Began: Exchange Phase
Sun Dec 02 12:16:44 IST 2012	Protocol: Exchange phase, Round: 9
Sun Dec 02 12:16:44 IST 2012	In begin exch.phase, get counter offers returned: 0
Sun Dec 02 12:17:06 IST 2012	A Phase Ended: Exchange Phase
Sun Dec 02 12:17:06 IST 2012	Proposer 337 sent: { chips  'CTRed':0 'CTPurple':0 'CTGreen':0 'grey78':0 'CTYellow':1 }
Sun Dec 02 12:17:06 IST 2012	Responder 310 sent: { chips  }
Sun Dec 02 12:17:06 IST 2012	Protocol: A New Phase Began: Movement Phase
Sun Dec 02 12:17:06 IST 2012	Protocol: Movement phase, Round: 9
Sun Dec 02 12:17:06 IST 2012	Player 310 moved to (R:1,C:3)
Sun Dec 02 12:17:26 IST 2012	A Phase Ended: Movement Phase
Sun Dec 02 12:17:26 IST 2012	Protocol: A New Phase Began: Feedback Phase
Sun Dec 02 12:17:26 IST 2012	Protocol: Feedback phase, Round: 9
Sun Dec 02 12:17:26 IST 2012	Number of consecutive no movements for player 337 is 1
Sun Dec 02 12:17:26 IST 2012	Number of consecutive no movements for player 310 is 0
Sun Dec 02 12:17:31 IST 2012	A Phase Ended: Feedback Phase
Sun Dec 02 12:17:31 IST 2012	Protocol: A New Phase Began: Communication Phase
Sun Dec 02 12:17:31 IST 2012	Protocol: Communication phase, Round: 10
Sun Dec 02 12:18:31 IST 2012	Received communication message 
Sun Dec 02 12:18:31 IST 2012	From player: 337
Sun Dec 02 12:18:31 IST 2012	To player: 310
Sun Dec 02 12:18:31 IST 2012	Message type: basicproposal
Sun Dec 02 12:18:31 IST 2012	Chips to send by proposer: { chips  'CTGreen':1 }
Sun Dec 02 12:18:31 IST 2012	Chips to send by responder: { chips  'grey78':1 }
Sun Dec 02 12:18:42 IST 2012	Received communication message 
Sun Dec 02 12:18:42 IST 2012	From player: 310
Sun Dec 02 12:18:42 IST 2012	To player: 337
Sun Dec 02 12:18:42 IST 2012	Message type: basicproposaldiscussion
Sun Dec 02 12:18:42 IST 2012	Player 310 accepted offer
Sun Dec 02 12:18:42 IST 2012	Prop accepted, set counter offers count to: 0
Sun Dec 02 12:18:42 IST 2012	Prop accepted, get counter offers returned: 0
Sun Dec 02 12:18:42 IST 2012	A Phase Ended: Communication Phase
Sun Dec 02 12:18:42 IST 2012	Protocol: A New Phase Began: Exchange Phase
Sun Dec 02 12:18:42 IST 2012	Protocol: Exchange phase, Round: 10
Sun Dec 02 12:18:42 IST 2012	In begin exch.phase, get counter offers returned: 0
Sun Dec 02 12:19:00 IST 2012	A Phase Ended: Exchange Phase
Sun Dec 02 12:19:00 IST 2012	Proposer 337 sent: { chips  'CTRed':0 'CTPurple':0 'CTGreen':1 'grey78':0 'CTYellow':0 }
Sun Dec 02 12:19:00 IST 2012	Responder 310 sent: { chips  }
Sun Dec 02 12:19:00 IST 2012	Protocol: A New Phase Began: Movement Phase
Sun Dec 02 12:19:00 IST 2012	Protocol: Movement phase, Round: 10
Sun Dec 02 12:19:00 IST 2012	Player 310 moved to (R:0,C:3)
Sun Dec 02 12:19:20 IST 2012	A Phase Ended: Movement Phase
Sun Dec 02 12:19:20 IST 2012	Swaping roles:
Sun Dec 02 12:19:20 IST 2012	Proposer is: 310
Sun Dec 02 12:19:20 IST 2012	Responder is: 337
Sun Dec 02 12:19:20 IST 2012	Protocol: A New Phase Began: Feedback Phase
Sun Dec 02 12:19:20 IST 2012	Protocol: Feedback phase, Round: 10
Sun Dec 02 12:19:20 IST 2012	Number of consecutive no movements for player 337 is 2
Sun Dec 02 12:19:20 IST 2012	Number of consecutive no movements for player 310 is 0
Sun Dec 02 12:19:25 IST 2012	A Phase Ended: Feedback Phase
Sun Dec 02 12:19:25 IST 2012	Protocol: A New Phase Began: Communication Phase
Sun Dec 02 12:19:25 IST 2012	Protocol: Communication phase, Round: 11
Sun Dec 02 12:19:43 IST 2012	Received communication message 
Sun Dec 02 12:19:43 IST 2012	From player: 310
Sun Dec 02 12:19:43 IST 2012	To player: 337
Sun Dec 02 12:19:43 IST 2012	Message type: basicproposal
Sun Dec 02 12:19:43 IST 2012	Chips to send by proposer: { chips  'CTRed':0 'CTPurple':0 'CTGreen':0 'grey78':1 'CTYellow':0 }
Sun Dec 02 12:19:43 IST 2012	Chips to send by responder: { chips  'CTRed':0 'CTPurple':0 'CTGreen':1 'grey78':0 'CTYellow':0 }
Sun Dec 02 12:19:57 IST 2012	Received communication message 
Sun Dec 02 12:19:57 IST 2012	From player: 337
Sun Dec 02 12:19:57 IST 2012	To player: 310
Sun Dec 02 12:19:57 IST 2012	Message type: basicproposaldiscussion
Sun Dec 02 12:19:57 IST 2012	Player 337 accepted offer
Sun Dec 02 12:19:57 IST 2012	Prop accepted, set counter offers count to: 0
Sun Dec 02 12:19:57 IST 2012	Prop accepted, get counter offers returned: 0
Sun Dec 02 12:19:57 IST 2012	A Phase Ended: Communication Phase
Sun Dec 02 12:19:57 IST 2012	Protocol: A New Phase Began: Exchange Phase
Sun Dec 02 12:19:57 IST 2012	Protocol: Exchange phase, Round: 11
Sun Dec 02 12:19:57 IST 2012	In begin exch.phase, get counter offers returned: 0
Sun Dec 02 12:20:09 IST 2012	A Phase Ended: Exchange Phase
Sun Dec 02 12:20:09 IST 2012	Proposer 310 sent: { chips  }
Sun Dec 02 12:20:09 IST 2012	Responder 337 sent: { chips  'CTRed':0 'CTPurple':0 'CTGreen':1 'grey78':0 'CTYellow':0 }
Sun Dec 02 12:20:09 IST 2012	Protocol: A New Phase Began: Movement Phase
Sun Dec 02 12:20:09 IST 2012	Protocol: Movement phase, Round: 11
Sun Dec 02 12:20:09 IST 2012	Player 337 moved to (R:3,C:1)
Sun Dec 02 12:20:09 IST 2012	Player 310 moved to (R:0,C:2)
Sun Dec 02 12:20:13 IST 2012	Slept 4 seconds
Sun Dec 02 12:20:13 IST 2012	Player 310 got to goal, advance the other and end game
Sun Dec 02 12:20:13 IST 2012	Player: 310 ,role: Proposer score is: 220
Sun Dec 02 12:20:13 IST 2012	Player: 337 ,role: Responder score is: 25
