Mon Dec 03 04:08:05 IST 2012	This is the CT debug logger; svn version 638; sep 27 09
Mon Dec 03 04:08:05 IST 2012	Mon Dec 03 04:08:05 IST 2012
Mon Dec 03 04:08:05 IST 2012	A new Alternative Offers game has began
Mon Dec 03 04:08:05 IST 2012	ID Number: 35946
Mon Dec 03 04:08:05 IST 2012	Creating board
Mon Dec 03 04:08:05 IST 2012	<colors>
Mon Dec 03 04:08:05 IST 2012	{ GamePalette  'CTRed':0 'CTPurple':1 'CTGreen':2 'grey78':3 'CTYellow':4 }
Mon Dec 03 04:08:05 IST 2012	<rows>
Mon Dec 03 04:08:05 IST 2012	7
Mon Dec 03 04:08:05 IST 2012	<columns>
Mon Dec 03 04:08:05 IST 2012	5
Mon Dec 03 04:08:05 IST 2012	<squaresColors>
Mon Dec 03 04:08:05 IST 2012	CTPurple CTRed CTRed CTGreen CTPurple 
Mon Dec 03 04:08:05 IST 2012	CTPurple grey78 CTPurple CTYellow CTPurple 
Mon Dec 03 04:08:05 IST 2012	CTPurple CTRed CTPurple CTGreen CTPurple 
Mon Dec 03 04:08:05 IST 2012	CTPurple grey78 CTPurple CTYellow CTPurple 
Mon Dec 03 04:08:05 IST 2012	CTPurple CTRed CTPurple CTGreen CTPurple 
Mon Dec 03 04:08:05 IST 2012	CTPurple grey78 CTPurple CTYellow CTPurple 
Mon Dec 03 04:08:05 IST 2012	CTPurple CTRed CTPurple CTGreen CTPurple 
Mon Dec 03 04:08:05 IST 2012	</squareColors>
Mon Dec 03 04:08:05 IST 2012	<goalPosition>
Mon Dec 03 04:08:05 IST 2012	Goal position: (R:0,C:2)
Mon Dec 03 04:08:05 IST 2012	<numberOfPlayers>
Mon Dec 03 04:08:05 IST 2012	2
Mon Dec 03 04:08:05 IST 2012	<firstPlayerChips>
Mon Dec 03 04:08:05 IST 2012	Setting chips for player: 337 id:0
Mon Dec 03 04:08:06 IST 2012	{ chips  'CTRed':5 'CTGreen':10 'CTPurple':0 'grey78':0 'CTYellow':9 }
Mon Dec 03 04:08:06 IST 2012	Player position: (R:6,C:0)
Mon Dec 03 04:08:06 IST 2012	Setting chips for player: 310 id:1
Mon Dec 03 04:08:06 IST 2012	{ chips  'CTRed':1 'CTGreen':13 'CTPurple':0 'grey78':10 'CTYellow':0 }
Mon Dec 03 04:08:06 IST 2012	Player position: (R:6,C:4)
Mon Dec 03 04:08:06 IST 2012	Protocol: A New Phase Began: Strategy Prep Phase
Mon Dec 03 04:08:06 IST 2012	Protocol: Strategy Preparation phase, Round: 0
Mon Dec 03 04:08:06 IST 2012	Maximum number of rounds with no consecutive movement is 3
Mon Dec 03 04:08:06 IST 2012	In begin comm. phase, set counter offers count to: 0
Mon Dec 03 04:08:06 IST 2012	In begin comm. phase, get counter offers returned: 0
Mon Dec 03 04:08:26 IST 2012	A Phase Ended: Strategy Prep Phase
Mon Dec 03 04:08:26 IST 2012	Protocol: A New Phase Began: Communication Phase
Mon Dec 03 04:08:26 IST 2012	Protocol: Communication phase, Round: 0
Mon Dec 03 04:09:26 IST 2012	Received communication message 
Mon Dec 03 04:09:26 IST 2012	From player: 337
Mon Dec 03 04:09:26 IST 2012	To player: 310
Mon Dec 03 04:09:26 IST 2012	Message type: basicproposal
Mon Dec 03 04:09:26 IST 2012	Chips to send by proposer: { chips  'CTYellow':1 }
Mon Dec 03 04:09:26 IST 2012	Chips to send by responder: { chips  'CTGreen':2 'grey78':1 }
Mon Dec 03 04:09:39 IST 2012	Received communication message 
Mon Dec 03 04:09:39 IST 2012	From player: 310
Mon Dec 03 04:09:39 IST 2012	To player: 337
Mon Dec 03 04:09:39 IST 2012	Message type: basicproposaldiscussion
Mon Dec 03 04:09:39 IST 2012	Player 310 accepted offer
Mon Dec 03 04:09:39 IST 2012	Prop accepted, set counter offers count to: 0
Mon Dec 03 04:09:39 IST 2012	Prop accepted, get counter offers returned: 0
Mon Dec 03 04:09:39 IST 2012	A Phase Ended: Communication Phase
Mon Dec 03 04:09:39 IST 2012	Protocol: A New Phase Began: Exchange Phase
Mon Dec 03 04:09:39 IST 2012	Protocol: Exchange phase, Round: 0
Mon Dec 03 04:09:39 IST 2012	In begin exch.phase, get counter offers returned: 0
Mon Dec 03 04:10:08 IST 2012	A Phase Ended: Exchange Phase
Mon Dec 03 04:10:08 IST 2012	Proposer 337 sent: { chips  'CTRed':0 'CTPurple':0 'CTGreen':0 'grey78':0 'CTYellow':1 }
Mon Dec 03 04:10:08 IST 2012	Responder 310 sent: { chips  'CTRed':0 'CTPurple':0 'CTGreen':2 'grey78':0 'CTYellow':0 }
Mon Dec 03 04:10:08 IST 2012	Protocol: A New Phase Began: Movement Phase
Mon Dec 03 04:10:08 IST 2012	Protocol: Movement phase, Round: 0
Mon Dec 03 04:10:29 IST 2012	A Phase Ended: Movement Phase
Mon Dec 03 04:10:29 IST 2012	Swaping roles:
Mon Dec 03 04:10:29 IST 2012	Proposer is: 310
Mon Dec 03 04:10:29 IST 2012	Responder is: 337
Mon Dec 03 04:10:29 IST 2012	Protocol: A New Phase Began: Feedback Phase
Mon Dec 03 04:10:29 IST 2012	Protocol: Feedback phase, Round: 0
Mon Dec 03 04:10:29 IST 2012	Number of consecutive no movements for player 337 is 1
Mon Dec 03 04:10:29 IST 2012	Number of consecutive no movements for player 310 is 1
Mon Dec 03 04:10:34 IST 2012	A Phase Ended: Feedback Phase
Mon Dec 03 04:10:34 IST 2012	Protocol: A New Phase Began: Communication Phase
Mon Dec 03 04:10:34 IST 2012	Protocol: Communication phase, Round: 1
Mon Dec 03 04:11:06 IST 2012	Received communication message 
Mon Dec 03 04:11:06 IST 2012	From player: 310
Mon Dec 03 04:11:06 IST 2012	To player: 337
Mon Dec 03 04:11:06 IST 2012	Message type: basicproposal
Mon Dec 03 04:11:06 IST 2012	Chips to send by proposer: { chips  'CTRed':0 'CTPurple':0 'CTGreen':3 'grey78':2 'CTYellow':0 }
Mon Dec 03 04:11:06 IST 2012	Chips to send by responder: { chips  'CTRed':0 'CTPurple':0 'CTGreen':0 'grey78':0 'CTYellow':2 }
Mon Dec 03 04:11:55 IST 2012	Received communication message 
Mon Dec 03 04:11:55 IST 2012	From player: 337
Mon Dec 03 04:11:55 IST 2012	To player: 310
Mon Dec 03 04:11:55 IST 2012	Message type: basicproposaldiscussion
Mon Dec 03 04:11:55 IST 2012	Player 337 rejected offer
Mon Dec 03 04:11:55 IST 2012	Swaping roles:
Mon Dec 03 04:11:55 IST 2012	Proposer is: 337
Mon Dec 03 04:11:55 IST 2012	Responder is: 310
Mon Dec 03 04:11:55 IST 2012	Prop rejected, set counter offers count to: 1
Mon Dec 03 04:11:55 IST 2012	Prop rejected, get counter offers returned: 1
Mon Dec 03 04:11:59 IST 2012	Slept 4 seconds
Mon Dec 03 04:11:59 IST 2012	Sent role changed msgs
Mon Dec 03 04:12:59 IST 2012	Received communication message 
Mon Dec 03 04:12:59 IST 2012	From player: 337
Mon Dec 03 04:12:59 IST 2012	To player: 310
Mon Dec 03 04:12:59 IST 2012	Message type: basicproposal
Mon Dec 03 04:12:59 IST 2012	Chips to send by proposer: { chips  'CTRed':0 'CTPurple':0 'CTGreen':0 'grey78':0 'CTYellow':1 }
Mon Dec 03 04:12:59 IST 2012	Chips to send by responder: { chips  'CTRed':0 'CTPurple':0 'CTGreen':1 'grey78':2 'CTYellow':0 }
Mon Dec 03 04:13:10 IST 2012	Received communication message 
Mon Dec 03 04:13:10 IST 2012	From player: 310
Mon Dec 03 04:13:10 IST 2012	To player: 337
Mon Dec 03 04:13:10 IST 2012	Message type: basicproposaldiscussion
Mon Dec 03 04:13:10 IST 2012	Player 310 accepted offer
Mon Dec 03 04:13:10 IST 2012	Prop accepted, set counter offers count to: 0
Mon Dec 03 04:13:10 IST 2012	Prop accepted, get counter offers returned: 0
Mon Dec 03 04:13:10 IST 2012	A Phase Ended: Communication Phase
Mon Dec 03 04:13:10 IST 2012	Protocol: A New Phase Began: Exchange Phase
Mon Dec 03 04:13:10 IST 2012	Protocol: Exchange phase, Round: 1
Mon Dec 03 04:13:10 IST 2012	In begin exch.phase, get counter offers returned: 0
Mon Dec 03 04:13:39 IST 2012	A Phase Ended: Exchange Phase
Mon Dec 03 04:13:39 IST 2012	Proposer 337 sent: { chips  'CTRed':0 'CTPurple':0 'CTGreen':0 'grey78':0 'CTYellow':1 }
Mon Dec 03 04:13:39 IST 2012	Responder 310 sent: { chips  'CTRed':0 'CTPurple':0 'CTGreen':0 'grey78':2 'CTYellow':0 }
Mon Dec 03 04:13:39 IST 2012	Protocol: A New Phase Began: Movement Phase
Mon Dec 03 04:13:39 IST 2012	Protocol: Movement phase, Round: 1
Mon Dec 03 04:13:58 IST 2012	A Phase Ended: Movement Phase
Mon Dec 03 04:13:58 IST 2012	Protocol: A New Phase Began: Feedback Phase
Mon Dec 03 04:13:58 IST 2012	Protocol: Feedback phase, Round: 1
Mon Dec 03 04:13:58 IST 2012	Number of consecutive no movements for player 337 is 2
Mon Dec 03 04:13:58 IST 2012	Number of consecutive no movements for player 310 is 2
Mon Dec 03 04:14:03 IST 2012	A Phase Ended: Feedback Phase
Mon Dec 03 04:14:03 IST 2012	Protocol: A New Phase Began: Communication Phase
Mon Dec 03 04:14:03 IST 2012	Protocol: Communication phase, Round: 2
Mon Dec 03 04:15:03 IST 2012	Received communication message 
Mon Dec 03 04:15:03 IST 2012	From player: 337
Mon Dec 03 04:15:03 IST 2012	To player: 310
Mon Dec 03 04:15:03 IST 2012	Message type: basicproposal
Mon Dec 03 04:15:03 IST 2012	Chips to send by proposer: { chips  'CTYellow':1 }
Mon Dec 03 04:15:03 IST 2012	Chips to send by responder: { chips  'CTGreen':1 'grey78':2 }
Mon Dec 03 04:15:15 IST 2012	Received communication message 
Mon Dec 03 04:15:15 IST 2012	From player: 310
Mon Dec 03 04:15:15 IST 2012	To player: 337
Mon Dec 03 04:15:15 IST 2012	Message type: basicproposaldiscussion
Mon Dec 03 04:15:15 IST 2012	Player 310 accepted offer
Mon Dec 03 04:15:15 IST 2012	Prop accepted, set counter offers count to: 0
Mon Dec 03 04:15:15 IST 2012	Prop accepted, get counter offers returned: 0
Mon Dec 03 04:15:15 IST 2012	A Phase Ended: Communication Phase
Mon Dec 03 04:15:15 IST 2012	Protocol: A New Phase Began: Exchange Phase
Mon Dec 03 04:15:15 IST 2012	Protocol: Exchange phase, Round: 2
Mon Dec 03 04:15:15 IST 2012	In begin exch.phase, get counter offers returned: 0
Mon Dec 03 04:15:35 IST 2012	A Phase Ended: Exchange Phase
Mon Dec 03 04:15:35 IST 2012	Proposer 337 sent: { chips  'CTRed':0 'CTPurple':0 'CTGreen':0 'grey78':0 'CTYellow':1 }
Mon Dec 03 04:15:35 IST 2012	Responder 310 sent: { chips  }
Mon Dec 03 04:15:35 IST 2012	Protocol: A New Phase Began: Movement Phase
Mon Dec 03 04:15:35 IST 2012	Protocol: Movement phase, Round: 2
Mon Dec 03 04:15:35 IST 2012	Player 310 moved to (R:6,C:3)
Mon Dec 03 04:15:35 IST 2012	Player 337 moved to (R:6,C:1)
Mon Dec 03 04:15:55 IST 2012	A Phase Ended: Movement Phase
Mon Dec 03 04:15:55 IST 2012	Swaping roles:
Mon Dec 03 04:15:55 IST 2012	Proposer is: 310
Mon Dec 03 04:15:55 IST 2012	Responder is: 337
Mon Dec 03 04:15:55 IST 2012	Protocol: A New Phase Began: Feedback Phase
Mon Dec 03 04:15:55 IST 2012	Protocol: Feedback phase, Round: 2
Mon Dec 03 04:15:55 IST 2012	Number of consecutive no movements for player 337 is 0
Mon Dec 03 04:15:55 IST 2012	Number of consecutive no movements for player 310 is 0
Mon Dec 03 04:16:00 IST 2012	A Phase Ended: Feedback Phase
Mon Dec 03 04:16:00 IST 2012	Protocol: A New Phase Began: Communication Phase
Mon Dec 03 04:16:00 IST 2012	Protocol: Communication phase, Round: 3
Mon Dec 03 04:16:18 IST 2012	Received communication message 
Mon Dec 03 04:16:18 IST 2012	From player: 310
Mon Dec 03 04:16:18 IST 2012	To player: 337
Mon Dec 03 04:16:18 IST 2012	Message type: basicproposal
Mon Dec 03 04:16:18 IST 2012	Chips to send by proposer: { chips  'CTRed':0 'CTPurple':0 'CTGreen':0 'grey78':1 'CTYellow':0 }
Mon Dec 03 04:16:18 IST 2012	Chips to send by responder: { chips  'CTRed':0 'CTPurple':0 'CTGreen':3 'grey78':0 'CTYellow':0 }
Mon Dec 03 04:16:37 IST 2012	Received communication message 
Mon Dec 03 04:16:37 IST 2012	From player: 337
Mon Dec 03 04:16:37 IST 2012	To player: 310
Mon Dec 03 04:16:37 IST 2012	Message type: basicproposaldiscussion
Mon Dec 03 04:16:37 IST 2012	Player 337 rejected offer
Mon Dec 03 04:16:37 IST 2012	Swaping roles:
Mon Dec 03 04:16:37 IST 2012	Proposer is: 337
Mon Dec 03 04:16:37 IST 2012	Responder is: 310
Mon Dec 03 04:16:37 IST 2012	Prop rejected, set counter offers count to: 1
Mon Dec 03 04:16:37 IST 2012	Prop rejected, get counter offers returned: 1
Mon Dec 03 04:16:41 IST 2012	Slept 4 seconds
Mon Dec 03 04:16:41 IST 2012	Sent role changed msgs
Mon Dec 03 04:17:40 IST 2012	Received communication message 
Mon Dec 03 04:17:40 IST 2012	From player: 337
Mon Dec 03 04:17:40 IST 2012	To player: 310
Mon Dec 03 04:17:40 IST 2012	Message type: basicproposal
Mon Dec 03 04:17:40 IST 2012	Chips to send by proposer: { chips  'CTRed':0 'CTPurple':0 'CTGreen':1 'grey78':0 'CTYellow':0 }
Mon Dec 03 04:17:40 IST 2012	Chips to send by responder: { chips  'CTRed':0 'CTPurple':0 'CTGreen':0 'grey78':1 'CTYellow':0 }
Mon Dec 03 04:17:54 IST 2012	Received communication message 
Mon Dec 03 04:17:54 IST 2012	From player: 310
Mon Dec 03 04:17:54 IST 2012	To player: 337
Mon Dec 03 04:17:54 IST 2012	Message type: basicproposaldiscussion
Mon Dec 03 04:17:54 IST 2012	Player 310 accepted offer
Mon Dec 03 04:17:54 IST 2012	Prop accepted, set counter offers count to: 0
Mon Dec 03 04:17:54 IST 2012	Prop accepted, get counter offers returned: 0
Mon Dec 03 04:17:54 IST 2012	A Phase Ended: Communication Phase
Mon Dec 03 04:17:54 IST 2012	Protocol: A New Phase Began: Exchange Phase
Mon Dec 03 04:17:54 IST 2012	Protocol: Exchange phase, Round: 3
Mon Dec 03 04:17:54 IST 2012	In begin exch.phase, get counter offers returned: 0
Mon Dec 03 04:18:10 IST 2012	A Phase Ended: Exchange Phase
Mon Dec 03 04:18:10 IST 2012	Proposer 337 sent: { chips  'CTRed':0 'CTPurple':0 'CTGreen':1 'grey78':0 'CTYellow':0 }
Mon Dec 03 04:18:10 IST 2012	Responder 310 sent: { chips  }
Mon Dec 03 04:18:10 IST 2012	Protocol: A New Phase Began: Movement Phase
Mon Dec 03 04:18:10 IST 2012	Protocol: Movement phase, Round: 3
Mon Dec 03 04:18:10 IST 2012	Player 310 moved to (R:5,C:3)
Mon Dec 03 04:18:30 IST 2012	A Phase Ended: Movement Phase
Mon Dec 03 04:18:30 IST 2012	Protocol: A New Phase Began: Feedback Phase
Mon Dec 03 04:18:30 IST 2012	Protocol: Feedback phase, Round: 3
Mon Dec 03 04:18:30 IST 2012	Number of consecutive no movements for player 337 is 1
Mon Dec 03 04:18:30 IST 2012	Number of consecutive no movements for player 310 is 0
Mon Dec 03 04:18:35 IST 2012	A Phase Ended: Feedback Phase
Mon Dec 03 04:18:35 IST 2012	Protocol: A New Phase Began: Communication Phase
Mon Dec 03 04:18:35 IST 2012	Protocol: Communication phase, Round: 4
Mon Dec 03 04:19:35 IST 2012	Received communication message 
Mon Dec 03 04:19:35 IST 2012	From player: 337
Mon Dec 03 04:19:35 IST 2012	To player: 310
Mon Dec 03 04:19:35 IST 2012	Message type: basicproposal
Mon Dec 03 04:19:35 IST 2012	Chips to send by proposer: { chips  'CTYellow':1 }
Mon Dec 03 04:19:35 IST 2012	Chips to send by responder: { chips  'grey78':1 }
Mon Dec 03 04:19:46 IST 2012	Received communication message 
Mon Dec 03 04:19:46 IST 2012	From player: 310
Mon Dec 03 04:19:46 IST 2012	To player: 337
Mon Dec 03 04:19:46 IST 2012	Message type: basicproposaldiscussion
Mon Dec 03 04:19:46 IST 2012	Player 310 accepted offer
Mon Dec 03 04:19:46 IST 2012	Prop accepted, set counter offers count to: 0
Mon Dec 03 04:19:46 IST 2012	Prop accepted, get counter offers returned: 0
Mon Dec 03 04:19:46 IST 2012	A Phase Ended: Communication Phase
Mon Dec 03 04:19:46 IST 2012	Protocol: A New Phase Began: Exchange Phase
Mon Dec 03 04:19:46 IST 2012	Protocol: Exchange phase, Round: 4
Mon Dec 03 04:19:46 IST 2012	In begin exch.phase, get counter offers returned: 0
Mon Dec 03 04:20:10 IST 2012	A Phase Ended: Exchange Phase
Mon Dec 03 04:20:10 IST 2012	Proposer 337 sent: { chips  'CTRed':0 'CTPurple':0 'CTGreen':0 'grey78':0 'CTYellow':1 }
Mon Dec 03 04:20:10 IST 2012	Responder 310 sent: { chips  }
Mon Dec 03 04:20:10 IST 2012	Protocol: A New Phase Began: Movement Phase
Mon Dec 03 04:20:10 IST 2012	Protocol: Movement phase, Round: 4
Mon Dec 03 04:20:10 IST 2012	Player 310 moved to (R:4,C:3)
Mon Dec 03 04:20:30 IST 2012	A Phase Ended: Movement Phase
Mon Dec 03 04:20:30 IST 2012	Swaping roles:
Mon Dec 03 04:20:30 IST 2012	Proposer is: 310
Mon Dec 03 04:20:30 IST 2012	Responder is: 337
Mon Dec 03 04:20:30 IST 2012	Protocol: A New Phase Began: Feedback Phase
Mon Dec 03 04:20:30 IST 2012	Protocol: Feedback phase, Round: 4
Mon Dec 03 04:20:30 IST 2012	Number of consecutive no movements for player 337 is 2
Mon Dec 03 04:20:30 IST 2012	Number of consecutive no movements for player 310 is 0
Mon Dec 03 04:20:35 IST 2012	A Phase Ended: Feedback Phase
Mon Dec 03 04:20:35 IST 2012	Protocol: A New Phase Began: Communication Phase
Mon Dec 03 04:20:35 IST 2012	Protocol: Communication phase, Round: 5
Mon Dec 03 04:20:52 IST 2012	Received communication message 
Mon Dec 03 04:20:52 IST 2012	From player: 310
Mon Dec 03 04:20:52 IST 2012	To player: 337
Mon Dec 03 04:20:52 IST 2012	Message type: basicproposal
Mon Dec 03 04:20:52 IST 2012	Chips to send by proposer: { chips  'CTRed':0 'CTPurple':0 'CTGreen':0 'grey78':1 'CTYellow':0 }
Mon Dec 03 04:20:52 IST 2012	Chips to send by responder: { chips  'CTRed':0 'CTPurple':0 'CTGreen':2 'grey78':0 'CTYellow':0 }
Mon Dec 03 04:21:28 IST 2012	Received communication message 
Mon Dec 03 04:21:28 IST 2012	From player: 337
Mon Dec 03 04:21:28 IST 2012	To player: 310
Mon Dec 03 04:21:28 IST 2012	Message type: basicproposaldiscussion
Mon Dec 03 04:21:28 IST 2012	Player 337 rejected offer
Mon Dec 03 04:21:28 IST 2012	Swaping roles:
Mon Dec 03 04:21:28 IST 2012	Proposer is: 337
Mon Dec 03 04:21:28 IST 2012	Responder is: 310
Mon Dec 03 04:21:28 IST 2012	Prop rejected, set counter offers count to: 1
Mon Dec 03 04:21:28 IST 2012	Prop rejected, get counter offers returned: 1
Mon Dec 03 04:21:32 IST 2012	Slept 4 seconds
Mon Dec 03 04:21:32 IST 2012	Sent role changed msgs
Mon Dec 03 04:22:32 IST 2012	Received communication message 
Mon Dec 03 04:22:32 IST 2012	From player: 337
Mon Dec 03 04:22:32 IST 2012	To player: 310
Mon Dec 03 04:22:32 IST 2012	Message type: basicproposal
Mon Dec 03 04:22:32 IST 2012	Chips to send by proposer: { chips  'CTRed':0 'CTPurple':0 'CTGreen':0 'grey78':0 'CTYellow':1 }
Mon Dec 03 04:22:32 IST 2012	Chips to send by responder: { chips  'CTRed':0 'CTPurple':0 'CTGreen':0 'grey78':1 'CTYellow':0 }
Mon Dec 03 04:22:41 IST 2012	Received communication message 
Mon Dec 03 04:22:41 IST 2012	From player: 310
Mon Dec 03 04:22:41 IST 2012	To player: 337
Mon Dec 03 04:22:41 IST 2012	Message type: basicproposaldiscussion
Mon Dec 03 04:22:41 IST 2012	Player 310 accepted offer
Mon Dec 03 04:22:41 IST 2012	Prop accepted, set counter offers count to: 0
Mon Dec 03 04:22:41 IST 2012	Prop accepted, get counter offers returned: 0
Mon Dec 03 04:22:41 IST 2012	A Phase Ended: Communication Phase
Mon Dec 03 04:22:41 IST 2012	Protocol: A New Phase Began: Exchange Phase
Mon Dec 03 04:22:41 IST 2012	Protocol: Exchange phase, Round: 5
Mon Dec 03 04:22:41 IST 2012	In begin exch.phase, get counter offers returned: 0
Mon Dec 03 04:23:10 IST 2012	A Phase Ended: Exchange Phase
Mon Dec 03 04:23:10 IST 2012	Proposer 337 sent: { chips  'CTRed':0 'CTPurple':0 'CTGreen':0 'grey78':0 'CTYellow':1 }
Mon Dec 03 04:23:10 IST 2012	Responder 310 sent: { chips  }
Mon Dec 03 04:23:10 IST 2012	Protocol: A New Phase Began: Movement Phase
Mon Dec 03 04:23:10 IST 2012	Protocol: Movement phase, Round: 5
Mon Dec 03 04:23:10 IST 2012	Player 310 moved to (R:3,C:3)
Mon Dec 03 04:23:10 IST 2012	Player 337 moved to (R:5,C:1)
Mon Dec 03 04:23:29 IST 2012	A Phase Ended: Movement Phase
Mon Dec 03 04:23:29 IST 2012	Protocol: A New Phase Began: Feedback Phase
Mon Dec 03 04:23:29 IST 2012	Protocol: Feedback phase, Round: 5
Mon Dec 03 04:23:29 IST 2012	Number of consecutive no movements for player 337 is 0
Mon Dec 03 04:23:29 IST 2012	Number of consecutive no movements for player 310 is 0
Mon Dec 03 04:23:34 IST 2012	A Phase Ended: Feedback Phase
Mon Dec 03 04:23:34 IST 2012	Protocol: A New Phase Began: Communication Phase
Mon Dec 03 04:23:34 IST 2012	Protocol: Communication phase, Round: 6
Mon Dec 03 04:24:34 IST 2012	Received communication message 
Mon Dec 03 04:24:34 IST 2012	From player: 337
Mon Dec 03 04:24:34 IST 2012	To player: 310
Mon Dec 03 04:24:34 IST 2012	Message type: basicproposal
Mon Dec 03 04:24:34 IST 2012	Chips to send by proposer: { chips  'CTGreen':1 }
Mon Dec 03 04:24:34 IST 2012	Chips to send by responder: { chips  'grey78':1 }
Mon Dec 03 04:24:44 IST 2012	Received communication message 
Mon Dec 03 04:24:44 IST 2012	From player: 310
Mon Dec 03 04:24:44 IST 2012	To player: 337
Mon Dec 03 04:24:44 IST 2012	Message type: basicproposaldiscussion
Mon Dec 03 04:24:44 IST 2012	Player 310 accepted offer
Mon Dec 03 04:24:44 IST 2012	Prop accepted, set counter offers count to: 0
Mon Dec 03 04:24:44 IST 2012	Prop accepted, get counter offers returned: 0
Mon Dec 03 04:24:44 IST 2012	A Phase Ended: Communication Phase
Mon Dec 03 04:24:44 IST 2012	Protocol: A New Phase Began: Exchange Phase
Mon Dec 03 04:24:44 IST 2012	Protocol: Exchange phase, Round: 6
Mon Dec 03 04:24:44 IST 2012	In begin exch.phase, get counter offers returned: 0
Mon Dec 03 04:25:05 IST 2012	A Phase Ended: Exchange Phase
Mon Dec 03 04:25:05 IST 2012	Proposer 337 sent: { chips  'CTRed':0 'CTPurple':0 'CTGreen':1 'grey78':0 'CTYellow':0 }
Mon Dec 03 04:25:05 IST 2012	Responder 310 sent: { chips  }
Mon Dec 03 04:25:05 IST 2012	Protocol: A New Phase Began: Movement Phase
Mon Dec 03 04:25:05 IST 2012	Protocol: Movement phase, Round: 6
Mon Dec 03 04:25:05 IST 2012	Player 310 moved to (R:2,C:3)
Mon Dec 03 04:25:25 IST 2012	A Phase Ended: Movement Phase
Mon Dec 03 04:25:25 IST 2012	Swaping roles:
Mon Dec 03 04:25:25 IST 2012	Proposer is: 310
Mon Dec 03 04:25:25 IST 2012	Responder is: 337
Mon Dec 03 04:25:25 IST 2012	Protocol: A New Phase Began: Feedback Phase
Mon Dec 03 04:25:25 IST 2012	Protocol: Feedback phase, Round: 6
Mon Dec 03 04:25:25 IST 2012	Number of consecutive no movements for player 337 is 1
Mon Dec 03 04:25:25 IST 2012	Number of consecutive no movements for player 310 is 0
Mon Dec 03 04:25:30 IST 2012	A Phase Ended: Feedback Phase
Mon Dec 03 04:25:30 IST 2012	Protocol: A New Phase Began: Communication Phase
Mon Dec 03 04:25:30 IST 2012	Protocol: Communication phase, Round: 7
Mon Dec 03 04:25:49 IST 2012	Received communication message 
Mon Dec 03 04:25:49 IST 2012	From player: 310
Mon Dec 03 04:25:49 IST 2012	To player: 337
Mon Dec 03 04:25:49 IST 2012	Message type: basicproposal
Mon Dec 03 04:25:49 IST 2012	Chips to send by proposer: { chips  'CTRed':0 'CTPurple':0 'CTGreen':0 'grey78':1 'CTYellow':0 }
Mon Dec 03 04:25:49 IST 2012	Chips to send by responder: { chips  'CTRed':0 'CTPurple':0 'CTGreen':3 'grey78':0 'CTYellow':0 }
Mon Dec 03 04:26:12 IST 2012	Received communication message 
Mon Dec 03 04:26:12 IST 2012	From player: 337
Mon Dec 03 04:26:12 IST 2012	To player: 310
Mon Dec 03 04:26:12 IST 2012	Message type: basicproposaldiscussion
Mon Dec 03 04:26:12 IST 2012	Player 337 rejected offer
Mon Dec 03 04:26:12 IST 2012	Swaping roles:
Mon Dec 03 04:26:12 IST 2012	Proposer is: 337
Mon Dec 03 04:26:12 IST 2012	Responder is: 310
Mon Dec 03 04:26:12 IST 2012	Prop rejected, set counter offers count to: 1
Mon Dec 03 04:26:12 IST 2012	Prop rejected, get counter offers returned: 1
Mon Dec 03 04:26:16 IST 2012	Slept 4 seconds
Mon Dec 03 04:26:16 IST 2012	Sent role changed msgs
Mon Dec 03 04:27:16 IST 2012	Received communication message 
Mon Dec 03 04:27:16 IST 2012	From player: 337
Mon Dec 03 04:27:16 IST 2012	To player: 310
Mon Dec 03 04:27:16 IST 2012	Message type: basicproposal
Mon Dec 03 04:27:16 IST 2012	Chips to send by proposer: { chips  'CTRed':0 'CTPurple':0 'CTGreen':0 'grey78':0 'CTYellow':1 }
Mon Dec 03 04:27:16 IST 2012	Chips to send by responder: { chips  'CTRed':0 'CTPurple':0 'CTGreen':0 'grey78':1 'CTYellow':0 }
Mon Dec 03 04:27:22 IST 2012	Received communication message 
Mon Dec 03 04:27:22 IST 2012	From player: 310
Mon Dec 03 04:27:22 IST 2012	To player: 337
Mon Dec 03 04:27:22 IST 2012	Message type: basicproposaldiscussion
Mon Dec 03 04:27:22 IST 2012	Player 310 accepted offer
Mon Dec 03 04:27:22 IST 2012	Prop accepted, set counter offers count to: 0
Mon Dec 03 04:27:22 IST 2012	Prop accepted, get counter offers returned: 0
Mon Dec 03 04:27:22 IST 2012	A Phase Ended: Communication Phase
Mon Dec 03 04:27:22 IST 2012	Protocol: A New Phase Began: Exchange Phase
Mon Dec 03 04:27:22 IST 2012	Protocol: Exchange phase, Round: 7
Mon Dec 03 04:27:22 IST 2012	In begin exch.phase, get counter offers returned: 0
Mon Dec 03 04:27:40 IST 2012	A Phase Ended: Exchange Phase
Mon Dec 03 04:27:40 IST 2012	Proposer 337 sent: { chips  'CTRed':0 'CTPurple':0 'CTGreen':0 'grey78':0 'CTYellow':1 }
Mon Dec 03 04:27:40 IST 2012	Responder 310 sent: { chips  }
Mon Dec 03 04:27:40 IST 2012	Protocol: A New Phase Began: Movement Phase
Mon Dec 03 04:27:40 IST 2012	Protocol: Movement phase, Round: 7
Mon Dec 03 04:27:40 IST 2012	Player 310 moved to (R:1,C:3)
Mon Dec 03 04:28:00 IST 2012	A Phase Ended: Movement Phase
Mon Dec 03 04:28:00 IST 2012	Protocol: A New Phase Began: Feedback Phase
Mon Dec 03 04:28:00 IST 2012	Protocol: Feedback phase, Round: 7
Mon Dec 03 04:28:00 IST 2012	Number of consecutive no movements for player 337 is 2
Mon Dec 03 04:28:00 IST 2012	Number of consecutive no movements for player 310 is 0
Mon Dec 03 04:28:05 IST 2012	A Phase Ended: Feedback Phase
Mon Dec 03 04:28:05 IST 2012	Protocol: A New Phase Began: Communication Phase
Mon Dec 03 04:28:05 IST 2012	Protocol: Communication phase, Round: 8
Mon Dec 03 04:29:05 IST 2012	Received communication message 
Mon Dec 03 04:29:05 IST 2012	From player: 337
Mon Dec 03 04:29:05 IST 2012	To player: 310
Mon Dec 03 04:29:05 IST 2012	Message type: basicproposal
Mon Dec 03 04:29:05 IST 2012	Chips to send by proposer: { chips  'CTGreen':1 }
Mon Dec 03 04:29:05 IST 2012	Chips to send by responder: { chips  'grey78':1 }
Mon Dec 03 04:29:19 IST 2012	Received communication message 
Mon Dec 03 04:29:19 IST 2012	From player: 310
Mon Dec 03 04:29:19 IST 2012	To player: 337
Mon Dec 03 04:29:19 IST 2012	Message type: basicproposaldiscussion
Mon Dec 03 04:29:19 IST 2012	Player 310 accepted offer
Mon Dec 03 04:29:19 IST 2012	Prop accepted, set counter offers count to: 0
Mon Dec 03 04:29:19 IST 2012	Prop accepted, get counter offers returned: 0
Mon Dec 03 04:29:19 IST 2012	A Phase Ended: Communication Phase
Mon Dec 03 04:29:19 IST 2012	Protocol: A New Phase Began: Exchange Phase
Mon Dec 03 04:29:19 IST 2012	Protocol: Exchange phase, Round: 8
Mon Dec 03 04:29:19 IST 2012	In begin exch.phase, get counter offers returned: 0
Mon Dec 03 04:29:34 IST 2012	A Phase Ended: Exchange Phase
Mon Dec 03 04:29:34 IST 2012	Proposer 337 sent: { chips  'CTRed':0 'CTPurple':0 'CTGreen':1 'grey78':0 'CTYellow':0 }
Mon Dec 03 04:29:34 IST 2012	Responder 310 sent: { chips  }
Mon Dec 03 04:29:34 IST 2012	Protocol: A New Phase Began: Movement Phase
Mon Dec 03 04:29:34 IST 2012	Protocol: Movement phase, Round: 8
Mon Dec 03 04:29:34 IST 2012	Player 310 moved to (R:0,C:3)
Mon Dec 03 04:29:34 IST 2012	Player 337 moved to (R:4,C:1)
Mon Dec 03 04:29:54 IST 2012	A Phase Ended: Movement Phase
Mon Dec 03 04:29:54 IST 2012	Swaping roles:
Mon Dec 03 04:29:54 IST 2012	Proposer is: 310
Mon Dec 03 04:29:54 IST 2012	Responder is: 337
Mon Dec 03 04:29:54 IST 2012	Protocol: A New Phase Began: Feedback Phase
Mon Dec 03 04:29:54 IST 2012	Protocol: Feedback phase, Round: 8
Mon Dec 03 04:29:54 IST 2012	Number of consecutive no movements for player 337 is 0
Mon Dec 03 04:29:54 IST 2012	Number of consecutive no movements for player 310 is 0
Mon Dec 03 04:29:59 IST 2012	A Phase Ended: Feedback Phase
Mon Dec 03 04:29:59 IST 2012	Protocol: A New Phase Began: Communication Phase
Mon Dec 03 04:29:59 IST 2012	Protocol: Communication phase, Round: 9
Mon Dec 03 04:30:11 IST 2012	Received communication message 
Mon Dec 03 04:30:11 IST 2012	From player: 310
Mon Dec 03 04:30:11 IST 2012	To player: 337
Mon Dec 03 04:30:11 IST 2012	Message type: basicproposal
Mon Dec 03 04:30:11 IST 2012	Chips to send by proposer: { chips  'CTRed':0 'CTPurple':0 'CTGreen':0 'grey78':1 'CTYellow':0 }
Mon Dec 03 04:30:11 IST 2012	Chips to send by responder: { chips  'CTRed':0 'CTPurple':0 'CTGreen':3 'grey78':0 'CTYellow':0 }
Mon Dec 03 04:30:24 IST 2012	Received communication message 
Mon Dec 03 04:30:24 IST 2012	From player: 337
Mon Dec 03 04:30:24 IST 2012	To player: 310
Mon Dec 03 04:30:24 IST 2012	Message type: basicproposaldiscussion
Mon Dec 03 04:30:24 IST 2012	Player 337 rejected offer
Mon Dec 03 04:30:24 IST 2012	Swaping roles:
Mon Dec 03 04:30:24 IST 2012	Proposer is: 337
Mon Dec 03 04:30:24 IST 2012	Responder is: 310
Mon Dec 03 04:30:24 IST 2012	Prop rejected, set counter offers count to: 1
Mon Dec 03 04:30:24 IST 2012	Prop rejected, get counter offers returned: 1
Mon Dec 03 04:30:28 IST 2012	Slept 4 seconds
Mon Dec 03 04:30:28 IST 2012	Sent role changed msgs
Mon Dec 03 04:31:08 IST 2012	Received communication message 
Mon Dec 03 04:31:08 IST 2012	From player: 337
Mon Dec 03 04:31:08 IST 2012	To player: 310
Mon Dec 03 04:31:08 IST 2012	Message type: basicproposal
Mon Dec 03 04:31:08 IST 2012	Chips to send by proposer: { chips  'CTRed':0 'CTPurple':0 'CTGreen':1 'grey78':0 'CTYellow':0 }
Mon Dec 03 04:31:08 IST 2012	Chips to send by responder: { chips  'CTRed':0 'CTPurple':0 'CTGreen':0 'grey78':1 'CTYellow':0 }
Mon Dec 03 04:31:22 IST 2012	Received communication message 
Mon Dec 03 04:31:22 IST 2012	From player: 310
Mon Dec 03 04:31:22 IST 2012	To player: 337
Mon Dec 03 04:31:22 IST 2012	Message type: basicproposaldiscussion
Mon Dec 03 04:31:22 IST 2012	Player 310 accepted offer
Mon Dec 03 04:31:22 IST 2012	Prop accepted, set counter offers count to: 0
Mon Dec 03 04:31:22 IST 2012	Prop accepted, get counter offers returned: 0
Mon Dec 03 04:31:22 IST 2012	A Phase Ended: Communication Phase
Mon Dec 03 04:31:22 IST 2012	Protocol: A New Phase Began: Exchange Phase
Mon Dec 03 04:31:22 IST 2012	Protocol: Exchange phase, Round: 9
Mon Dec 03 04:31:22 IST 2012	In begin exch.phase, get counter offers returned: 0
Mon Dec 03 04:31:32 IST 2012	A Phase Ended: Exchange Phase
Mon Dec 03 04:31:32 IST 2012	Proposer 337 sent: { chips  'CTRed':0 'CTPurple':0 'CTGreen':1 'grey78':0 'CTYellow':0 }
Mon Dec 03 04:31:32 IST 2012	Responder 310 sent: { chips  }
Mon Dec 03 04:31:32 IST 2012	Protocol: A New Phase Began: Movement Phase
Mon Dec 03 04:31:32 IST 2012	Protocol: Movement phase, Round: 9
Mon Dec 03 04:31:32 IST 2012	Player 310 moved to (R:0,C:2)
Mon Dec 03 04:31:36 IST 2012	Slept 4 seconds
Mon Dec 03 04:31:36 IST 2012	Player 310 got to goal, advance the other and end game
Mon Dec 03 04:31:36 IST 2012	Player: 310 ,role: Responder score is: 210
Mon Dec 03 04:31:36 IST 2012	Player: 337 ,role: Proposer score is: 35
