Mon Dec 03 15:43:28 IST 2012	This is the CT debug logger; svn version 638; sep 27 09
Mon Dec 03 15:43:28 IST 2012	Mon Dec 03 15:43:28 IST 2012
Mon Dec 03 15:43:28 IST 2012	A new Alternative Offers game has began
Mon Dec 03 15:43:28 IST 2012	ID Number: 38256
Mon Dec 03 15:43:28 IST 2012	Creating board
Mon Dec 03 15:43:28 IST 2012	<colors>
Mon Dec 03 15:43:28 IST 2012	{ GamePalette  'CTRed':0 'CTPurple':1 'CTGreen':2 'grey78':3 'CTYellow':4 }
Mon Dec 03 15:43:28 IST 2012	<rows>
Mon Dec 03 15:43:28 IST 2012	7
Mon Dec 03 15:43:28 IST 2012	<columns>
Mon Dec 03 15:43:28 IST 2012	5
Mon Dec 03 15:43:28 IST 2012	<squaresColors>
Mon Dec 03 15:43:28 IST 2012	CTPurple CTRed CTRed CTGreen CTPurple 
Mon Dec 03 15:43:28 IST 2012	CTPurple grey78 CTPurple CTYellow CTPurple 
Mon Dec 03 15:43:28 IST 2012	CTPurple CTRed CTPurple CTGreen CTPurple 
Mon Dec 03 15:43:28 IST 2012	CTPurple grey78 CTPurple CTYellow CTPurple 
Mon Dec 03 15:43:28 IST 2012	CTPurple CTRed CTPurple CTGreen CTPurple 
Mon Dec 03 15:43:28 IST 2012	CTPurple grey78 CTPurple CTYellow CTPurple 
Mon Dec 03 15:43:28 IST 2012	CTPurple CTRed CTPurple CTGreen CTPurple 
Mon Dec 03 15:43:28 IST 2012	</squareColors>
Mon Dec 03 15:43:28 IST 2012	<goalPosition>
Mon Dec 03 15:43:28 IST 2012	Goal position: (R:0,C:2)
Mon Dec 03 15:43:28 IST 2012	<numberOfPlayers>
Mon Dec 03 15:43:28 IST 2012	2
Mon Dec 03 15:43:28 IST 2012	<firstPlayerChips>
Mon Dec 03 15:43:28 IST 2012	Setting chips for player: 337 id:0
Mon Dec 03 15:43:28 IST 2012	{ chips  'CTRed':5 'CTGreen':10 'CTPurple':0 'grey78':0 'CTYellow':9 }
Mon Dec 03 15:43:28 IST 2012	Player position: (R:6,C:0)
Mon Dec 03 15:43:28 IST 2012	Setting chips for player: 310 id:1
Mon Dec 03 15:43:28 IST 2012	{ chips  'CTRed':1 'CTGreen':13 'CTPurple':0 'grey78':10 'CTYellow':0 }
Mon Dec 03 15:43:28 IST 2012	Player position: (R:6,C:4)
Mon Dec 03 15:43:28 IST 2012	Protocol: A New Phase Began: Strategy Prep Phase
Mon Dec 03 15:43:28 IST 2012	Protocol: Strategy Preparation phase, Round: 0
Mon Dec 03 15:43:28 IST 2012	Maximum number of rounds with no consecutive movement is 3
Mon Dec 03 15:43:28 IST 2012	In begin comm. phase, set counter offers count to: 0
Mon Dec 03 15:43:28 IST 2012	In begin comm. phase, get counter offers returned: 0
Mon Dec 03 15:43:48 IST 2012	A Phase Ended: Strategy Prep Phase
Mon Dec 03 15:43:48 IST 2012	Protocol: A New Phase Began: Communication Phase
Mon Dec 03 15:43:48 IST 2012	Protocol: Communication phase, Round: 0
Mon Dec 03 15:44:48 IST 2012	Received communication message 
Mon Dec 03 15:44:48 IST 2012	From player: 337
Mon Dec 03 15:44:48 IST 2012	To player: 310
Mon Dec 03 15:44:48 IST 2012	Message type: basicproposal
Mon Dec 03 15:44:48 IST 2012	Chips to send by proposer: { chips  'CTGreen':2 }
Mon Dec 03 15:44:48 IST 2012	Chips to send by responder: { chips  'grey78':2 }
Mon Dec 03 15:44:57 IST 2012	Received communication message 
Mon Dec 03 15:44:57 IST 2012	From player: 310
Mon Dec 03 15:44:57 IST 2012	To player: 337
Mon Dec 03 15:44:57 IST 2012	Message type: basicproposaldiscussion
Mon Dec 03 15:44:57 IST 2012	Player 310 accepted offer
Mon Dec 03 15:44:57 IST 2012	Prop accepted, set counter offers count to: 0
Mon Dec 03 15:44:57 IST 2012	Prop accepted, get counter offers returned: 0
Mon Dec 03 15:44:57 IST 2012	A Phase Ended: Communication Phase
Mon Dec 03 15:44:57 IST 2012	Protocol: A New Phase Began: Exchange Phase
Mon Dec 03 15:44:57 IST 2012	Protocol: Exchange phase, Round: 0
Mon Dec 03 15:44:57 IST 2012	In begin exch.phase, get counter offers returned: 0
Mon Dec 03 15:45:26 IST 2012	A Phase Ended: Exchange Phase
Mon Dec 03 15:45:26 IST 2012	Proposer 337 sent: { chips  'CTRed':0 'CTPurple':0 'CTGreen':2 'grey78':0 'CTYellow':0 }
Mon Dec 03 15:45:26 IST 2012	Responder 310 sent: { chips  'CTRed':0 'CTPurple':0 'CTGreen':0 'grey78':2 'CTYellow':0 }
Mon Dec 03 15:45:26 IST 2012	Protocol: A New Phase Began: Movement Phase
Mon Dec 03 15:45:26 IST 2012	Protocol: Movement phase, Round: 0
Mon Dec 03 15:45:46 IST 2012	A Phase Ended: Movement Phase
Mon Dec 03 15:45:46 IST 2012	Swaping roles:
Mon Dec 03 15:45:46 IST 2012	Proposer is: 310
Mon Dec 03 15:45:46 IST 2012	Responder is: 337
Mon Dec 03 15:45:46 IST 2012	Protocol: A New Phase Began: Feedback Phase
Mon Dec 03 15:45:46 IST 2012	Protocol: Feedback phase, Round: 0
Mon Dec 03 15:45:46 IST 2012	Number of consecutive no movements for player 337 is 1
Mon Dec 03 15:45:46 IST 2012	Number of consecutive no movements for player 310 is 1
Mon Dec 03 15:45:51 IST 2012	A Phase Ended: Feedback Phase
Mon Dec 03 15:45:51 IST 2012	Protocol: A New Phase Began: Communication Phase
Mon Dec 03 15:45:51 IST 2012	Protocol: Communication phase, Round: 1
Mon Dec 03 15:46:13 IST 2012	Received communication message 
Mon Dec 03 15:46:13 IST 2012	From player: 310
Mon Dec 03 15:46:13 IST 2012	To player: 337
Mon Dec 03 15:46:13 IST 2012	Message type: basicproposal
Mon Dec 03 15:46:13 IST 2012	Chips to send by proposer: { chips  'CTRed':0 'CTPurple':0 'CTGreen':6 'grey78':1 'CTYellow':0 }
Mon Dec 03 15:46:13 IST 2012	Chips to send by responder: { chips  'CTRed':0 'CTPurple':0 'CTGreen':0 'grey78':0 'CTYellow':3 }
Mon Dec 03 15:47:03 IST 2012	Received communication message 
Mon Dec 03 15:47:03 IST 2012	From player: 337
Mon Dec 03 15:47:03 IST 2012	To player: 310
Mon Dec 03 15:47:03 IST 2012	Message type: basicproposaldiscussion
Mon Dec 03 15:47:03 IST 2012	Player 337 rejected offer
Mon Dec 03 15:47:03 IST 2012	Swaping roles:
Mon Dec 03 15:47:03 IST 2012	Proposer is: 337
Mon Dec 03 15:47:03 IST 2012	Responder is: 310
Mon Dec 03 15:47:03 IST 2012	Prop rejected, set counter offers count to: 1
Mon Dec 03 15:47:03 IST 2012	Prop rejected, get counter offers returned: 1
Mon Dec 03 15:47:07 IST 2012	Slept 4 seconds
Mon Dec 03 15:47:07 IST 2012	Sent role changed msgs
Mon Dec 03 15:48:07 IST 2012	Received communication message 
Mon Dec 03 15:48:07 IST 2012	From player: 337
Mon Dec 03 15:48:07 IST 2012	To player: 310
Mon Dec 03 15:48:07 IST 2012	Message type: basicproposal
Mon Dec 03 15:48:07 IST 2012	Chips to send by proposer: { chips  'CTRed':0 'CTPurple':0 'CTGreen':0 'grey78':0 'CTYellow':2 }
Mon Dec 03 15:48:07 IST 2012	Chips to send by responder: { chips  'CTRed':0 'CTPurple':0 'CTGreen':2 'grey78':1 'CTYellow':0 }
Mon Dec 03 15:48:14 IST 2012	Received communication message 
Mon Dec 03 15:48:14 IST 2012	From player: 310
Mon Dec 03 15:48:14 IST 2012	To player: 337
Mon Dec 03 15:48:14 IST 2012	Message type: basicproposaldiscussion
Mon Dec 03 15:48:14 IST 2012	Player 310 rejected offer
Mon Dec 03 15:48:14 IST 2012	Set counter offers count to: 0
Mon Dec 03 15:48:14 IST 2012	A Phase Ended: Communication Phase
Mon Dec 03 15:48:14 IST 2012	Protocol: A New Phase Began: Exchange Phase
Mon Dec 03 15:48:14 IST 2012	Protocol: Exchange phase, Round: 1
Mon Dec 03 15:48:14 IST 2012	In begin exch.phase, get counter offers returned: 0
Mon Dec 03 15:48:54 IST 2012	A Phase Ended: Exchange Phase
Mon Dec 03 15:48:54 IST 2012	Proposer 337 sent: { chips  }
Mon Dec 03 15:48:54 IST 2012	Protocol: A New Phase Began: Movement Phase
Mon Dec 03 15:48:54 IST 2012	Protocol: Movement phase, Round: 1
Mon Dec 03 15:49:15 IST 2012	A Phase Ended: Movement Phase
Mon Dec 03 15:49:15 IST 2012	Protocol: A New Phase Began: Feedback Phase
Mon Dec 03 15:49:15 IST 2012	Protocol: Feedback phase, Round: 1
Mon Dec 03 15:49:15 IST 2012	Number of consecutive no movements for player 337 is 2
Mon Dec 03 15:49:15 IST 2012	Number of consecutive no movements for player 310 is 2
Mon Dec 03 15:49:20 IST 2012	A Phase Ended: Feedback Phase
Mon Dec 03 15:49:20 IST 2012	Protocol: A New Phase Began: Communication Phase
Mon Dec 03 15:49:20 IST 2012	Protocol: Communication phase, Round: 2
Mon Dec 03 15:50:20 IST 2012	Received communication message 
Mon Dec 03 15:50:20 IST 2012	From player: 337
Mon Dec 03 15:50:20 IST 2012	To player: 310
Mon Dec 03 15:50:20 IST 2012	Message type: basicproposal
Mon Dec 03 15:50:20 IST 2012	Chips to send by proposer: { chips  'CTYellow':2 }
Mon Dec 03 15:50:20 IST 2012	Chips to send by responder: { chips  'CTGreen':2 'grey78':1 }
Mon Dec 03 15:50:32 IST 2012	Received communication message 
Mon Dec 03 15:50:32 IST 2012	From player: 310
Mon Dec 03 15:50:32 IST 2012	To player: 337
Mon Dec 03 15:50:32 IST 2012	Message type: basicproposaldiscussion
Mon Dec 03 15:50:32 IST 2012	Player 310 accepted offer
Mon Dec 03 15:50:32 IST 2012	Prop accepted, set counter offers count to: 0
Mon Dec 03 15:50:32 IST 2012	Prop accepted, get counter offers returned: 0
Mon Dec 03 15:50:32 IST 2012	A Phase Ended: Communication Phase
Mon Dec 03 15:50:32 IST 2012	Protocol: A New Phase Began: Exchange Phase
Mon Dec 03 15:50:32 IST 2012	Protocol: Exchange phase, Round: 2
Mon Dec 03 15:50:32 IST 2012	In begin exch.phase, get counter offers returned: 0
Mon Dec 03 15:51:01 IST 2012	A Phase Ended: Exchange Phase
Mon Dec 03 15:51:01 IST 2012	Proposer 337 sent: { chips  'CTRed':0 'CTPurple':0 'CTGreen':0 'grey78':0 'CTYellow':2 }
Mon Dec 03 15:51:01 IST 2012	Responder 310 sent: { chips  'CTRed':0 'CTPurple':0 'CTGreen':0 'grey78':1 'CTYellow':0 }
Mon Dec 03 15:51:01 IST 2012	Protocol: A New Phase Began: Movement Phase
Mon Dec 03 15:51:01 IST 2012	Protocol: Movement phase, Round: 2
Mon Dec 03 15:51:01 IST 2012	Player 310 moved to (R:6,C:3)
Mon Dec 03 15:51:01 IST 2012	Player 337 moved to (R:6,C:1)
Mon Dec 03 15:51:21 IST 2012	A Phase Ended: Movement Phase
Mon Dec 03 15:51:21 IST 2012	Swaping roles:
Mon Dec 03 15:51:21 IST 2012	Proposer is: 310
Mon Dec 03 15:51:21 IST 2012	Responder is: 337
Mon Dec 03 15:51:21 IST 2012	Protocol: A New Phase Began: Feedback Phase
Mon Dec 03 15:51:21 IST 2012	Protocol: Feedback phase, Round: 2
Mon Dec 03 15:51:21 IST 2012	Number of consecutive no movements for player 337 is 0
Mon Dec 03 15:51:21 IST 2012	Number of consecutive no movements for player 310 is 0
Mon Dec 03 15:51:27 IST 2012	A Phase Ended: Feedback Phase
Mon Dec 03 15:51:27 IST 2012	Protocol: A New Phase Began: Communication Phase
Mon Dec 03 15:51:27 IST 2012	Protocol: Communication phase, Round: 3
Mon Dec 03 15:51:39 IST 2012	Received communication message 
Mon Dec 03 15:51:39 IST 2012	From player: 310
Mon Dec 03 15:51:39 IST 2012	To player: 337
Mon Dec 03 15:51:39 IST 2012	Message type: basicproposal
Mon Dec 03 15:51:39 IST 2012	Chips to send by proposer: { chips  'CTRed':0 'CTPurple':0 'CTGreen':2 'grey78':0 'CTYellow':0 }
Mon Dec 03 15:51:39 IST 2012	Chips to send by responder: { chips  'CTRed':0 'CTPurple':0 'CTGreen':0 'grey78':0 'CTYellow':1 }
Mon Dec 03 15:51:58 IST 2012	Received communication message 
Mon Dec 03 15:51:58 IST 2012	From player: 337
Mon Dec 03 15:51:58 IST 2012	To player: 310
Mon Dec 03 15:51:58 IST 2012	Message type: basicproposaldiscussion
Mon Dec 03 15:51:58 IST 2012	Player 337 accepted offer
Mon Dec 03 15:51:58 IST 2012	Prop accepted, set counter offers count to: 0
Mon Dec 03 15:51:58 IST 2012	Prop accepted, get counter offers returned: 0
Mon Dec 03 15:51:58 IST 2012	A Phase Ended: Communication Phase
Mon Dec 03 15:51:58 IST 2012	Protocol: A New Phase Began: Exchange Phase
Mon Dec 03 15:51:58 IST 2012	Protocol: Exchange phase, Round: 3
Mon Dec 03 15:51:58 IST 2012	In begin exch.phase, get counter offers returned: 0
Mon Dec 03 15:52:14 IST 2012	A Phase Ended: Exchange Phase
Mon Dec 03 15:52:14 IST 2012	Proposer 310 sent: { chips  'CTRed':0 'CTPurple':0 'CTGreen':2 'grey78':0 'CTYellow':0 }
Mon Dec 03 15:52:14 IST 2012	Responder 337 sent: { chips  'CTRed':0 'CTPurple':0 'CTGreen':0 'grey78':0 'CTYellow':0 }
Mon Dec 03 15:52:14 IST 2012	Protocol: A New Phase Began: Movement Phase
Mon Dec 03 15:52:14 IST 2012	Protocol: Movement phase, Round: 3
Mon Dec 03 15:52:33 IST 2012	A Phase Ended: Movement Phase
Mon Dec 03 15:52:33 IST 2012	Swaping roles:
Mon Dec 03 15:52:33 IST 2012	Proposer is: 337
Mon Dec 03 15:52:33 IST 2012	Responder is: 310
Mon Dec 03 15:52:33 IST 2012	Protocol: A New Phase Began: Feedback Phase
Mon Dec 03 15:52:33 IST 2012	Protocol: Feedback phase, Round: 3
Mon Dec 03 15:52:33 IST 2012	Number of consecutive no movements for player 337 is 1
Mon Dec 03 15:52:33 IST 2012	Number of consecutive no movements for player 310 is 1
Mon Dec 03 15:52:39 IST 2012	A Phase Ended: Feedback Phase
Mon Dec 03 15:52:39 IST 2012	Protocol: A New Phase Began: Communication Phase
Mon Dec 03 15:52:39 IST 2012	Protocol: Communication phase, Round: 4
Mon Dec 03 15:53:39 IST 2012	Received communication message 
Mon Dec 03 15:53:39 IST 2012	From player: 337
Mon Dec 03 15:53:39 IST 2012	To player: 310
Mon Dec 03 15:53:39 IST 2012	Message type: basicproposal
Mon Dec 03 15:53:39 IST 2012	Chips to send by proposer: { chips  'CTYellow':1 }
Mon Dec 03 15:53:39 IST 2012	Chips to send by responder: { chips  'CTGreen':2 'grey78':1 }
Mon Dec 03 15:53:50 IST 2012	Received communication message 
Mon Dec 03 15:53:50 IST 2012	From player: 310
Mon Dec 03 15:53:50 IST 2012	To player: 337
Mon Dec 03 15:53:50 IST 2012	Message type: basicproposaldiscussion
Mon Dec 03 15:53:50 IST 2012	Player 310 accepted offer
Mon Dec 03 15:53:50 IST 2012	Prop accepted, set counter offers count to: 0
Mon Dec 03 15:53:50 IST 2012	Prop accepted, get counter offers returned: 0
Mon Dec 03 15:53:50 IST 2012	A Phase Ended: Communication Phase
Mon Dec 03 15:53:50 IST 2012	Protocol: A New Phase Began: Exchange Phase
Mon Dec 03 15:53:50 IST 2012	Protocol: Exchange phase, Round: 4
Mon Dec 03 15:53:50 IST 2012	In begin exch.phase, get counter offers returned: 0
Mon Dec 03 15:54:13 IST 2012	A Phase Ended: Exchange Phase
Mon Dec 03 15:54:13 IST 2012	Proposer 337 sent: { chips  'CTRed':0 'CTPurple':0 'CTGreen':0 'grey78':0 'CTYellow':1 }
Mon Dec 03 15:54:13 IST 2012	Responder 310 sent: { chips  }
Mon Dec 03 15:54:13 IST 2012	Protocol: A New Phase Began: Movement Phase
Mon Dec 03 15:54:13 IST 2012	Protocol: Movement phase, Round: 4
Mon Dec 03 15:54:14 IST 2012	Player 310 moved to (R:5,C:3)
Mon Dec 03 15:54:33 IST 2012	A Phase Ended: Movement Phase
Mon Dec 03 15:54:33 IST 2012	Swaping roles:
Mon Dec 03 15:54:33 IST 2012	Proposer is: 310
Mon Dec 03 15:54:33 IST 2012	Responder is: 337
Mon Dec 03 15:54:33 IST 2012	Protocol: A New Phase Began: Feedback Phase
Mon Dec 03 15:54:33 IST 2012	Protocol: Feedback phase, Round: 4
Mon Dec 03 15:54:33 IST 2012	Number of consecutive no movements for player 337 is 2
Mon Dec 03 15:54:33 IST 2012	Number of consecutive no movements for player 310 is 0
Mon Dec 03 15:54:33 IST 2012	All players have all needed chips to get to goal, end the game
Mon Dec 03 15:54:33 IST 2012	Player: 337 ,role: Responder score is: 180
Mon Dec 03 15:54:33 IST 2012	Player: 310 ,role: Proposer score is: 180
