@relation LogsAnalysys_BOTH_DD_offers_PAL_Transfer_Model-weka.filters.unsupervised.attribute.Remove-R1-3

@attribute playerI_WPR numeric
@attribute playerJ_WPR numeric
@attribute playerI_CS numeric
@attribute playerI_RS numeric
@attribute playerJ_CS numeric
@attribute playerJ_RS numeric
@attribute playerINeededchips numeric
@attribute playerIOtherchips numeric
@attribute playerJNeededchips numeric
@attribute playerJOtherchips numeric
@attribute playerJTransfer {0,1}

@data
0.601,0.776,45,55,45,55,1,0,1,0,1
0.601,0.776,45,55,45,55,1,0,1,0,1
0.601,0.776,45,65,45,65,2,0,2,0,1
0.601,0.776,45,65,45,65,2,0,2,0,1
0.8803,0.5828,50,170,70,190,2,0,1,2,0
0.8803,0.5828,50,170,70,190,2,0,1,2,0
0.291013,0.17484,45,165,75,195,2,0,1,2,0
0.291013,0.17484,45,165,75,195,2,0,1,2,0
0.601,0.776,45,55,45,55,1,0,1,0,1
0.601,0.776,45,55,45,55,1,0,1,0,1
0.8803,0.9328,55,180,55,180,2,0,2,0,0
0.8803,0.9328,55,180,55,180,2,0,2,0,0
0.601,0.776,45,65,45,65,2,0,2,0,1
0.601,0.776,45,65,45,65,2,0,2,0,1
0.8803,0.5828,50,180,70,180,2,0,1,0,0
0.8803,0.5828,50,180,70,180,2,0,1,0,0
0.293257,0.17484,45,155,75,205,2,0,1,4,0
0.293257,0.17484,45,155,75,205,2,0,1,4,0
0.601,0.776,45,65,45,65,2,0,2,0,1
0.601,0.776,45,65,45,65,2,0,2,0,1
0.8803,0.9328,65,180,65,180,1,0,1,0,1
0.8803,0.9328,65,180,65,180,1,0,1,0,1
0.601,0.776,45,65,45,65,2,0,2,0,1
0.601,0.776,45,65,45,65,2,0,2,0,1
0.8803,0.9328,65,190,65,170,1,2,1,0,1
0.8803,0.9328,65,190,65,170,1,2,1,0,1
0.96409,0.306763,65,160,180,200,1,0,0,5,0
0.96409,0.306763,65,160,180,200,1,0,0,5,0
0.601,0.776,45,65,45,65,2,0,2,0,1
0.601,0.776,45,65,45,65,2,0,2,0,1
0.8803,0.9328,65,180,65,180,1,0,1,0,1
0.8803,0.9328,65,180,65,180,1,0,1,0,1
0.601,0.776,45,65,45,65,2,0,2,0,1
0.601,0.776,45,65,45,65,2,0,2,0,1
0.8803,0.9328,65,180,65,180,1,0,1,0,1
0.8803,0.9328,65,180,65,180,1,0,1,0,1
0.601,0.776,45,65,45,65,2,0,2,0,1
0.601,0.776,45,65,45,65,2,0,2,0,1
0.8803,0.9328,65,185,65,175,1,1,1,0,0
0.8803,0.9328,65,185,65,175,1,1,1,0,0
0.26409,0.97984,190,205,55,155,0,4,1,0,0
0.26409,0.97984,190,205,55,155,0,4,1,0,0
0.601,0.776,45,65,45,65,2,0,2,0,1
0.601,0.776,45,65,45,65,2,0,2,0,1
0.8803,0.9328,65,180,65,180,1,0,1,0,1
0.8803,0.9328,65,180,65,180,1,0,1,0,1
0.601,0.776,45,55,45,55,1,0,1,0,1
0.601,0.776,45,55,45,55,1,0,1,0,1
0.8803,0.9328,55,180,55,180,2,0,2,0,1
0.8803,0.9328,55,180,55,180,2,0,2,0,1
0.601,0.776,45,55,45,55,1,0,1,0,1
0.601,0.776,45,55,45,55,1,0,1,0,1
0.8803,0.9328,55,180,55,180,2,0,2,0,1
0.8803,0.9328,55,180,55,180,2,0,2,0,1
0.96409,0.27984,45,160,190,200,2,0,0,4,0
0.96409,0.27984,45,160,190,200,2,0,0,4,0
0.601,0.776,45,65,45,65,2,0,2,0,1
0.601,0.776,45,65,45,65,2,0,2,0,1
0.8803,0.9328,65,190,65,170,1,4,1,2,1
0.8803,0.9328,65,190,65,170,1,4,1,2,1
0.601,0.776,45,65,45,65,2,0,2,0,1
0.601,0.776,45,65,45,65,2,0,2,0,1
0.8803,0.9328,65,190,65,170,1,3,1,1,1
0.8803,0.9328,65,190,65,170,1,3,1,1,1
0.601,0.776,45,65,45,65,2,0,2,0,1
0.601,0.776,45,65,45,65,2,0,2,0,1
0.8803,0.9328,65,195,65,165,1,7,1,4,1
0.8803,0.9328,65,195,65,165,1,7,1,4,1
0.601,0.776,45,70,45,60,2,1,2,0,1
0.601,0.776,45,70,45,60,2,1,2,0,1
0.8803,0.9328,70,195,60,165,1,2,1,0,1
0.8803,0.9328,70,195,60,165,1,2,1,0,1
0.96409,0.306763,70,165,175,195,1,0,0,5,0
0.96409,0.306763,70,165,175,195,1,0,0,5,0
0.601,0.776,45,65,45,65,2,0,2,0,1
0.601,0.776,45,65,45,65,2,0,2,0,1
0.8803,0.9328,65,175,65,185,1,5,1,6,1
0.8803,0.9328,65,175,65,185,1,5,1,6,1
0.601,0.776,45,75,45,55,2,2,2,0,1
0.601,0.776,45,75,45,55,2,2,2,0,1
0.8803,0.9328,75,200,55,160,1,2,1,0,1
0.8803,0.9328,75,200,55,160,1,2,1,0,1
0.601,0.776,45,65,45,65,2,0,2,0,1
0.601,0.776,45,65,45,65,2,0,2,0,1
0.8803,0.9328,65,190,65,170,1,2,1,0,1
0.8803,0.9328,65,190,65,170,1,2,1,0,1
0.601,0.776,45,65,45,65,2,0,2,0,1
0.601,0.776,45,65,45,65,2,0,2,0,1
0.8803,0.9328,65,185,65,175,1,3,1,2,1
0.8803,0.9328,65,185,65,175,1,3,1,2,1
0.601,0.776,45,75,45,55,2,2,2,0,1
0.601,0.776,45,75,45,55,2,2,2,0,1
0.8803,0.9328,75,200,55,160,1,4,1,2,1
0.8803,0.9328,75,200,55,160,1,4,1,2,1
0.601,0.776,45,65,45,65,2,0,2,0,1
0.601,0.776,45,65,45,65,2,0,2,0,1
0.8803,0.9328,65,195,65,165,1,5,1,2,1
0.8803,0.9328,65,195,65,165,1,5,1,2,1
0.601,0.776,45,55,45,55,1,0,1,0,1
0.601,0.776,45,55,45,55,1,0,1,0,1
0.8803,0.9328,55,180,55,180,2,0,2,0,1
0.8803,0.9328,55,180,55,180,2,0,2,0,1
0.96409,0.27984,45,155,190,205,2,0,0,5,0
0.96409,0.27984,45,155,190,205,2,0,0,5,0
0.601,0.776,45,65,45,65,2,0,2,0,1
0.601,0.776,45,65,45,65,2,0,2,0,1
0.8803,0.9328,65,195,65,165,1,5,1,2,1
0.8803,0.9328,65,195,65,165,1,5,1,2,1
0.601,0.776,45,55,45,55,1,0,1,0,1
0.601,0.776,45,55,45,55,1,0,1,0,1
0.8803,0.9328,55,195,55,165,2,5,2,2,1
0.8803,0.9328,55,195,55,165,2,5,2,2,1
0.601,0.776,45,75,45,55,2,2,2,0,1
0.601,0.776,45,75,45,55,2,2,2,0,1
0.601,0.776,45,65,45,65,2,0,2,0,1
0.601,0.776,45,65,45,65,2,0,2,0,1
0.601,0.776,45,70,45,60,2,1,2,0,1
0.601,0.776,45,70,45,60,2,1,2,0,1
0.8803,0.9328,70,195,60,165,1,2,1,0,1
0.8803,0.9328,70,195,60,165,1,2,1,0,1
0.601,0.776,45,65,45,65,2,0,2,0,1
0.601,0.776,45,65,45,65,2,0,2,0,1
0.8803,0.9328,65,200,65,160,1,6,1,2,1
0.8803,0.9328,65,200,65,160,1,6,1,2,1
0.601,0.776,45,65,45,65,2,0,2,0,1
0.601,0.776,45,65,45,65,2,0,2,0,1
0.8803,0.9328,65,180,65,180,1,0,1,0,1
0.8803,0.9328,65,180,65,180,1,0,1,0,1
0.601,0.776,45,65,45,65,2,0,2,0,1
0.601,0.776,45,65,45,65,2,0,2,0,1
0.8803,0.9328,65,185,65,175,1,1,1,0,1
0.8803,0.9328,65,185,65,175,1,1,1,0,1
0.601,0.776,45,65,45,65,2,0,2,0,1
0.601,0.776,45,65,45,65,2,0,2,0,1
0.8803,0.9328,65,180,65,180,1,0,1,0,1
0.8803,0.9328,65,180,65,180,1,0,1,0,1
0.601,0.776,45,65,45,65,2,0,2,0,1
0.601,0.776,45,65,45,65,2,0,2,0,1
0.8803,0.9328,65,185,65,175,1,3,1,2,1
0.8803,0.9328,65,185,65,175,1,3,1,2,1
0.601,0.776,45,55,45,55,1,0,1,0,1
0.601,0.776,45,55,45,55,1,0,1,0,1
0.8803,0.9328,55,180,55,180,2,0,2,0,1
0.8803,0.9328,55,180,55,180,2,0,2,0,1
0.96409,0.27984,45,160,190,200,2,0,0,4,0
0.96409,0.27984,45,160,190,200,2,0,0,4,0
0.601,0.776,45,65,45,65,2,0,2,0,0
0.601,0.776,45,65,45,65,2,0,2,0,0
0.1803,0.9328,75,190,35,170,1,2,3,0,0
0.1803,0.9328,75,190,35,170,1,2,3,0,0
0.19409,0.27984,65,180,65,180,1,0,1,0,1
0.19409,0.27984,65,180,65,180,1,0,1,0,1
0.601,0.776,45,65,45,65,2,0,2,0,1
0.601,0.776,45,65,45,65,2,0,2,0,1
0.8803,0.9328,65,180,65,180,1,0,1,0,1
0.8803,0.9328,65,180,65,180,1,0,1,0,1
0.601,0.776,45,65,45,65,2,0,2,0,1
0.601,0.776,45,65,45,65,2,0,2,0,1
0.8803,0.5828,50,175,70,185,2,0,1,1,0
0.8803,0.5828,50,175,70,185,2,0,1,1,0
0.601,0.776,45,65,45,65,2,0,2,0,1
0.601,0.776,45,65,45,65,2,0,2,0,1
0.8803,0.5828,50,175,70,185,2,0,1,1,0
0.8803,0.5828,50,175,70,185,2,0,1,1,0
0.26409,0.17484,50,175,70,185,2,0,1,1,0
0.26409,0.17484,50,175,70,185,2,0,1,1,0
0.601,0.776,45,75,45,55,2,2,2,0,1
0.601,0.776,45,75,45,55,2,2,2,0,1
0.8803,0.9328,75,195,55,165,1,1,1,0,1
0.8803,0.9328,75,195,55,165,1,1,1,0,1
0.601,0.776,45,65,45,65,2,0,2,0,1
0.601,0.776,45,65,45,65,2,0,2,0,1
0.8803,0.9328,65,185,65,175,1,2,1,1,1
0.8803,0.9328,65,185,65,175,1,2,1,1,1
0.601,0.776,45,75,45,55,2,2,2,0,1
0.601,0.776,45,75,45,55,2,2,2,0,1
0.8803,0.9328,75,200,55,160,1,4,1,2,0
0.8803,0.9328,75,200,55,160,1,4,1,2,0
0.601,0.776,45,55,45,55,1,0,1,0,1
0.601,0.776,45,55,45,55,1,0,1,0,1
0.8803,0.9328,55,180,55,180,2,0,2,0,1
0.8803,0.9328,55,180,55,180,2,0,2,0,1
0.96409,0.27984,45,155,190,205,2,0,0,5,0
0.96409,0.27984,45,155,190,205,2,0,0,5,0
0.601,0.776,45,55,45,55,1,0,1,0,0
0.601,0.776,45,55,45,55,1,0,1,0,0
0.1803,0.9328,60,185,40,175,2,1,3,0,0
0.1803,0.9328,60,185,40,175,2,1,3,0,0
0.077423,0.27984,45,180,45,180,3,0,3,0,1
0.077423,0.27984,45,180,45,180,3,0,3,0,1
0.601,0.776,45,55,45,55,1,0,1,0,1
0.601,0.776,45,55,45,55,1,0,1,0,1
0.8803,0.9328,55,180,55,180,2,0,2,0,0
0.8803,0.9328,55,180,55,180,2,0,2,0,0
0.341868,0.27984,50,180,70,180,2,0,1,0,0
0.341868,0.27984,50,180,70,180,2,0,1,0,0
0.601,0.776,45,65,45,65,2,0,2,0,1
0.601,0.776,45,65,45,65,2,0,2,0,1
0.8803,0.5828,50,170,70,190,2,0,1,2,0
0.8803,0.5828,50,170,70,190,2,0,1,2,0
0.317936,0.17484,40,165,80,195,2,0,1,1,0
0.317936,0.17484,40,165,80,195,2,0,1,1,0
0.601,0.776,45,65,45,65,2,0,2,0,1
0.601,0.776,45,65,45,65,2,0,2,0,1
0.8803,0.5828,50,170,70,190,2,0,1,2,1
0.8803,0.5828,50,170,70,190,2,0,1,2,1
0.96409,0.17484,35,150,200,210,2,0,0,4,0
0.96409,0.17484,35,150,200,210,2,0,0,4,0
0.601,0.776,45,65,45,65,2,0,2,0,1
0.601,0.776,45,65,45,65,2,0,2,0,1
0.8803,0.5828,50,170,70,190,2,0,1,2,0
0.8803,0.5828,50,170,70,190,2,0,1,2,0
0.317936,0.17484,40,155,80,205,2,0,1,3,1
0.317936,0.17484,40,155,80,205,2,0,1,3,1
0.601,0.776,45,65,45,65,2,0,2,0,1
0.601,0.776,45,65,45,65,2,0,2,0,1
0.8803,0.5828,50,175,70,185,2,0,1,1,0
0.8803,0.5828,50,175,70,185,2,0,1,1,0
0.93609,0.17484,45,140,190,220,2,0,0,8,1
0.93609,0.17484,45,140,190,220,2,0,0,8,1
0.601,0.776,45,65,45,65,2,0,2,0,1
0.601,0.776,45,65,45,65,2,0,2,0,1
0.8803,0.5828,50,55,70,190,1,0,1,1,0
0.8803,0.5828,50,55,70,190,1,0,1,1,0
0.29209,0.17484,45,175,75,185,2,0,1,0,0
0.29209,0.17484,45,175,75,185,2,0,1,0,0
0.601,0.776,45,65,45,65,2,0,2,0,1
0.601,0.776,45,65,45,65,2,0,2,0,1
0.8803,0.5828,50,170,70,190,2,0,1,2,0
0.8803,0.5828,50,170,70,190,2,0,1,2,0
0.344859,0.17484,35,155,85,205,3,0,1,3,0
0.344859,0.17484,35,155,85,205,3,0,1,3,0
0.601,0.776,45,65,45,65,2,0,2,0,0
0.601,0.776,45,65,45,65,2,0,2,0,0
0.5303,0.5828,55,180,55,180,2,0,2,0,1
0.5303,0.5828,55,180,55,180,2,0,2,0,1
0.601,0.776,45,65,45,65,2,0,2,0,0
0.601,0.776,45,65,45,65,2,0,2,0,0
0.5303,0.5828,55,180,55,180,2,0,2,0,1
0.5303,0.5828,55,180,55,180,2,0,2,0,1
0.85909,0.17484,45,135,190,225,2,0,0,9,0
0.85909,0.17484,45,135,190,225,2,0,0,9,0
0.601,0.776,45,55,45,55,1,0,1,0,1
0.601,0.776,45,55,45,55,1,0,1,0,1
0.8803,0.9328,55,180,55,180,2,0,2,0,1
0.8803,0.9328,55,180,55,180,2,0,2,0,1
0.601,0.776,45,55,45,55,1,0,1,0,1
0.601,0.776,45,55,45,55,1,0,1,0,1
0.8803,0.9328,55,180,55,180,2,0,2,0,1
0.8803,0.9328,55,180,55,180,2,0,2,0,1
0.601,0.776,45,50,45,60,1,0,1,1,1
0.601,0.776,45,50,45,60,1,0,1,1,1
0.8803,0.9328,50,175,60,185,2,0,2,0,0
0.8803,0.9328,50,175,60,185,2,0,2,0,0
0.26409,0.27984,50,175,60,185,2,0,2,0,0
0.26409,0.27984,50,175,60,185,2,0,2,0,0
0.601,0.776,45,65,45,65,2,0,2,0,0
0.601,0.776,45,65,45,65,2,0,2,0,0
0.1803,0.5828,60,185,40,175,2,1,3,0,0
0.1803,0.5828,60,185,40,175,2,1,3,0,0
0.601,0.776,45,65,45,65,2,0,2,0,1
0.601,0.776,45,65,45,65,2,0,2,0,1
0.8803,0.5828,50,60,70,185,1,0,1,0,0
0.8803,0.5828,50,60,70,185,1,0,1,0,0
0.601,0.776,45,65,45,65,2,0,2,0,1
0.601,0.776,45,65,45,65,2,0,2,0,1
0.8803,0.5828,50,170,70,190,2,0,1,2,0
0.8803,0.5828,50,170,70,190,2,0,1,2,0
0.317936,0.17484,40,45,80,210,2,0,1,4,1
0.317936,0.17484,40,45,80,210,2,0,1,4,1
0.601,0.776,45,55,45,75,2,0,2,2,1
0.601,0.776,45,55,45,75,2,0,2,2,1
0.8803,0.5828,40,160,80,200,2,0,1,2,0
0.8803,0.5828,40,160,80,200,2,0,1,2,0
0.317936,0.17484,20,150,90,210,3,0,1,3,1
0.317936,0.17484,20,150,90,210,3,0,1,3,1
0.601,0.776,45,65,45,65,2,0,2,0,1
0.601,0.776,45,65,45,65,2,0,2,0,1
0.8803,0.5828,50,170,70,190,2,0,1,2,1
0.8803,0.5828,50,170,70,190,2,0,1,2,1
0.96409,0.17484,35,145,200,215,2,0,0,5,0
0.96409,0.17484,35,145,200,215,2,0,0,5,0
0.601,0.776,45,55,45,55,1,0,1,0,1
0.601,0.776,45,55,45,55,1,0,1,0,1
0.8803,0.9328,55,180,55,180,2,0,2,0,1
0.8803,0.9328,55,180,55,180,2,0,2,0,1
0.96409,0.27984,45,155,190,205,2,0,0,5,1
0.96409,0.27984,45,155,190,205,2,0,0,5,1
0.601,0.776,45,65,45,65,2,0,2,0,1
0.601,0.776,45,65,45,65,2,0,2,0,1
0.8803,0.5828,50,175,70,185,2,0,1,1,0
0.8803,0.5828,50,175,70,185,2,0,1,1,0
0.601,0.776,45,65,45,65,2,0,2,0,1
0.601,0.776,45,65,45,65,2,0,2,0,1
0.8803,0.5828,50,170,70,190,2,0,1,2,1
0.8803,0.5828,50,170,70,190,2,0,1,2,1
0.96409,0.17484,35,110,200,250,2,0,0,12,0
0.96409,0.17484,35,110,200,250,2,0,0,12,0
0.601,0.776,45,55,45,55,1,0,1,0,1
0.601,0.776,45,55,45,55,1,0,1,0,1
0.8803,0.9328,55,180,55,180,2,0,2,0,1
0.8803,0.9328,55,180,55,180,2,0,2,0,1
0.96409,0.27984,45,160,190,200,2,0,0,4,0
0.96409,0.27984,45,160,190,200,2,0,0,4,0
0.601,0.776,45,65,45,65,2,0,2,0,1
0.601,0.776,45,65,45,65,2,0,2,0,1
0.8803,0.5828,50,170,70,190,2,0,1,2,1
0.8803,0.5828,50,170,70,190,2,0,1,2,1
0.96409,0.17484,35,130,200,230,2,0,0,8,1
0.96409,0.17484,35,130,200,230,2,0,0,8,1
0.601,0.776,45,55,45,55,1,0,1,0,0
0.601,0.776,45,55,45,55,1,0,1,0,0
0.1803,0.9328,60,185,40,175,2,1,3,0,0
0.1803,0.9328,60,185,40,175,2,1,3,0,0
0.777423,0.27984,40,150,195,210,2,0,0,5,0
0.777423,0.27984,40,150,195,210,2,0,0,5,0
0.601,0.776,45,65,45,65,2,0,2,0,1
0.601,0.776,45,65,45,65,2,0,2,0,1
0.8803,0.5828,50,170,70,190,2,0,1,2,0
0.8803,0.5828,50,170,70,190,2,0,1,2,0
0.291013,0.17484,45,145,75,215,2,0,1,6,0
0.291013,0.17484,45,145,75,215,2,0,1,6,0
0.601,0.776,45,65,45,65,2,0,2,0,1
0.601,0.776,45,65,45,65,2,0,2,0,1
0.8803,0.5828,50,170,70,190,2,0,1,2,0
0.8803,0.5828,50,170,70,190,2,0,1,2,0
0.910244,0.17484,45,155,190,205,2,0,0,5,0
0.910244,0.17484,45,155,190,205,2,0,0,5,0
0.601,0.776,45,65,45,65,2,0,2,0,0
0.601,0.776,45,65,45,65,2,0,2,0,0
0.1803,0.9328,75,190,35,170,1,2,3,0,0
0.1803,0.9328,75,190,35,170,1,2,3,0,0
0.19409,0.27984,65,180,65,180,1,0,1,0,1
0.19409,0.27984,65,180,65,180,1,0,1,0,1
0.601,0.776,45,65,45,65,2,0,2,0,1
0.601,0.776,45,65,45,65,2,0,2,0,1
0.8803,0.9328,65,180,65,180,1,0,1,0,1
0.8803,0.9328,65,180,65,180,1,0,1,0,1
0.601,0.776,45,65,45,65,2,0,2,0,1
0.601,0.776,45,65,45,65,2,0,2,0,1
0.8803,0.5828,50,170,70,190,2,0,1,2,0
0.8803,0.5828,50,170,70,190,2,0,1,2,0
0.291013,0.17484,45,175,75,185,2,0,1,0,0
0.291013,0.17484,45,175,75,185,2,0,1,0,0
0.601,0.776,45,65,45,65,2,0,2,0,1
0.601,0.776,45,65,45,65,2,0,2,0,1
0.8803,0.5828,50,55,70,190,1,0,1,1,1
0.8803,0.5828,50,55,70,190,1,0,1,1,1
0.96409,0.17484,40,155,195,205,2,0,0,4,0
0.96409,0.17484,40,155,195,205,2,0,0,4,0