Wed Sep 11 12:15:56 IST 2013	This is the CT debug logger; svn version 638; sep 27 09
Wed Sep 11 12:15:56 IST 2013	Wed Sep 11 12:15:56 IST 2013
Wed Sep 11 12:15:56 IST 2013	ID Number: 66184
Wed Sep 11 12:15:56 IST 2013	Creating board
Wed Sep 11 12:15:56 IST 2013	<colors>
Wed Sep 11 12:15:56 IST 2013	{ GamePalette  'CTPurple':0 'CTRed':1 'CTGreen':2 'grey78':3 'CTYellow':4 }
Wed Sep 11 12:15:56 IST 2013	<rows>
Wed Sep 11 12:15:56 IST 2013	6
Wed Sep 11 12:15:56 IST 2013	<columns>
Wed Sep 11 12:15:56 IST 2013	9
Wed Sep 11 12:15:56 IST 2013	<squaresColors>
Wed Sep 11 12:15:56 IST 2013	grey78 CTGreen CTGreen CTGreen CTGreen CTGreen CTGreen CTGreen CTYellow 
Wed Sep 11 12:15:56 IST 2013	grey78 CTPurple CTPurple CTPurple CTPurple CTPurple CTPurple CTPurple CTYellow 
Wed Sep 11 12:15:56 IST 2013	grey78 grey78 CTGreen CTGreen CTGreen CTGreen CTGreen CTYellow CTYellow 
Wed Sep 11 12:15:56 IST 2013	CTGreen grey78 grey78 CTPurple CTPurple CTPurple CTYellow CTYellow CTGreen 
Wed Sep 11 12:15:56 IST 2013	CTGreen CTGreen grey78 grey78 CTGreen CTYellow CTYellow CTGreen CTGreen 
Wed Sep 11 12:15:56 IST 2013	CTGreen CTGreen CTGreen grey78 CTGreen CTYellow CTGreen CTGreen CTGreen 
Wed Sep 11 12:15:56 IST 2013	</squareColors>
Wed Sep 11 12:15:56 IST 2013	<goalPosition>
Wed Sep 11 12:15:56 IST 2013	Goal position: (R:0,C:0)
Wed Sep 11 12:15:56 IST 2013	<goalPosition>
Wed Sep 11 12:15:56 IST 2013	Goal position: (R:0,C:0)
Wed Sep 11 12:15:56 IST 2013	<firstPlayerPossibleGoal1>
Wed Sep 11 12:15:56 IST 2013	0.5
Wed Sep 11 12:15:56 IST 2013	0
Wed Sep 11 12:15:56 IST 2013	0
Wed Sep 11 12:15:56 IST 2013	</firstPlayerPossibleGoal1>
Wed Sep 11 12:15:56 IST 2013	<firstPlayerPossibleGoal2>
Wed Sep 11 12:15:56 IST 2013	0.5
Wed Sep 11 12:15:56 IST 2013	0
Wed Sep 11 12:15:56 IST 2013	8
Wed Sep 11 12:15:56 IST 2013	</firstPlayerPossibleGoal2>
Wed Sep 11 12:15:56 IST 2013	<numberOfPlayers>
Wed Sep 11 12:15:56 IST 2013	3
Wed Sep 11 12:15:56 IST 2013	<firstPlayerChips>
Wed Sep 11 12:15:56 IST 2013	Setting chips for player: 510 id:0
Wed Sep 11 12:15:56 IST 2013	{ chips  'CTRed':0 'CTGreen':0 'CTPurple':0 'grey78':12 'CTYellow':12 }
Wed Sep 11 12:15:56 IST 2013	Player position: (R:5,C:4)
Wed Sep 11 12:15:56 IST 2013	Setting chips for player: 520 id:1
Wed Sep 11 12:15:56 IST 2013	{ chips  'CTRed':33 'CTGreen':0 'CTPurple':7 'grey78':0 'CTYellow':0 }
Wed Sep 11 12:15:56 IST 2013	Player position: (R:0,C:8)
Wed Sep 11 12:15:56 IST 2013	Setting chips for player: 540 id:2
Wed Sep 11 12:15:56 IST 2013	{ chips  'CTRed':33 'CTGreen':0 'CTPurple':7 'grey78':0 'CTYellow':0 }
Wed Sep 11 12:15:56 IST 2013	Player position: (R:0,C:0)
Wed Sep 11 12:15:56 IST 2013	Protocol: A New Phase Began: Strategy Prep Phase. loop is true
Wed Sep 11 12:15:56 IST 2013	---------- Beginning Strategy Prep Phase at round 0 ----------
Wed Sep 11 12:16:56 IST 2013	A Phase Ended: Strategy Prep Phase
Wed Sep 11 12:16:56 IST 2013	Protocol: A New Phase Began: Communication Phase. loop is true
Wed Sep 11 12:16:56 IST 2013	---------- Beginning Communication Phase at round 1 ----------
Wed Sep 11 12:17:20 IST 2013	Received communication message 
Wed Sep 11 12:17:20 IST 2013	From player: 540
Wed Sep 11 12:17:20 IST 2013	To player: 510
Wed Sep 11 12:17:20 IST 2013	Chips to send by proposer: { chips  'CTRed':15 'CTPurple':7 'CTGreen':0 'grey78':0 'CTYellow':0 }
Wed Sep 11 12:17:20 IST 2013	Chips to send by responder: { chips  'CTRed':0 'CTPurple':0 'CTGreen':0 'grey78':0 'CTYellow':0 }
Wed Sep 11 12:17:38 IST 2013	Received communication message 
Wed Sep 11 12:17:38 IST 2013	From player: 520
Wed Sep 11 12:17:38 IST 2013	To player: 510
Wed Sep 11 12:17:38 IST 2013	Chips to send by proposer: { chips  'CTRed':8 'CTPurple':3 'CTGreen':0 'grey78':0 'CTYellow':0 }
Wed Sep 11 12:17:38 IST 2013	Chips to send by responder: { chips  'CTRed':0 'CTPurple':0 'CTGreen':0 'grey78':0 'CTYellow':3 }
Wed Sep 11 12:17:38 IST 2013	Received communication message 
Wed Sep 11 12:17:38 IST 2013	Proposer 1 accepted? true
Wed Sep 11 12:17:38 IST 2013	A Phase Ended: Communication Phase
Wed Sep 11 12:17:38 IST 2013	Protocol: A New Phase Began: Movement Phase. loop is true
Wed Sep 11 12:17:38 IST 2013	---------- Beginning Movement Phase at round 1 ----------
Wed Sep 11 12:17:38 IST 2013	remove strategy phase. 
Wed Sep 11 12:17:38 IST 2013	Received communication message 
Wed Sep 11 12:17:38 IST 2013	Proposer 0 accepted? false
Wed Sep 11 12:18:23 IST 2013	A Phase Ended: Movement Phase
Wed Sep 11 12:18:23 IST 2013	Protocol: A New Phase Began: Feedback Phase. loop is true
Wed Sep 11 12:18:23 IST 2013	---------- Beginning Feedback Phase at round 1 ----------
Wed Sep 11 12:18:23 IST 2013	Number of consecutive no movements for player 510 is 1
Wed Sep 11 12:18:23 IST 2013	TDPlayerPosition is(R:5,C:4)goal location 0(R:0,C:0)goal location 1(R:0,C:8)
Wed Sep 11 12:18:23 IST 2013	ended is false
Wed Sep 11 12:18:28 IST 2013	A Phase Ended: Feedback Phase
Wed Sep 11 12:18:28 IST 2013	 numberofMoves in round 1 is 0
Wed Sep 11 12:18:28 IST 2013	Swaping roles:
Wed Sep 11 12:18:28 IST 2013	Protocol: A New Phase Began: Communication Phase. loop is true
Wed Sep 11 12:18:28 IST 2013	---------- Beginning Communication Phase at round 2 ----------
Wed Sep 11 12:18:28 IST 2013	Received communication message 
Wed Sep 11 12:18:28 IST 2013	From player: 510
Wed Sep 11 12:18:28 IST 2013	To player: 540
Wed Sep 11 12:18:28 IST 2013	Chips to send by proposer: { chips  'CTYellow':11 }
Wed Sep 11 12:18:28 IST 2013	Chips to send by responder: { chips  'CTRed':18 'CTPurple':0 'grey78':0 }
Wed Sep 11 12:18:44 IST 2013	Received communication message 
Wed Sep 11 12:18:44 IST 2013	Proposer 1 accepted? true
Wed Sep 11 12:18:44 IST 2013	A Phase Ended: Communication Phase
Wed Sep 11 12:18:44 IST 2013	Protocol: A New Phase Began: Movement Phase. loop is true
Wed Sep 11 12:18:44 IST 2013	---------- Beginning Movement Phase at round 2 ----------
Wed Sep 11 12:19:29 IST 2013	A Phase Ended: Movement Phase
Wed Sep 11 12:19:29 IST 2013	Protocol: A New Phase Began: Feedback Phase. loop is true
Wed Sep 11 12:19:29 IST 2013	---------- Beginning Feedback Phase at round 2 ----------
Wed Sep 11 12:19:29 IST 2013	The TD player reached the goal, end the game
Wed Sep 11 12:19:29 IST 2013	ended is true
Wed Sep 11 12:19:34 IST 2013	A Phase Ended: Feedback Phase
Wed Sep 11 12:19:34 IST 2013	 numberofMoves in round 2 is 9
Wed Sep 11 12:19:34 IST 2013	Loop status: false
Wed Sep 11 12:19:34 IST 2013	Player: 510 ,role: Proposer score is: 370
Wed Sep 11 12:19:34 IST 2013	Player: 510Game Ended
Wed Sep 11 12:19:34 IST 2013	Player: 540 ,role: Responder score is: 205
Wed Sep 11 12:19:34 IST 2013	Player: 540Game Ended
Wed Sep 11 12:19:34 IST 2013	Player: 520 ,role: Responder score is: 200
Wed Sep 11 12:19:34 IST 2013	Player: 520Game Ended
Wed Sep 11 12:19:34 IST 2013	Protocol: A New Phase Began: Communication Phase. loop is false
Wed Sep 11 12:19:34 IST 2013	---------- Beginning Communication Phase at round 2 ----------
Wed Sep 11 12:22:34 IST 2013	A Phase Ended: Communication Phase
Wed Sep 11 12:22:34 IST 2013	Protocol: A New Phase Began: Movement Phase. loop is false
Wed Sep 11 12:22:34 IST 2013	---------- Beginning Movement Phase at round 2 ----------
Wed Sep 11 12:23:19 IST 2013	A Phase Ended: Movement Phase
Wed Sep 11 12:23:19 IST 2013	Protocol: A New Phase Began: Feedback Phase. loop is false
Wed Sep 11 12:23:19 IST 2013	---------- Beginning Feedback Phase at round 2 ----------
Wed Sep 11 12:23:19 IST 2013	The TD player reached the goal, end the game
Wed Sep 11 12:23:19 IST 2013	ended is true
Wed Sep 11 12:23:24 IST 2013	A Phase Ended: Feedback Phase
Wed Sep 11 12:23:24 IST 2013	 numberofMoves in round 2 is 0
Wed Sep 11 12:23:24 IST 2013	Loop status: false
Wed Sep 11 12:23:24 IST 2013	Player: 510 ,role: GameEnded score is: 370
Wed Sep 11 12:23:24 IST 2013	Player: 510Game Ended
Wed Sep 11 12:23:24 IST 2013	Player: 540 ,role: GameEnded score is: 205
Wed Sep 11 12:23:24 IST 2013	Player: 540Game Ended
Wed Sep 11 12:23:24 IST 2013	Player: 520 ,role: GameEnded score is: 200
Wed Sep 11 12:23:24 IST 2013	Player: 520Game Ended
