Wed Sep 11 09:42:59 IST 2013	This is the CT debug logger; svn version 638; sep 27 09
Wed Sep 11 09:42:59 IST 2013	Wed Sep 11 09:42:59 IST 2013
Wed Sep 11 09:42:59 IST 2013	ID Number: 69316
Wed Sep 11 09:42:59 IST 2013	Creating board
Wed Sep 11 09:42:59 IST 2013	<colors>
Wed Sep 11 09:42:59 IST 2013	{ GamePalette  'CTPurple':0 'CTRed':1 'CTGreen':2 'grey78':3 'CTYellow':4 }
Wed Sep 11 09:42:59 IST 2013	<rows>
Wed Sep 11 09:42:59 IST 2013	6
Wed Sep 11 09:42:59 IST 2013	<columns>
Wed Sep 11 09:42:59 IST 2013	9
Wed Sep 11 09:42:59 IST 2013	<squaresColors>
Wed Sep 11 09:42:59 IST 2013	grey78 CTGreen CTGreen CTGreen CTGreen CTGreen CTGreen CTGreen CTYellow 
Wed Sep 11 09:42:59 IST 2013	grey78 CTPurple CTPurple CTPurple CTPurple CTPurple CTPurple CTPurple CTYellow 
Wed Sep 11 09:42:59 IST 2013	grey78 grey78 CTGreen CTGreen CTGreen CTGreen CTGreen CTYellow CTYellow 
Wed Sep 11 09:42:59 IST 2013	CTGreen grey78 grey78 CTPurple CTPurple CTPurple CTYellow CTYellow CTGreen 
Wed Sep 11 09:42:59 IST 2013	CTGreen CTGreen grey78 grey78 CTGreen CTYellow CTYellow CTGreen CTGreen 
Wed Sep 11 09:42:59 IST 2013	CTGreen CTGreen CTGreen grey78 CTGreen CTYellow CTGreen CTGreen CTGreen 
Wed Sep 11 09:42:59 IST 2013	</squareColors>
Wed Sep 11 09:42:59 IST 2013	<goalPosition>
Wed Sep 11 09:42:59 IST 2013	Goal position: (R:0,C:0)
Wed Sep 11 09:42:59 IST 2013	<goalPosition>
Wed Sep 11 09:42:59 IST 2013	Goal position: (R:0,C:0)
Wed Sep 11 09:42:59 IST 2013	<firstPlayerPossibleGoal1>
Wed Sep 11 09:42:59 IST 2013	0.5
Wed Sep 11 09:42:59 IST 2013	0
Wed Sep 11 09:42:59 IST 2013	0
Wed Sep 11 09:42:59 IST 2013	</firstPlayerPossibleGoal1>
Wed Sep 11 09:42:59 IST 2013	<firstPlayerPossibleGoal2>
Wed Sep 11 09:42:59 IST 2013	0.5
Wed Sep 11 09:42:59 IST 2013	0
Wed Sep 11 09:42:59 IST 2013	8
Wed Sep 11 09:42:59 IST 2013	</firstPlayerPossibleGoal2>
Wed Sep 11 09:42:59 IST 2013	<numberOfPlayers>
Wed Sep 11 09:42:59 IST 2013	3
Wed Sep 11 09:42:59 IST 2013	<firstPlayerChips>
Wed Sep 11 09:42:59 IST 2013	Setting chips for player: 510 id:0
Wed Sep 11 09:42:59 IST 2013	{ chips  'CTRed':0 'CTGreen':0 'CTPurple':0 'grey78':12 'CTYellow':12 }
Wed Sep 11 09:42:59 IST 2013	Player position: (R:5,C:4)
Wed Sep 11 09:42:59 IST 2013	Setting chips for player: 520 id:1
Wed Sep 11 09:42:59 IST 2013	{ chips  'CTRed':33 'CTGreen':0 'CTPurple':7 'grey78':0 'CTYellow':0 }
Wed Sep 11 09:42:59 IST 2013	Player position: (R:0,C:8)
Wed Sep 11 09:42:59 IST 2013	Setting chips for player: 540 id:2
Wed Sep 11 09:42:59 IST 2013	{ chips  'CTRed':33 'CTGreen':0 'CTPurple':7 'grey78':0 'CTYellow':0 }
Wed Sep 11 09:42:59 IST 2013	Player position: (R:0,C:0)
Wed Sep 11 09:42:59 IST 2013	Protocol: A New Phase Began: Strategy Prep Phase. loop is true
Wed Sep 11 09:42:59 IST 2013	---------- Beginning Strategy Prep Phase at round 0 ----------
Wed Sep 11 09:43:59 IST 2013	A Phase Ended: Strategy Prep Phase
Wed Sep 11 09:43:59 IST 2013	Protocol: A New Phase Began: Communication Phase. loop is true
Wed Sep 11 09:43:59 IST 2013	---------- Beginning Communication Phase at round 1 ----------
Wed Sep 11 09:44:16 IST 2013	Received communication message 
Wed Sep 11 09:44:16 IST 2013	From player: 520
Wed Sep 11 09:44:16 IST 2013	To player: 510
Wed Sep 11 09:44:16 IST 2013	Chips to send by proposer: { chips  'CTRed':0 'CTPurple':1 'CTGreen':0 'grey78':0 'CTYellow':0 }
Wed Sep 11 09:44:16 IST 2013	Chips to send by responder: { chips  'CTRed':0 'CTPurple':0 'CTGreen':0 'grey78':0 'CTYellow':0 }
Wed Sep 11 09:44:46 IST 2013	Received communication message 
Wed Sep 11 09:44:46 IST 2013	From player: 540
Wed Sep 11 09:44:46 IST 2013	To player: 510
Wed Sep 11 09:44:46 IST 2013	Chips to send by proposer: { chips  'CTRed':0 'CTPurple':2 'CTGreen':0 'grey78':0 'CTYellow':0 }
Wed Sep 11 09:44:46 IST 2013	Chips to send by responder: { chips  'CTRed':0 'CTPurple':0 'CTGreen':0 'grey78':4 'CTYellow':0 }
Wed Sep 11 09:44:46 IST 2013	Received communication message 
Wed Sep 11 09:44:46 IST 2013	Proposer 0 accepted? true
Wed Sep 11 09:44:46 IST 2013	A Phase Ended: Communication Phase
Wed Sep 11 09:44:46 IST 2013	Protocol: A New Phase Began: Movement Phase. loop is true
Wed Sep 11 09:44:46 IST 2013	---------- Beginning Movement Phase at round 1 ----------
Wed Sep 11 09:44:46 IST 2013	remove strategy phase. 
Wed Sep 11 09:44:46 IST 2013	Received communication message 
Wed Sep 11 09:44:46 IST 2013	Proposer 1 accepted? false
Wed Sep 11 09:45:31 IST 2013	A Phase Ended: Movement Phase
Wed Sep 11 09:45:31 IST 2013	Protocol: A New Phase Began: Feedback Phase. loop is true
Wed Sep 11 09:45:31 IST 2013	---------- Beginning Feedback Phase at round 1 ----------
Wed Sep 11 09:45:31 IST 2013	Number of consecutive no movements for player 510 is 1
Wed Sep 11 09:45:31 IST 2013	TDPlayerPosition is(R:5,C:4)goal location 0(R:0,C:0)goal location 1(R:0,C:8)
Wed Sep 11 09:45:31 IST 2013	ended is false
Wed Sep 11 09:45:36 IST 2013	A Phase Ended: Feedback Phase
Wed Sep 11 09:45:36 IST 2013	 numberofMoves in round 1 is 0
Wed Sep 11 09:45:36 IST 2013	Swaping roles:
Wed Sep 11 09:45:36 IST 2013	Protocol: A New Phase Began: Communication Phase. loop is true
Wed Sep 11 09:45:36 IST 2013	---------- Beginning Communication Phase at round 2 ----------
Wed Sep 11 09:45:39 IST 2013	Received communication message 
Wed Sep 11 09:45:39 IST 2013	From player: 510
Wed Sep 11 09:45:39 IST 2013	To player: 520
Wed Sep 11 09:45:39 IST 2013	Chips to send by proposer: { chips  'grey78':11 }
Wed Sep 11 09:45:39 IST 2013	Chips to send by responder: { chips  'CTRed':33 'CTPurple':6 'CTYellow':0 }
Wed Sep 11 09:45:59 IST 2013	Received communication message 
Wed Sep 11 09:45:59 IST 2013	Proposer 0 accepted? false
Wed Sep 11 09:45:59 IST 2013	case that we had one reject, and one accept
Wed Sep 11 09:45:59 IST 2013	A Phase Ended: Communication Phase
Wed Sep 11 09:45:59 IST 2013	Protocol: A New Phase Began: Movement Phase. loop is true
Wed Sep 11 09:45:59 IST 2013	---------- Beginning Movement Phase at round 2 ----------
Wed Sep 11 09:46:43 IST 2013	A Phase Ended: Movement Phase
Wed Sep 11 09:46:43 IST 2013	Protocol: A New Phase Began: Feedback Phase. loop is true
Wed Sep 11 09:46:43 IST 2013	---------- Beginning Feedback Phase at round 2 ----------
Wed Sep 11 09:46:43 IST 2013	Number of consecutive no movements for player 510 is 0
Wed Sep 11 09:46:43 IST 2013	TDPlayerPosition is(R:5,C:5)goal location 0(R:0,C:0)goal location 1(R:0,C:8)
Wed Sep 11 09:46:43 IST 2013	ended is false
Wed Sep 11 09:46:48 IST 2013	A Phase Ended: Feedback Phase
Wed Sep 11 09:46:48 IST 2013	 numberofMoves in round 2 is 1
Wed Sep 11 09:46:48 IST 2013	Swaping roles:
Wed Sep 11 09:46:48 IST 2013	Protocol: A New Phase Began: Communication Phase. loop is true
Wed Sep 11 09:46:48 IST 2013	---------- Beginning Communication Phase at round 3 ----------
Wed Sep 11 09:47:08 IST 2013	Received communication message 
Wed Sep 11 09:47:08 IST 2013	From player: 540
Wed Sep 11 09:47:08 IST 2013	To player: 510
Wed Sep 11 09:47:08 IST 2013	Chips to send by proposer: { chips  'CTRed':5 'CTPurple':7 'CTGreen':0 'grey78':0 'CTYellow':0 }
Wed Sep 11 09:47:08 IST 2013	Chips to send by responder: { chips  'CTRed':0 'CTPurple':0 'CTGreen':0 'grey78':5 'CTYellow':0 }
Wed Sep 11 09:47:16 IST 2013	Received communication message 
Wed Sep 11 09:47:16 IST 2013	From player: 520
Wed Sep 11 09:47:16 IST 2013	To player: 510
Wed Sep 11 09:47:16 IST 2013	Chips to send by proposer: { chips  'CTRed':20 'CTPurple':0 'CTGreen':0 'grey78':0 'CTYellow':0 }
Wed Sep 11 09:47:16 IST 2013	Chips to send by responder: { chips  'CTRed':0 'CTPurple':0 'CTGreen':0 'grey78':6 'CTYellow':0 }
Wed Sep 11 09:47:16 IST 2013	Received communication message 
Wed Sep 11 09:47:16 IST 2013	Proposer 0 accepted? true
Wed Sep 11 09:47:16 IST 2013	A Phase Ended: Communication Phase
Wed Sep 11 09:47:16 IST 2013	Protocol: A New Phase Began: Movement Phase. loop is true
Wed Sep 11 09:47:16 IST 2013	---------- Beginning Movement Phase at round 3 ----------
Wed Sep 11 09:47:16 IST 2013	Received communication message 
Wed Sep 11 09:47:16 IST 2013	Proposer 1 accepted? false
Wed Sep 11 09:48:00 IST 2013	A Phase Ended: Movement Phase
Wed Sep 11 09:48:00 IST 2013	Protocol: A New Phase Began: Feedback Phase. loop is true
Wed Sep 11 09:48:00 IST 2013	---------- Beginning Feedback Phase at round 3 ----------
Wed Sep 11 09:48:00 IST 2013	Number of consecutive no movements for player 510 is 1
Wed Sep 11 09:48:00 IST 2013	TDPlayerPosition is(R:5,C:5)goal location 0(R:0,C:0)goal location 1(R:0,C:8)
Wed Sep 11 09:48:00 IST 2013	ended is false
Wed Sep 11 09:48:05 IST 2013	A Phase Ended: Feedback Phase
Wed Sep 11 09:48:05 IST 2013	 numberofMoves in round 3 is 0
Wed Sep 11 09:48:05 IST 2013	Swaping roles:
Wed Sep 11 09:48:05 IST 2013	Protocol: A New Phase Began: Communication Phase. loop is true
Wed Sep 11 09:48:05 IST 2013	---------- Beginning Communication Phase at round 4 ----------
Wed Sep 11 09:48:06 IST 2013	Received communication message 
Wed Sep 11 09:48:06 IST 2013	From player: 510
Wed Sep 11 09:48:06 IST 2013	To player: 520
Wed Sep 11 09:48:06 IST 2013	Chips to send by proposer: { chips  'grey78':5 }
Wed Sep 11 09:48:06 IST 2013	Chips to send by responder: { chips  'CTRed':13 'CTPurple':6 'CTYellow':0 }
Wed Sep 11 09:48:26 IST 2013	Received communication message 
Wed Sep 11 09:48:26 IST 2013	Proposer 0 accepted? false
Wed Sep 11 09:48:26 IST 2013	case that we had one reject, and one accept
Wed Sep 11 09:48:26 IST 2013	A Phase Ended: Communication Phase
Wed Sep 11 09:48:26 IST 2013	Protocol: A New Phase Began: Movement Phase. loop is true
Wed Sep 11 09:48:26 IST 2013	---------- Beginning Movement Phase at round 4 ----------
Wed Sep 11 09:49:11 IST 2013	A Phase Ended: Movement Phase
Wed Sep 11 09:49:11 IST 2013	Protocol: A New Phase Began: Feedback Phase. loop is true
Wed Sep 11 09:49:11 IST 2013	---------- Beginning Feedback Phase at round 4 ----------
Wed Sep 11 09:49:11 IST 2013	Number of consecutive no movements for player 510 is 0
Wed Sep 11 09:49:11 IST 2013	TDPlayerPosition is(R:4,C:5)goal location 0(R:0,C:0)goal location 1(R:0,C:8)
Wed Sep 11 09:49:11 IST 2013	ended is false
Wed Sep 11 09:49:16 IST 2013	A Phase Ended: Feedback Phase
Wed Sep 11 09:49:16 IST 2013	 numberofMoves in round 4 is 1
Wed Sep 11 09:49:16 IST 2013	Swaping roles:
Wed Sep 11 09:49:16 IST 2013	Protocol: A New Phase Began: Communication Phase. loop is true
Wed Sep 11 09:49:16 IST 2013	---------- Beginning Communication Phase at round 5 ----------
Wed Sep 11 09:49:44 IST 2013	Received communication message 
Wed Sep 11 09:49:44 IST 2013	From player: 540
Wed Sep 11 09:49:44 IST 2013	To player: 510
Wed Sep 11 09:49:44 IST 2013	Chips to send by proposer: { chips  'CTRed':0 'CTPurple':4 'CTGreen':0 'grey78':0 'CTYellow':0 }
Wed Sep 11 09:49:44 IST 2013	Chips to send by responder: { chips  'CTRed':0 'CTPurple':0 'CTGreen':0 'grey78':4 'CTYellow':0 }
Wed Sep 11 09:49:49 IST 2013	Received communication message 
Wed Sep 11 09:49:49 IST 2013	From player: 520
Wed Sep 11 09:49:49 IST 2013	To player: 510
Wed Sep 11 09:49:49 IST 2013	Chips to send by proposer: { chips  'CTRed':0 'CTPurple':2 'CTGreen':0 'grey78':0 'CTYellow':0 }
Wed Sep 11 09:49:49 IST 2013	Chips to send by responder: { chips  'CTRed':0 'CTPurple':0 'CTGreen':0 'grey78':6 'CTYellow':0 }
Wed Sep 11 09:49:50 IST 2013	Received communication message 
Wed Sep 11 09:49:50 IST 2013	Proposer 0 accepted? false
Wed Sep 11 09:49:50 IST 2013	case that we had one reject, and one accept
Wed Sep 11 09:49:50 IST 2013	Received communication message 
Wed Sep 11 09:49:50 IST 2013	Proposer 1 accepted? false
Wed Sep 11 09:49:50 IST 2013	case that we had one reject, and one accept
Wed Sep 11 09:49:50 IST 2013	A Phase Ended: Communication Phase
Wed Sep 11 09:49:50 IST 2013	Protocol: A New Phase Began: Movement Phase. loop is true
Wed Sep 11 09:49:50 IST 2013	---------- Beginning Movement Phase at round 5 ----------
Wed Sep 11 09:50:34 IST 2013	A Phase Ended: Movement Phase
Wed Sep 11 09:50:34 IST 2013	Protocol: A New Phase Began: Feedback Phase. loop is true
Wed Sep 11 09:50:34 IST 2013	---------- Beginning Feedback Phase at round 5 ----------
Wed Sep 11 09:50:34 IST 2013	Number of consecutive no movements for player 510 is 1
Wed Sep 11 09:50:34 IST 2013	TDPlayerPosition is(R:4,C:5)goal location 0(R:0,C:0)goal location 1(R:0,C:8)
Wed Sep 11 09:50:34 IST 2013	ended is false
Wed Sep 11 09:50:39 IST 2013	A Phase Ended: Feedback Phase
Wed Sep 11 09:50:39 IST 2013	 numberofMoves in round 5 is 0
Wed Sep 11 09:50:39 IST 2013	Swaping roles:
Wed Sep 11 09:50:39 IST 2013	Protocol: A New Phase Began: Communication Phase. loop is true
Wed Sep 11 09:50:39 IST 2013	---------- Beginning Communication Phase at round 6 ----------
Wed Sep 11 09:50:39 IST 2013	Received communication message 
Wed Sep 11 09:50:39 IST 2013	From player: 510
Wed Sep 11 09:50:39 IST 2013	To player: 520
Wed Sep 11 09:50:39 IST 2013	Chips to send by proposer: { chips  'grey78':5 }
Wed Sep 11 09:50:39 IST 2013	Chips to send by responder: { chips  'CTRed':13 'CTPurple':6 'CTYellow':0 }
Wed Sep 11 09:50:51 IST 2013	Received communication message 
Wed Sep 11 09:50:51 IST 2013	Proposer 0 accepted? false
Wed Sep 11 09:50:51 IST 2013	case that we had one reject, and one accept
Wed Sep 11 09:50:51 IST 2013	A Phase Ended: Communication Phase
Wed Sep 11 09:50:51 IST 2013	Protocol: A New Phase Began: Movement Phase. loop is true
Wed Sep 11 09:50:51 IST 2013	---------- Beginning Movement Phase at round 6 ----------
Wed Sep 11 09:51:35 IST 2013	A Phase Ended: Movement Phase
Wed Sep 11 09:51:35 IST 2013	Protocol: A New Phase Began: Feedback Phase. loop is true
Wed Sep 11 09:51:35 IST 2013	---------- Beginning Feedback Phase at round 6 ----------
Wed Sep 11 09:51:35 IST 2013	Number of consecutive no movements for player 510 is 0
Wed Sep 11 09:51:35 IST 2013	TDPlayerPosition is(R:4,C:6)goal location 0(R:0,C:0)goal location 1(R:0,C:8)
Wed Sep 11 09:51:35 IST 2013	ended is false
Wed Sep 11 09:51:40 IST 2013	A Phase Ended: Feedback Phase
Wed Sep 11 09:51:40 IST 2013	 numberofMoves in round 6 is 1
Wed Sep 11 09:51:40 IST 2013	Swaping roles:
Wed Sep 11 09:51:40 IST 2013	Protocol: A New Phase Began: Communication Phase. loop is true
Wed Sep 11 09:51:40 IST 2013	---------- Beginning Communication Phase at round 7 ----------
Wed Sep 11 09:52:02 IST 2013	Received communication message 
Wed Sep 11 09:52:02 IST 2013	From player: 520
Wed Sep 11 09:52:02 IST 2013	To player: 510
Wed Sep 11 09:52:02 IST 2013	Chips to send by proposer: { chips  'CTRed':6 'CTPurple':0 'CTGreen':0 'grey78':0 'CTYellow':0 }
Wed Sep 11 09:52:02 IST 2013	Chips to send by responder: { chips  'CTRed':0 'CTPurple':0 'CTGreen':0 'grey78':6 'CTYellow':0 }
Wed Sep 11 09:52:12 IST 2013	Received communication message 
Wed Sep 11 09:52:12 IST 2013	From player: 540
Wed Sep 11 09:52:12 IST 2013	To player: 510
Wed Sep 11 09:52:12 IST 2013	Chips to send by proposer: { chips  'CTRed':11 'CTPurple':3 'CTGreen':0 'grey78':0 'CTYellow':0 }
Wed Sep 11 09:52:12 IST 2013	Chips to send by responder: { chips  'CTRed':0 'CTPurple':0 'CTGreen':0 'grey78':5 'CTYellow':4 }
Wed Sep 11 09:52:13 IST 2013	Received communication message 
Wed Sep 11 09:52:13 IST 2013	Proposer 1 accepted? true
Wed Sep 11 09:52:13 IST 2013	A Phase Ended: Communication Phase
Wed Sep 11 09:52:13 IST 2013	Protocol: A New Phase Began: Movement Phase. loop is true
Wed Sep 11 09:52:13 IST 2013	---------- Beginning Movement Phase at round 7 ----------
Wed Sep 11 09:52:13 IST 2013	Received communication message 
Wed Sep 11 09:52:13 IST 2013	Proposer 0 accepted? false
Wed Sep 11 09:52:57 IST 2013	A Phase Ended: Movement Phase
Wed Sep 11 09:52:57 IST 2013	Protocol: A New Phase Began: Feedback Phase. loop is true
Wed Sep 11 09:52:57 IST 2013	---------- Beginning Feedback Phase at round 7 ----------
Wed Sep 11 09:52:57 IST 2013	Number of consecutive no movements for player 510 is 1
Wed Sep 11 09:52:57 IST 2013	TDPlayerPosition is(R:4,C:6)goal location 0(R:0,C:0)goal location 1(R:0,C:8)
Wed Sep 11 09:52:57 IST 2013	ended is false
Wed Sep 11 09:53:02 IST 2013	A Phase Ended: Feedback Phase
Wed Sep 11 09:53:02 IST 2013	 numberofMoves in round 7 is 0
Wed Sep 11 09:53:02 IST 2013	Swaping roles:
Wed Sep 11 09:53:02 IST 2013	Protocol: A New Phase Began: Communication Phase. loop is true
Wed Sep 11 09:53:02 IST 2013	---------- Beginning Communication Phase at round 8 ----------
Wed Sep 11 09:53:02 IST 2013	Received communication message 
Wed Sep 11 09:53:02 IST 2013	From player: 510
Wed Sep 11 09:53:02 IST 2013	To player: 520
Wed Sep 11 09:53:02 IST 2013	Chips to send by proposer: { chips  'grey78':0 }
Wed Sep 11 09:53:02 IST 2013	Chips to send by responder: { chips  'CTRed':12 'CTPurple':1 'CTYellow':0 }
Wed Sep 11 09:53:09 IST 2013	Received communication message 
Wed Sep 11 09:53:09 IST 2013	Proposer 0 accepted? false
Wed Sep 11 09:53:09 IST 2013	case that we had one reject, and one accept
Wed Sep 11 09:53:09 IST 2013	A Phase Ended: Communication Phase
Wed Sep 11 09:53:09 IST 2013	Protocol: A New Phase Began: Movement Phase. loop is true
Wed Sep 11 09:53:09 IST 2013	---------- Beginning Movement Phase at round 8 ----------
Wed Sep 11 09:53:54 IST 2013	A Phase Ended: Movement Phase
Wed Sep 11 09:53:54 IST 2013	Protocol: A New Phase Began: Feedback Phase. loop is true
Wed Sep 11 09:53:54 IST 2013	---------- Beginning Feedback Phase at round 8 ----------
Wed Sep 11 09:53:54 IST 2013	Number of consecutive no movements for player 510 is 0
Wed Sep 11 09:53:54 IST 2013	TDPlayerPosition is(R:3,C:6)goal location 0(R:0,C:0)goal location 1(R:0,C:8)
Wed Sep 11 09:53:54 IST 2013	ended is false
Wed Sep 11 09:53:59 IST 2013	A Phase Ended: Feedback Phase
Wed Sep 11 09:53:59 IST 2013	 numberofMoves in round 8 is 1
Wed Sep 11 09:53:59 IST 2013	Swaping roles:
Wed Sep 11 09:53:59 IST 2013	Protocol: A New Phase Began: Communication Phase. loop is true
Wed Sep 11 09:53:59 IST 2013	---------- Beginning Communication Phase at round 9 ----------
Wed Sep 11 09:54:15 IST 2013	Received communication message 
Wed Sep 11 09:54:15 IST 2013	From player: 520
Wed Sep 11 09:54:15 IST 2013	To player: 510
Wed Sep 11 09:54:15 IST 2013	Chips to send by proposer: { chips  'CTRed':10 'CTPurple':0 'CTGreen':0 'grey78':0 'CTYellow':0 }
Wed Sep 11 09:54:15 IST 2013	Chips to send by responder: { chips  'CTRed':0 'CTPurple':4 'CTGreen':0 'grey78':0 'CTYellow':0 }
Wed Sep 11 09:54:23 IST 2013	Received communication message 
Wed Sep 11 09:54:23 IST 2013	From player: 540
Wed Sep 11 09:54:23 IST 2013	To player: 510
Wed Sep 11 09:54:23 IST 2013	Chips to send by proposer: { chips  'CTRed':0 'CTPurple':0 'CTGreen':0 'grey78':3 'CTYellow':0 }
Wed Sep 11 09:54:23 IST 2013	Chips to send by responder: { chips  'CTRed':5 'CTPurple':0 'CTGreen':0 'grey78':0 'CTYellow':0 }
Wed Sep 11 09:54:23 IST 2013	Received communication message 
Wed Sep 11 09:54:23 IST 2013	Proposer 0 accepted? false
Wed Sep 11 09:54:23 IST 2013	case that we had one reject, and one accept
Wed Sep 11 09:54:23 IST 2013	Received communication message 
Wed Sep 11 09:54:23 IST 2013	Proposer 1 accepted? false
Wed Sep 11 09:54:23 IST 2013	case that we had one reject, and one accept
Wed Sep 11 09:54:23 IST 2013	A Phase Ended: Communication Phase
Wed Sep 11 09:54:23 IST 2013	Protocol: A New Phase Began: Movement Phase. loop is true
Wed Sep 11 09:54:23 IST 2013	---------- Beginning Movement Phase at round 9 ----------
Wed Sep 11 09:55:07 IST 2013	A Phase Ended: Movement Phase
Wed Sep 11 09:55:07 IST 2013	Protocol: A New Phase Began: Feedback Phase. loop is true
Wed Sep 11 09:55:07 IST 2013	---------- Beginning Feedback Phase at round 9 ----------
Wed Sep 11 09:55:07 IST 2013	Number of consecutive no movements for player 510 is 1
Wed Sep 11 09:55:07 IST 2013	TDPlayerPosition is(R:3,C:6)goal location 0(R:0,C:0)goal location 1(R:0,C:8)
Wed Sep 11 09:55:07 IST 2013	ended is false
Wed Sep 11 09:55:12 IST 2013	A Phase Ended: Feedback Phase
Wed Sep 11 09:55:12 IST 2013	 numberofMoves in round 9 is 0
Wed Sep 11 09:55:12 IST 2013	Swaping roles:
Wed Sep 11 09:55:12 IST 2013	Protocol: A New Phase Began: Communication Phase. loop is true
Wed Sep 11 09:55:12 IST 2013	---------- Beginning Communication Phase at round 10 ----------
Wed Sep 11 09:55:12 IST 2013	Received communication message 
Wed Sep 11 09:55:12 IST 2013	From player: 510
Wed Sep 11 09:55:12 IST 2013	To player: 520
Wed Sep 11 09:55:12 IST 2013	Chips to send by proposer: { chips  'grey78':0 }
Wed Sep 11 09:55:12 IST 2013	Chips to send by responder: { chips  'CTRed':6 'CTPurple':2 'CTYellow':0 }
Wed Sep 11 09:55:19 IST 2013	Received communication message 
Wed Sep 11 09:55:19 IST 2013	Proposer 0 accepted? false
Wed Sep 11 09:55:19 IST 2013	case that we had one reject, and one accept
Wed Sep 11 09:55:19 IST 2013	A Phase Ended: Communication Phase
Wed Sep 11 09:55:19 IST 2013	Protocol: A New Phase Began: Movement Phase. loop is true
Wed Sep 11 09:55:19 IST 2013	---------- Beginning Movement Phase at round 10 ----------
Wed Sep 11 09:56:04 IST 2013	A Phase Ended: Movement Phase
Wed Sep 11 09:56:04 IST 2013	Protocol: A New Phase Began: Feedback Phase. loop is true
Wed Sep 11 09:56:04 IST 2013	---------- Beginning Feedback Phase at round 10 ----------
Wed Sep 11 09:56:04 IST 2013	Number of consecutive no movements for player 510 is 0
Wed Sep 11 09:56:04 IST 2013	TDPlayerPosition is(R:3,C:7)goal location 0(R:0,C:0)goal location 1(R:0,C:8)
Wed Sep 11 09:56:04 IST 2013	ended is false
Wed Sep 11 09:56:09 IST 2013	A Phase Ended: Feedback Phase
Wed Sep 11 09:56:09 IST 2013	 numberofMoves in round 10 is 1
Wed Sep 11 09:56:09 IST 2013	Swaping roles:
Wed Sep 11 09:56:09 IST 2013	Protocol: A New Phase Began: Communication Phase. loop is true
Wed Sep 11 09:56:09 IST 2013	---------- Beginning Communication Phase at round 11 ----------
Wed Sep 11 09:56:43 IST 2013	Received communication message 
Wed Sep 11 09:56:43 IST 2013	From player: 520
Wed Sep 11 09:56:43 IST 2013	To player: 510
Wed Sep 11 09:56:43 IST 2013	Chips to send by proposer: { chips  'CTRed':0 'CTPurple':0 'CTGreen':0 'grey78':0 'CTYellow':0 }
Wed Sep 11 09:56:43 IST 2013	Chips to send by responder: { chips  'CTRed':5 'CTPurple':4 'CTGreen':0 'grey78':1 'CTYellow':0 }
Wed Sep 11 09:56:56 IST 2013	Received communication message 
Wed Sep 11 09:56:56 IST 2013	From player: 540
Wed Sep 11 09:56:56 IST 2013	To player: 510
Wed Sep 11 09:56:56 IST 2013	Chips to send by proposer: { chips  'CTRed':0 'CTPurple':0 'CTGreen':0 'grey78':3 'CTYellow':0 }
Wed Sep 11 09:56:56 IST 2013	Chips to send by responder: { chips  'CTRed':4 'CTPurple':0 'CTGreen':0 'grey78':0 'CTYellow':0 }
Wed Sep 11 09:56:56 IST 2013	Received communication message 
Wed Sep 11 09:56:56 IST 2013	Proposer 0 accepted? false
Wed Sep 11 09:56:56 IST 2013	case that we had one reject, and one accept
Wed Sep 11 09:56:56 IST 2013	Received communication message 
Wed Sep 11 09:56:56 IST 2013	Proposer 1 accepted? false
Wed Sep 11 09:56:56 IST 2013	case that we had one reject, and one accept
Wed Sep 11 09:56:56 IST 2013	A Phase Ended: Communication Phase
Wed Sep 11 09:56:56 IST 2013	Protocol: A New Phase Began: Movement Phase. loop is true
Wed Sep 11 09:56:56 IST 2013	---------- Beginning Movement Phase at round 11 ----------
Wed Sep 11 09:57:40 IST 2013	A Phase Ended: Movement Phase
Wed Sep 11 09:57:40 IST 2013	Protocol: A New Phase Began: Feedback Phase. loop is true
Wed Sep 11 09:57:40 IST 2013	---------- Beginning Feedback Phase at round 11 ----------
Wed Sep 11 09:57:40 IST 2013	Number of consecutive no movements for player 510 is 1
Wed Sep 11 09:57:40 IST 2013	TDPlayerPosition is(R:3,C:7)goal location 0(R:0,C:0)goal location 1(R:0,C:8)
Wed Sep 11 09:57:40 IST 2013	ended is false
Wed Sep 11 09:57:45 IST 2013	A Phase Ended: Feedback Phase
Wed Sep 11 09:57:45 IST 2013	 numberofMoves in round 11 is 0
Wed Sep 11 09:57:45 IST 2013	Swaping roles:
Wed Sep 11 09:57:45 IST 2013	Protocol: A New Phase Began: Communication Phase. loop is true
Wed Sep 11 09:57:45 IST 2013	---------- Beginning Communication Phase at round 12 ----------
Wed Sep 11 09:57:45 IST 2013	Received communication message 
Wed Sep 11 09:57:45 IST 2013	From player: 510
Wed Sep 11 09:57:45 IST 2013	To player: 520
Wed Sep 11 09:57:45 IST 2013	Chips to send by proposer: { chips  'grey78':0 }
Wed Sep 11 09:57:45 IST 2013	Chips to send by responder: { chips  'CTRed':12 'CTPurple':3 'CTYellow':0 }
Wed Sep 11 09:57:49 IST 2013	Received communication message 
Wed Sep 11 09:57:49 IST 2013	Proposer 0 accepted? false
Wed Sep 11 09:57:49 IST 2013	case that we had one reject, and one accept
Wed Sep 11 09:57:49 IST 2013	A Phase Ended: Communication Phase
Wed Sep 11 09:57:49 IST 2013	Protocol: A New Phase Began: Movement Phase. loop is true
Wed Sep 11 09:57:49 IST 2013	---------- Beginning Movement Phase at round 12 ----------
Wed Sep 11 09:58:33 IST 2013	A Phase Ended: Movement Phase
Wed Sep 11 09:58:33 IST 2013	Protocol: A New Phase Began: Feedback Phase. loop is true
Wed Sep 11 09:58:33 IST 2013	---------- Beginning Feedback Phase at round 12 ----------
Wed Sep 11 09:58:33 IST 2013	Number of consecutive no movements for player 510 is 0
Wed Sep 11 09:58:33 IST 2013	TDPlayerPosition is(R:2,C:7)goal location 0(R:0,C:0)goal location 1(R:0,C:8)
Wed Sep 11 09:58:33 IST 2013	ended is false
Wed Sep 11 09:58:38 IST 2013	A Phase Ended: Feedback Phase
Wed Sep 11 09:58:38 IST 2013	 numberofMoves in round 12 is 1
Wed Sep 11 09:58:38 IST 2013	Swaping roles:
Wed Sep 11 09:58:38 IST 2013	Protocol: A New Phase Began: Communication Phase. loop is true
Wed Sep 11 09:58:38 IST 2013	---------- Beginning Communication Phase at round 13 ----------
Wed Sep 11 09:58:54 IST 2013	Received communication message 
Wed Sep 11 09:58:54 IST 2013	From player: 520
Wed Sep 11 09:58:54 IST 2013	To player: 510
Wed Sep 11 09:58:54 IST 2013	Chips to send by proposer: { chips  'CTRed':0 'CTPurple':0 'CTGreen':0 'grey78':0 'CTYellow':0 }
Wed Sep 11 09:58:54 IST 2013	Chips to send by responder: { chips  'CTRed':10 'CTPurple':4 'CTGreen':0 'grey78':1 'CTYellow':0 }
Wed Sep 11 09:59:24 IST 2013	Received communication message 
Wed Sep 11 09:59:24 IST 2013	From player: 540
Wed Sep 11 09:59:24 IST 2013	To player: 510
Wed Sep 11 09:59:24 IST 2013	Chips to send by proposer: { chips  'CTRed':0 'CTPurple':1 'CTGreen':0 'grey78':3 'CTYellow':0 }
Wed Sep 11 09:59:24 IST 2013	Chips to send by responder: { chips  'CTRed':6 'CTPurple':0 'CTGreen':0 'grey78':0 'CTYellow':0 }
Wed Sep 11 09:59:24 IST 2013	Received communication message 
Wed Sep 11 09:59:24 IST 2013	Proposer 0 accepted? false
Wed Sep 11 09:59:24 IST 2013	case that we had one reject, and one accept
Wed Sep 11 09:59:24 IST 2013	Received communication message 
Wed Sep 11 09:59:24 IST 2013	Proposer 1 accepted? false
Wed Sep 11 09:59:24 IST 2013	case that we had one reject, and one accept
Wed Sep 11 09:59:24 IST 2013	A Phase Ended: Communication Phase
Wed Sep 11 09:59:24 IST 2013	Protocol: A New Phase Began: Movement Phase. loop is true
Wed Sep 11 09:59:24 IST 2013	---------- Beginning Movement Phase at round 13 ----------
Wed Sep 11 10:00:08 IST 2013	A Phase Ended: Movement Phase
Wed Sep 11 10:00:08 IST 2013	Protocol: A New Phase Began: Feedback Phase. loop is true
Wed Sep 11 10:00:08 IST 2013	---------- Beginning Feedback Phase at round 13 ----------
Wed Sep 11 10:00:08 IST 2013	Number of consecutive no movements for player 510 is 1
Wed Sep 11 10:00:08 IST 2013	TDPlayerPosition is(R:2,C:7)goal location 0(R:0,C:0)goal location 1(R:0,C:8)
Wed Sep 11 10:00:08 IST 2013	ended is false
Wed Sep 11 10:00:13 IST 2013	A Phase Ended: Feedback Phase
Wed Sep 11 10:00:13 IST 2013	 numberofMoves in round 13 is 0
Wed Sep 11 10:00:13 IST 2013	Swaping roles:
Wed Sep 11 10:00:13 IST 2013	Protocol: A New Phase Began: Communication Phase. loop is true
Wed Sep 11 10:00:13 IST 2013	---------- Beginning Communication Phase at round 14 ----------
Wed Sep 11 10:00:13 IST 2013	Received communication message 
Wed Sep 11 10:00:13 IST 2013	From player: 510
Wed Sep 11 10:00:13 IST 2013	To player: 520
Wed Sep 11 10:00:13 IST 2013	Chips to send by proposer: { chips  'grey78':0 }
Wed Sep 11 10:00:13 IST 2013	Chips to send by responder: { chips  'CTRed':10 'CTPurple':5 'CTYellow':0 }
Wed Sep 11 10:00:24 IST 2013	Received communication message 
Wed Sep 11 10:00:24 IST 2013	Proposer 0 accepted? false
Wed Sep 11 10:00:24 IST 2013	case that we had one reject, and one accept
Wed Sep 11 10:00:24 IST 2013	A Phase Ended: Communication Phase
Wed Sep 11 10:00:24 IST 2013	Protocol: A New Phase Began: Movement Phase. loop is true
Wed Sep 11 10:00:24 IST 2013	---------- Beginning Movement Phase at round 14 ----------
Wed Sep 11 10:01:09 IST 2013	A Phase Ended: Movement Phase
Wed Sep 11 10:01:09 IST 2013	Protocol: A New Phase Began: Feedback Phase. loop is true
Wed Sep 11 10:01:09 IST 2013	---------- Beginning Feedback Phase at round 14 ----------
Wed Sep 11 10:01:09 IST 2013	Number of consecutive no movements for player 510 is 0
Wed Sep 11 10:01:09 IST 2013	TDPlayerPosition is(R:1,C:7)goal location 0(R:0,C:0)goal location 1(R:0,C:8)
Wed Sep 11 10:01:09 IST 2013	ended is false
Wed Sep 11 10:01:14 IST 2013	A Phase Ended: Feedback Phase
Wed Sep 11 10:01:14 IST 2013	 numberofMoves in round 14 is 1
Wed Sep 11 10:01:14 IST 2013	Swaping roles:
Wed Sep 11 10:01:14 IST 2013	Protocol: A New Phase Began: Communication Phase. loop is true
Wed Sep 11 10:01:14 IST 2013	---------- Beginning Communication Phase at round 15 ----------
Wed Sep 11 10:01:26 IST 2013	Received communication message 
Wed Sep 11 10:01:26 IST 2013	From player: 540
Wed Sep 11 10:01:26 IST 2013	To player: 510
Wed Sep 11 10:01:26 IST 2013	Chips to send by proposer: { chips  'CTRed':0 'CTPurple':4 'CTGreen':0 'grey78':0 'CTYellow':0 }
Wed Sep 11 10:01:26 IST 2013	Chips to send by responder: { chips  'CTRed':4 'CTPurple':0 'CTGreen':0 'grey78':0 'CTYellow':0 }
Wed Sep 11 10:01:55 IST 2013	Received communication message 
Wed Sep 11 10:01:55 IST 2013	From player: 520
Wed Sep 11 10:01:55 IST 2013	To player: 510
Wed Sep 11 10:01:55 IST 2013	Chips to send by proposer: { chips  'CTRed':1 'CTPurple':0 'CTGreen':0 'grey78':0 'CTYellow':0 }
Wed Sep 11 10:01:55 IST 2013	Chips to send by responder: { chips  'CTRed':10 'CTPurple':3 'CTGreen':0 'grey78':1 'CTYellow':0 }
Wed Sep 11 10:01:55 IST 2013	Received communication message 
Wed Sep 11 10:01:55 IST 2013	Proposer 0 accepted? false
Wed Sep 11 10:01:55 IST 2013	case that we had one reject, and one accept
Wed Sep 11 10:01:55 IST 2013	Received communication message 
Wed Sep 11 10:01:55 IST 2013	Proposer 1 accepted? false
Wed Sep 11 10:01:55 IST 2013	case that we had one reject, and one accept
Wed Sep 11 10:01:55 IST 2013	A Phase Ended: Communication Phase
Wed Sep 11 10:01:55 IST 2013	Protocol: A New Phase Began: Movement Phase. loop is true
Wed Sep 11 10:01:55 IST 2013	---------- Beginning Movement Phase at round 15 ----------
Wed Sep 11 10:02:39 IST 2013	A Phase Ended: Movement Phase
Wed Sep 11 10:02:39 IST 2013	Protocol: A New Phase Began: Feedback Phase. loop is true
Wed Sep 11 10:02:39 IST 2013	---------- Beginning Feedback Phase at round 15 ----------
Wed Sep 11 10:02:39 IST 2013	Number of consecutive no movements for player 510 is 1
Wed Sep 11 10:02:39 IST 2013	TDPlayerPosition is(R:1,C:7)goal location 0(R:0,C:0)goal location 1(R:0,C:8)
Wed Sep 11 10:02:39 IST 2013	ended is false
Wed Sep 11 10:02:44 IST 2013	A Phase Ended: Feedback Phase
Wed Sep 11 10:02:44 IST 2013	 numberofMoves in round 15 is 0
Wed Sep 11 10:02:44 IST 2013	Swaping roles:
Wed Sep 11 10:02:44 IST 2013	Protocol: A New Phase Began: Communication Phase. loop is true
Wed Sep 11 10:02:44 IST 2013	---------- Beginning Communication Phase at round 16 ----------
Wed Sep 11 10:02:44 IST 2013	Received communication message 
Wed Sep 11 10:02:44 IST 2013	From player: 510
Wed Sep 11 10:02:44 IST 2013	To player: 520
Wed Sep 11 10:02:44 IST 2013	Chips to send by proposer: { chips  'grey78':0 }
Wed Sep 11 10:02:44 IST 2013	Chips to send by responder: { chips  'CTRed':6 'CTPurple':1 'CTYellow':0 }
Wed Sep 11 10:02:48 IST 2013	Received communication message 
Wed Sep 11 10:02:48 IST 2013	Proposer 0 accepted? false
Wed Sep 11 10:02:48 IST 2013	case that we had one reject, and one accept
Wed Sep 11 10:02:48 IST 2013	A Phase Ended: Communication Phase
Wed Sep 11 10:02:48 IST 2013	Protocol: A New Phase Began: Movement Phase. loop is true
Wed Sep 11 10:02:48 IST 2013	---------- Beginning Movement Phase at round 16 ----------
Wed Sep 11 10:03:32 IST 2013	A Phase Ended: Movement Phase
Wed Sep 11 10:03:32 IST 2013	Protocol: A New Phase Began: Feedback Phase. loop is true
Wed Sep 11 10:03:32 IST 2013	---------- Beginning Feedback Phase at round 16 ----------
Wed Sep 11 10:03:32 IST 2013	Number of consecutive no movements for player 510 is 0
Wed Sep 11 10:03:32 IST 2013	TDPlayerPosition is(R:1,C:8)goal location 0(R:0,C:0)goal location 1(R:0,C:8)
Wed Sep 11 10:03:32 IST 2013	ended is false
Wed Sep 11 10:03:37 IST 2013	A Phase Ended: Feedback Phase
Wed Sep 11 10:03:37 IST 2013	 numberofMoves in round 16 is 1
Wed Sep 11 10:03:37 IST 2013	Swaping roles:
Wed Sep 11 10:03:37 IST 2013	Protocol: A New Phase Began: Communication Phase. loop is true
Wed Sep 11 10:03:37 IST 2013	---------- Beginning Communication Phase at round 17 ----------
Wed Sep 11 10:03:57 IST 2013	Received communication message 
Wed Sep 11 10:03:57 IST 2013	From player: 540
Wed Sep 11 10:03:57 IST 2013	To player: 510
Wed Sep 11 10:03:57 IST 2013	Chips to send by proposer: { chips  'CTRed':0 'CTPurple':4 'CTGreen':0 'grey78':0 'CTYellow':0 }
Wed Sep 11 10:03:57 IST 2013	Chips to send by responder: { chips  'CTRed':0 'CTPurple':0 'CTGreen':0 'grey78':0 'CTYellow':0 }
Wed Sep 11 10:03:58 IST 2013	Received communication message 
Wed Sep 11 10:03:58 IST 2013	From player: 520
Wed Sep 11 10:03:58 IST 2013	To player: 510
Wed Sep 11 10:03:58 IST 2013	Chips to send by proposer: { chips  'CTRed':0 'CTPurple':0 'CTGreen':0 'grey78':0 'CTYellow':0 }
Wed Sep 11 10:03:58 IST 2013	Chips to send by responder: { chips  'CTRed':20 'CTPurple':0 'CTGreen':0 'grey78':0 'CTYellow':0 }
Wed Sep 11 10:03:58 IST 2013	Received communication message 
Wed Sep 11 10:03:58 IST 2013	Proposer 1 accepted? true
Wed Sep 11 10:03:58 IST 2013	A Phase Ended: Communication Phase
Wed Sep 11 10:03:58 IST 2013	Protocol: A New Phase Began: Movement Phase. loop is true
Wed Sep 11 10:03:58 IST 2013	---------- Beginning Movement Phase at round 17 ----------
Wed Sep 11 10:03:58 IST 2013	Received communication message 
Wed Sep 11 10:03:58 IST 2013	Proposer 0 accepted? false
Wed Sep 11 10:04:42 IST 2013	A Phase Ended: Movement Phase
Wed Sep 11 10:04:42 IST 2013	Protocol: A New Phase Began: Feedback Phase. loop is true
Wed Sep 11 10:04:42 IST 2013	---------- Beginning Feedback Phase at round 17 ----------
Wed Sep 11 10:04:42 IST 2013	Number of consecutive no movements for player 510 is 1
Wed Sep 11 10:04:42 IST 2013	TDPlayerPosition is(R:1,C:8)goal location 0(R:0,C:0)goal location 1(R:0,C:8)
Wed Sep 11 10:04:42 IST 2013	ended is false
Wed Sep 11 10:04:47 IST 2013	A Phase Ended: Feedback Phase
Wed Sep 11 10:04:47 IST 2013	 numberofMoves in round 17 is 0
Wed Sep 11 10:04:47 IST 2013	Swaping roles:
Wed Sep 11 10:04:47 IST 2013	Protocol: A New Phase Began: Communication Phase. loop is true
Wed Sep 11 10:04:47 IST 2013	---------- Beginning Communication Phase at round 18 ----------
Wed Sep 11 10:04:47 IST 2013	Received communication message 
Wed Sep 11 10:04:47 IST 2013	From player: 510
Wed Sep 11 10:04:47 IST 2013	To player: 520
Wed Sep 11 10:04:47 IST 2013	Chips to send by proposer: { chips  'grey78':0 }
Wed Sep 11 10:04:47 IST 2013	Chips to send by responder: { chips  'CTRed':8 'CTPurple':4 'CTYellow':0 }
Wed Sep 11 10:04:51 IST 2013	Received communication message 
Wed Sep 11 10:04:51 IST 2013	Proposer 0 accepted? false
Wed Sep 11 10:04:51 IST 2013	case that we had one reject, and one accept
Wed Sep 11 10:04:51 IST 2013	A Phase Ended: Communication Phase
Wed Sep 11 10:04:51 IST 2013	Protocol: A New Phase Began: Movement Phase. loop is true
Wed Sep 11 10:04:51 IST 2013	---------- Beginning Movement Phase at round 18 ----------
Wed Sep 11 10:05:35 IST 2013	A Phase Ended: Movement Phase
Wed Sep 11 10:05:35 IST 2013	Protocol: A New Phase Began: Feedback Phase. loop is true
Wed Sep 11 10:05:35 IST 2013	---------- Beginning Feedback Phase at round 18 ----------
Wed Sep 11 10:05:35 IST 2013	The TD player reached the goal, end the game
Wed Sep 11 10:05:35 IST 2013	ended is true
Wed Sep 11 10:05:40 IST 2013	A Phase Ended: Feedback Phase
Wed Sep 11 10:05:40 IST 2013	 numberofMoves in round 18 is 1
Wed Sep 11 10:05:40 IST 2013	Loop status: false
Wed Sep 11 10:05:40 IST 2013	Player: 540 ,role: Responder score is: 155
Wed Sep 11 10:05:40 IST 2013	Player: 540Game Ended
Wed Sep 11 10:05:40 IST 2013	Player: 520 ,role: Responder score is: 275
Wed Sep 11 10:05:40 IST 2013	Player: 520Game Ended
Wed Sep 11 10:05:40 IST 2013	Player: 510 ,role: Proposer score is: 345
Wed Sep 11 10:05:40 IST 2013	Player: 510Game Ended
Wed Sep 11 10:05:40 IST 2013	Protocol: A New Phase Began: Communication Phase. loop is false
Wed Sep 11 10:05:40 IST 2013	---------- Beginning Communication Phase at round 18 ----------
Wed Sep 11 10:08:40 IST 2013	A Phase Ended: Communication Phase
Wed Sep 11 10:08:40 IST 2013	Protocol: A New Phase Began: Movement Phase. loop is false
Wed Sep 11 10:08:40 IST 2013	---------- Beginning Movement Phase at round 18 ----------
Wed Sep 11 10:09:25 IST 2013	A Phase Ended: Movement Phase
Wed Sep 11 10:09:25 IST 2013	Protocol: A New Phase Began: Feedback Phase. loop is false
Wed Sep 11 10:09:25 IST 2013	---------- Beginning Feedback Phase at round 18 ----------
Wed Sep 11 10:09:25 IST 2013	The TD player reached the goal, end the game
Wed Sep 11 10:09:25 IST 2013	ended is true
Wed Sep 11 10:09:30 IST 2013	A Phase Ended: Feedback Phase
Wed Sep 11 10:09:30 IST 2013	 numberofMoves in round 18 is 0
Wed Sep 11 10:09:30 IST 2013	Loop status: false
Wed Sep 11 10:09:30 IST 2013	Player: 540 ,role: GameEnded score is: 155
Wed Sep 11 10:09:30 IST 2013	Player: 540Game Ended
Wed Sep 11 10:09:30 IST 2013	Player: 520 ,role: GameEnded score is: 275
Wed Sep 11 10:09:30 IST 2013	Player: 520Game Ended
Wed Sep 11 10:09:30 IST 2013	Player: 510 ,role: GameEnded score is: 345
Wed Sep 11 10:09:30 IST 2013	Player: 510Game Ended
