filename,round,propID,respID,IsPropCustomer,chipsToSend,chipsToReceive,accept,propCurrentScore,respCurrentScore,actualSent,ActualRcvd,propResultingScore,respResultingScore,#ofCustomerMovesInRound,customerRowPositionAfterMovePhase,customerColPositionAfterMovePhase,Player100ChipsAfterMovePhase,Player100ScoreAfterMovePhase,Player200ChipsAfterMovePhase,Player200ScoreAfterMovePhase,Player300ChipsAfterMovePhase,Player300ScoreAfterMovePhase,generosityLevel,ClientReachedGoal
3playersLog_1388925860048.csv,1,520,510,false,{ chips  'CTPurple':3 },{ chips  'grey78':3 },IGNORED,200,120,,,,,0,(R:5,C:4),{ chips  'CTRed':1 'CTGreen':0 'CTPurple':0 'grey78':12 'CTYellow':12 },125,{ chips  'CTRed':33 'CTGreen':0 'CTPurple':7 'grey78':0 'CTYellow':0 },200,{ chips  'CTRed':32 'CTGreen':0 'CTPurple':7 'grey78':0 'CTYellow':0 },195
3playersLog_1388925860048.csv,1,540,510,false,{ chips  'CTRed':1 },{ chips  },TRUE,200,120,{ chips  'CTRed':1 'CTPurple':0 'CTGreen':0 'grey78':0 'CTYellow':0 },{ chips  'CTRed':0 'CTPurple':0 'CTGreen':0 'grey78':0 'CTYellow':0 },195,125,0,(R:5,C:4),{ chips  'CTRed':1 'CTGreen':0 'CTPurple':0 'grey78':12 'CTYellow':12 },125,{ chips  'CTRed':33 'CTGreen':0 'CTPurple':7 'grey78':0 'CTYellow':0 },200,{ chips  'CTRed':32 'CTGreen':0 'CTPurple':7 'grey78':0 'CTYellow':0 },195
3playersLog_1388925860048.csv,2,510,540,true,{ chips  'CTYellow':11 },{ chips  'CTRed':32 'CTPurple':7 },FALSE,125,195,,,,,1,(R:5,C:5),{ chips  'CTRed':1 'CTGreen':0 'CTPurple':0 'grey78':12 'CTYellow':11 },120,{ chips  'CTRed':33 'CTGreen':0 'CTPurple':7 'grey78':0 'CTYellow':0 },200,{ chips  'CTRed':32 'CTGreen':0 'CTPurple':7 'grey78':0 'CTYellow':0 },195
3playersLog_1388925860048.csv,3,520,510,false,{ chips  'CTPurple':4 },{ chips  'CTRed':1 'grey78':7 },IGNORED,200,120,,,,,0,(R:5,C:5),{ chips  'CTRed':4 'CTGreen':0 'CTPurple':0 'grey78':12 'CTYellow':11 },135,{ chips  'CTRed':33 'CTGreen':0 'CTPurple':7 'grey78':0 'CTYellow':0 },200,{ chips  'CTRed':29 'CTGreen':0 'CTPurple':7 'grey78':0 'CTYellow':0 },180
3playersLog_1388925860048.csv,3,540,510,false,{ chips  'CTRed':3 },{ chips  },TRUE,195,120,{ chips  'CTRed':3 'CTPurple':0 'CTGreen':0 'grey78':0 'CTYellow':0 },{ chips  'CTRed':0 'CTPurple':0 'CTGreen':0 'grey78':0 'CTYellow':0 },180,135,0,(R:5,C:5),{ chips  'CTRed':4 'CTGreen':0 'CTPurple':0 'grey78':12 'CTYellow':11 },135,{ chips  'CTRed':33 'CTGreen':0 'CTPurple':7 'grey78':0 'CTYellow':0 },200,{ chips  'CTRed':29 'CTGreen':0 'CTPurple':7 'grey78':0 'CTYellow':0 },180
3playersLog_1388925860048.csv,4,510,520,true,{ chips  'grey78':11 },{ chips  'CTRed':33 'CTPurple':7 },FALSE,135,200,,,,,1,(R:4,C:5),{ chips  'CTRed':4 'CTGreen':0 'CTPurple':0 'grey78':12 'CTYellow':10 },130,{ chips  'CTRed':33 'CTGreen':0 'CTPurple':7 'grey78':0 'CTYellow':0 },200,{ chips  'CTRed':29 'CTGreen':0 'CTPurple':7 'grey78':0 'CTYellow':0 },180
3playersLog_1388925860048.csv,5,520,510,false,{ chips  'CTPurple':4 },{ chips  'CTRed':4 'grey78':12 },FALSE,200,130,,,,,0,(R:4,C:5),{ chips  'CTRed':4 'CTGreen':0 'CTPurple':0 'grey78':12 'CTYellow':10 },130,{ chips  'CTRed':33 'CTGreen':0 'CTPurple':7 'grey78':0 'CTYellow':0 },200,{ chips  'CTRed':29 'CTGreen':0 'CTPurple':7 'grey78':0 'CTYellow':0 },180
3playersLog_1388925860048.csv,5,540,510,false,{ chips  'CTRed':6 },{ chips  'CTYellow':4 },FALSE,180,130,,,,,0,(R:4,C:5),{ chips  'CTRed':4 'CTGreen':0 'CTPurple':0 'grey78':12 'CTYellow':10 },130,{ chips  'CTRed':33 'CTGreen':0 'CTPurple':7 'grey78':0 'CTYellow':0 },200,{ chips  'CTRed':29 'CTGreen':0 'CTPurple':7 'grey78':0 'CTYellow':0 },180
3playersLog_1388925860048.csv,6,510,520,true,{ chips  'grey78':11 },{ chips  'CTRed':33 'CTPurple':7 },FALSE,130,200,,,,,1,(R:4,C:6),{ chips  'CTRed':4 'CTGreen':0 'CTPurple':0 'grey78':12 'CTYellow':9 },125,{ chips  'CTRed':33 'CTGreen':0 'CTPurple':7 'grey78':0 'CTYellow':0 },200,{ chips  'CTRed':29 'CTGreen':0 'CTPurple':7 'grey78':0 'CTYellow':0 },180
3playersLog_1388925860048.csv,7,520,510,false,{ chips  },{ chips  'CTRed':4 'grey78':12 'CTYellow':3 },FALSE,200,125,,,,,0,(R:4,C:6),{ chips  'CTRed':4 'CTGreen':0 'CTPurple':0 'grey78':12 'CTYellow':9 },125,{ chips  'CTRed':33 'CTGreen':0 'CTPurple':7 'grey78':0 'CTYellow':0 },200,{ chips  'CTRed':29 'CTGreen':0 'CTPurple':7 'grey78':0 'CTYellow':0 },180
3playersLog_1388925860048.csv,7,540,510,false,{ chips  'CTPurple':4 },{ chips  'CTYellow':4 },FALSE,180,125,,,,,0,(R:4,C:6),{ chips  'CTRed':4 'CTGreen':0 'CTPurple':0 'grey78':12 'CTYellow':9 },125,{ chips  'CTRed':33 'CTGreen':0 'CTPurple':7 'grey78':0 'CTYellow':0 },200,{ chips  'CTRed':29 'CTGreen':0 'CTPurple':7 'grey78':0 'CTYellow':0 },180
3playersLog_1388925860048.csv,8,510,520,true,{ chips  'grey78':11 },{ chips  'CTRed':33 'CTPurple':7 },FALSE,125,200,,,,,1,(R:3,C:6),{ chips  'CTRed':4 'CTGreen':0 'CTPurple':0 'grey78':12 'CTYellow':8 },120,{ chips  'CTRed':33 'CTGreen':0 'CTPurple':7 'grey78':0 'CTYellow':0 },200,{ chips  'CTRed':29 'CTGreen':0 'CTPurple':7 'grey78':0 'CTYellow':0 },180
3playersLog_1388925860048.csv,9,520,510,false,{ chips  },{ chips  'CTRed':4 'grey78':12 'CTYellow':3 },IGNORED,200,120,,,,,0,(R:3,C:6),{ chips  'CTRed':4 'CTGreen':0 'CTPurple':7 'grey78':12 'CTYellow':4 },135,{ chips  'CTRed':33 'CTGreen':0 'CTPurple':7 'grey78':0 'CTYellow':0 },200,{ chips  'CTRed':29 'CTGreen':0 'CTPurple':0 'grey78':0 'CTYellow':4 },165
3playersLog_1388925860048.csv,9,540,510,false,{ chips  'CTPurple':7 },{ chips  'CTYellow':4 },TRUE,180,120,{ chips  'CTRed':0 'CTPurple':7 'CTGreen':0 'grey78':0 'CTYellow':0 },{ chips  'CTRed':0 'CTPurple':0 'CTGreen':0 'grey78':0 'CTYellow':4 },165,135,0,(R:3,C:6),{ chips  'CTRed':4 'CTGreen':0 'CTPurple':7 'grey78':12 'CTYellow':4 },135,{ chips  'CTRed':33 'CTGreen':0 'CTPurple':7 'grey78':0 'CTYellow':0 },200,{ chips  'CTRed':29 'CTGreen':0 'CTPurple':0 'grey78':0 'CTYellow':4 },165
3playersLog_1388925860048.csv,10,510,520,true,{ chips  'grey78':11 },{ chips  'CTRed':33 'CTPurple':7 },FALSE,135,200,,,,,1,(R:3,C:7),{ chips  'CTRed':4 'CTGreen':0 'CTPurple':7 'grey78':12 'CTYellow':3 },130,{ chips  'CTRed':33 'CTGreen':0 'CTPurple':7 'grey78':0 'CTYellow':0 },200,{ chips  'CTRed':29 'CTGreen':0 'CTPurple':0 'grey78':0 'CTYellow':4 },165
3playersLog_1388925860048.csv,11,520,510,false,{ chips  'CTRed':10 },{ chips  'CTPurple':7 'grey78':12 },FALSE,200,130,,,,,0,(R:3,C:7),{ chips  'CTRed':4 'CTGreen':0 'CTPurple':7 'grey78':12 'CTYellow':3 },130,{ chips  'CTRed':33 'CTGreen':0 'CTPurple':7 'grey78':0 'CTYellow':0 },200,{ chips  'CTRed':29 'CTGreen':0 'CTPurple':0 'grey78':0 'CTYellow':4 },165
3playersLog_1388925860048.csv,11,540,510,false,{ chips  },{ chips  'CTRed':1 'grey78':1 'CTYellow':1 },FALSE,165,130,,,,,0,(R:3,C:7),{ chips  'CTRed':4 'CTGreen':0 'CTPurple':7 'grey78':12 'CTYellow':3 },130,{ chips  'CTRed':33 'CTGreen':0 'CTPurple':7 'grey78':0 'CTYellow':0 },200,{ chips  'CTRed':29 'CTGreen':0 'CTPurple':0 'grey78':0 'CTYellow':4 },165
3playersLog_1388925860048.csv,12,510,520,true,{ chips  'grey78':11 },{ chips  'CTRed':33 'CTPurple':7 },FALSE,130,200,,,,,1,(R:2,C:7),{ chips  'CTRed':4 'CTGreen':0 'CTPurple':7 'grey78':12 'CTYellow':2 },125,{ chips  'CTRed':33 'CTGreen':0 'CTPurple':7 'grey78':0 'CTYellow':0 },200,{ chips  'CTRed':29 'CTGreen':0 'CTPurple':0 'grey78':0 'CTYellow':4 },165
3playersLog_1388925860048.csv,13,520,510,false,{ chips  'CTRed':12 },{ chips  'CTRed':2 'grey78':12 },FALSE,200,125,,,,,0,(R:2,C:7),{ chips  'CTRed':4 'CTGreen':0 'CTPurple':7 'grey78':12 'CTYellow':2 },125,{ chips  'CTRed':33 'CTGreen':0 'CTPurple':7 'grey78':0 'CTYellow':0 },200,{ chips  'CTRed':29 'CTGreen':0 'CTPurple':0 'grey78':0 'CTYellow':4 },165
3playersLog_1388925860048.csv,13,540,510,false,{ chips  },{ chips  'CTRed':4 },FALSE,165,125,,,,,0,(R:2,C:7),{ chips  'CTRed':4 'CTGreen':0 'CTPurple':7 'grey78':12 'CTYellow':2 },125,{ chips  'CTRed':33 'CTGreen':0 'CTPurple':7 'grey78':0 'CTYellow':0 },200,{ chips  'CTRed':29 'CTGreen':0 'CTPurple':0 'grey78':0 'CTYellow':4 },165
3playersLog_1388925860048.csv,14,510,520,true,{ chips  'grey78':11 },{ chips  'CTRed':33 'CTPurple':7 },FALSE,125,200,,,,,1,(R:1,C:7),{ chips  'CTRed':4 'CTGreen':0 'CTPurple':6 'grey78':12 'CTYellow':2 },120,{ chips  'CTRed':33 'CTGreen':0 'CTPurple':7 'grey78':0 'CTYellow':0 },200,{ chips  'CTRed':29 'CTGreen':0 'CTPurple':0 'grey78':0 'CTYellow':4 },165
3playersLog_1388925860048.csv,15,520,510,false,{ chips  'CTRed':20 },{ chips  'CTRed':4 'CTPurple':6 'grey78':12 },FALSE,200,120,,,,,0,(R:1,C:7),{ chips  'CTRed':4 'CTGreen':0 'CTPurple':6 'grey78':12 'CTYellow':2 },120,{ chips  'CTRed':33 'CTGreen':0 'CTPurple':7 'grey78':0 'CTYellow':0 },200,{ chips  'CTRed':29 'CTGreen':0 'CTPurple':0 'grey78':0 'CTYellow':4 },165
3playersLog_1388925860048.csv,15,540,510,false,{ chips  'CTRed':6 },{ chips  'CTYellow':2 },FALSE,165,120,,,,,0,(R:1,C:7),{ chips  'CTRed':4 'CTGreen':0 'CTPurple':6 'grey78':12 'CTYellow':2 },120,{ chips  'CTRed':33 'CTGreen':0 'CTPurple':7 'grey78':0 'CTYellow':0 },200,{ chips  'CTRed':29 'CTGreen':0 'CTPurple':0 'grey78':0 'CTYellow':4 },165
3playersLog_1388925860048.csv,16,510,520,true,{ chips  'grey78':11 },{ chips  'CTRed':33 'CTPurple':7 },FALSE,120,200,,,,,1,(R:1,C:8),{ chips  'CTRed':4 'CTGreen':0 'CTPurple':6 'grey78':12 'CTYellow':1 },115,{ chips  'CTRed':33 'CTGreen':0 'CTPurple':7 'grey78':0 'CTYellow':0 },200,{ chips  'CTRed':29 'CTGreen':0 'CTPurple':0 'grey78':0 'CTYellow':4 },165
3playersLog_1388925860048.csv,17,520,510,false,{ chips  'CTRed':1 'CTPurple':1 },{ chips  'CTRed':2 'CTPurple':2 'grey78':2 },FALSE,200,115,,,,,0,(R:1,C:8),{ chips  'CTRed':4 'CTGreen':0 'CTPurple':6 'grey78':12 'CTYellow':1 },115,{ chips  'CTRed':33 'CTGreen':0 'CTPurple':7 'grey78':0 'CTYellow':0 },200,{ chips  'CTRed':29 'CTGreen':0 'CTPurple':0 'grey78':0 'CTYellow':4 },165
3playersLog_1388925860048.csv,17,540,510,false,{ chips  'CTRed':15 },{ chips  'CTYellow':1 },FALSE,165,115,,,,,0,(R:1,C:8),{ chips  'CTRed':4 'CTGreen':0 'CTPurple':6 'grey78':12 'CTYellow':1 },115,{ chips  'CTRed':33 'CTGreen':0 'CTPurple':7 'grey78':0 'CTYellow':0 },200,{ chips  'CTRed':29 'CTGreen':0 'CTPurple':0 'grey78':0 'CTYellow':4 },165
3playersLog_1388925860048.csv,18,510,520,true,{ chips  'grey78':11 },{ chips  'CTRed':33 'CTPurple':7 },FALSE,115,200,,,,,1,(R:0,C:8),{ chips  'CTRed':4 'CTGreen':0 'CTPurple':6 'grey78':12 'CTYellow':0 },260,{ chips  'CTRed':33 'CTGreen':0 'CTPurple':7 'grey78':0 'CTYellow':0 },350,{ chips  'CTRed':29 'CTGreen':0 'CTPurple':0 'grey78':0 'CTYellow':4 },165
3playersLog_1388925860048.csv,,,,,,,,,,,,,,,,,,,,,,,,true
