filename,round,propID,respID,IsPropCustomer,chipsToSend,chipsToReceive,accept,propCurrentScore,respCurrentScore,actualSent,ActualRcvd,propResultingScore,respResultingScore,#ofCustomerMovesInRound,customerRowPositionAfterMovePhase,customerColPositionAfterMovePhase,Player100ChipsAfterMovePhase,Player100ScoreAfterMovePhase,Player200ChipsAfterMovePhase,Player200ScoreAfterMovePhase,Player300ChipsAfterMovePhase,Player300ScoreAfterMovePhase,generosityLevel,ClientReachedGoal
3playersLog_1387973817890.csv,1,200,100,false,{ chips  'CTRed':5 },{ chips  'grey78':4 },TRUE,200,120,{ chips  'CTRed':5 'CTPurple':0 'CTGreen':0 'grey78':0 'CTYellow':0 },{ chips  'CTRed':0 'CTPurple':0 'CTGreen':0 'grey78':4 'CTYellow':0 },195,125,0,(R:5,C:4),{ chips  'CTRed':5 'CTGreen':0 'CTPurple':0 'grey78':8 'CTYellow':12 },125,{ chips  'CTRed':28 'CTGreen':0 'CTPurple':7 'grey78':4 'CTYellow':0 },195,{ chips  'CTRed':33 'CTGreen':0 'CTPurple':7 'grey78':0 'CTYellow':0 },200
3playersLog_1387973817890.csv,2,100,300,true,{ chips  'CTRed':4 },{ chips  'CTPurple':4 },IGNORED,125,200,,,,,0,(R:5,C:4),{ chips  'CTRed':5 'CTGreen':0 'CTPurple':0 'grey78':8 'CTYellow':12 },125,{ chips  'CTRed':28 'CTGreen':0 'CTPurple':7 'grey78':4 'CTYellow':0 },195,{ chips  'CTRed':33 'CTGreen':0 'CTPurple':7 'grey78':0 'CTYellow':0 },200
3playersLog_1387973817890.csv,,,,,,,,,,,,,,,,,,,,,,,,false
