Sun Jan 05 20:37:47 CST 2014	This is the CT debug logger; svn version 638; sep 27 09
Sun Jan 05 20:37:47 CST 2014	Sun Jan 05 20:37:47 CST 2014
Sun Jan 05 20:37:47 CST 2014	ID Number: 67484
Sun Jan 05 20:37:47 CST 2014	Creating board
Sun Jan 05 20:37:47 CST 2014	<colors>
Sun Jan 05 20:37:47 CST 2014	{ GamePalette  'CTPurple':0 'CTRed':1 'CTGreen':2 'grey78':3 'CTYellow':4 }
Sun Jan 05 20:37:47 CST 2014	<rows>
Sun Jan 05 20:37:47 CST 2014	6
Sun Jan 05 20:37:47 CST 2014	<columns>
Sun Jan 05 20:37:47 CST 2014	9
Sun Jan 05 20:37:47 CST 2014	<squaresColors>
Sun Jan 05 20:37:47 CST 2014	grey78 CTGreen CTGreen CTGreen CTGreen CTGreen CTGreen CTGreen CTYellow 
Sun Jan 05 20:37:47 CST 2014	grey78 CTPurple CTPurple CTPurple CTPurple CTPurple CTPurple CTPurple CTYellow 
Sun Jan 05 20:37:47 CST 2014	grey78 grey78 CTGreen CTGreen CTGreen CTGreen CTGreen CTYellow CTYellow 
Sun Jan 05 20:37:47 CST 2014	CTGreen grey78 grey78 CTPurple CTPurple CTPurple CTYellow CTYellow CTGreen 
Sun Jan 05 20:37:47 CST 2014	CTGreen CTGreen grey78 grey78 CTGreen CTYellow CTYellow CTGreen CTGreen 
Sun Jan 05 20:37:47 CST 2014	CTGreen CTGreen CTGreen grey78 CTGreen CTYellow CTGreen CTGreen CTGreen 
Sun Jan 05 20:37:47 CST 2014	</squareColors>
Sun Jan 05 20:37:47 CST 2014	<goalPosition>
Sun Jan 05 20:37:47 CST 2014	Goal position: (R:0,C:0)
Sun Jan 05 20:37:47 CST 2014	<goalPosition>
Sun Jan 05 20:37:47 CST 2014	Goal position: (R:0,C:0)
Sun Jan 05 20:37:47 CST 2014	<firstPlayerPossibleGoal1>
Sun Jan 05 20:37:47 CST 2014	0.5
Sun Jan 05 20:37:47 CST 2014	0
Sun Jan 05 20:37:47 CST 2014	0
Sun Jan 05 20:37:47 CST 2014	</firstPlayerPossibleGoal1>
Sun Jan 05 20:37:47 CST 2014	<firstPlayerPossibleGoal2>
Sun Jan 05 20:37:47 CST 2014	0.5
Sun Jan 05 20:37:47 CST 2014	0
Sun Jan 05 20:37:47 CST 2014	8
Sun Jan 05 20:37:47 CST 2014	</firstPlayerPossibleGoal2>
Sun Jan 05 20:37:47 CST 2014	<numberOfPlayers>
Sun Jan 05 20:37:47 CST 2014	3
Sun Jan 05 20:37:47 CST 2014	<firstPlayerChips>
Sun Jan 05 20:37:47 CST 2014	Setting chips for player: 100 id:0
Sun Jan 05 20:37:47 CST 2014	{ chips  'CTRed':0 'CTGreen':0 'CTPurple':0 'grey78':12 'CTYellow':12 }
Sun Jan 05 20:37:47 CST 2014	Player position: (R:5,C:4)
Sun Jan 05 20:37:47 CST 2014	Setting chips for player: 200 id:1
Sun Jan 05 20:37:47 CST 2014	{ chips  'CTRed':33 'CTGreen':0 'CTPurple':7 'grey78':0 'CTYellow':0 }
Sun Jan 05 20:37:47 CST 2014	Player position: (R:0,C:8)
Sun Jan 05 20:37:47 CST 2014	Setting chips for player: 300 id:2
Sun Jan 05 20:37:47 CST 2014	{ chips  'CTRed':33 'CTGreen':0 'CTPurple':7 'grey78':0 'CTYellow':0 }
Sun Jan 05 20:37:47 CST 2014	Player position: (R:0,C:0)
Sun Jan 05 20:37:47 CST 2014	Protocol: A New Phase Began: Strategy Prep Phase. loop is true
Sun Jan 05 20:37:47 CST 2014	---------- Beginning Strategy Prep Phase at round 0 ----------
Sun Jan 05 20:38:47 CST 2014	A Phase Ended: Strategy Prep Phase
Sun Jan 05 20:38:47 CST 2014	Protocol: A New Phase Began: Communication Phase. loop is true
Sun Jan 05 20:38:47 CST 2014	---------- Beginning Communication Phase at round 1 ----------
Sun Jan 05 20:39:14 CST 2014	Received communication message 
Sun Jan 05 20:39:14 CST 2014	From player: 200
Sun Jan 05 20:39:14 CST 2014	To player: 100
Sun Jan 05 20:39:14 CST 2014	Chips to send by proposer: { chips  'CTRed':18 'CTPurple':4 'CTGreen':0 'grey78':0 'CTYellow':0 }
Sun Jan 05 20:39:14 CST 2014	Chips to send by responder: { chips  'CTRed':0 'CTPurple':0 'CTGreen':0 'grey78':12 'CTYellow':0 }
Sun Jan 05 20:39:54 CST 2014	Received communication message 
Sun Jan 05 20:39:54 CST 2014	From player: 300
Sun Jan 05 20:39:54 CST 2014	To player: 100
Sun Jan 05 20:39:54 CST 2014	Chips to send by proposer: { chips  'CTRed':1 'CTPurple':0 'CTGreen':0 'grey78':0 'CTYellow':0 }
Sun Jan 05 20:39:54 CST 2014	Chips to send by responder: { chips  'CTRed':0 'CTPurple':0 'CTGreen':0 'grey78':0 'CTYellow':0 }
Sun Jan 05 20:40:02 CST 2014	Received communication message 
Sun Jan 05 20:40:02 CST 2014	Proposer 1 accepted? false
Sun Jan 05 20:40:02 CST 2014	case that we had one reject, and one accept
Sun Jan 05 20:40:14 CST 2014	Received communication message 
Sun Jan 05 20:40:14 CST 2014	Proposer 0 accepted? false
Sun Jan 05 20:40:14 CST 2014	case that we had one reject, and one accept
Sun Jan 05 20:40:14 CST 2014	A Phase Ended: Communication Phase
Sun Jan 05 20:40:14 CST 2014	Protocol: A New Phase Began: Movement Phase. loop is true
Sun Jan 05 20:40:14 CST 2014	---------- Beginning Movement Phase at round 1 ----------
Sun Jan 05 20:40:14 CST 2014	remove strategy phase. 
Sun Jan 05 20:40:58 CST 2014	A Phase Ended: Movement Phase
Sun Jan 05 20:40:58 CST 2014	Protocol: A New Phase Began: Feedback Phase. loop is true
Sun Jan 05 20:40:58 CST 2014	---------- Beginning Feedback Phase at round 1 ----------
Sun Jan 05 20:40:58 CST 2014	Number of consecutive no movements for player 100 is 0
Sun Jan 05 20:40:58 CST 2014	TDPlayerPosition is(R:5,C:3)goal location 0(R:0,C:0)goal location 1(R:0,C:8)
Sun Jan 05 20:40:58 CST 2014	ended is false
Sun Jan 05 20:41:03 CST 2014	A Phase Ended: Feedback Phase
Sun Jan 05 20:41:03 CST 2014	 numberofMoves in round 1 is 1
Sun Jan 05 20:41:03 CST 2014	Swaping roles:
Sun Jan 05 20:41:03 CST 2014	Protocol: A New Phase Began: Communication Phase. loop is true
Sun Jan 05 20:41:03 CST 2014	---------- Beginning Communication Phase at round 2 ----------
Sun Jan 05 20:41:43 CST 2014	Received communication message 
Sun Jan 05 20:41:43 CST 2014	From player: 100
Sun Jan 05 20:41:43 CST 2014	To player: 300
Sun Jan 05 20:41:43 CST 2014	Chips to send by proposer: { chips  'CTRed':0 'CTPurple':0 'CTGreen':0 'grey78':0 'CTYellow':5 }
Sun Jan 05 20:41:43 CST 2014	Chips to send by responder: { chips  'CTRed':10 'CTPurple':2 'CTGreen':0 'grey78':0 'CTYellow':0 }
Sun Jan 05 20:44:03 CST 2014	A Phase Ended: Communication Phase
Sun Jan 05 20:44:03 CST 2014	Protocol: A New Phase Began: Movement Phase. loop is true
Sun Jan 05 20:44:03 CST 2014	---------- Beginning Movement Phase at round 2 ----------
Sun Jan 05 20:44:48 CST 2014	A Phase Ended: Movement Phase
Sun Jan 05 20:44:48 CST 2014	Protocol: A New Phase Began: Feedback Phase. loop is true
Sun Jan 05 20:44:48 CST 2014	---------- Beginning Feedback Phase at round 2 ----------
Sun Jan 05 20:44:48 CST 2014	Number of consecutive no movements for player 100 is 0
Sun Jan 05 20:44:48 CST 2014	TDPlayerPosition is(R:4,C:3)goal location 0(R:0,C:0)goal location 1(R:0,C:8)
Sun Jan 05 20:44:48 CST 2014	ended is false
Sun Jan 05 20:44:53 CST 2014	A Phase Ended: Feedback Phase
Sun Jan 05 20:44:53 CST 2014	 numberofMoves in round 2 is 1
Sun Jan 05 20:44:53 CST 2014	Swaping roles:
Sun Jan 05 20:44:53 CST 2014	Protocol: A New Phase Began: Communication Phase. loop is true
Sun Jan 05 20:44:53 CST 2014	---------- Beginning Communication Phase at round 3 ----------
Sun Jan 05 20:45:23 CST 2014	Received communication message 
Sun Jan 05 20:45:23 CST 2014	From player: 200
Sun Jan 05 20:45:23 CST 2014	To player: 100
Sun Jan 05 20:45:23 CST 2014	Chips to send by proposer: { chips  'CTRed':16 'CTPurple':3 'CTGreen':0 'grey78':0 'CTYellow':0 }
Sun Jan 05 20:45:23 CST 2014	Chips to send by responder: { chips  'CTRed':0 'CTPurple':0 'CTGreen':0 'grey78':10 'CTYellow':0 }
Sun Jan 05 20:46:10 CST 2014	Received communication message 
Sun Jan 05 20:46:10 CST 2014	Proposer 0 accepted? false
Sun Jan 05 20:46:10 CST 2014	case that we had one reject, and one accept
Sun Jan 05 20:46:16 CST 2014	Received communication message 
Sun Jan 05 20:46:16 CST 2014	From player: 300
Sun Jan 05 20:46:16 CST 2014	To player: 100
Sun Jan 05 20:46:16 CST 2014	Chips to send by proposer: { chips  'CTRed':0 'CTPurple':1 'CTGreen':0 'grey78':0 'CTYellow':0 }
Sun Jan 05 20:46:16 CST 2014	Chips to send by responder: { chips  'CTRed':0 'CTPurple':0 'CTGreen':0 'grey78':5 'CTYellow':0 }
Sun Jan 05 20:46:33 CST 2014	Received communication message 
Sun Jan 05 20:46:33 CST 2014	Proposer 1 accepted? false
Sun Jan 05 20:46:33 CST 2014	case that we had one reject, and one accept
Sun Jan 05 20:46:33 CST 2014	A Phase Ended: Communication Phase
Sun Jan 05 20:46:33 CST 2014	Protocol: A New Phase Began: Movement Phase. loop is true
Sun Jan 05 20:46:33 CST 2014	---------- Beginning Movement Phase at round 3 ----------
Sun Jan 05 20:47:17 CST 2014	A Phase Ended: Movement Phase
Sun Jan 05 20:47:17 CST 2014	Protocol: A New Phase Began: Feedback Phase. loop is true
Sun Jan 05 20:47:17 CST 2014	---------- Beginning Feedback Phase at round 3 ----------
Sun Jan 05 20:47:17 CST 2014	Number of consecutive no movements for player 100 is 1
Sun Jan 05 20:47:17 CST 2014	TDPlayerPosition is(R:4,C:3)goal location 0(R:0,C:0)goal location 1(R:0,C:8)
Sun Jan 05 20:47:17 CST 2014	ended is false
Sun Jan 05 20:47:22 CST 2014	A Phase Ended: Feedback Phase
Sun Jan 05 20:47:22 CST 2014	 numberofMoves in round 3 is 0
Sun Jan 05 20:47:22 CST 2014	Swaping roles:
Sun Jan 05 20:47:22 CST 2014	Protocol: A New Phase Began: Communication Phase. loop is true
Sun Jan 05 20:47:22 CST 2014	---------- Beginning Communication Phase at round 4 ----------
Sun Jan 05 20:47:54 CST 2014	Received communication message 
Sun Jan 05 20:47:54 CST 2014	From player: 100
Sun Jan 05 20:47:54 CST 2014	To player: 300
Sun Jan 05 20:47:54 CST 2014	Chips to send by proposer: { chips  'CTRed':0 'CTPurple':0 'CTGreen':0 'grey78':3 'CTYellow':0 }
Sun Jan 05 20:47:54 CST 2014	Chips to send by responder: { chips  'CTRed':8 'CTPurple':3 'CTGreen':0 'grey78':0 'CTYellow':0 }
Sun Jan 05 20:48:57 CST 2014	Received communication message 
Sun Jan 05 20:48:57 CST 2014	Proposer 1 accepted? false
Sun Jan 05 20:48:57 CST 2014	case that we had one reject, and one accept
Sun Jan 05 20:48:57 CST 2014	A Phase Ended: Communication Phase
Sun Jan 05 20:48:57 CST 2014	Protocol: A New Phase Began: Movement Phase. loop is true
Sun Jan 05 20:48:57 CST 2014	---------- Beginning Movement Phase at round 4 ----------
Sun Jan 05 20:49:42 CST 2014	A Phase Ended: Movement Phase
Sun Jan 05 20:49:42 CST 2014	Protocol: A New Phase Began: Feedback Phase. loop is true
Sun Jan 05 20:49:42 CST 2014	---------- Beginning Feedback Phase at round 4 ----------
Sun Jan 05 20:49:42 CST 2014	Number of consecutive no movements for player 100 is 0
Sun Jan 05 20:49:42 CST 2014	TDPlayerPosition is(R:4,C:2)goal location 0(R:0,C:0)goal location 1(R:0,C:8)
Sun Jan 05 20:49:42 CST 2014	ended is false
Sun Jan 05 20:49:47 CST 2014	A Phase Ended: Feedback Phase
Sun Jan 05 20:49:47 CST 2014	 numberofMoves in round 4 is 1
Sun Jan 05 20:49:47 CST 2014	Swaping roles:
Sun Jan 05 20:49:47 CST 2014	Protocol: A New Phase Began: Communication Phase. loop is true
Sun Jan 05 20:49:47 CST 2014	---------- Beginning Communication Phase at round 5 ----------
Sun Jan 05 20:50:06 CST 2014	Received communication message 
Sun Jan 05 20:50:06 CST 2014	From player: 200
Sun Jan 05 20:50:06 CST 2014	To player: 100
Sun Jan 05 20:50:06 CST 2014	Chips to send by proposer: { chips  'CTRed':9 'CTPurple':2 'CTGreen':0 'grey78':0 'CTYellow':0 }
Sun Jan 05 20:50:06 CST 2014	Chips to send by responder: { chips  'CTRed':0 'CTPurple':0 'CTGreen':0 'grey78':7 'CTYellow':0 }
Sun Jan 05 20:50:34 CST 2014	Received communication message 
Sun Jan 05 20:50:34 CST 2014	Proposer 0 accepted? false
Sun Jan 05 20:50:34 CST 2014	case that we had one reject, and one accept
Sun Jan 05 20:50:47 CST 2014	Received communication message 
Sun Jan 05 20:50:47 CST 2014	From player: 300
Sun Jan 05 20:50:47 CST 2014	To player: 100
Sun Jan 05 20:50:47 CST 2014	Chips to send by proposer: { chips  'CTRed':0 'CTPurple':1 'CTGreen':0 'grey78':0 'CTYellow':0 }
Sun Jan 05 20:50:47 CST 2014	Chips to send by responder: { chips  'CTRed':0 'CTPurple':0 'CTGreen':0 'grey78':0 'CTYellow':4 }
Sun Jan 05 20:50:58 CST 2014	Received communication message 
Sun Jan 05 20:50:58 CST 2014	Proposer 1 accepted? false
Sun Jan 05 20:50:58 CST 2014	case that we had one reject, and one accept
Sun Jan 05 20:50:58 CST 2014	A Phase Ended: Communication Phase
Sun Jan 05 20:50:58 CST 2014	Protocol: A New Phase Began: Movement Phase. loop is true
Sun Jan 05 20:50:58 CST 2014	---------- Beginning Movement Phase at round 5 ----------
Sun Jan 05 20:51:42 CST 2014	A Phase Ended: Movement Phase
Sun Jan 05 20:51:42 CST 2014	Protocol: A New Phase Began: Feedback Phase. loop is true
Sun Jan 05 20:51:42 CST 2014	---------- Beginning Feedback Phase at round 5 ----------
Sun Jan 05 20:51:42 CST 2014	Number of consecutive no movements for player 100 is 1
Sun Jan 05 20:51:42 CST 2014	TDPlayerPosition is(R:4,C:2)goal location 0(R:0,C:0)goal location 1(R:0,C:8)
Sun Jan 05 20:51:42 CST 2014	ended is false
Sun Jan 05 20:51:47 CST 2014	A Phase Ended: Feedback Phase
Sun Jan 05 20:51:47 CST 2014	 numberofMoves in round 5 is 0
Sun Jan 05 20:51:47 CST 2014	Swaping roles:
Sun Jan 05 20:51:47 CST 2014	Protocol: A New Phase Began: Communication Phase. loop is true
Sun Jan 05 20:51:47 CST 2014	---------- Beginning Communication Phase at round 6 ----------
Sun Jan 05 20:52:25 CST 2014	Received communication message 
Sun Jan 05 20:52:25 CST 2014	From player: 100
Sun Jan 05 20:52:25 CST 2014	To player: 200
Sun Jan 05 20:52:25 CST 2014	Chips to send by proposer: { chips  'CTRed':0 'CTPurple':0 'CTGreen':0 'grey78':4 'CTYellow':0 }
Sun Jan 05 20:52:25 CST 2014	Chips to send by responder: { chips  'CTRed':8 'CTPurple':3 'CTGreen':0 'grey78':0 'CTYellow':0 }
Sun Jan 05 20:53:05 CST 2014	Received communication message 
Sun Jan 05 20:53:05 CST 2014	Proposer 0 accepted? true
Sun Jan 05 20:53:05 CST 2014	A Phase Ended: Communication Phase
Sun Jan 05 20:53:05 CST 2014	Protocol: A New Phase Began: Movement Phase. loop is true
Sun Jan 05 20:53:05 CST 2014	---------- Beginning Movement Phase at round 6 ----------
Sun Jan 05 20:53:49 CST 2014	A Phase Ended: Movement Phase
Sun Jan 05 20:53:49 CST 2014	Protocol: A New Phase Began: Feedback Phase. loop is true
Sun Jan 05 20:53:49 CST 2014	---------- Beginning Feedback Phase at round 6 ----------
Sun Jan 05 20:53:49 CST 2014	Number of consecutive no movements for player 100 is 0
Sun Jan 05 20:53:49 CST 2014	TDPlayerPosition is(R:3,C:2)goal location 0(R:0,C:0)goal location 1(R:0,C:8)
Sun Jan 05 20:53:49 CST 2014	ended is false
Sun Jan 05 20:53:54 CST 2014	A Phase Ended: Feedback Phase
Sun Jan 05 20:53:54 CST 2014	 numberofMoves in round 6 is 1
Sun Jan 05 20:53:54 CST 2014	Swaping roles:
Sun Jan 05 20:53:54 CST 2014	Protocol: A New Phase Began: Communication Phase. loop is true
Sun Jan 05 20:53:54 CST 2014	---------- Beginning Communication Phase at round 7 ----------
Sun Jan 05 20:54:30 CST 2014	Received communication message 
Sun Jan 05 20:54:30 CST 2014	From player: 200
Sun Jan 05 20:54:30 CST 2014	To player: 100
Sun Jan 05 20:54:30 CST 2014	Chips to send by proposer: { chips  'CTRed':5 'CTPurple':2 'CTGreen':0 'grey78':0 'CTYellow':0 }
Sun Jan 05 20:54:30 CST 2014	Chips to send by responder: { chips  'CTRed':0 'CTPurple':0 'CTGreen':0 'grey78':4 'CTYellow':0 }
Sun Jan 05 20:54:43 CST 2014	Received communication message 
Sun Jan 05 20:54:43 CST 2014	From player: 300
Sun Jan 05 20:54:43 CST 2014	To player: 100
Sun Jan 05 20:54:43 CST 2014	Chips to send by proposer: { chips  'CTRed':0 'CTPurple':1 'CTGreen':0 'grey78':0 'CTYellow':0 }
Sun Jan 05 20:54:43 CST 2014	Chips to send by responder: { chips  'CTRed':0 'CTPurple':2 'CTGreen':0 'grey78':0 'CTYellow':2 }
Sun Jan 05 20:54:49 CST 2014	Received communication message 
Sun Jan 05 20:54:49 CST 2014	Proposer 1 accepted? false
Sun Jan 05 20:54:49 CST 2014	case that we had one reject, and one accept
Sun Jan 05 20:55:30 CST 2014	Received communication message 
Sun Jan 05 20:55:30 CST 2014	Proposer 0 accepted? true
Sun Jan 05 20:55:30 CST 2014	A Phase Ended: Communication Phase
Sun Jan 05 20:55:30 CST 2014	Protocol: A New Phase Began: Movement Phase. loop is true
Sun Jan 05 20:55:30 CST 2014	---------- Beginning Movement Phase at round 7 ----------
Sun Jan 05 20:56:14 CST 2014	A Phase Ended: Movement Phase
Sun Jan 05 20:56:14 CST 2014	Protocol: A New Phase Began: Feedback Phase. loop is true
Sun Jan 05 20:56:14 CST 2014	---------- Beginning Feedback Phase at round 7 ----------
Sun Jan 05 20:56:14 CST 2014	Number of consecutive no movements for player 100 is 0
Sun Jan 05 20:56:14 CST 2014	TDPlayerPosition is(R:3,C:3)goal location 0(R:0,C:0)goal location 1(R:0,C:8)
Sun Jan 05 20:56:14 CST 2014	ended is false
Sun Jan 05 20:56:19 CST 2014	A Phase Ended: Feedback Phase
Sun Jan 05 20:56:19 CST 2014	 numberofMoves in round 7 is 1
Sun Jan 05 20:56:19 CST 2014	Swaping roles:
Sun Jan 05 20:56:19 CST 2014	Protocol: A New Phase Began: Communication Phase. loop is true
Sun Jan 05 20:56:19 CST 2014	---------- Beginning Communication Phase at round 8 ----------
Sun Jan 05 20:56:42 CST 2014	Received communication message 
Sun Jan 05 20:56:42 CST 2014	From player: 100
Sun Jan 05 20:56:42 CST 2014	To player: 300
Sun Jan 05 20:56:42 CST 2014	Chips to send by proposer: { chips  'CTRed':0 'CTPurple':0 'CTGreen':0 'grey78':0 'CTYellow':5 }
Sun Jan 05 20:56:42 CST 2014	Chips to send by responder: { chips  'CTRed':5 'CTPurple':5 'CTGreen':0 'grey78':0 'CTYellow':0 }
Sun Jan 05 20:56:54 CST 2014	Received communication message 
Sun Jan 05 20:56:54 CST 2014	Proposer 1 accepted? false
Sun Jan 05 20:56:54 CST 2014	case that we had one reject, and one accept
Sun Jan 05 20:56:54 CST 2014	A Phase Ended: Communication Phase
Sun Jan 05 20:56:54 CST 2014	Protocol: A New Phase Began: Movement Phase. loop is true
Sun Jan 05 20:56:54 CST 2014	---------- Beginning Movement Phase at round 8 ----------
Sun Jan 05 20:57:38 CST 2014	A Phase Ended: Movement Phase
Sun Jan 05 20:57:38 CST 2014	Protocol: A New Phase Began: Feedback Phase. loop is true
Sun Jan 05 20:57:38 CST 2014	---------- Beginning Feedback Phase at round 8 ----------
Sun Jan 05 20:57:38 CST 2014	Number of consecutive no movements for player 100 is 1
Sun Jan 05 20:57:38 CST 2014	TDPlayerPosition is(R:3,C:3)goal location 0(R:0,C:0)goal location 1(R:0,C:8)
Sun Jan 05 20:57:38 CST 2014	ended is false
Sun Jan 05 20:57:43 CST 2014	A Phase Ended: Feedback Phase
Sun Jan 05 20:57:43 CST 2014	 numberofMoves in round 8 is 0
Sun Jan 05 20:57:43 CST 2014	Swaping roles:
Sun Jan 05 20:57:43 CST 2014	Protocol: A New Phase Began: Communication Phase. loop is true
Sun Jan 05 20:57:43 CST 2014	---------- Beginning Communication Phase at round 9 ----------
Sun Jan 05 20:58:00 CST 2014	Received communication message 
Sun Jan 05 20:58:00 CST 2014	From player: 200
Sun Jan 05 20:58:00 CST 2014	To player: 100
Sun Jan 05 20:58:00 CST 2014	Chips to send by proposer: { chips  'CTRed':0 'CTPurple':2 'CTGreen':0 'grey78':0 'CTYellow':0 }
Sun Jan 05 20:58:00 CST 2014	Chips to send by responder: { chips  'CTRed':1 'CTPurple':0 'CTGreen':0 'grey78':0 'CTYellow':0 }
Sun Jan 05 20:58:33 CST 2014	Received communication message 
Sun Jan 05 20:58:33 CST 2014	Proposer 0 accepted? false
Sun Jan 05 20:58:33 CST 2014	case that we had one reject, and one accept
Sun Jan 05 20:59:11 CST 2014	Received communication message 
Sun Jan 05 20:59:11 CST 2014	From player: 300
Sun Jan 05 20:59:11 CST 2014	To player: 100
Sun Jan 05 20:59:11 CST 2014	Chips to send by proposer: { chips  'CTRed':0 'CTPurple':1 'CTGreen':0 'grey78':0 'CTYellow':0 }
Sun Jan 05 20:59:11 CST 2014	Chips to send by responder: { chips  'CTRed':0 'CTPurple':0 'CTGreen':0 'grey78':0 'CTYellow':2 }
Sun Jan 05 20:59:14 CST 2014	Received communication message 
Sun Jan 05 20:59:14 CST 2014	Proposer 1 accepted? false
Sun Jan 05 20:59:14 CST 2014	case that we had one reject, and one accept
Sun Jan 05 20:59:14 CST 2014	A Phase Ended: Communication Phase
Sun Jan 05 20:59:14 CST 2014	Protocol: A New Phase Began: Movement Phase. loop is true
Sun Jan 05 20:59:14 CST 2014	---------- Beginning Movement Phase at round 9 ----------
Sun Jan 05 20:59:59 CST 2014	A Phase Ended: Movement Phase
Sun Jan 05 20:59:59 CST 2014	Protocol: A New Phase Began: Feedback Phase. loop is true
Sun Jan 05 20:59:59 CST 2014	---------- Beginning Feedback Phase at round 9 ----------
Sun Jan 05 20:59:59 CST 2014	Number of consecutive no movements for player 100 is 0
Sun Jan 05 20:59:59 CST 2014	TDPlayerPosition is(R:3,C:4)goal location 0(R:0,C:0)goal location 1(R:0,C:8)
Sun Jan 05 20:59:59 CST 2014	ended is false
Sun Jan 05 21:00:04 CST 2014	A Phase Ended: Feedback Phase
Sun Jan 05 21:00:04 CST 2014	 numberofMoves in round 9 is 1
Sun Jan 05 21:00:04 CST 2014	Swaping roles:
Sun Jan 05 21:00:04 CST 2014	Protocol: A New Phase Began: Communication Phase. loop is true
Sun Jan 05 21:00:04 CST 2014	---------- Beginning Communication Phase at round 10 ----------
Sun Jan 05 21:00:32 CST 2014	Received communication message 
Sun Jan 05 21:00:32 CST 2014	From player: 100
Sun Jan 05 21:00:32 CST 2014	To player: 200
Sun Jan 05 21:00:32 CST 2014	Chips to send by proposer: { chips  'CTRed':5 'CTPurple':1 'CTGreen':0 'grey78':0 'CTYellow':0 }
Sun Jan 05 21:00:32 CST 2014	Chips to send by responder: { chips  'CTRed':0 'CTPurple':0 'CTGreen':0 'grey78':3 'CTYellow':0 }
Sun Jan 05 21:00:41 CST 2014	Received communication message 
Sun Jan 05 21:00:41 CST 2014	Proposer 0 accepted? false
Sun Jan 05 21:00:41 CST 2014	case that we had one reject, and one accept
Sun Jan 05 21:00:41 CST 2014	A Phase Ended: Communication Phase
Sun Jan 05 21:00:41 CST 2014	Protocol: A New Phase Began: Movement Phase. loop is true
Sun Jan 05 21:00:41 CST 2014	---------- Beginning Movement Phase at round 10 ----------
Sun Jan 05 21:01:25 CST 2014	A Phase Ended: Movement Phase
Sun Jan 05 21:01:25 CST 2014	Protocol: A New Phase Began: Feedback Phase. loop is true
Sun Jan 05 21:01:25 CST 2014	---------- Beginning Feedback Phase at round 10 ----------
Sun Jan 05 21:01:25 CST 2014	Number of consecutive no movements for player 100 is 1
Sun Jan 05 21:01:25 CST 2014	TDPlayerPosition is(R:3,C:4)goal location 0(R:0,C:0)goal location 1(R:0,C:8)
Sun Jan 05 21:01:25 CST 2014	ended is false
Sun Jan 05 21:01:30 CST 2014	A Phase Ended: Feedback Phase
Sun Jan 05 21:01:30 CST 2014	 numberofMoves in round 10 is 0
Sun Jan 05 21:01:30 CST 2014	Swaping roles:
Sun Jan 05 21:01:30 CST 2014	Protocol: A New Phase Began: Communication Phase. loop is true
Sun Jan 05 21:01:30 CST 2014	---------- Beginning Communication Phase at round 11 ----------
Sun Jan 05 21:01:50 CST 2014	Received communication message 
Sun Jan 05 21:01:50 CST 2014	From player: 200
Sun Jan 05 21:01:50 CST 2014	To player: 100
Sun Jan 05 21:01:50 CST 2014	Chips to send by proposer: { chips  'CTRed':0 'CTPurple':2 'CTGreen':0 'grey78':0 'CTYellow':0 }
Sun Jan 05 21:01:50 CST 2014	Chips to send by responder: { chips  'CTRed':1 'CTPurple':0 'CTGreen':0 'grey78':0 'CTYellow':0 }
Sun Jan 05 21:01:53 CST 2014	Received communication message 
Sun Jan 05 21:01:53 CST 2014	From player: 300
Sun Jan 05 21:01:53 CST 2014	To player: 100
Sun Jan 05 21:01:53 CST 2014	Chips to send by proposer: { chips  'CTRed':3 'CTPurple':0 'CTGreen':0 'grey78':0 'CTYellow':0 }
Sun Jan 05 21:01:53 CST 2014	Chips to send by responder: { chips  'CTRed':0 'CTPurple':0 'CTGreen':0 'grey78':0 'CTYellow':2 }
Sun Jan 05 21:02:03 CST 2014	Received communication message 
Sun Jan 05 21:02:03 CST 2014	Proposer 1 accepted? true
Sun Jan 05 21:02:03 CST 2014	A Phase Ended: Communication Phase
Sun Jan 05 21:02:03 CST 2014	Protocol: A New Phase Began: Movement Phase. loop is true
Sun Jan 05 21:02:03 CST 2014	---------- Beginning Movement Phase at round 11 ----------
Sun Jan 05 21:02:47 CST 2014	A Phase Ended: Movement Phase
Sun Jan 05 21:02:47 CST 2014	Protocol: A New Phase Began: Feedback Phase. loop is true
Sun Jan 05 21:02:47 CST 2014	---------- Beginning Feedback Phase at round 11 ----------
Sun Jan 05 21:02:47 CST 2014	Number of consecutive no movements for player 100 is 0
Sun Jan 05 21:02:47 CST 2014	TDPlayerPosition is(R:3,C:5)goal location 0(R:0,C:0)goal location 1(R:0,C:8)
Sun Jan 05 21:02:47 CST 2014	ended is false
Sun Jan 05 21:02:52 CST 2014	A Phase Ended: Feedback Phase
Sun Jan 05 21:02:52 CST 2014	 numberofMoves in round 11 is 1
Sun Jan 05 21:02:52 CST 2014	Swaping roles:
Sun Jan 05 21:02:52 CST 2014	Protocol: A New Phase Began: Communication Phase. loop is true
Sun Jan 05 21:02:52 CST 2014	---------- Beginning Communication Phase at round 12 ----------
Sun Jan 05 21:03:40 CST 2014	Received communication message 
Sun Jan 05 21:03:40 CST 2014	From player: 100
Sun Jan 05 21:03:40 CST 2014	To player: 300
Sun Jan 05 21:03:40 CST 2014	Chips to send by proposer: { chips  'CTRed':0 'CTPurple':0 'CTGreen':0 'grey78':0 'CTYellow':4 }
Sun Jan 05 21:03:40 CST 2014	Chips to send by responder: { chips  'CTRed':6 'CTPurple':1 'CTGreen':0 'grey78':0 'CTYellow':0 }
Sun Jan 05 21:04:40 CST 2014	Received communication message 
Sun Jan 05 21:04:40 CST 2014	Proposer 1 accepted? false
Sun Jan 05 21:04:40 CST 2014	case that we had one reject, and one accept
Sun Jan 05 21:04:40 CST 2014	A Phase Ended: Communication Phase
Sun Jan 05 21:04:40 CST 2014	Protocol: A New Phase Began: Movement Phase. loop is true
Sun Jan 05 21:04:40 CST 2014	---------- Beginning Movement Phase at round 12 ----------
Sun Jan 05 21:05:24 CST 2014	A Phase Ended: Movement Phase
Sun Jan 05 21:05:24 CST 2014	Protocol: A New Phase Began: Feedback Phase. loop is true
Sun Jan 05 21:05:24 CST 2014	---------- Beginning Feedback Phase at round 12 ----------
Sun Jan 05 21:05:24 CST 2014	Number of consecutive no movements for player 100 is 1
Sun Jan 05 21:05:24 CST 2014	TDPlayerPosition is(R:3,C:5)goal location 0(R:0,C:0)goal location 1(R:0,C:8)
Sun Jan 05 21:05:24 CST 2014	ended is false
Sun Jan 05 21:05:29 CST 2014	A Phase Ended: Feedback Phase
Sun Jan 05 21:05:29 CST 2014	 numberofMoves in round 12 is 0
Sun Jan 05 21:05:29 CST 2014	Swaping roles:
Sun Jan 05 21:05:29 CST 2014	Protocol: A New Phase Began: Communication Phase. loop is true
Sun Jan 05 21:05:29 CST 2014	---------- Beginning Communication Phase at round 13 ----------
Sun Jan 05 21:05:47 CST 2014	Received communication message 
Sun Jan 05 21:05:47 CST 2014	From player: 200
Sun Jan 05 21:05:47 CST 2014	To player: 100
Sun Jan 05 21:05:47 CST 2014	Chips to send by proposer: { chips  'CTRed':0 'CTPurple':0 'CTGreen':0 'grey78':1 'CTYellow':0 }
Sun Jan 05 21:05:47 CST 2014	Chips to send by responder: { chips  'CTRed':2 'CTPurple':0 'CTGreen':0 'grey78':0 'CTYellow':0 }
Sun Jan 05 21:05:54 CST 2014	Received communication message 
Sun Jan 05 21:05:54 CST 2014	Proposer 0 accepted? false
Sun Jan 05 21:05:54 CST 2014	case that we had one reject, and one accept
Sun Jan 05 21:06:14 CST 2014	Received communication message 
Sun Jan 05 21:06:14 CST 2014	From player: 300
Sun Jan 05 21:06:14 CST 2014	To player: 100
Sun Jan 05 21:06:14 CST 2014	Chips to send by proposer: { chips  'CTRed':20 'CTPurple':2 'CTGreen':0 'grey78':0 'CTYellow':0 }
Sun Jan 05 21:06:14 CST 2014	Chips to send by responder: { chips  'CTRed':0 'CTPurple':0 'CTGreen':0 'grey78':0 'CTYellow':10 }
Sun Jan 05 21:07:06 CST 2014	Received communication message 
Sun Jan 05 21:07:06 CST 2014	Proposer 1 accepted? true
Sun Jan 05 21:07:06 CST 2014	A Phase Ended: Communication Phase
Sun Jan 05 21:07:06 CST 2014	Protocol: A New Phase Began: Movement Phase. loop is true
Sun Jan 05 21:07:06 CST 2014	---------- Beginning Movement Phase at round 13 ----------
Sun Jan 05 21:07:51 CST 2014	A Phase Ended: Movement Phase
Sun Jan 05 21:07:51 CST 2014	Protocol: A New Phase Began: Feedback Phase. loop is true
Sun Jan 05 21:07:51 CST 2014	---------- Beginning Feedback Phase at round 13 ----------
Sun Jan 05 21:07:51 CST 2014	Number of consecutive no movements for player 100 is 0
Sun Jan 05 21:07:51 CST 2014	TDPlayerPosition is(R:3,C:4)goal location 0(R:0,C:0)goal location 1(R:0,C:8)
Sun Jan 05 21:07:51 CST 2014	ended is false
Sun Jan 05 21:07:56 CST 2014	A Phase Ended: Feedback Phase
Sun Jan 05 21:07:56 CST 2014	 numberofMoves in round 13 is 1
Sun Jan 05 21:07:56 CST 2014	Swaping roles:
Sun Jan 05 21:07:56 CST 2014	Protocol: A New Phase Began: Communication Phase. loop is true
Sun Jan 05 21:07:56 CST 2014	---------- Beginning Communication Phase at round 14 ----------
Sun Jan 05 21:10:50 CST 2014	Received communication message 
Sun Jan 05 21:10:50 CST 2014	From player: 100
Sun Jan 05 21:10:50 CST 2014	To player: 200
Sun Jan 05 21:10:50 CST 2014	Chips to send by proposer: { chips  'CTRed':8 'CTPurple':0 'CTGreen':0 'grey78':0 'CTYellow':0 }
Sun Jan 05 21:10:50 CST 2014	Chips to send by responder: { chips  'CTRed':0 'CTPurple':0 'CTGreen':0 'grey78':8 'CTYellow':0 }
Sun Jan 05 21:10:56 CST 2014	A Phase Ended: Communication Phase
Sun Jan 05 21:10:56 CST 2014	Protocol: A New Phase Began: Movement Phase. loop is true
Sun Jan 05 21:10:56 CST 2014	---------- Beginning Movement Phase at round 14 ----------
Sun Jan 05 21:11:41 CST 2014	A Phase Ended: Movement Phase
Sun Jan 05 21:11:41 CST 2014	Protocol: A New Phase Began: Feedback Phase. loop is true
Sun Jan 05 21:11:41 CST 2014	---------- Beginning Feedback Phase at round 14 ----------
Sun Jan 05 21:11:41 CST 2014	Number of consecutive no movements for player 100 is 1
Sun Jan 05 21:11:41 CST 2014	TDPlayerPosition is(R:3,C:4)goal location 0(R:0,C:0)goal location 1(R:0,C:8)
Sun Jan 05 21:11:41 CST 2014	ended is false
Sun Jan 05 21:11:46 CST 2014	A Phase Ended: Feedback Phase
Sun Jan 05 21:11:46 CST 2014	 numberofMoves in round 14 is 0
Sun Jan 05 21:11:46 CST 2014	Swaping roles:
Sun Jan 05 21:11:46 CST 2014	Protocol: A New Phase Began: Communication Phase. loop is true
Sun Jan 05 21:11:46 CST 2014	---------- Beginning Communication Phase at round 15 ----------
Sun Jan 05 21:12:13 CST 2014	Received communication message 
Sun Jan 05 21:12:13 CST 2014	From player: 300
Sun Jan 05 21:12:13 CST 2014	To player: 100
Sun Jan 05 21:12:13 CST 2014	Chips to send by proposer: { chips  'CTRed':0 'CTPurple':0 'CTGreen':0 'grey78':0 'CTYellow':1 }
Sun Jan 05 21:12:13 CST 2014	Chips to send by responder: { chips  'CTRed':7 'CTPurple':0 'CTGreen':0 'grey78':0 'CTYellow':0 }
Sun Jan 05 21:12:23 CST 2014	Received communication message 
Sun Jan 05 21:12:23 CST 2014	From player: 200
Sun Jan 05 21:12:23 CST 2014	To player: 100
Sun Jan 05 21:12:23 CST 2014	Chips to send by proposer: { chips  'CTRed':0 'CTPurple':0 'CTGreen':0 'grey78':0 'CTYellow':0 }
Sun Jan 05 21:12:23 CST 2014	Chips to send by responder: { chips  'CTRed':3 'CTPurple':0 'CTGreen':0 'grey78':0 'CTYellow':0 }
Sun Jan 05 21:12:30 CST 2014	Received communication message 
Sun Jan 05 21:12:30 CST 2014	Proposer 0 accepted? false
Sun Jan 05 21:12:30 CST 2014	case that we had one reject, and one accept
Sun Jan 05 21:12:33 CST 2014	Received communication message 
Sun Jan 05 21:12:33 CST 2014	Proposer 1 accepted? false
Sun Jan 05 21:12:33 CST 2014	case that we had one reject, and one accept
Sun Jan 05 21:12:33 CST 2014	A Phase Ended: Communication Phase
Sun Jan 05 21:12:33 CST 2014	Protocol: A New Phase Began: Movement Phase. loop is true
Sun Jan 05 21:12:33 CST 2014	---------- Beginning Movement Phase at round 15 ----------
Sun Jan 05 21:13:18 CST 2014	A Phase Ended: Movement Phase
Sun Jan 05 21:13:18 CST 2014	Protocol: A New Phase Began: Feedback Phase. loop is true
Sun Jan 05 21:13:18 CST 2014	---------- Beginning Feedback Phase at round 15 ----------
Sun Jan 05 21:13:18 CST 2014	ended is true
Sun Jan 05 21:13:23 CST 2014	A Phase Ended: Feedback Phase
Sun Jan 05 21:13:23 CST 2014	 numberofMoves in round 15 is 0
Sun Jan 05 21:13:23 CST 2014	Loop status: false
Sun Jan 05 21:13:23 CST 2014	Player: 100 ,role: Responder score is: 195
Sun Jan 05 21:13:23 CST 2014	Player: 100Game Ended
Sun Jan 05 21:13:23 CST 2014	Player: 200 ,role: Proposer score is: 150
Sun Jan 05 21:13:23 CST 2014	Player: 200Game Ended
Sun Jan 05 21:13:23 CST 2014	Player: 300 ,role: Proposer score is: 135
Sun Jan 05 21:13:23 CST 2014	Player: 300Game Ended
Sun Jan 05 21:13:23 CST 2014	Protocol: A New Phase Began: Communication Phase. loop is false
Sun Jan 05 21:13:23 CST 2014	---------- Beginning Communication Phase at round 15 ----------
Sun Jan 05 21:16:23 CST 2014	A Phase Ended: Communication Phase
Sun Jan 05 21:16:23 CST 2014	Protocol: A New Phase Began: Movement Phase. loop is false
Sun Jan 05 21:16:23 CST 2014	---------- Beginning Movement Phase at round 15 ----------
Sun Jan 05 21:17:08 CST 2014	A Phase Ended: Movement Phase
Sun Jan 05 21:17:08 CST 2014	Protocol: A New Phase Began: Feedback Phase. loop is false
Sun Jan 05 21:17:08 CST 2014	---------- Beginning Feedback Phase at round 15 ----------
Sun Jan 05 21:17:08 CST 2014	ended is true
Sun Jan 05 21:17:13 CST 2014	A Phase Ended: Feedback Phase
Sun Jan 05 21:17:13 CST 2014	 numberofMoves in round 15 is 0
Sun Jan 05 21:17:13 CST 2014	Loop status: false
Sun Jan 05 21:17:13 CST 2014	Player: 100 ,role: GameEnded score is: 195
Sun Jan 05 21:17:13 CST 2014	Player: 100Game Ended
Sun Jan 05 21:17:13 CST 2014	Player: 200 ,role: GameEnded score is: 150
Sun Jan 05 21:17:13 CST 2014	Player: 200Game Ended
Sun Jan 05 21:17:13 CST 2014	Player: 300 ,role: GameEnded score is: 135
Sun Jan 05 21:17:13 CST 2014	Player: 300Game Ended
