filename,round,propID,respID,IsPropCustomer,chipsToSend,chipsToReceive,accept,propCurrentScore,respCurrentScore,actualSent,ActualRcvd,propResultingScore,respResultingScore,#ofCustomerMovesInRound,customerRowPositionAfterMovePhase,customerColPositionAfterMovePhase,Player100ChipsAfterMovePhase,Player100ScoreAfterMovePhase,Player200ChipsAfterMovePhase,Player200ScoreAfterMovePhase,Player300ChipsAfterMovePhase,Player300ScoreAfterMovePhase,generosityLevel,ClientReachedGoal
CT_DbgLog_Agent_1344432509217.csv,1,300,200,false,{ chips  'CTYellow':4 },{ chips  },TRUE,245,-40,{ chips  'CTRed':0 'CTPurple':0 'CTGreen':0 'grey78':0 'CTYellow':4 },{ chips  'CTRed':0 'CTPurple':0 'CTGreen':0 'grey78':0 'CTYellow':0 },225,-20,4,(R:3,C:6),{ chips  'CTRed':10 'CTGreen':0 'CTPurple':0 'grey78':0 'CTYellow':0 },0,{ chips  'CTRed':10 'CTGreen':0 'CTPurple':30 'grey78':0 'CTYellow':5 },225,{ chips  'CTRed':10 'CTGreen':0 'CTPurple':30 'grey78':9 'CTYellow':0 },245
CT_DbgLog_Agent_1344432509217.csv,1,100,200,false,{ chips  },{ chips  },IGNORED,245,-20,,,,,4,(R:3,C:6),{ chips  'CTRed':10 'CTGreen':0 'CTPurple':0 'grey78':0 'CTYellow':0 },0,{ chips  'CTRed':10 'CTGreen':0 'CTPurple':30 'grey78':0 'CTYellow':5 },225,{ chips  'CTRed':10 'CTGreen':0 'CTPurple':30 'grey78':9 'CTYellow':0 },245
CT_DbgLog_Agent_1344432509217.csv,2,200,300,true,{ chips  },{ chips  'CTYellow':5 },TRUE,-5,220,{ chips  'CTRed':0 'CTPurple':0 'CTGreen':0 'grey78':0 'CTYellow':0 },{ chips  'CTRed':0 'CTPurple':0 'CTGreen':0 'grey78':0 'CTYellow':5 },20,195,5,(R:0,C:8),{ chips  'CTRed':10 'CTGreen':0 'CTPurple':0 'grey78':0 'CTYellow':0 },195,{ chips  'CTRed':10 'CTGreen':0 'CTPurple':30 'grey78':0 'CTYellow':0 },345,{ chips  'CTRed':10 'CTGreen':0 'CTPurple':30 'grey78':9 'CTYellow':0 },240
CT_DbgLog_Agent_1344432509217.csv,,,,,,,,,,,,,,,,,,,,,,,,true
