filename,round,propID,respID,IsPropCustomer,chipsToSend,chipsToReceive,accept,propCurrentScore,respCurrentScore,actualSent,ActualRcvd,propResultingScore,respResultingScore,#ofCustomerMovesInRound,customerRowPositionAfterMovePhase,customerColPositionAfterMovePhase,Player100ChipsAfterMovePhase,Player100ScoreAfterMovePhase,Player200ChipsAfterMovePhase,Player200ScoreAfterMovePhase,Player300ChipsAfterMovePhase,Player300ScoreAfterMovePhase,isCommitment,generosityLevel,ClientReachedGoal
3playersLog_1388233436533.csv,1,530,500,FALSE,{ chips  'CTRed':33 'CTPurple':7 },{ chips  'grey78':11 },TRUE,200,120,{ chips  'CTRed':33 'CTPurple':7 'CTYellow':0 },{ chips  'grey78':11 },55,265,0,(R:5,C:4),{ chips  'CTRed':33 'CTGreen':0 'CTPurple':7 'grey78':1 'CTYellow':12 },265,{ chips  'CTRed':0 'CTGreen':0 'CTPurple':0 'grey78':11 'CTYellow':0 },55,{ chips  'CTRed':33 'CTGreen':0 'CTPurple':7 'grey78':0 'CTYellow':0 },200,TRUE,,
3playersLog_1388233436533.csv,2,500,540,TRUE,{ chips  'CTRed':3 'CTYellow':4 },{ chips  'CTRed':8 'CTPurple':7 },FALSE,265,200,,,305,160,4,(R:3,C:6),{ chips  'CTRed':33 'CTGreen':0 'CTPurple':7 'grey78':1 'CTYellow':8 },245,{ chips  'CTRed':0 'CTGreen':0 'CTPurple':0 'grey78':11 'CTYellow':0 },55,{ chips  'CTRed':33 'CTGreen':0 'CTPurple':7 'grey78':0 'CTYellow':0 },200,FALSE,,
3playersLog_1388233436533.csv,3,530,500,FALSE,{ chips  },{ chips  },TRUE,55,245,{ chips  'CTRed':0 'CTPurple':0 'CTYellow':0 },{ chips  'grey78':0 },55,245,2,(R:3,C:4),{ chips  'CTRed':33 'CTGreen':0 'CTPurple':5 'grey78':1 'CTYellow':8 },235,{ chips  'CTRed':0 'CTGreen':0 'CTPurple':0 'grey78':11 'CTYellow':0 },55,{ chips  'CTRed':33 'CTGreen':0 'CTPurple':7 'grey78':0 'CTYellow':0 },200,TRUE,,
3playersLog_1388233436533.csv,4,500,530,TRUE,{ chips  'CTPurple':2 },{ chips  'grey78':4 },IGNORED,235,55,,,245,45,2,(R:3,C:2),{ chips  'CTRed':33 'CTGreen':0 'CTPurple':4 'grey78':0 'CTYellow':8 },225,{ chips  'CTRed':0 'CTGreen':0 'CTPurple':0 'grey78':11 'CTYellow':0 },55,{ chips  'CTRed':33 'CTGreen':0 'CTPurple':7 'grey78':0 'CTYellow':0 },200,FALSE,,
3playersLog_1388233436533.csv,5,530,500,FALSE,{ chips  },{ chips  },TRUE,55,225,{ chips  'CTRed':0 'CTPurple':0 'CTYellow':0 },{ chips  'grey78':0 },55,225,0,(R:3,C:2),{ chips  'CTRed':33 'CTGreen':0 'CTPurple':4 'grey78':0 'CTYellow':8 },225,{ chips  'CTRed':0 'CTGreen':0 'CTPurple':0 'grey78':11 'CTYellow':0 },55,{ chips  'CTRed':33 'CTGreen':0 'CTPurple':7 'grey78':0 'CTYellow':0 },200,TRUE,,
3playersLog_1388233436533.csv,6,500,540,TRUE,{ chips  'CTRed':2 'CTYellow':2 },{ chips  'CTRed':10 },FALSE,225,200,,,255,170,0,(R:3,C:2),{ chips  'CTRed':33 'CTGreen':0 'CTPurple':4 'grey78':0 'CTYellow':8 },225,{ chips  'CTRed':0 'CTGreen':0 'CTPurple':0 'grey78':11 'CTYellow':0 },55,{ chips  'CTRed':33 'CTGreen':0 'CTPurple':7 'grey78':0 'CTYellow':0 },200,FALSE,,
3playersLog_1388233436533.csv,,,,,,,,,,,,,,,,,,,,,,,,,FALSE
3playersLog_1388233453921.csv,1,530,500,FALSE,{ chips  'CTRed':33 'CTPurple':7 },{ chips  'grey78':11 },FALSE,200,120,,,55,265,9,(R:0,C:0),{ chips  'CTRed':0 'CTGreen':0 'CTPurple':2 'grey78':3 'CTYellow':12 },235,{ chips  'CTRed':33 'CTGreen':0 'CTPurple':7 'grey78':0 'CTYellow':0 },200,{ chips  'CTRed':33 'CTGreen':0 'CTPurple':5 'grey78':0 'CTYellow':0 },340,TRUE,,
3playersLog_1388233453921.csv,1,540,500,FALSE,{ chips  'CTPurple':2 },{ chips  },TRUE,200,120,{ chips  'CTRed':0 'CTPurple':2 'CTGreen':0 'grey78':0 'CTYellow':0 },{ chips  'CTRed':0 'CTPurple':0 'CTGreen':0 'grey78':0 'CTYellow':0 },190,130,9,(R:0,C:0),{ chips  'CTRed':0 'CTGreen':0 'CTPurple':2 'grey78':3 'CTYellow':12 },235,{ chips  'CTRed':33 'CTGreen':0 'CTPurple':7 'grey78':0 'CTYellow':0 },200,{ chips  'CTRed':33 'CTGreen':0 'CTPurple':5 'grey78':0 'CTYellow':0 },340,FALSE,,
3playersLog_1388233453921.csv,,,,,,,,,,,,,,,,,,,,,,,,,TRUE
3playersLog_1388233455875.csv,1,530,500,FALSE,{ chips  'CTRed':33 'CTPurple':7 },{ chips  'grey78':11 },TRUE,200,120,{ chips  'CTRed':33 'CTPurple':7 'CTYellow':0 },{ chips  'grey78':11 },55,265,1,(R:5,C:5),{ chips  'CTRed':33 'CTGreen':0 'CTPurple':7 'grey78':1 'CTYellow':11 },260,{ chips  'CTRed':0 'CTGreen':0 'CTPurple':0 'grey78':11 'CTYellow':0 },55,{ chips  'CTRed':33 'CTGreen':0 'CTPurple':7 'grey78':0 'CTYellow':0 },200,TRUE,,
3playersLog_1388233455875.csv,1,540,500,FALSE,{ chips  },{ chips  },IGNORED,200,120,,,200,120,1,(R:5,C:5),{ chips  'CTRed':33 'CTGreen':0 'CTPurple':7 'grey78':1 'CTYellow':11 },260,{ chips  'CTRed':0 'CTGreen':0 'CTPurple':0 'grey78':11 'CTYellow':0 },55,{ chips  'CTRed':33 'CTGreen':0 'CTPurple':7 'grey78':0 'CTYellow':0 },200,FALSE,,
3playersLog_1388233455875.csv,2,500,540,TRUE,{ chips  'grey78':1 'CTYellow':1 },{ chips  'CTRed':7 'CTPurple':7 },FALSE,260,200,,,320,140,1,(R:4,C:5),{ chips  'CTRed':33 'CTGreen':0 'CTPurple':7 'grey78':1 'CTYellow':10 },255,{ chips  'CTRed':0 'CTGreen':0 'CTPurple':0 'grey78':11 'CTYellow':0 },55,{ chips  'CTRed':33 'CTGreen':0 'CTPurple':7 'grey78':0 'CTYellow':0 },200,FALSE,,
3playersLog_1388233455875.csv,3,530,500,FALSE,{ chips  },{ chips  },FALSE,55,255,,,55,255,1,(R:3,C:5),{ chips  'CTRed':33 'CTGreen':0 'CTPurple':6 'grey78':1 'CTYellow':10 },250,{ chips  'CTRed':0 'CTGreen':0 'CTPurple':0 'grey78':11 'CTYellow':0 },55,{ chips  'CTRed':33 'CTGreen':0 'CTPurple':7 'grey78':0 'CTYellow':0 },200,TRUE,,
3playersLog_1388233455875.csv,3,540,500,FALSE,{ chips  'CTRed':3 'CTPurple':3 },{ chips  'CTRed':4 'CTPurple':3 },FALSE,200,255,,,205,250,1,(R:3,C:5),{ chips  'CTRed':33 'CTGreen':0 'CTPurple':6 'grey78':1 'CTYellow':10 },250,{ chips  'CTRed':0 'CTGreen':0 'CTPurple':0 'grey78':11 'CTYellow':0 },55,{ chips  'CTRed':33 'CTGreen':0 'CTPurple':7 'grey78':0 'CTYellow':0 },200,FALSE,,
3playersLog_1388233455875.csv,4,500,530,TRUE,{ chips  },{ chips  'grey78':11 },IGNORED,250,55,,,305,0,6,(R:0,C:8),{ chips  'CTRed':33 'CTGreen':0 'CTPurple':6 'grey78':1 'CTYellow':4 },370,{ chips  'CTRed':0 'CTGreen':0 'CTPurple':0 'grey78':11 'CTYellow':0 },205,{ chips  'CTRed':33 'CTGreen':0 'CTPurple':7 'grey78':0 'CTYellow':0 },200,FALSE,,
3playersLog_1388233455875.csv,,,,,,,,,,,,,,,,,,,,,,,,,TRUE
3playersLog_1388319763109.csv,1,530,500,FALSE,{ chips  'CTRed':33 'CTPurple':7 },{ chips  'grey78':11 },TRUE,200,120,{ chips  'CTRed':33 'CTPurple':7 'CTYellow':0 },{ chips  'grey78':11 },55,265,9,(R:0,C:8),{ chips  'CTRed':33 'CTGreen':0 'CTPurple':7 'grey78':1 'CTYellow':3 },370,{ chips  'CTRed':0 'CTGreen':0 'CTPurple':0 'grey78':11 'CTYellow':0 },205,{ chips  'CTRed':33 'CTGreen':0 'CTPurple':7 'grey78':0 'CTYellow':0 },200,TRUE,,
3playersLog_1388319763109.csv,1,540,500,FALSE,{ chips  'CTPurple':2 },{ chips  'CTYellow':1 },IGNORED,200,120,,,195,125,9,(R:0,C:8),{ chips  'CTRed':33 'CTGreen':0 'CTPurple':7 'grey78':1 'CTYellow':3 },370,{ chips  'CTRed':0 'CTGreen':0 'CTPurple':0 'grey78':11 'CTYellow':0 },205,{ chips  'CTRed':33 'CTGreen':0 'CTPurple':7 'grey78':0 'CTYellow':0 },200,FALSE,,
3playersLog_1388319763109.csv,,,,,,,,,,,,,,,,,,,,,,,,,TRUE
3playersLog_1388319774375.csv,1,530,500,FALSE,{ chips  'CTRed':33 'CTPurple':7 },{ chips  'grey78':11 },TRUE,200,120,{ chips  'CTRed':33 'CTPurple':7 'CTYellow':0 },{ chips  'grey78':11 },55,265,2,(R:4,C:5),{ chips  'CTRed':33 'CTGreen':0 'CTPurple':7 'grey78':1 'CTYellow':10 },255,{ chips  'CTRed':0 'CTGreen':0 'CTPurple':0 'grey78':11 'CTYellow':0 },55,{ chips  'CTRed':33 'CTGreen':0 'CTPurple':7 'grey78':0 'CTYellow':0 },200,TRUE,,
3playersLog_1388319774375.csv,1,540,500,FALSE,{ chips  'CTRed':8 },{ chips  'CTYellow':5 },IGNORED,200,120,,,185,135,2,(R:4,C:5),{ chips  'CTRed':33 'CTGreen':0 'CTPurple':7 'grey78':1 'CTYellow':10 },255,{ chips  'CTRed':0 'CTGreen':0 'CTPurple':0 'grey78':11 'CTYellow':0 },55,{ chips  'CTRed':33 'CTGreen':0 'CTPurple':7 'grey78':0 'CTYellow':0 },200,FALSE,,
3playersLog_1388319774375.csv,2,500,530,TRUE,{ chips  'CTRed':6 },{ chips  'grey78':2 },TRUE,250,55,{ chips  'CTRed':6 'CTPurple':0 'CTGreen':0 'grey78':0 'CTYellow':0 },{ chips  'CTRed':0 'CTPurple':0 'CTGreen':0 'grey78':2 'CTYellow':0 },230,75,7,(R:1,C:8),{ chips  'CTRed':27 'CTGreen':0 'CTPurple':6 'grey78':3 'CTYellow':3 },195,{ chips  'CTRed':6 'CTGreen':0 'CTPurple':0 'grey78':9 'CTYellow':0 },75,{ chips  'CTRed':33 'CTGreen':0 'CTPurple':7 'grey78':0 'CTYellow':0 },200,FALSE,,
3playersLog_1388319774375.csv,3,530,500,FALSE,{ chips  'CTRed':6 },{ chips  'grey78':2 },IGNORED,225,340,,,205,360,0,(R:0,C:8),{ chips  'CTRed':27 'CTGreen':0 'CTPurple':6 'grey78':3 'CTYellow':2 },340,{ chips  'CTRed':6 'CTGreen':0 'CTPurple':0 'grey78':9 'CTYellow':0 },225,{ chips  'CTRed':33 'CTGreen':0 'CTPurple':7 'grey78':0 'CTYellow':0 },200,TRUE,,
3playersLog_1388319774375.csv,3,540,500,FALSE,{ chips  'CTPurple':1 },{ chips  'CTYellow':1 },IGNORED,200,340,,,200,340,0,(R:0,C:8),{ chips  'CTRed':27 'CTGreen':0 'CTPurple':6 'grey78':3 'CTYellow':2 },340,{ chips  'CTRed':6 'CTGreen':0 'CTPurple':0 'grey78':9 'CTYellow':0 },225,{ chips  'CTRed':33 'CTGreen':0 'CTPurple':7 'grey78':0 'CTYellow':0 },200,FALSE,,
3playersLog_1388319774375.csv,,,,,,,,,,,,,,,,,,,,,,,,,TRUE
3playersLog_1388319774609.csv,1,530,500,FALSE,{ chips  'CTRed':33 'CTPurple':7 },{ chips  'grey78':11 },FALSE,200,120,,,55,265,1,(R:5,C:5),{ chips  'CTRed':5 'CTGreen':0 'CTPurple':0 'grey78':12 'CTYellow':8 },125,{ chips  'CTRed':33 'CTGreen':0 'CTPurple':7 'grey78':0 'CTYellow':0 },200,{ chips  'CTRed':28 'CTGreen':0 'CTPurple':7 'grey78':0 'CTYellow':3 },190,TRUE,,
3playersLog_1388319774609.csv,1,540,500,FALSE,{ chips  'CTRed':5 },{ chips  'CTYellow':3 },TRUE,200,120,{ chips  'CTRed':5 'CTPurple':0 'CTGreen':0 'grey78':0 'CTYellow':0 },{ chips  'CTRed':0 'CTPurple':0 'CTGreen':0 'grey78':0 'CTYellow':3 },190,130,1,(R:5,C:5),{ chips  'CTRed':5 'CTGreen':0 'CTPurple':0 'grey78':12 'CTYellow':8 },125,{ chips  'CTRed':33 'CTGreen':0 'CTPurple':7 'grey78':0 'CTYellow':0 },200,{ chips  'CTRed':28 'CTGreen':0 'CTPurple':7 'grey78':0 'CTYellow':3 },190,FALSE,,
3playersLog_1388319774609.csv,2,500,530,TRUE,{ chips  'CTYellow':1 },{ chips  'CTRed':30 },FALSE,125,200,,,270,55,0,(R:5,C:5),{ chips  'CTRed':5 'CTGreen':0 'CTPurple':0 'grey78':12 'CTYellow':8 },125,{ chips  'CTRed':33 'CTGreen':0 'CTPurple':7 'grey78':0 'CTYellow':0 },200,{ chips  'CTRed':28 'CTGreen':0 'CTPurple':7 'grey78':0 'CTYellow':3 },190,FALSE,,
3playersLog_1388319774609.csv,3,530,500,FALSE,{ chips  'CTRed':33 'CTPurple':7 },{ chips  'grey78':11 },TRUE,200,125,{ chips  'CTRed':33 'CTPurple':7 'CTYellow':0 },{ chips  'grey78':11 },55,270,7,(R:1,C:8),{ chips  'CTRed':38 'CTGreen':0 'CTPurple':7 'grey78':1 'CTYellow':1 },235,{ chips  'CTRed':0 'CTGreen':0 'CTPurple':0 'grey78':11 'CTYellow':0 },55,{ chips  'CTRed':28 'CTGreen':0 'CTPurple':7 'grey78':0 'CTYellow':3 },190,TRUE,,
3playersLog_1388319774609.csv,4,500,540,TRUE,{ chips  },{ chips  'CTRed':28 },TRUE,235,55,{ chips  'CTRed':0 'CTPurple':0 'CTGreen':0 'grey78':0 'CTYellow':0 },{ chips  'CTRed':28 'CTPurple':0 'CTGreen':0 'grey78':0 'CTYellow':0 },375,50,1,(R:0,C:8),{ chips  'CTRed':66 'CTGreen':0 'CTPurple':7 'grey78':1 'CTYellow':0 },520,{ chips  'CTRed':0 'CTGreen':0 'CTPurple':0 'grey78':11 'CTYellow':0 },205,{ chips  'CTRed':0 'CTGreen':0 'CTPurple':7 'grey78':0 'CTYellow':3 },50,FALSE,,
3playersLog_1388319774609.csv,,,,,,,,,,,,,,,,,,,,,,,,,TRUE
3playersLog_1388319788000.csv,1,530,500,FALSE,{ chips  'CTRed':33 'CTPurple':7 },{ chips  'grey78':11 },TRUE,200,120,{ chips  'CTRed':33 'CTPurple':7 'CTYellow':0 },{ chips  'grey78':11 },55,265,1,(R:5,C:3),{ chips  'CTRed':33 'CTGreen':0 'CTPurple':7 'grey78':0 'CTYellow':12 },260,{ chips  'CTRed':0 'CTGreen':0 'CTPurple':0 'grey78':11 'CTYellow':0 },55,{ chips  'CTRed':33 'CTGreen':0 'CTPurple':7 'grey78':0 'CTYellow':0 },200,TRUE,,
3playersLog_1388319788000.csv,2,500,540,TRUE,{ chips  'CTYellow':12 },{ chips  },TRUE,260,55,{ chips  'CTRed':0 'CTPurple':0 'CTGreen':0 'grey78':0 'CTYellow':12 },{ chips  'CTRed':0 'CTPurple':0 'CTGreen':0 'grey78':0 'CTYellow':0 },200,260,0,(R:5,C:3),{ chips  'CTRed':33 'CTGreen':0 'CTPurple':7 'grey78':0 'CTYellow':0 },200,{ chips  'CTRed':0 'CTGreen':0 'CTPurple':0 'grey78':11 'CTYellow':0 },55,{ chips  'CTRed':33 'CTGreen':0 'CTPurple':7 'grey78':0 'CTYellow':12 },260,TRUE,,
3playersLog_1388319788000.csv,3,530,500,FALSE,{ chips  },{ chips  },TRUE,55,200,{ chips  'grey78':0 },{ chips  'CTRed':0 'CTPurple':0 },55,200,0,(R:5,C:3),{ chips  'CTRed':33 'CTGreen':0 'CTPurple':7 'grey78':0 'CTYellow':0 },200,{ chips  'CTRed':0 'CTGreen':0 'CTPurple':0 'grey78':11 'CTYellow':0 },55,{ chips  'CTRed':33 'CTGreen':0 'CTPurple':7 'grey78':0 'CTYellow':12 },260,TRUE,,
3playersLog_1388319788000.csv,,,,,,,,,,,,,,,,,,,,,,,,,FALSE
3playersLog_1388319804546.csv,1,530,500,FALSE,{ chips  'CTRed':33 'CTPurple':7 },{ chips  'grey78':11 },FALSE,200,120,,,55,265,0,(R:5,C:4),{ chips  'CTRed':1 'CTGreen':0 'CTPurple':1 'grey78':10 'CTYellow':12 },120,{ chips  'CTRed':33 'CTGreen':0 'CTPurple':7 'grey78':0 'CTYellow':0 },200,{ chips  'CTRed':32 'CTGreen':0 'CTPurple':6 'grey78':2 'CTYellow':0 },200,TRUE,,
3playersLog_1388319804546.csv,1,540,500,FALSE,{ chips  'CTRed':1 'CTPurple':1 },{ chips  'grey78':2 },TRUE,200,120,{ chips  'CTRed':1 'CTPurple':1 'CTGreen':0 'grey78':0 'CTYellow':0 },{ chips  'CTRed':0 'CTPurple':0 'CTGreen':0 'grey78':2 'CTYellow':0 },200,120,0,(R:5,C:4),{ chips  'CTRed':1 'CTGreen':0 'CTPurple':1 'grey78':10 'CTYellow':12 },120,{ chips  'CTRed':33 'CTGreen':0 'CTPurple':7 'grey78':0 'CTYellow':0 },200,{ chips  'CTRed':32 'CTGreen':0 'CTPurple':6 'grey78':2 'CTYellow':0 },200,FALSE,,
3playersLog_1388319804546.csv,2,500,540,TRUE,{ chips  'CTYellow':1 },{ chips  'CTRed':3 'grey78':1 },FALSE,120,200,,,135,185,3,(R:3,C:3),{ chips  'CTRed':1 'CTGreen':0 'CTPurple':0 'grey78':8 'CTYellow':12 },105,{ chips  'CTRed':33 'CTGreen':0 'CTPurple':7 'grey78':0 'CTYellow':0 },200,{ chips  'CTRed':32 'CTGreen':0 'CTPurple':6 'grey78':2 'CTYellow':0 },200,FALSE,,
3playersLog_1388319804546.csv,3,530,500,FALSE,{ chips  'CTRed':33 'CTPurple':2 },{ chips  'grey78':6 },FALSE,200,105,,,55,250,2,(R:3,C:1),{ chips  'CTRed':1 'CTGreen':0 'CTPurple':0 'grey78':6 'CTYellow':12 },95,{ chips  'CTRed':33 'CTGreen':0 'CTPurple':7 'grey78':0 'CTYellow':0 },200,{ chips  'CTRed':32 'CTGreen':0 'CTPurple':6 'grey78':2 'CTYellow':0 },200,TRUE,,
3playersLog_1388319804546.csv,3,540,500,FALSE,{ chips  'CTRed':2 'CTPurple':1 'grey78':2 },{ chips  'CTYellow':6 },FALSE,200,105,,,205,100,2,(R:3,C:1),{ chips  'CTRed':1 'CTGreen':0 'CTPurple':0 'grey78':6 'CTYellow':12 },95,{ chips  'CTRed':33 'CTGreen':0 'CTPurple':7 'grey78':0 'CTYellow':0 },200,{ chips  'CTRed':32 'CTGreen':0 'CTPurple':6 'grey78':2 'CTYellow':0 },200,FALSE,,
3playersLog_1388319804546.csv,4,500,540,TRUE,{ chips  'grey78':2 },{ chips  'CTRed':8 },TRUE,95,200,{ chips  'CTRed':0 'CTPurple':0 'CTGreen':0 'grey78':2 'CTYellow':0 },{ chips  'CTRed':8 'CTPurple':0 'CTGreen':0 'grey78':0 'CTYellow':0 },125,170,0,(R:3,C:1),{ chips  'CTRed':9 'CTGreen':0 'CTPurple':0 'grey78':4 'CTYellow':12 },125,{ chips  'CTRed':33 'CTGreen':0 'CTPurple':7 'grey78':0 'CTYellow':0 },200,{ chips  'CTRed':24 'CTGreen':0 'CTPurple':6 'grey78':4 'CTYellow':0 },170,FALSE,,
3playersLog_1388319804546.csv,5,530,500,FALSE,{ chips  },{ chips  },FALSE,200,125,,,200,125,1,(R:2,C:1),{ chips  'CTRed':20 'CTGreen':0 'CTPurple':0 'grey78':3 'CTYellow':3 },130,{ chips  'CTRed':33 'CTGreen':0 'CTPurple':7 'grey78':0 'CTYellow':0 },200,{ chips  'CTRed':13 'CTGreen':0 'CTPurple':6 'grey78':4 'CTYellow':9 },160,FALSE,,
3playersLog_1388319804546.csv,5,540,500,FALSE,{ chips  'CTRed':11 },{ chips  'CTYellow':9 },TRUE,170,125,{ chips  'CTRed':11 'CTPurple':0 'CTGreen':0 'grey78':0 'CTYellow':0 },{ chips  'CTRed':0 'CTPurple':0 'CTGreen':0 'grey78':0 'CTYellow':9 },160,135,1,(R:2,C:1),{ chips  'CTRed':20 'CTGreen':0 'CTPurple':0 'grey78':3 'CTYellow':3 },130,{ chips  'CTRed':33 'CTGreen':0 'CTPurple':7 'grey78':0 'CTYellow':0 },200,{ chips  'CTRed':13 'CTGreen':0 'CTPurple':6 'grey78':4 'CTYellow':9 },160,FALSE,,
3playersLog_1388319804546.csv,6,500,530,TRUE,{ chips  'CTRed':3 },{ chips  'CTPurple':6 },IGNORED,130,200,,,145,185,1,(R:2,C:0),{ chips  'CTRed':20 'CTGreen':0 'CTPurple':0 'grey78':2 'CTYellow':3 },125,{ chips  'CTRed':33 'CTGreen':0 'CTPurple':7 'grey78':0 'CTYellow':0 },200,{ chips  'CTRed':13 'CTGreen':0 'CTPurple':6 'grey78':4 'CTYellow':9 },160,FALSE,,
3playersLog_1388319804546.csv,7,530,500,FALSE,{ chips  },{ chips  },FALSE,200,125,,,200,125,1,(R:1,C:0),{ chips  'CTRed':23 'CTGreen':0 'CTPurple':0 'grey78':1 'CTYellow':0 },120,{ chips  'CTRed':33 'CTGreen':0 'CTPurple':7 'grey78':0 'CTYellow':0 },200,{ chips  'CTRed':10 'CTGreen':0 'CTPurple':6 'grey78':4 'CTYellow':12 },160,FALSE,,
3playersLog_1388319804546.csv,7,540,500,FALSE,{ chips  'CTRed':3 },{ chips  'CTYellow':3 },TRUE,160,125,{ chips  'CTRed':3 'CTPurple':0 'CTGreen':0 'grey78':0 'CTYellow':0 },{ chips  'CTRed':0 'CTPurple':0 'CTGreen':0 'grey78':0 'CTYellow':3 },160,125,1,(R:1,C:0),{ chips  'CTRed':23 'CTGreen':0 'CTPurple':0 'grey78':1 'CTYellow':0 },120,{ chips  'CTRed':33 'CTGreen':0 'CTPurple':7 'grey78':0 'CTYellow':0 },200,{ chips  'CTRed':10 'CTGreen':0 'CTPurple':6 'grey78':4 'CTYellow':12 },160,TRUE,,
3playersLog_1388319804546.csv,8,500,530,TRUE,{ chips  'CTRed':5 },{ chips  'CTPurple':7 },IGNORED,120,200,,,130,190,0,(R:1,C:0),{ chips  'CTRed':23 'CTGreen':0 'CTPurple':0 'grey78':1 'CTYellow':0 },120,{ chips  'CTRed':33 'CTGreen':0 'CTPurple':7 'grey78':0 'CTYellow':0 },200,{ chips  'CTRed':10 'CTGreen':0 'CTPurple':6 'grey78':4 'CTYellow':12 },160,FALSE,,
3playersLog_1388319804546.csv,9,530,500,FALSE,{ chips  },{ chips  },FALSE,200,120,,,200,120,0,(R:1,C:0),{ chips  'CTRed':22 'CTGreen':0 'CTPurple':0 'grey78':0 'CTYellow':2 },120,{ chips  'CTRed':33 'CTGreen':0 'CTPurple':7 'grey78':0 'CTYellow':0 },200,{ chips  'CTRed':11 'CTGreen':0 'CTPurple':6 'grey78':5 'CTYellow':10 },160,FALSE,,
3playersLog_1388319804546.csv,9,540,500,FALSE,{ chips  'CTYellow':2 },{ chips  'CTRed':1 'grey78':1 },TRUE,160,120,{ chips  'CTRed':0 'CTPurple':0 'CTGreen':0 'grey78':0 'CTYellow':2 },{ chips  'CTRed':1 'CTPurple':0 'CTGreen':0 'grey78':1 'CTYellow':0 },160,120,0,(R:1,C:0),{ chips  'CTRed':22 'CTGreen':0 'CTPurple':0 'grey78':0 'CTYellow':2 },120,{ chips  'CTRed':33 'CTGreen':0 'CTPurple':7 'grey78':0 'CTYellow':0 },200,{ chips  'CTRed':11 'CTGreen':0 'CTPurple':6 'grey78':5 'CTYellow':10 },160,FALSE,,
3playersLog_1388319804546.csv,,,,,,,,,,,,,,,,,,,,,,,,,FALSE
3playersLog_1388319829109.csv,1,530,500,FALSE,{ chips  'CTRed':33 'CTPurple':7 },{ chips  'grey78':11 },TRUE,200,120,{ chips  'CTRed':33 'CTPurple':7 'CTYellow':0 },{ chips  'grey78':11 },55,265,4,(R:3,C:6),{ chips  'CTRed':33 'CTGreen':0 'CTPurple':7 'grey78':1 'CTYellow':8 },245,{ chips  'CTRed':0 'CTGreen':0 'CTPurple':0 'grey78':11 'CTYellow':0 },55,{ chips  'CTRed':33 'CTGreen':0 'CTPurple':7 'grey78':0 'CTYellow':0 },200,TRUE,,
3playersLog_1388319829109.csv,2,500,540,TRUE,{ chips  'CTRed':1 'CTPurple':1 'CTYellow':2 },{ chips  'CTRed':3 },FALSE,245,200,,,240,205,3,(R:2,C:8),{ chips  'CTRed':33 'CTGreen':0 'CTPurple':7 'grey78':1 'CTYellow':5 },230,{ chips  'CTRed':0 'CTGreen':0 'CTPurple':0 'grey78':11 'CTYellow':0 },55,{ chips  'CTRed':33 'CTGreen':0 'CTPurple':7 'grey78':0 'CTYellow':0 },200,FALSE,,
3playersLog_1388319829109.csv,3,530,500,FALSE,{ chips  },{ chips  },IGNORED,55,230,,,55,230,2,(R:0,C:8),{ chips  'CTRed':33 'CTGreen':0 'CTPurple':7 'grey78':1 'CTYellow':3 },370,{ chips  'CTRed':0 'CTGreen':0 'CTPurple':0 'grey78':11 'CTYellow':0 },205,{ chips  'CTRed':33 'CTGreen':0 'CTPurple':7 'grey78':0 'CTYellow':0 },200,TRUE,,
3playersLog_1388319829109.csv,,,,,,,,,,,,,,,,,,,,,,,,,TRUE
3playersLog_1388319843828.csv,1,530,500,FALSE,{ chips  'CTRed':33 'CTPurple':7 },{ chips  'grey78':11 },TRUE,200,120,{ chips  'CTRed':33 'CTPurple':7 'CTYellow':0 },{ chips  'grey78':11 },55,265,4,(R:3,C:6),{ chips  'CTRed':33 'CTGreen':0 'CTPurple':7 'grey78':1 'CTYellow':8 },245,{ chips  'CTRed':0 'CTGreen':0 'CTPurple':0 'grey78':11 'CTYellow':0 },55,{ chips  'CTRed':33 'CTGreen':0 'CTPurple':7 'grey78':0 'CTYellow':0 },200,TRUE,,
3playersLog_1388319843828.csv,2,500,540,TRUE,{ chips  },{ chips  'CTRed':33 'CTPurple':7 },FALSE,240,200,,,440,0,4,(R:0,C:8),{ chips  'CTRed':33 'CTGreen':0 'CTPurple':7 'grey78':1 'CTYellow':3 },370,{ chips  'CTRed':0 'CTGreen':0 'CTPurple':0 'grey78':11 'CTYellow':0 },205,{ chips  'CTRed':33 'CTGreen':0 'CTPurple':7 'grey78':0 'CTYellow':0 },200,FALSE,,
3playersLog_1388319843828.csv,,,,,,,,,,,,,,,,,,,,,,,,,TRUE
3playersLog_1388319857125.csv,1,530,500,FALSE,{ chips  'CTRed':33 'CTPurple':7 },{ chips  'grey78':11 },FALSE,200,120,,,55,265,1,(R:5,C:5),{ chips  'CTRed':5 'CTGreen':0 'CTPurple':3 'grey78':12 'CTYellow':11 },155,{ chips  'CTRed':33 'CTGreen':0 'CTPurple':7 'grey78':0 'CTYellow':0 },200,{ chips  'CTRed':28 'CTGreen':0 'CTPurple':4 'grey78':0 'CTYellow':0 },160,TRUE,,
3playersLog_1388319857125.csv,1,540,500,FALSE,{ chips  'CTRed':5 'CTPurple':3 },{ chips  },TRUE,200,120,{ chips  'CTRed':5 'CTPurple':3 'CTGreen':0 'grey78':0 'CTYellow':0 },{ chips  'CTRed':0 'CTPurple':0 'CTGreen':0 'grey78':0 'CTYellow':0 },160,160,1,(R:5,C:5),{ chips  'CTRed':5 'CTGreen':0 'CTPurple':3 'grey78':12 'CTYellow':11 },155,{ chips  'CTRed':33 'CTGreen':0 'CTPurple':7 'grey78':0 'CTYellow':0 },200,{ chips  'CTRed':28 'CTGreen':0 'CTPurple':4 'grey78':0 'CTYellow':0 },160,FALSE,,
3playersLog_1388319857125.csv,2,500,530,TRUE,{ chips  'CTYellow':2 },{ chips  'CTRed':3 'CTPurple':3 },FALSE,155,200,,,175,180,1,(R:4,C:5),{ chips  'CTRed':5 'CTGreen':0 'CTPurple':3 'grey78':12 'CTYellow':10 },150,{ chips  'CTRed':33 'CTGreen':0 'CTPurple':7 'grey78':0 'CTYellow':0 },200,{ chips  'CTRed':28 'CTGreen':0 'CTPurple':4 'grey78':0 'CTYellow':0 },160,FALSE,,
3playersLog_1388319857125.csv,3,530,500,FALSE,{ chips  'CTRed':33 'CTPurple':7 },{ chips  'grey78':11 },FALSE,200,150,,,55,295,2,(R:3,C:4),{ chips  'CTRed':15 'CTGreen':0 'CTPurple':5 'grey78':12 'CTYellow':10 },210,{ chips  'CTRed':33 'CTGreen':0 'CTPurple':7 'grey78':0 'CTYellow':0 },200,{ chips  'CTRed':18 'CTGreen':0 'CTPurple':0 'grey78':0 'CTYellow':0 },90,TRUE,,
3playersLog_1388319857125.csv,3,540,500,FALSE,{ chips  'CTRed':10 'CTPurple':4 },{ chips  },TRUE,160,150,{ chips  'CTRed':10 'CTPurple':4 'CTGreen':0 'grey78':0 'CTYellow':0 },{ chips  'CTRed':0 'CTPurple':0 'CTGreen':0 'grey78':0 'CTYellow':0 },90,220,2,(R:3,C:4),{ chips  'CTRed':15 'CTGreen':0 'CTPurple':5 'grey78':12 'CTYellow':10 },210,{ chips  'CTRed':33 'CTGreen':0 'CTPurple':7 'grey78':0 'CTYellow':0 },200,{ chips  'CTRed':18 'CTGreen':0 'CTPurple':0 'grey78':0 'CTYellow':0 },90,FALSE,,
3playersLog_1388319857125.csv,4,500,540,TRUE,{ chips  'grey78':1 'CTYellow':2 },{ chips  'CTRed':10 },TRUE,210,200,{ chips  'CTRed':0 'CTPurple':0 'CTGreen':0 'grey78':1 'CTYellow':2 },{ chips  'CTRed':10 'CTPurple':0 'CTGreen':0 'grey78':0 'CTYellow':0 },245,55,1,(R:3,C:3),{ chips  'CTRed':25 'CTGreen':0 'CTPurple':4 'grey78':11 'CTYellow':8 },240,{ chips  'CTRed':33 'CTGreen':0 'CTPurple':7 'grey78':0 'CTYellow':0 },200,{ chips  'CTRed':8 'CTGreen':0 'CTPurple':0 'grey78':1 'CTYellow':2 },55,FALSE,,
3playersLog_1388319857125.csv,5,530,500,FALSE,{ chips  'CTRed':33 'CTPurple':7 },{ chips  'grey78':11 },TRUE,200,240,{ chips  'CTRed':33 'CTPurple':7 'CTYellow':0 },{ chips  'grey78':11 },55,385,2,(R:3,C:5),{ chips  'CTRed':58 'CTGreen':0 'CTPurple':9 'grey78':0 'CTYellow':8 },375,{ chips  'CTRed':0 'CTGreen':0 'CTPurple':0 'grey78':11 'CTYellow':0 },55,{ chips  'CTRed':8 'CTGreen':0 'CTPurple':0 'grey78':1 'CTYellow':2 },55,TRUE,,
3playersLog_1388319857125.csv,6,500,540,TRUE,{ chips  'CTRed':5 },{ chips  'CTRed':1 },FALSE,375,55,,,355,75,0,(R:3,C:5),{ chips  'CTRed':58 'CTGreen':0 'CTPurple':9 'grey78':0 'CTYellow':8 },375,{ chips  'CTRed':0 'CTGreen':0 'CTPurple':0 'grey78':11 'CTYellow':0 },55,{ chips  'CTRed':8 'CTGreen':0 'CTPurple':0 'grey78':1 'CTYellow':2 },55,FALSE,,
3playersLog_1388319857125.csv,7,530,500,FALSE,{ chips  },{ chips  },TRUE,55,375,{ chips  'CTRed':0 'CTPurple':0 'CTYellow':0 },{ chips  'grey78':0 },55,375,1,(R:3,C:6),{ chips  'CTRed':58 'CTGreen':0 'CTPurple':9 'grey78':0 'CTYellow':7 },370,{ chips  'CTRed':0 'CTGreen':0 'CTPurple':0 'grey78':11 'CTYellow':0 },55,{ chips  'CTRed':8 'CTGreen':0 'CTPurple':0 'grey78':1 'CTYellow':2 },55,TRUE,,
3playersLog_1388319857125.csv,8,500,530,TRUE,{ chips  'CTRed':1 },{ chips  'grey78':4 },FALSE,370,55,,,385,40,1,(R:3,C:7),{ chips  'CTRed':58 'CTGreen':0 'CTPurple':9 'grey78':0 'CTYellow':6 },365,{ chips  'CTRed':0 'CTGreen':0 'CTPurple':0 'grey78':11 'CTYellow':0 },55,{ chips  'CTRed':8 'CTGreen':0 'CTPurple':0 'grey78':1 'CTYellow':2 },55,FALSE,,
3playersLog_1388319857125.csv,9,530,500,FALSE,{ chips  },{ chips  },FALSE,55,365,,,55,365,1,(R:2,C:7),{ chips  'CTRed':58 'CTGreen':0 'CTPurple':9 'grey78':1 'CTYellow':5 },365,{ chips  'CTRed':0 'CTGreen':0 'CTPurple':0 'grey78':11 'CTYellow':0 },55,{ chips  'CTRed':8 'CTGreen':0 'CTPurple':0 'grey78':0 'CTYellow':2 },50,TRUE,,
3playersLog_1388319857125.csv,9,540,500,FALSE,{ chips  'grey78':1 },{ chips  },TRUE,55,365,{ chips  'CTRed':0 'CTPurple':0 'CTGreen':0 'grey78':1 'CTYellow':0 },{ chips  'CTRed':0 'CTPurple':0 'CTGreen':0 'grey78':0 'CTYellow':0 },50,370,1,(R:2,C:7),{ chips  'CTRed':58 'CTGreen':0 'CTPurple':9 'grey78':1 'CTYellow':5 },365,{ chips  'CTRed':0 'CTGreen':0 'CTPurple':0 'grey78':11 'CTYellow':0 },55,{ chips  'CTRed':8 'CTGreen':0 'CTPurple':0 'grey78':0 'CTYellow':2 },50,FALSE,,
3playersLog_1388319857125.csv,10,500,540,TRUE,{ chips  'CTRed':1 },{ chips  'CTYellow':2 },TRUE,365,55,{ chips  'CTRed':1 'CTPurple':0 'CTGreen':0 'grey78':0 'CTYellow':0 },{ chips  'CTRed':0 'CTPurple':0 'CTGreen':0 'grey78':0 'CTYellow':2 },370,45,1,(R:1,C:7),{ chips  'CTRed':57 'CTGreen':0 'CTPurple':8 'grey78':1 'CTYellow':7 },365,{ chips  'CTRed':0 'CTGreen':0 'CTPurple':0 'grey78':11 'CTYellow':0 },55,{ chips  'CTRed':9 'CTGreen':0 'CTPurple':0 'grey78':0 'CTYellow':0 },45,FALSE,,
3playersLog_1388319857125.csv,11,530,500,FALSE,{ chips  },{ chips  },FALSE,55,365,,,55,365,0,(R:1,C:7),{ chips  'CTRed':57 'CTGreen':0 'CTPurple':8 'grey78':1 'CTYellow':7 },365,{ chips  'CTRed':0 'CTGreen':0 'CTPurple':0 'grey78':11 'CTYellow':0 },55,{ chips  'CTRed':9 'CTGreen':0 'CTPurple':0 'grey78':0 'CTYellow':0 },45,TRUE,,
3playersLog_1388319857125.csv,11,540,500,FALSE,{ chips  },{ chips  },FALSE,45,365,,,45,365,0,(R:1,C:7),{ chips  'CTRed':57 'CTGreen':0 'CTPurple':8 'grey78':1 'CTYellow':7 },365,{ chips  'CTRed':0 'CTGreen':0 'CTPurple':0 'grey78':11 'CTYellow':0 },55,{ chips  'CTRed':9 'CTGreen':0 'CTPurple':0 'grey78':0 'CTYellow':0 },45,FALSE,,
3playersLog_1388319857125.csv,12,500,530,TRUE,{ chips  },{ chips  'grey78':1 },FALSE,365,55,,,370,50,2,(R:0,C:8),{ chips  'CTRed':57 'CTGreen':0 'CTPurple':8 'grey78':1 'CTYellow':5 },505,{ chips  'CTRed':0 'CTGreen':0 'CTPurple':0 'grey78':11 'CTYellow':0 },205,{ chips  'CTRed':9 'CTGreen':0 'CTPurple':0 'grey78':0 'CTYellow':0 },45,FALSE,,
3playersLog_1388319857125.csv,,,,,,,,,,,,,,,,,,,,,,,,,TRUE
3playersLog_1388320204074.csv,1,530,500,FALSE,{ chips  'CTRed':33 'CTPurple':7 },{ chips  'grey78':11 },IGNORED,200,120,,,55,265,1,(R:5,C:3),{ chips  'CTRed':1 'CTGreen':0 'CTPurple':2 'grey78':11 'CTYellow':12 },130,{ chips  'CTRed':33 'CTGreen':0 'CTPurple':7 'grey78':0 'CTYellow':0 },200,{ chips  'CTRed':32 'CTGreen':0 'CTPurple':5 'grey78':0 'CTYellow':0 },185,TRUE,,
3playersLog_1388320204074.csv,1,540,500,FALSE,{ chips  'CTRed':1 'CTPurple':2 },{ chips  },TRUE,200,120,{ chips  'CTRed':1 'CTPurple':2 'CTGreen':0 'grey78':0 'CTYellow':0 },{ chips  'CTRed':0 'CTPurple':0 'CTGreen':0 'grey78':0 'CTYellow':0 },185,135,1,(R:5,C:3),{ chips  'CTRed':1 'CTGreen':0 'CTPurple':2 'grey78':11 'CTYellow':12 },130,{ chips  'CTRed':33 'CTGreen':0 'CTPurple':7 'grey78':0 'CTYellow':0 },200,{ chips  'CTRed':32 'CTGreen':0 'CTPurple':5 'grey78':0 'CTYellow':0 },185,FALSE,,
3playersLog_1388320204074.csv,2,,,,,,,,,,,,,0,(R:5,C:3),{ chips  'CTRed':1 'CTGreen':0 'CTPurple':2 'grey78':11 'CTYellow':12 },130,{ chips  'CTRed':33 'CTGreen':0 'CTPurple':7 'grey78':0 'CTYellow':0 },200,,{ chips  'CTRed':32 'CTGreen':0 'CTPurple':5 'grey78':0 'CTYellow':0 },185,,
3playersLog_1388320204074.csv,3,530,500,FALSE,{ chips  'CTRed':33 'CTPurple':6 },{ chips  'grey78':10 },IGNORED,200,130,,,55,275,1,(R:4,C:3),{ chips  'CTRed':3 'CTGreen':0 'CTPurple':4 'grey78':10 'CTYellow':12 },145,{ chips  'CTRed':33 'CTGreen':0 'CTPurple':7 'grey78':0 'CTYellow':0 },200,{ chips  'CTRed':30 'CTGreen':0 'CTPurple':3 'grey78':0 'CTYellow':0 },165,TRUE,,
3playersLog_1388320204074.csv,3,540,500,FALSE,{ chips  'CTRed':2 'CTPurple':2 },{ chips  },TRUE,185,130,{ chips  'CTRed':2 'CTPurple':2 'CTGreen':0 'grey78':0 'CTYellow':0 },{ chips  'CTRed':0 'CTPurple':0 'CTGreen':0 'grey78':0 'CTYellow':0 },165,150,1,(R:4,C:3),{ chips  'CTRed':3 'CTGreen':0 'CTPurple':4 'grey78':10 'CTYellow':12 },145,{ chips  'CTRed':33 'CTGreen':0 'CTPurple':7 'grey78':0 'CTYellow':0 },200,{ chips  'CTRed':30 'CTGreen':0 'CTPurple':3 'grey78':0 'CTYellow':0 },165,FALSE,,
3playersLog_1388320204074.csv,4,500,540,TRUE,{ chips  'CTRed':1 'CTPurple':2 },{ chips  },TRUE,145,200,{ chips  'CTRed':1 'CTPurple':2 'CTGreen':0 'grey78':0 'CTYellow':0 },{ chips  'CTRed':0 'CTPurple':0 'CTGreen':0 'grey78':0 'CTYellow':0 },130,180,4,(R:2,C:1),{ chips  'CTRed':2 'CTGreen':0 'CTPurple':2 'grey78':6 'CTYellow':12 },110,{ chips  'CTRed':33 'CTGreen':0 'CTPurple':7 'grey78':0 'CTYellow':0 },200,{ chips  'CTRed':31 'CTGreen':0 'CTPurple':5 'grey78':0 'CTYellow':0 },180,FALSE,,
3playersLog_1388320204074.csv,5,530,500,FALSE,{ chips  },{ chips  },IGNORED,200,110,,,200,110,2,(R:1,C:0),{ chips  'CTRed':4 'CTGreen':0 'CTPurple':3 'grey78':4 'CTYellow':12 },115,{ chips  'CTRed':33 'CTGreen':0 'CTPurple':7 'grey78':0 'CTYellow':0 },200,{ chips  'CTRed':29 'CTGreen':0 'CTPurple':4 'grey78':0 'CTYellow':0 },165,FALSE,,
3playersLog_1388320204074.csv,5,540,500,FALSE,{ chips  'CTRed':2 'CTPurple':1 },{ chips  },TRUE,180,110,{ chips  'CTRed':2 'CTPurple':1 'CTGreen':0 'grey78':0 'CTYellow':0 },{ chips  'CTRed':0 'CTPurple':0 'CTGreen':0 'grey78':0 'CTYellow':0 },165,125,2,(R:1,C:0),{ chips  'CTRed':4 'CTGreen':0 'CTPurple':3 'grey78':4 'CTYellow':12 },115,{ chips  'CTRed':33 'CTGreen':0 'CTPurple':7 'grey78':0 'CTYellow':0 },200,{ chips  'CTRed':29 'CTGreen':0 'CTPurple':4 'grey78':0 'CTYellow':0 },165,FALSE,,
3playersLog_1388320204074.csv,6,500,530,TRUE,{ chips  'CTYellow':3 },{ chips  'CTRed':2 },IGNORED,115,200,,,110,205,0,(R:1,C:0),{ chips  'CTRed':4 'CTGreen':0 'CTPurple':3 'grey78':4 'CTYellow':12 },115,{ chips  'CTRed':33 'CTGreen':0 'CTPurple':7 'grey78':0 'CTYellow':0 },200,{ chips  'CTRed':29 'CTGreen':0 'CTPurple':4 'grey78':0 'CTYellow':0 },165,FALSE,,
3playersLog_1388320204074.csv,7,530,500,FALSE,{ chips  },{ chips  },TRUE,200,115,{ chips  'grey78':0 },{ chips  'CTRed':0 'CTPurple':0 },200,115,0,(R:1,C:0),{ chips  'CTRed':4 'CTGreen':0 'CTPurple':3 'grey78':4 'CTYellow':12 },115,{ chips  'CTRed':33 'CTGreen':0 'CTPurple':7 'grey78':0 'CTYellow':0 },200,{ chips  'CTRed':29 'CTGreen':0 'CTPurple':4 'grey78':0 'CTYellow':0 },165,FALSE,,
3playersLog_1388320204074.csv,,,,,,,,,,,,,,,,,,,,,,,,,FALSE
3playersLog_1388406206500.csv,1,530,500,FALSE,{ chips  'CTRed':33 'CTPurple':7 },{ chips  'grey78':11 },IGNORED,200,120,,,55,265,2,(R:4,C:3),{ chips  'CTRed':0 'CTGreen':0 'CTPurple':2 'grey78':10 'CTYellow':10 },110,{ chips  'CTRed':33 'CTGreen':0 'CTPurple':7 'grey78':0 'CTYellow':0 },200,{ chips  'CTRed':33 'CTGreen':0 'CTPurple':5 'grey78':0 'CTYellow':2 },200,TRUE,,
3playersLog_1388406206500.csv,1,540,500,FALSE,{ chips  'CTPurple':2 },{ chips  'CTYellow':2 },TRUE,200,120,{ chips  'CTRed':0 'CTPurple':2 'CTGreen':0 'grey78':0 'CTYellow':0 },{ chips  'CTRed':0 'CTPurple':0 'CTGreen':0 'grey78':0 'CTYellow':2 },200,120,2,(R:4,C:3),{ chips  'CTRed':0 'CTGreen':0 'CTPurple':2 'grey78':10 'CTYellow':10 },110,{ chips  'CTRed':33 'CTGreen':0 'CTPurple':7 'grey78':0 'CTYellow':0 },200,{ chips  'CTRed':33 'CTGreen':0 'CTPurple':5 'grey78':0 'CTYellow':2 },200,FALSE,,
3playersLog_1388406206500.csv,2,500,530,TRUE,{ chips  'CTYellow':2 },{ chips  'CTRed':2 },TRUE,110,200,{ chips  'CTRed':0 'CTPurple':0 'CTGreen':0 'grey78':0 'CTYellow':2 },{ chips  'CTRed':2 'CTPurple':0 'CTGreen':0 'grey78':0 'CTYellow':0 },110,200,1,(R:3,C:3),{ chips  'CTRed':2 'CTGreen':0 'CTPurple':1 'grey78':10 'CTYellow':8 },105,{ chips  'CTRed':31 'CTGreen':0 'CTPurple':7 'grey78':0 'CTYellow':2 },200,{ chips  'CTRed':33 'CTGreen':0 'CTPurple':5 'grey78':0 'CTYellow':2 },200,FALSE,,
3playersLog_1388406206500.csv,3,530,500,FALSE,{ chips  'CTRed':31 'CTPurple':7 'CTYellow':2 },{ chips  'grey78':9 },IGNORED,200,105,,,45,260,3,(R:2,C:1),{ chips  'CTRed':4 'CTGreen':0 'CTPurple':1 'grey78':7 'CTYellow':6 },90,{ chips  'CTRed':31 'CTGreen':0 'CTPurple':7 'grey78':0 'CTYellow':2 },200,{ chips  'CTRed':31 'CTGreen':0 'CTPurple':5 'grey78':0 'CTYellow':4 },200,TRUE,,
3playersLog_1388406206500.csv,3,540,500,FALSE,{ chips  'CTRed':2 },{ chips  'CTYellow':2 },TRUE,200,105,{ chips  'CTRed':2 'CTPurple':0 'CTGreen':0 'grey78':0 'CTYellow':0 },{ chips  'CTRed':0 'CTPurple':0 'CTGreen':0 'grey78':0 'CTYellow':2 },200,105,3,(R:2,C:1),{ chips  'CTRed':4 'CTGreen':0 'CTPurple':1 'grey78':7 'CTYellow':6 },90,{ chips  'CTRed':31 'CTGreen':0 'CTPurple':7 'grey78':0 'CTYellow':2 },200,{ chips  'CTRed':31 'CTGreen':0 'CTPurple':5 'grey78':0 'CTYellow':4 },200,FALSE,,
3playersLog_1388406206500.csv,4,500,530,TRUE,{ chips  'CTRed':4 },{ chips  'CTRed':30 'CTYellow':2 },FALSE,90,200,,,230,60,2,(R:1,C:0),{ chips  'CTRed':4 'CTGreen':0 'CTPurple':0 'grey78':6 'CTYellow':6 },80,{ chips  'CTRed':31 'CTGreen':0 'CTPurple':7 'grey78':0 'CTYellow':2 },200,{ chips  'CTRed':31 'CTGreen':0 'CTPurple':5 'grey78':0 'CTYellow':4 },200,FALSE,,
3playersLog_1388406206500.csv,5,530,500,FALSE,{ chips  },{ chips  },FALSE,200,80,,,200,80,1,(R:0,C:0),{ chips  'CTRed':4 'CTGreen':0 'CTPurple':0 'grey78':5 'CTYellow':6 },225,{ chips  'CTRed':31 'CTGreen':0 'CTPurple':7 'grey78':0 'CTYellow':2 },200,{ chips  'CTRed':31 'CTGreen':0 'CTPurple':5 'grey78':0 'CTYellow':4 },350,FALSE,,
3playersLog_1388406206500.csv,5,540,500,FALSE,{ chips  'CTRed':2 },{ chips  'CTYellow':2 },FALSE,200,80,,,200,80,1,(R:0,C:0),{ chips  'CTRed':4 'CTGreen':0 'CTPurple':0 'grey78':5 'CTYellow':6 },225,{ chips  'CTRed':31 'CTGreen':0 'CTPurple':7 'grey78':0 'CTYellow':2 },200,{ chips  'CTRed':31 'CTGreen':0 'CTPurple':5 'grey78':0 'CTYellow':4 },350,FALSE,,
3playersLog_1388406206500.csv,,,,,,,,,,,,,,,,,,,,,,,,,TRUE
3playersLog_1388926235431.csv,1,530,500,FALSE,{ chips  'CTRed':33 'CTPurple':7 },{ chips  'grey78':11 },TRUE,200,120,{ chips  'CTRed':33 'CTPurple':7 'CTYellow':0 },{ chips  'grey78':11 },55,265,0,(R:5,C:4),{ chips  'CTRed':33 'CTGreen':0 'CTPurple':7 'grey78':1 'CTYellow':12 },265,{ chips  'CTRed':0 'CTGreen':0 'CTPurple':0 'grey78':11 'CTYellow':0 },55,{ chips  'CTRed':33 'CTGreen':0 'CTPurple':7 'grey78':0 'CTYellow':0 },200,TRUE,,
3playersLog_1388926235431.csv,2,500,540,TRUE,{ chips  },{ chips  'CTRed':10 'CTPurple':5 },FALSE,265,200,,,340,125,1,(R:5,C:5),{ chips  'CTRed':33 'CTGreen':0 'CTPurple':7 'grey78':1 'CTYellow':11 },260,{ chips  'CTRed':0 'CTGreen':0 'CTPurple':0 'grey78':11 'CTYellow':0 },55,{ chips  'CTRed':33 'CTGreen':0 'CTPurple':7 'grey78':0 'CTYellow':0 },200,FALSE,,
3playersLog_1388926235431.csv,3,530,500,FALSE,{ chips  },{ chips  },FALSE,55,260,,,55,260,2,(R:3,C:5),{ chips  'CTRed':33 'CTGreen':0 'CTPurple':6 'grey78':1 'CTYellow':10 },250,{ chips  'CTRed':0 'CTGreen':0 'CTPurple':0 'grey78':11 'CTYellow':0 },55,{ chips  'CTRed':33 'CTGreen':0 'CTPurple':7 'grey78':0 'CTYellow':0 },200,TRUE,,
3playersLog_1388926235431.csv,3,540,500,FALSE,{ chips  'CTPurple':3 },{ chips  'CTRed':33 'CTPurple':7 'grey78':1 },FALSE,200,260,,,390,70,2,(R:3,C:5),{ chips  'CTRed':33 'CTGreen':0 'CTPurple':6 'grey78':1 'CTYellow':10 },250,{ chips  'CTRed':0 'CTGreen':0 'CTPurple':0 'grey78':11 'CTYellow':0 },55,{ chips  'CTRed':33 'CTGreen':0 'CTPurple':7 'grey78':0 'CTYellow':0 },200,FALSE,,
3playersLog_1388926235431.csv,4,500,540,TRUE,{ chips  },{ chips  'CTRed':5 'CTPurple':5 },FALSE,250,200,,,300,150,1,(R:3,C:6),{ chips  'CTRed':33 'CTGreen':0 'CTPurple':6 'grey78':1 'CTYellow':9 },245,{ chips  'CTRed':0 'CTGreen':0 'CTPurple':0 'grey78':11 'CTYellow':0 },55,{ chips  'CTRed':33 'CTGreen':0 'CTPurple':7 'grey78':0 'CTYellow':0 },200,FALSE,,
3playersLog_1388926235431.csv,5,530,500,FALSE,{ chips  },{ chips  },TRUE,55,245,{ chips  'CTRed':0 'CTPurple':0 'CTYellow':0 },{ chips  'grey78':0 },55,245,2,(R:2,C:7),{ chips  'CTRed':33 'CTGreen':0 'CTPurple':6 'grey78':1 'CTYellow':7 },235,{ chips  'CTRed':0 'CTGreen':0 'CTPurple':0 'grey78':11 'CTYellow':0 },55,{ chips  'CTRed':33 'CTGreen':0 'CTPurple':7 'grey78':0 'CTYellow':0 },200,TRUE,,
3playersLog_1388926235431.csv,6,500,540,TRUE,{ chips  },{ chips  'CTRed':20 'CTPurple':5 },FALSE,235,200,,,360,75,0,(R:2,C:7),{ chips  'CTRed':33 'CTGreen':0 'CTPurple':6 'grey78':1 'CTYellow':7 },235,{ chips  'CTRed':0 'CTGreen':0 'CTPurple':0 'grey78':11 'CTYellow':0 },55,{ chips  'CTRed':33 'CTGreen':0 'CTPurple':7 'grey78':0 'CTYellow':0 },200,FALSE,,
3playersLog_1388926235431.csv,7,530,500,FALSE,{ chips  },{ chips  },FALSE,55,235,,,55,235,2,(R:1,C:8),{ chips  'CTRed':33 'CTGreen':0 'CTPurple':5 'grey78':1 'CTYellow':6 },225,{ chips  'CTRed':0 'CTGreen':0 'CTPurple':0 'grey78':11 'CTYellow':0 },55,{ chips  'CTRed':33 'CTGreen':0 'CTPurple':7 'grey78':0 'CTYellow':0 },200,TRUE,,
3playersLog_1388926235431.csv,7,540,500,FALSE,{ chips  },{ chips  'CTRed':22 'CTPurple':6 'grey78':1 'CTYellow':7 },FALSE,200,235,,,380,55,2,(R:1,C:8),{ chips  'CTRed':33 'CTGreen':0 'CTPurple':5 'grey78':1 'CTYellow':6 },225,{ chips  'CTRed':0 'CTGreen':0 'CTPurple':0 'grey78':11 'CTYellow':0 },55,{ chips  'CTRed':33 'CTGreen':0 'CTPurple':7 'grey78':0 'CTYellow':0 },200,TRUE,,
3playersLog_1388926235431.csv,8,500,540,TRUE,{ chips  },{ chips  'CTRed':33 'CTPurple':7 },FALSE,225,200,,,425,0,1,(R:0,C:8),{ chips  'CTRed':33 'CTGreen':0 'CTPurple':5 'grey78':1 'CTYellow':5 },370,{ chips  'CTRed':0 'CTGreen':0 'CTPurple':0 'grey78':11 'CTYellow':0 },205,{ chips  'CTRed':33 'CTGreen':0 'CTPurple':7 'grey78':0 'CTYellow':0 },200,FALSE,,
3playersLog_1388926235431.csv,,,,,,,,,,,,,,,,,,,,,,,,,TRUE
3playersLog_1388926237343.csv,1,530,500,FALSE,{ chips  'CTRed':33 'CTPurple':7 },{ chips  'grey78':11 },TRUE,200,120,{ chips  'CTRed':33 'CTPurple':7 'CTYellow':0 },{ chips  'grey78':11 },55,265,2,(R:4,C:5),{ chips  'CTRed':33 'CTGreen':0 'CTPurple':7 'grey78':1 'CTYellow':10 },255,{ chips  'CTRed':0 'CTGreen':0 'CTPurple':0 'grey78':11 'CTYellow':0 },55,{ chips  'CTRed':33 'CTGreen':0 'CTPurple':7 'grey78':0 'CTYellow':0 },200,TRUE,,
3playersLog_1388926237343.csv,1,540,500,FALSE,{ chips  'CTRed':14 },{ chips  'CTYellow':12 },FALSE,200,120,,,190,130,2,(R:4,C:5),{ chips  'CTRed':33 'CTGreen':0 'CTPurple':7 'grey78':1 'CTYellow':10 },255,{ chips  'CTRed':0 'CTGreen':0 'CTPurple':0 'grey78':11 'CTYellow':0 },55,{ chips  'CTRed':33 'CTGreen':0 'CTPurple':7 'grey78':0 'CTYellow':0 },200,TRUE,,
3playersLog_1388926237343.csv,2,500,530,TRUE,{ chips  },{ chips  },TRUE,250,55,{ chips  'CTRed':0 'CTPurple':0 'CTGreen':0 'grey78':0 'CTYellow':0 },{ chips  'CTRed':0 'CTPurple':0 'CTGreen':0 'grey78':0 'CTYellow':0 },250,55,0,(R:4,C:6),{ chips  'CTRed':33 'CTGreen':0 'CTPurple':7 'grey78':1 'CTYellow':9 },250,{ chips  'CTRed':0 'CTGreen':0 'CTPurple':0 'grey78':11 'CTYellow':0 },55,{ chips  'CTRed':33 'CTGreen':0 'CTPurple':7 'grey78':0 'CTYellow':0 },200,TRUE,,
3playersLog_1388926237343.csv,3,530,500,FALSE,{ chips  },{ chips  },IGNORED,55,250,,,55,250,0,(R:4,C:6),{ chips  'CTRed':63 'CTGreen':0 'CTPurple':12 'grey78':1 'CTYellow':0 },380,{ chips  'CTRed':0 'CTGreen':0 'CTPurple':0 'grey78':11 'CTYellow':0 },55,{ chips  'CTRed':3 'CTGreen':0 'CTPurple':2 'grey78':0 'CTYellow':9 },70,TRUE,,
3playersLog_1388926237343.csv,3,540,500,FALSE,{ chips  'CTRed':30 'CTPurple':5 },{ chips  'CTYellow':9 },TRUE,200,250,{ chips  'CTRed':30 'CTPurple':5 'CTGreen':0 'grey78':0 'CTYellow':0 },{ chips  'CTRed':0 'CTPurple':0 'CTGreen':0 'grey78':0 'CTYellow':9 },70,380,0,(R:4,C:6),{ chips  'CTRed':63 'CTGreen':0 'CTPurple':12 'grey78':1 'CTYellow':0 },380,{ chips  'CTRed':0 'CTGreen':0 'CTPurple':0 'grey78':11 'CTYellow':0 },55,{ chips  'CTRed':3 'CTGreen':0 'CTPurple':2 'grey78':0 'CTYellow':9 },70,TRUE,,
3playersLog_1388926237343.csv,,,,,,,,,,,,,,,,,,,,,,,,,FALSE
3playersLog_1388926257549.csv,1,530,500,FALSE,{ chips  'CTRed':33 'CTPurple':7 },{ chips  'grey78':11 },TRUE,200,120,{ chips  'CTRed':33 'CTPurple':7 'CTYellow':0 },{ chips  'grey78':11 },55,265,3,(R:4,C:6),{ chips  'CTRed':33 'CTGreen':0 'CTPurple':7 'grey78':1 'CTYellow':9 },250,{ chips  'CTRed':0 'CTGreen':0 'CTPurple':0 'grey78':11 'CTYellow':0 },55,{ chips  'CTRed':33 'CTGreen':0 'CTPurple':7 'grey78':0 'CTYellow':0 },200,TRUE,,
3playersLog_1388926257549.csv,1,540,500,FALSE,{ chips  'CTRed':1 'CTPurple':1 },{ chips  },IGNORED,200,120,,,190,130,3,(R:4,C:6),{ chips  'CTRed':33 'CTGreen':0 'CTPurple':7 'grey78':1 'CTYellow':9 },250,{ chips  'CTRed':0 'CTGreen':0 'CTPurple':0 'grey78':11 'CTYellow':0 },55,{ chips  'CTRed':33 'CTGreen':0 'CTPurple':7 'grey78':0 'CTYellow':0 },200,FALSE,,
3playersLog_1388926257549.csv,2,500,540,TRUE,{ chips  'grey78':1 },{ chips  'CTRed':33 },FALSE,245,200,,,405,40,5,(R:0,C:8),{ chips  'CTRed':33 'CTGreen':0 'CTPurple':7 'grey78':1 'CTYellow':3 },370,{ chips  'CTRed':0 'CTGreen':0 'CTPurple':0 'grey78':11 'CTYellow':0 },205,{ chips  'CTRed':33 'CTGreen':0 'CTPurple':7 'grey78':0 'CTYellow':0 },200,FALSE,,
3playersLog_1388926257549.csv,,,,,,,,,,,,,,,,,,,,,,,,,TRUE
3playersLog_1388926342513.csv,1,530,500,FALSE,{ chips  'CTRed':33 'CTPurple':7 },{ chips  'grey78':11 },FALSE,200,120,,,55,265,1,(R:5,C:5),{ chips  'CTRed':7 'CTGreen':0 'CTPurple':0 'grey78':11 'CTYellow':8 },130,{ chips  'CTRed':33 'CTGreen':0 'CTPurple':7 'grey78':0 'CTYellow':0 },200,{ chips  'CTRed':26 'CTGreen':0 'CTPurple':7 'grey78':1 'CTYellow':3 },185,TRUE,,
3playersLog_1388926342513.csv,1,540,500,FALSE,{ chips  'CTRed':7 },{ chips  'grey78':1 'CTYellow':3 },TRUE,200,120,{ chips  'CTRed':7 'CTPurple':0 'CTGreen':0 'grey78':0 'CTYellow':0 },{ chips  'CTRed':0 'CTPurple':0 'CTGreen':0 'grey78':1 'CTYellow':3 },185,135,1,(R:5,C:5),{ chips  'CTRed':7 'CTGreen':0 'CTPurple':0 'grey78':11 'CTYellow':8 },130,{ chips  'CTRed':33 'CTGreen':0 'CTPurple':7 'grey78':0 'CTYellow':0 },200,{ chips  'CTRed':26 'CTGreen':0 'CTPurple':7 'grey78':1 'CTYellow':3 },185,FALSE,,
3playersLog_1388926342513.csv,2,500,530,TRUE,{ chips  'grey78':5 },{ chips  'CTRed':15 },FALSE,130,200,,,180,150,1,(R:4,C:5),{ chips  'CTRed':7 'CTGreen':0 'CTPurple':0 'grey78':11 'CTYellow':7 },125,{ chips  'CTRed':33 'CTGreen':0 'CTPurple':7 'grey78':0 'CTYellow':0 },200,{ chips  'CTRed':26 'CTGreen':0 'CTPurple':7 'grey78':1 'CTYellow':3 },185,FALSE,,
3playersLog_1388926342513.csv,3,530,500,FALSE,{ chips  'CTRed':33 'CTPurple':7 },{ chips  'grey78':11 },TRUE,200,125,{ chips  'CTRed':33 'CTPurple':7 'CTYellow':0 },{ chips  'grey78':11 },55,270,4,(R:2,C:7),{ chips  'CTRed':40 'CTGreen':0 'CTPurple':6 'grey78':0 'CTYellow':4 },250,{ chips  'CTRed':0 'CTGreen':0 'CTPurple':0 'grey78':11 'CTYellow':0 },55,{ chips  'CTRed':26 'CTGreen':0 'CTPurple':7 'grey78':1 'CTYellow':3 },185,TRUE,,
3playersLog_1388926342513.csv,4,500,530,TRUE,{ chips  'CTRed':4 },{ chips  'grey78':2 },TRUE,250,55,{ chips  'CTRed':4 'CTPurple':0 'CTGreen':0 'grey78':0 'CTYellow':0 },{ chips  'CTRed':0 'CTPurple':0 'CTGreen':0 'grey78':2 'CTYellow':0 },240,65,3,(R:0,C:8),{ chips  'CTRed':36 'CTGreen':0 'CTPurple':5 'grey78':2 'CTYellow':2 },375,{ chips  'CTRed':4 'CTGreen':0 'CTPurple':0 'grey78':9 'CTYellow':0 },215,{ chips  'CTRed':26 'CTGreen':0 'CTPurple':7 'grey78':1 'CTYellow':3 },185,FALSE,,
3playersLog_1388926342513.csv,,,,,,,,,,,,,,,,,,,,,,,,,TRUE
