filename,round,propID,respID,IsPropCustomer,chipsToSend,chipsToReceive,accept,propCurrentScore,respCurrentScore,actualSent,ActualRcvd,propResultingScore,respResultingScore,#ofCustomerMovesInRound,customerRowPositionAfterMovePhase,customerColPositionAfterMovePhase,Player100ChipsAfterMovePhase,Player100ScoreAfterMovePhase,Player200ChipsAfterMovePhase,Player200ScoreAfterMovePhase,Player300ChipsAfterMovePhase,Player300ScoreAfterMovePhase,generosityLevel,ClientReachedGoal
3playersLog_1378216515735.csv,1,520,510,false,{ chips  'CTRed':5 'CTPurple':2 },{ chips  'CTYellow':8 },IGNORED,200,120,,,,,0,(R:5,C:4),{ chips  'CTRed':18 'CTGreen':0 'CTPurple':6 'grey78':8 'CTYellow':2 },170,{ chips  'CTRed':33 'CTGreen':0 'CTPurple':7 'grey78':0 'CTYellow':0 },200,{ chips  'CTRed':15 'CTGreen':0 'CTPurple':1 'grey78':4 'CTYellow':10 },150
3playersLog_1378216515735.csv,1,540,510,false,{ chips  'CTRed':18 'CTPurple':6 },{ chips  'grey78':4 'CTYellow':10 },TRUE,200,120,{ chips  'CTRed':18 'CTPurple':6 'CTGreen':0 'grey78':0 'CTYellow':0 },{ chips  'CTRed':0 'CTPurple':0 'CTGreen':0 'grey78':4 'CTYellow':10 },150,170,0,(R:5,C:4),{ chips  'CTRed':18 'CTGreen':0 'CTPurple':6 'grey78':8 'CTYellow':2 },170,{ chips  'CTRed':33 'CTGreen':0 'CTPurple':7 'grey78':0 'CTYellow':0 },200,{ chips  'CTRed':15 'CTGreen':0 'CTPurple':1 'grey78':4 'CTYellow':10 },150
3playersLog_1378216515735.csv,2,510,540,true,{ chips  'CTYellow':1 },{ chips  'CTRed':15 'CTPurple':1 'grey78':4 },FALSE,170,150,,,,,1,(R:5,C:3),{ chips  'CTRed':18 'CTGreen':0 'CTPurple':6 'grey78':7 'CTYellow':2 },165,{ chips  'CTRed':33 'CTGreen':0 'CTPurple':7 'grey78':0 'CTYellow':0 },200,{ chips  'CTRed':15 'CTGreen':0 'CTPurple':1 'grey78':4 'CTYellow':10 },150
3playersLog_1378216515735.csv,3,520,510,false,{ chips  'CTRed':19 'CTPurple':1 },{ chips  'grey78':6 },TRUE,200,165,{ chips  'CTRed':19 'CTPurple':1 'CTGreen':0 'grey78':0 'CTYellow':0 },{ chips  'CTRed':0 'CTPurple':0 'CTGreen':0 'grey78':6 'CTYellow':0 },130,235,1,(R:4,C:3),{ chips  'CTRed':37 'CTGreen':0 'CTPurple':7 'grey78':0 'CTYellow':2 },230,{ chips  'CTRed':14 'CTGreen':0 'CTPurple':6 'grey78':6 'CTYellow':0 },130,{ chips  'CTRed':15 'CTGreen':0 'CTPurple':1 'grey78':4 'CTYellow':10 },150
3playersLog_1378216515735.csv,3,540,510,false,{ chips  'CTRed':10 'grey78':2 },{ chips  'CTPurple':2 'CTYellow':2 },IGNORED,150,165,,,,,1,(R:4,C:3),{ chips  'CTRed':37 'CTGreen':0 'CTPurple':7 'grey78':0 'CTYellow':2 },230,{ chips  'CTRed':14 'CTGreen':0 'CTPurple':6 'grey78':6 'CTYellow':0 },130,{ chips  'CTRed':15 'CTGreen':0 'CTPurple':1 'grey78':4 'CTYellow':10 },150
3playersLog_1378216515735.csv,4,510,520,true,{ chips  },{ chips  'CTRed':6 'CTPurple':2 },FALSE,230,130,,,,,0,(R:4,C:3),{ chips  'CTRed':37 'CTGreen':0 'CTPurple':7 'grey78':0 'CTYellow':2 },230,{ chips  'CTRed':14 'CTGreen':0 'CTPurple':6 'grey78':6 'CTYellow':0 },130,{ chips  'CTRed':15 'CTGreen':0 'CTPurple':1 'grey78':4 'CTYellow':10 },150
3playersLog_1378216515735.csv,5,520,510,false,{ chips  'CTRed':3 'grey78':1 },{ chips  'CTPurple':1 'CTYellow':2 },IGNORED,130,230,,,,,0,(R:4,C:3),{ chips  'CTRed':51 'CTGreen':0 'CTPurple':5 'grey78':2 'CTYellow':0 },290,{ chips  'CTRed':14 'CTGreen':0 'CTPurple':6 'grey78':6 'CTYellow':0 },130,{ chips  'CTRed':1 'CTGreen':0 'CTPurple':3 'grey78':2 'CTYellow':12 },90
3playersLog_1378216515735.csv,5,540,510,false,{ chips  'CTRed':14 'grey78':2 },{ chips  'CTPurple':2 'CTYellow':2 },TRUE,150,230,{ chips  'CTRed':14 'CTPurple':0 'CTGreen':0 'grey78':2 'CTYellow':0 },{ chips  'CTRed':0 'CTPurple':2 'CTGreen':0 'grey78':0 'CTYellow':2 },90,290,0,(R:4,C:3),{ chips  'CTRed':51 'CTGreen':0 'CTPurple':5 'grey78':2 'CTYellow':0 },290,{ chips  'CTRed':14 'CTGreen':0 'CTPurple':6 'grey78':6 'CTYellow':0 },130,{ chips  'CTRed':1 'CTGreen':0 'CTPurple':3 'grey78':2 'CTYellow':12 },90
3playersLog_1378216515735.csv,,,,,,,,,,,,,,,,,,,,,,,,false
