filename,round,propID,respID,IsPropCustomer,chipsToSend,chipsToReceive,accept,propCurrentScore,respCurrentScore,actualSent,ActualRcvd,propResultingScore,respResultingScore,#ofCustomerMovesInRound,customerRowPositionAfterMovePhase,customerColPositionAfterMovePhase,Player100ChipsAfterMovePhase,Player100ScoreAfterMovePhase,Player200ChipsAfterMovePhase,Player200ScoreAfterMovePhase,Player300ChipsAfterMovePhase,Player300ScoreAfterMovePhase,generosityLevel,ClientReachedGoal
3playersLog_1391806323729.csv,1,530,500,false,{ chips  'CTRed':33 'CTPurple':7 },{ chips  'grey78':11 },TRUE,200,120,{ chips  'CTRed':33 'CTPurple':7 'CTYellow':0 },{ chips  'grey78':11 },55,265,1,(R:5,C:3),{ chips  'CTRed':33 'CTGreen':0 'CTPurple':7 'grey78':0 'CTYellow':12 },260,{ chips  'CTRed':0 'CTGreen':0 'CTPurple':0 'grey78':11 'CTYellow':0 },55,{ chips  'CTRed':33 'CTGreen':0 'CTPurple':7 'grey78':0 'CTYellow':0 },200
3playersLog_1391806323729.csv,2,500,530,true,{ chips  'CTRed':9 'CTPurple':2 'CTYellow':2 },{ chips  'grey78':9 },TRUE,260,55,{ chips  'CTRed':9 'CTPurple':2 'CTGreen':0 'grey78':0 'CTYellow':2 },{ chips  'CTRed':0 'CTPurple':0 'CTGreen':0 'grey78':9 'CTYellow':0 },240,75,10,(R:0,C:8),{ chips  'CTRed':24 'CTGreen':0 'CTPurple':2 'grey78':8 'CTYellow':4 },340,{ chips  'CTRed':9 'CTGreen':0 'CTPurple':2 'grey78':2 'CTYellow':2 },225,{ chips  'CTRed':33 'CTGreen':0 'CTPurple':7 'grey78':0 'CTYellow':0 },200
3playersLog_1391806323729.csv,,,,,,,,,,,,,,,,,,,,,,,,true
