filename,round,propID,respID,IsPropCustomer,chipsToSend,chipsToReceive,accept,propCurrentScore,respCurrentScore,actualSent,ActualRcvd,propResultingScore,respResultingScore,#ofCustomerMovesInRound,customerRowPositionAfterMovePhase,customerColPositionAfterMovePhase,Player100ChipsAfterMovePhase,Player100ScoreAfterMovePhase,Player200ChipsAfterMovePhase,Player200ScoreAfterMovePhase,Player300ChipsAfterMovePhase,Player300ScoreAfterMovePhase,generosityLevel,ClientReachedGoal
3playersLog_1391790388204.csv,1,530,500,false,{ chips  'CTRed':33 'CTPurple':7 },{ chips  'grey78':11 },FALSE,200,120,,,,,0,(R:5,C:4),{ chips  'CTRed':2 'CTGreen':0 'CTPurple':1 'grey78':10 'CTYellow':11 },120,{ chips  'CTRed':33 'CTGreen':0 'CTPurple':7 'grey78':0 'CTYellow':0 },200,{ chips  'CTRed':31 'CTGreen':0 'CTPurple':6 'grey78':2 'CTYellow':1 },200
3playersLog_1391790388204.csv,1,540,500,false,{ chips  'CTRed':2 'CTPurple':1 },{ chips  'grey78':2 'CTYellow':1 },TRUE,200,120,{ chips  'CTRed':2 'CTPurple':1 'CTGreen':0 'grey78':0 'CTYellow':0 },{ chips  'CTRed':0 'CTPurple':0 'CTGreen':0 'grey78':2 'CTYellow':1 },200,120,0,(R:5,C:4),{ chips  'CTRed':2 'CTGreen':0 'CTPurple':1 'grey78':10 'CTYellow':11 },120,{ chips  'CTRed':33 'CTGreen':0 'CTPurple':7 'grey78':0 'CTYellow':0 },200,{ chips  'CTRed':31 'CTGreen':0 'CTPurple':6 'grey78':2 'CTYellow':1 },200
3playersLog_1391790388204.csv,2,500,530,true,{ chips  'grey78':1 'CTYellow':2 },{ chips  'CTPurple':3 },TRUE,120,200,{ chips  'CTRed':0 'CTPurple':0 'CTGreen':0 'grey78':1 'CTYellow':2 },{ chips  'CTRed':0 'CTPurple':3 'CTGreen':0 'grey78':0 'CTYellow':0 },120,200,9,(R:0,C:0),{ chips  'CTRed':2 'CTGreen':0 'CTPurple':2 'grey78':2 'CTYellow':9 },225,{ chips  'CTRed':33 'CTGreen':0 'CTPurple':4 'grey78':1 'CTYellow':2 },200,{ chips  'CTRed':31 'CTGreen':0 'CTPurple':6 'grey78':2 'CTYellow':1 },350
3playersLog_1391790388204.csv,,,,,,,,,,,,,,,,,,,,,,,,true
