Fri Feb 07 14:22:06 EST 2014	This is the CT debug logger; svn version 638; sep 27 09
Fri Feb 07 14:22:06 EST 2014	Fri Feb 07 14:22:06 EST 2014
Fri Feb 07 14:22:06 EST 2014	ID Number: 66290
Fri Feb 07 14:22:06 EST 2014	Creating board
Fri Feb 07 14:22:06 EST 2014	<colors>
Fri Feb 07 14:22:06 EST 2014	{ GamePalette  'CTPurple':0 'CTRed':1 'CTGreen':2 'grey78':3 'CTYellow':4 }
Fri Feb 07 14:22:06 EST 2014	<rows>
Fri Feb 07 14:22:06 EST 2014	6
Fri Feb 07 14:22:06 EST 2014	<columns>
Fri Feb 07 14:22:06 EST 2014	9
Fri Feb 07 14:22:06 EST 2014	<squaresColors>
Fri Feb 07 14:22:06 EST 2014	grey78 CTGreen CTGreen CTGreen CTGreen CTGreen CTGreen CTGreen CTYellow 
Fri Feb 07 14:22:06 EST 2014	grey78 CTPurple CTPurple CTPurple CTPurple CTPurple CTPurple CTPurple CTYellow 
Fri Feb 07 14:22:06 EST 2014	grey78 grey78 CTGreen CTGreen CTGreen CTGreen CTGreen CTYellow CTYellow 
Fri Feb 07 14:22:06 EST 2014	CTGreen grey78 grey78 CTPurple CTPurple CTPurple CTYellow CTYellow CTGreen 
Fri Feb 07 14:22:06 EST 2014	CTGreen CTGreen grey78 grey78 CTGreen CTYellow CTYellow CTGreen CTGreen 
Fri Feb 07 14:22:06 EST 2014	CTGreen CTGreen CTGreen grey78 CTGreen CTYellow CTGreen CTGreen CTGreen 
Fri Feb 07 14:22:06 EST 2014	</squareColors>
Fri Feb 07 14:22:06 EST 2014	<goalPosition>
Fri Feb 07 14:22:06 EST 2014	Goal position: (R:0,C:0)
Fri Feb 07 14:22:06 EST 2014	<goalPosition>
Fri Feb 07 14:22:06 EST 2014	Goal position: (R:0,C:0)
Fri Feb 07 14:22:06 EST 2014	<firstPlayerPossibleGoal1>
Fri Feb 07 14:22:06 EST 2014	0.5
Fri Feb 07 14:22:06 EST 2014	0
Fri Feb 07 14:22:06 EST 2014	0
Fri Feb 07 14:22:06 EST 2014	</firstPlayerPossibleGoal1>
Fri Feb 07 14:22:06 EST 2014	<firstPlayerPossibleGoal2>
Fri Feb 07 14:22:06 EST 2014	0.5
Fri Feb 07 14:22:06 EST 2014	0
Fri Feb 07 14:22:06 EST 2014	8
Fri Feb 07 14:22:06 EST 2014	</firstPlayerPossibleGoal2>
Fri Feb 07 14:22:06 EST 2014	<numberOfPlayers>
Fri Feb 07 14:22:06 EST 2014	3
Fri Feb 07 14:22:06 EST 2014	<firstPlayerChips>
Fri Feb 07 14:22:06 EST 2014	Setting chips for player: 500 id:0
Fri Feb 07 14:22:06 EST 2014	{ chips  'CTRed':0 'CTGreen':0 'CTPurple':0 'grey78':12 'CTYellow':12 }
Fri Feb 07 14:22:06 EST 2014	Player position: (R:5,C:4)
Fri Feb 07 14:22:06 EST 2014	Setting chips for player: 530 id:1
Fri Feb 07 14:22:06 EST 2014	{ chips  'CTRed':33 'CTGreen':0 'CTPurple':7 'grey78':0 'CTYellow':0 }
Fri Feb 07 14:22:06 EST 2014	Player position: (R:0,C:8)
Fri Feb 07 14:22:06 EST 2014	Setting chips for player: 540 id:2
Fri Feb 07 14:22:06 EST 2014	{ chips  'CTRed':33 'CTGreen':0 'CTPurple':7 'grey78':0 'CTYellow':0 }
Fri Feb 07 14:22:06 EST 2014	Player position: (R:0,C:0)
Fri Feb 07 14:22:06 EST 2014	Protocol: A New Phase Began: Strategy Prep Phase. loop is true
Fri Feb 07 14:22:06 EST 2014	---------- Beginning Strategy Prep Phase at round 0 ----------
Fri Feb 07 14:23:06 EST 2014	A Phase Ended: Strategy Prep Phase
Fri Feb 07 14:23:06 EST 2014	Protocol: A New Phase Began: Communication Phase. loop is true
Fri Feb 07 14:23:06 EST 2014	---------- Beginning Communication Phase at round 1 ----------
Fri Feb 07 14:23:12 EST 2014	Received communication message 
Fri Feb 07 14:23:12 EST 2014	From player: 530
Fri Feb 07 14:23:12 EST 2014	To player: 500
Fri Feb 07 14:23:12 EST 2014	Chips to send by proposer: { chips  'CTRed':33 'CTPurple':7 'CTYellow':0 }
Fri Feb 07 14:23:12 EST 2014	Chips to send by responder: { chips  'grey78':11 }
Fri Feb 07 14:23:32 EST 2014	Received communication message 
Fri Feb 07 14:23:32 EST 2014	Proposer 0 accepted? false
Fri Feb 07 14:23:32 EST 2014	case that we had one reject, and one accept
Fri Feb 07 14:24:42 EST 2014	Received communication message 
Fri Feb 07 14:24:42 EST 2014	From player: 540
Fri Feb 07 14:24:42 EST 2014	To player: 500
Fri Feb 07 14:24:42 EST 2014	Chips to send by proposer: { chips  'CTRed':0 'CTPurple':2 'CTGreen':0 'grey78':0 'CTYellow':0 }
Fri Feb 07 14:24:42 EST 2014	Chips to send by responder: { chips  'CTRed':0 'CTPurple':0 'CTGreen':0 'grey78':0 'CTYellow':0 }
Fri Feb 07 14:24:52 EST 2014	Received communication message 
Fri Feb 07 14:24:52 EST 2014	Proposer 1 accepted? true
Fri Feb 07 14:24:52 EST 2014	A Phase Ended: Communication Phase
Fri Feb 07 14:24:52 EST 2014	Protocol: A New Phase Began: Movement Phase. loop is true
Fri Feb 07 14:24:52 EST 2014	---------- Beginning Movement Phase at round 1 ----------
Fri Feb 07 14:24:52 EST 2014	remove strategy phase. 
Fri Feb 07 14:25:36 EST 2014	A Phase Ended: Movement Phase
Fri Feb 07 14:25:36 EST 2014	Protocol: A New Phase Began: Feedback Phase. loop is true
Fri Feb 07 14:25:36 EST 2014	---------- Beginning Feedback Phase at round 1 ----------
Fri Feb 07 14:25:36 EST 2014	Number of consecutive no movements for player 500 is 0
Fri Feb 07 14:25:36 EST 2014	TDPlayerPosition is(R:3,C:3)goal location 0(R:0,C:0)goal location 1(R:0,C:8)
Fri Feb 07 14:25:36 EST 2014	ended is false
Fri Feb 07 14:25:41 EST 2014	A Phase Ended: Feedback Phase
Fri Feb 07 14:25:41 EST 2014	 numberofMoves in round 1 is 3
Fri Feb 07 14:25:41 EST 2014	Swaping roles:
Fri Feb 07 14:25:41 EST 2014	Protocol: A New Phase Began: Communication Phase. loop is true
Fri Feb 07 14:25:41 EST 2014	---------- Beginning Communication Phase at round 2 ----------
Fri Feb 07 14:26:30 EST 2014	Received communication message 
Fri Feb 07 14:26:30 EST 2014	From player: 500
Fri Feb 07 14:26:30 EST 2014	To player: 540
Fri Feb 07 14:26:30 EST 2014	Chips to send by proposer: { chips  'CTRed':0 'CTPurple':0 'CTGreen':0 'grey78':0 'CTYellow':0 }
Fri Feb 07 14:26:30 EST 2014	Chips to send by responder: { chips  'CTRed':33 'CTPurple':5 'CTGreen':0 'grey78':0 'CTYellow':0 }
Fri Feb 07 14:28:41 EST 2014	A Phase Ended: Communication Phase
Fri Feb 07 14:28:41 EST 2014	Protocol: A New Phase Began: Movement Phase. loop is true
Fri Feb 07 14:28:41 EST 2014	---------- Beginning Movement Phase at round 2 ----------
Fri Feb 07 14:29:26 EST 2014	A Phase Ended: Movement Phase
Fri Feb 07 14:29:26 EST 2014	Protocol: A New Phase Began: Feedback Phase. loop is true
Fri Feb 07 14:29:26 EST 2014	---------- Beginning Feedback Phase at round 2 ----------
Fri Feb 07 14:29:26 EST 2014	Number of consecutive no movements for player 500 is 0
Fri Feb 07 14:29:26 EST 2014	TDPlayerPosition is(R:3,C:2)goal location 0(R:0,C:0)goal location 1(R:0,C:8)
Fri Feb 07 14:29:26 EST 2014	ended is false
Fri Feb 07 14:29:31 EST 2014	A Phase Ended: Feedback Phase
Fri Feb 07 14:29:31 EST 2014	 numberofMoves in round 2 is 1
Fri Feb 07 14:29:31 EST 2014	Swaping roles:
Fri Feb 07 14:29:31 EST 2014	Protocol: A New Phase Began: Communication Phase. loop is true
Fri Feb 07 14:29:31 EST 2014	---------- Beginning Communication Phase at round 3 ----------
Fri Feb 07 14:29:32 EST 2014	Received communication message 
Fri Feb 07 14:29:32 EST 2014	From player: 530
Fri Feb 07 14:29:32 EST 2014	To player: 500
Fri Feb 07 14:29:32 EST 2014	Chips to send by proposer: { chips  'CTRed':33 'CTPurple':5 'CTYellow':0 }
Fri Feb 07 14:29:32 EST 2014	Chips to send by responder: { chips  'grey78':9 }
Fri Feb 07 14:29:39 EST 2014	Received communication message 
Fri Feb 07 14:29:39 EST 2014	Proposer 0 accepted? true
Fri Feb 07 14:29:39 EST 2014	A Phase Ended: Communication Phase
Fri Feb 07 14:29:39 EST 2014	Protocol: A New Phase Began: Movement Phase. loop is true
Fri Feb 07 14:29:39 EST 2014	---------- Beginning Movement Phase at round 3 ----------
Fri Feb 07 14:30:24 EST 2014	A Phase Ended: Movement Phase
Fri Feb 07 14:30:24 EST 2014	Protocol: A New Phase Began: Feedback Phase. loop is true
Fri Feb 07 14:30:24 EST 2014	---------- Beginning Feedback Phase at round 3 ----------
Fri Feb 07 14:30:24 EST 2014	The TD player reached the goal, end the game
Fri Feb 07 14:30:24 EST 2014	ended is true
Fri Feb 07 14:30:29 EST 2014	A Phase Ended: Feedback Phase
Fri Feb 07 14:30:29 EST 2014	 numberofMoves in round 3 is 9
Fri Feb 07 14:30:29 EST 2014	Loop status: false
Fri Feb 07 14:30:29 EST 2014	Player: 540 ,role: Proposer score is: 190
Fri Feb 07 14:30:29 EST 2014	Player: 540Game Ended
Fri Feb 07 14:30:29 EST 2014	Player: 500 ,role: Responder score is: 360
Fri Feb 07 14:30:29 EST 2014	Player: 500Game Ended
Fri Feb 07 14:30:29 EST 2014	Player: 530 ,role: Proposer score is: 205
Fri Feb 07 14:30:29 EST 2014	Player: 530Game Ended
Fri Feb 07 14:30:29 EST 2014	Protocol: A New Phase Began: Communication Phase. loop is false
Fri Feb 07 14:30:29 EST 2014	---------- Beginning Communication Phase at round 3 ----------
