filename,round,propID,respID,IsPropCustomer,chipsToSend,chipsToReceive,accept,propCurrentScore,respCurrentScore,actualSent,ActualRcvd,propResultingScore,respResultingScore,#ofCustomerMovesInRound,customerRowPositionAfterMovePhase,customerColPositionAfterMovePhase,Player100ChipsAfterMovePhase,Player100ScoreAfterMovePhase,Player200ChipsAfterMovePhase,Player200ScoreAfterMovePhase,Player300ChipsAfterMovePhase,Player300ScoreAfterMovePhase,generosityLevel,ClientReachedGoal
3playersLog_1378885357867.csv,1,520,510,false,{ chips  'CTRed':4 'CTPurple':1 },{ chips  },IGNORED,200,120,,,,,0,(R:5,C:4),{ chips  'CTRed':2 'CTGreen':0 'CTPurple':4 'grey78':12 'CTYellow':12 },150,{ chips  'CTRed':33 'CTGreen':0 'CTPurple':7 'grey78':0 'CTYellow':0 },200,{ chips  'CTRed':31 'CTGreen':0 'CTPurple':3 'grey78':0 'CTYellow':0 },170
3playersLog_1378885357867.csv,1,540,510,false,{ chips  'CTRed':2 'CTPurple':4 },{ chips  },TRUE,200,120,{ chips  'CTRed':2 'CTPurple':4 'CTGreen':0 'grey78':0 'CTYellow':0 },{ chips  'CTRed':0 'CTPurple':0 'CTGreen':0 'grey78':0 'CTYellow':0 },170,150,0,(R:5,C:4),{ chips  'CTRed':2 'CTGreen':0 'CTPurple':4 'grey78':12 'CTYellow':12 },150,{ chips  'CTRed':33 'CTGreen':0 'CTPurple':7 'grey78':0 'CTYellow':0 },200,{ chips  'CTRed':31 'CTGreen':0 'CTPurple':3 'grey78':0 'CTYellow':0 },170
3playersLog_1378885357867.csv,2,510,520,true,{ chips  'grey78':11 },{ chips  'CTRed':33 'CTPurple':7 },FALSE,150,200,,,,,1,(R:5,C:3),{ chips  'CTRed':2 'CTGreen':0 'CTPurple':4 'grey78':11 'CTYellow':12 },145,{ chips  'CTRed':33 'CTGreen':0 'CTPurple':7 'grey78':0 'CTYellow':0 },200,{ chips  'CTRed':31 'CTGreen':0 'CTPurple':3 'grey78':0 'CTYellow':0 },170
3playersLog_1378885357867.csv,3,520,510,false,{ chips  'CTRed':10 'CTPurple':1 },{ chips  'CTYellow':6 },TRUE,200,145,{ chips  'CTRed':10 'CTPurple':1 'CTGreen':0 'grey78':0 'CTYellow':0 },{ chips  'CTRed':0 'CTPurple':0 'CTGreen':0 'grey78':0 'CTYellow':6 },175,170,0,(R:5,C:3),{ chips  'CTRed':12 'CTGreen':0 'CTPurple':5 'grey78':11 'CTYellow':6 },170,{ chips  'CTRed':23 'CTGreen':0 'CTPurple':6 'grey78':0 'CTYellow':6 },175,{ chips  'CTRed':31 'CTGreen':0 'CTPurple':3 'grey78':0 'CTYellow':0 },170
3playersLog_1378885357867.csv,3,540,510,false,{ chips  'CTRed':2 },{ chips  },IGNORED,170,145,,,,,0,(R:5,C:3),{ chips  'CTRed':12 'CTGreen':0 'CTPurple':5 'grey78':11 'CTYellow':6 },170,{ chips  'CTRed':23 'CTGreen':0 'CTPurple':6 'grey78':0 'CTYellow':6 },175,{ chips  'CTRed':31 'CTGreen':0 'CTPurple':3 'grey78':0 'CTYellow':0 },170
3playersLog_1378885357867.csv,4,510,540,true,{ chips  },{ chips  'CTRed':21 'CTPurple':1 },TRUE,170,175,{ chips  'CTYellow':0 },{ chips  'CTRed':21 'CTPurple':1 'grey78':0 },280,60,1,(R:4,C:3),{ chips  'CTRed':33 'CTGreen':0 'CTPurple':6 'grey78':10 'CTYellow':6 },275,{ chips  'CTRed':23 'CTGreen':0 'CTPurple':6 'grey78':0 'CTYellow':6 },175,{ chips  'CTRed':10 'CTGreen':0 'CTPurple':2 'grey78':0 'CTYellow':0 },60
3playersLog_1378885357867.csv,5,520,510,false,{ chips  'CTRed':11 'CTPurple':1 },{ chips  'grey78':6 },IGNORED,175,275,,,,,0,(R:4,C:3),{ chips  'CTRed':34 'CTGreen':0 'CTPurple':6 'grey78':10 'CTYellow':6 },280,{ chips  'CTRed':23 'CTGreen':0 'CTPurple':6 'grey78':0 'CTYellow':6 },175,{ chips  'CTRed':9 'CTGreen':0 'CTPurple':2 'grey78':0 'CTYellow':0 },55
3playersLog_1378885357867.csv,5,540,510,false,{ chips  'CTRed':1 },{ chips  },TRUE,60,275,{ chips  'CTRed':1 'CTPurple':0 'CTGreen':0 'grey78':0 'CTYellow':0 },{ chips  'CTRed':0 'CTPurple':0 'CTGreen':0 'grey78':0 'CTYellow':0 },55,280,0,(R:4,C:3),{ chips  'CTRed':34 'CTGreen':0 'CTPurple':6 'grey78':10 'CTYellow':6 },280,{ chips  'CTRed':23 'CTGreen':0 'CTPurple':6 'grey78':0 'CTYellow':6 },175,{ chips  'CTRed':9 'CTGreen':0 'CTPurple':2 'grey78':0 'CTYellow':0 },55
3playersLog_1378885357867.csv,6,510,540,true,{ chips  },{ chips  'CTRed':7 },FALSE,280,55,,,,,1,(R:3,C:3),{ chips  'CTRed':34 'CTGreen':0 'CTPurple':5 'grey78':10 'CTYellow':6 },275,{ chips  'CTRed':23 'CTGreen':0 'CTPurple':6 'grey78':0 'CTYellow':6 },175,{ chips  'CTRed':9 'CTGreen':0 'CTPurple':2 'grey78':0 'CTYellow':0 },55
3playersLog_1378885357867.csv,7,520,510,false,{ chips  'CTRed':10 'CTPurple':2 'CTYellow':1 },{ chips  'grey78':5 },TRUE,175,275,{ chips  'CTRed':10 'CTPurple':2 'CTGreen':0 'grey78':0 'CTYellow':1 },{ chips  'CTRed':0 'CTPurple':0 'CTGreen':0 'grey78':5 'CTYellow':0 },135,315,0,(R:3,C:3),{ chips  'CTRed':44 'CTGreen':0 'CTPurple':7 'grey78':5 'CTYellow':7 },315,{ chips  'CTRed':13 'CTGreen':0 'CTPurple':4 'grey78':5 'CTYellow':5 },135,{ chips  'CTRed':9 'CTGreen':0 'CTPurple':2 'grey78':0 'CTYellow':0 },55
3playersLog_1378885357867.csv,7,540,510,false,{ chips  'CTPurple':1 },{ chips  },IGNORED,55,275,,,,,0,(R:3,C:3),{ chips  'CTRed':44 'CTGreen':0 'CTPurple':7 'grey78':5 'CTYellow':7 },315,{ chips  'CTRed':13 'CTGreen':0 'CTPurple':4 'grey78':5 'CTYellow':5 },135,{ chips  'CTRed':9 'CTGreen':0 'CTPurple':2 'grey78':0 'CTYellow':0 },55
3playersLog_1378885357867.csv,8,510,540,true,{ chips  },{ chips  'CTRed':7 'CTPurple':1 },FALSE,315,55,,,,,1,(R:3,C:2),{ chips  'CTRed':44 'CTGreen':0 'CTPurple':7 'grey78':4 'CTYellow':7 },310,{ chips  'CTRed':13 'CTGreen':0 'CTPurple':4 'grey78':5 'CTYellow':5 },135,{ chips  'CTRed':9 'CTGreen':0 'CTPurple':2 'grey78':0 'CTYellow':0 },55
3playersLog_1378885357867.csv,9,520,510,false,{ chips  'CTRed':3 'CTYellow':1 },{ chips  'grey78':2 },IGNORED,135,310,,,,,0,(R:3,C:2),{ chips  'CTRed':45 'CTGreen':0 'CTPurple':7 'grey78':4 'CTYellow':7 },315,{ chips  'CTRed':13 'CTGreen':0 'CTPurple':4 'grey78':5 'CTYellow':5 },135,{ chips  'CTRed':8 'CTGreen':0 'CTPurple':2 'grey78':0 'CTYellow':0 },50
3playersLog_1378885357867.csv,9,540,510,false,{ chips  'CTRed':1 },{ chips  },TRUE,55,310,{ chips  'CTRed':1 'CTPurple':0 'CTGreen':0 'grey78':0 'CTYellow':0 },{ chips  'CTRed':0 'CTPurple':0 'CTGreen':0 'grey78':0 'CTYellow':0 },50,315,0,(R:3,C:2),{ chips  'CTRed':45 'CTGreen':0 'CTPurple':7 'grey78':4 'CTYellow':7 },315,{ chips  'CTRed':13 'CTGreen':0 'CTPurple':4 'grey78':5 'CTYellow':5 },135,{ chips  'CTRed':8 'CTGreen':0 'CTPurple':2 'grey78':0 'CTYellow':0 },50
3playersLog_1378885357867.csv,10,510,540,true,{ chips  },{ chips  'CTRed':3 },FALSE,315,50,,,,,1,(R:3,C:1),{ chips  'CTRed':45 'CTGreen':0 'CTPurple':7 'grey78':3 'CTYellow':7 },310,{ chips  'CTRed':13 'CTGreen':0 'CTPurple':4 'grey78':5 'CTYellow':5 },135,{ chips  'CTRed':8 'CTGreen':0 'CTPurple':2 'grey78':0 'CTYellow':0 },50
3playersLog_1378885357867.csv,11,520,510,false,{ chips  'CTRed':5 'CTPurple':2 'CTYellow':1 },{ chips  'grey78':2 },IGNORED,135,310,,,,,0,(R:3,C:1),{ chips  'CTRed':46 'CTGreen':0 'CTPurple':7 'grey78':3 'CTYellow':7 },315,{ chips  'CTRed':13 'CTGreen':0 'CTPurple':4 'grey78':5 'CTYellow':5 },135,{ chips  'CTRed':7 'CTGreen':0 'CTPurple':2 'grey78':0 'CTYellow':0 },45
3playersLog_1378885357867.csv,11,540,510,false,{ chips  'CTRed':1 },{ chips  },TRUE,50,310,{ chips  'CTRed':1 'CTPurple':0 'CTGreen':0 'grey78':0 'CTYellow':0 },{ chips  'CTRed':0 'CTPurple':0 'CTGreen':0 'grey78':0 'CTYellow':0 },45,315,0,(R:3,C:1),{ chips  'CTRed':46 'CTGreen':0 'CTPurple':7 'grey78':3 'CTYellow':7 },315,{ chips  'CTRed':13 'CTGreen':0 'CTPurple':4 'grey78':5 'CTYellow':5 },135,{ chips  'CTRed':7 'CTGreen':0 'CTPurple':2 'grey78':0 'CTYellow':0 },45
3playersLog_1378885357867.csv,12,510,520,true,{ chips  'grey78':1 },{ chips  'CTRed':13 'CTPurple':4 'CTYellow':5 },FALSE,315,135,,,,,1,(R:2,C:1),{ chips  'CTRed':46 'CTGreen':0 'CTPurple':7 'grey78':2 'CTYellow':7 },310,{ chips  'CTRed':13 'CTGreen':0 'CTPurple':4 'grey78':5 'CTYellow':5 },135,{ chips  'CTRed':7 'CTGreen':0 'CTPurple':2 'grey78':0 'CTYellow':0 },45
3playersLog_1378885357867.csv,13,520,510,false,{ chips  'CTRed':6 'CTPurple':2 'CTYellow':1 },{ chips  'grey78':1 },IGNORED,135,310,,,,,0,(R:2,C:1),{ chips  'CTRed':49 'CTGreen':0 'CTPurple':8 'grey78':1 'CTYellow':7 },325,{ chips  'CTRed':13 'CTGreen':0 'CTPurple':4 'grey78':5 'CTYellow':5 },135,{ chips  'CTRed':4 'CTGreen':0 'CTPurple':1 'grey78':1 'CTYellow':0 },30
3playersLog_1378885357867.csv,13,540,510,false,{ chips  'CTRed':3 'CTPurple':1 },{ chips  'grey78':1 },TRUE,45,310,{ chips  'CTRed':3 'CTPurple':1 'CTGreen':0 'grey78':0 'CTYellow':0 },{ chips  'CTRed':0 'CTPurple':0 'CTGreen':0 'grey78':1 'CTYellow':0 },30,325,0,(R:2,C:1),{ chips  'CTRed':49 'CTGreen':0 'CTPurple':8 'grey78':1 'CTYellow':7 },325,{ chips  'CTRed':13 'CTGreen':0 'CTPurple':4 'grey78':5 'CTYellow':5 },135,{ chips  'CTRed':4 'CTGreen':0 'CTPurple':1 'grey78':1 'CTYellow':0 },30
3playersLog_1378885357867.csv,14,510,520,true,{ chips  'grey78':1 },{ chips  'CTRed':13 'CTPurple':4 'CTYellow':5 },FALSE,325,135,,,,,1,(R:1,C:1),{ chips  'CTRed':49 'CTGreen':0 'CTPurple':7 'grey78':1 'CTYellow':7 },320,{ chips  'CTRed':13 'CTGreen':0 'CTPurple':4 'grey78':5 'CTYellow':5 },135,{ chips  'CTRed':4 'CTGreen':0 'CTPurple':1 'grey78':1 'CTYellow':0 },30
3playersLog_1378885357867.csv,15,520,510,false,{ chips  'CTPurple':1 },{ chips  'CTRed':6 },IGNORED,135,320,,,,,0,(R:1,C:1),{ chips  'CTRed':53 'CTGreen':0 'CTPurple':7 'grey78':2 'CTYellow':7 },345,{ chips  'CTRed':13 'CTGreen':0 'CTPurple':4 'grey78':5 'CTYellow':5 },135,{ chips  'CTRed':0 'CTGreen':0 'CTPurple':1 'grey78':0 'CTYellow':0 },5
3playersLog_1378885357867.csv,15,540,510,false,{ chips  'CTRed':4 'grey78':1 },{ chips  },TRUE,30,320,{ chips  'CTRed':4 'CTPurple':0 'CTGreen':0 'grey78':1 'CTYellow':0 },{ chips  'CTRed':0 'CTPurple':0 'CTGreen':0 'grey78':0 'CTYellow':0 },5,345,0,(R:1,C:1),{ chips  'CTRed':53 'CTGreen':0 'CTPurple':7 'grey78':2 'CTYellow':7 },345,{ chips  'CTRed':13 'CTGreen':0 'CTPurple':4 'grey78':5 'CTYellow':5 },135,{ chips  'CTRed':0 'CTGreen':0 'CTPurple':1 'grey78':0 'CTYellow':0 },5
3playersLog_1378885357867.csv,16,510,520,true,{ chips  'grey78':1 },{ chips  'CTRed':13 'CTPurple':4 'CTYellow':5 },FALSE,345,135,,,,,1,(R:1,C:0),{ chips  'CTRed':53 'CTGreen':0 'CTPurple':7 'grey78':1 'CTYellow':7 },340,{ chips  'CTRed':13 'CTGreen':0 'CTPurple':4 'grey78':5 'CTYellow':5 },135,{ chips  'CTRed':0 'CTGreen':0 'CTPurple':1 'grey78':0 'CTYellow':0 },5
3playersLog_1378885357867.csv,17,520,510,false,{ chips  'CTRed':8 'CTPurple':2 'CTYellow':3 },{ chips  'grey78':1 },IGNORED,135,340,,,,,0,(R:1,C:0),{ chips  'CTRed':53 'CTGreen':0 'CTPurple':8 'grey78':1 'CTYellow':7 },345,{ chips  'CTRed':13 'CTGreen':0 'CTPurple':4 'grey78':5 'CTYellow':5 },135,{ chips  'CTRed':0 'CTGreen':0 'CTPurple':0 'grey78':0 'CTYellow':0 },0
3playersLog_1378885357867.csv,17,540,510,false,{ chips  'CTPurple':1 },{ chips  },TRUE,5,340,{ chips  'CTRed':0 'CTPurple':1 'CTGreen':0 'grey78':0 'CTYellow':0 },{ chips  'CTRed':0 'CTPurple':0 'CTGreen':0 'grey78':0 'CTYellow':0 },0,345,0,(R:1,C:0),{ chips  'CTRed':53 'CTGreen':0 'CTPurple':8 'grey78':1 'CTYellow':7 },345,{ chips  'CTRed':13 'CTGreen':0 'CTPurple':4 'grey78':5 'CTYellow':5 },135,{ chips  'CTRed':0 'CTGreen':0 'CTPurple':0 'grey78':0 'CTYellow':0 },0
3playersLog_1378885357867.csv,18,510,520,true,{ chips  'grey78':1 },{ chips  'CTRed':13 'CTPurple':4 'CTYellow':5 },FALSE,345,135,,,,,1,(R:0,C:0),{ chips  'CTRed':53 'CTGreen':0 'CTPurple':8 'grey78':0 'CTYellow':7 },490,{ chips  'CTRed':13 'CTGreen':0 'CTPurple':4 'grey78':5 'CTYellow':5 },135,{ chips  'CTRed':0 'CTGreen':0 'CTPurple':0 'grey78':0 'CTYellow':0 },150
3playersLog_1378885357867.csv,,,,,,,,,,,,,,,,,,,,,,,,true
