Participant Number ,Ip-Server,Date,Gender,Age,Nationality,Religion,Major,Year,How religious,Marital
100,C3,Fri Oct 25 2013 12:10:53 GMT-0400 (Eastern Daylight Time),Female,20,Singaporean,Catholic,Social Studies,3,4,single
300,c5,Fri Oct 25 2013 12:12:33 GMT-0400 (Eastern Daylight Time),Female,20,Singaporean,Catholic,Social Studies,3,4,Single
300,8,Fri Oct 25 2013 13:43:11 GMT-0400 (Eastern Daylight Time),Female,26,US,Jewish,Masters in Education Policy and Management,1 year Masters,1,Single
200,C3,Fri Oct 25 2013 13:46:40 GMT-0400 (Eastern Daylight Time),male,24,China,none,marketing,2013,2,single
300,C11,Fri Oct 25 2013 13:55:06 GMT-0400 (Eastern Daylight Time),Male,21,Korean,Protestant,MCB,Senior,4,Single
200,C9,Fri Oct 25 2013 14:03:50 GMT-0400 (Eastern Daylight Time),Male,20,United States,No,Applied Mathematics,Junior (3),1,Not Married
200,c3,Fri Oct 25 2013 15:21:01 GMT-0400 (Eastern Daylight Time),Female,25,American,Catholic,Law,1L,4,Single
300,c5,Fri Oct 25 2013 15:21:06 GMT-0400 (Eastern Daylight Time),female,23,usa,catholic,economics,5th,5,single
100,C1,Fri Oct 25 2013 12:18:13 GMT-0400 (Eastern Daylight Time),,,,,,,,
100,1,Fri Oct 25 2013 13:42:30 GMT-0400 (Eastern Daylight Time),Female,21,Korean,Adventist,Economics,Junior,6,Single
100,c7,Fri Oct 25 2013 14:04:37 GMT-0400 (Eastern Daylight Time),male,32,american,christian,business management,1,3,single
100,C1,Fri Oct 25 2013 15:17:20 GMT-0400 (Eastern Daylight Time),female,32,American,Christian,n/a,n/a,4,single
