Wed Sep 11 08:27:36 IST 2013	This is the CT debug logger; svn version 638; sep 27 09
Wed Sep 11 08:27:36 IST 2013	Wed Sep 11 08:27:36 IST 2013
Wed Sep 11 08:27:36 IST 2013	ThreePlayersAgentPlayer(): entering.
Wed Sep 11 08:27:54 IST 2013	phaseAdvanced(): entering.
Wed Sep 11 08:27:54 IST 2013	phaseAdvanced(): new phase is 'Strategy Prep Phase'.
Wed Sep 11 08:28:54 IST 2013	phaseAdvanced(): entering.
Wed Sep 11 08:28:54 IST 2013	phaseAdvanced(): new phase is 'Communication Phase'.
Wed Sep 11 08:29:41 IST 2013	onReceipt(): entering.
Wed Sep 11 08:29:41 IST 2013	phaseAdvanced(): entering.
Wed Sep 11 08:29:41 IST 2013	phaseAdvanced(): new phase is 'Movement Phase'.
Wed Sep 11 08:30:25 IST 2013	phaseAdvanced(): entering.
Wed Sep 11 08:30:25 IST 2013	phaseAdvanced(): new phase is 'Feedback Phase'.
Wed Sep 11 08:30:30 IST 2013	phaseAdvanced(): entering.
Wed Sep 11 08:30:30 IST 2013	phaseAdvanced(): new phase is 'Communication Phase'.
Wed Sep 11 08:31:38 IST 2013	phaseAdvanced(): entering.
Wed Sep 11 08:31:38 IST 2013	phaseAdvanced(): new phase is 'Movement Phase'.
Wed Sep 11 08:32:22 IST 2013	phaseAdvanced(): entering.
Wed Sep 11 08:32:22 IST 2013	phaseAdvanced(): new phase is 'Feedback Phase'.
Wed Sep 11 08:32:27 IST 2013	phaseAdvanced(): entering.
Wed Sep 11 08:32:27 IST 2013	phaseAdvanced(): new phase is 'Communication Phase'.
Wed Sep 11 08:33:49 IST 2013	phaseAdvanced(): entering.
Wed Sep 11 08:33:49 IST 2013	phaseAdvanced(): new phase is 'Movement Phase'.
Wed Sep 11 08:34:34 IST 2013	phaseAdvanced(): entering.
Wed Sep 11 08:34:34 IST 2013	phaseAdvanced(): new phase is 'Feedback Phase'.
Wed Sep 11 08:34:39 IST 2013	phaseAdvanced(): entering.
Wed Sep 11 08:34:39 IST 2013	phaseAdvanced(): new phase is 'Communication Phase'.
Wed Sep 11 08:36:03 IST 2013	phaseAdvanced(): entering.
Wed Sep 11 08:36:03 IST 2013	phaseAdvanced(): new phase is 'Movement Phase'.
Wed Sep 11 08:36:47 IST 2013	phaseAdvanced(): entering.
Wed Sep 11 08:36:47 IST 2013	phaseAdvanced(): new phase is 'Feedback Phase'.
Wed Sep 11 08:36:52 IST 2013	phaseAdvanced(): entering.
Wed Sep 11 08:36:52 IST 2013	phaseAdvanced(): new phase is 'Communication Phase'.
Wed Sep 11 08:37:56 IST 2013	phaseAdvanced(): entering.
Wed Sep 11 08:37:56 IST 2013	phaseAdvanced(): new phase is 'Movement Phase'.
Wed Sep 11 08:38:40 IST 2013	phaseAdvanced(): entering.
Wed Sep 11 08:38:40 IST 2013	phaseAdvanced(): new phase is 'Feedback Phase'.
