Thu Sep 12 12:02:10 IDT 2013	This is the CT debug logger; svn version 638; sep 27 09
Thu Sep 12 12:02:10 IDT 2013	Thu Sep 12 12:02:10 IDT 2013
Thu Sep 12 12:02:10 IDT 2013	ThreePlayersAgentPlayer(): entering.
Thu Sep 12 12:02:28 IDT 2013	phaseAdvanced(): entering.
Thu Sep 12 12:02:28 IDT 2013	phaseAdvanced(): new phase is 'Strategy Prep Phase'.
Thu Sep 12 12:03:28 IDT 2013	phaseAdvanced(): entering.
Thu Sep 12 12:03:28 IDT 2013	phaseAdvanced(): new phase is 'Communication Phase'.
Thu Sep 12 12:04:36 IDT 2013	phaseAdvanced(): entering.
Thu Sep 12 12:04:36 IDT 2013	phaseAdvanced(): new phase is 'Movement Phase'.
Thu Sep 12 12:05:21 IDT 2013	phaseAdvanced(): entering.
Thu Sep 12 12:05:21 IDT 2013	phaseAdvanced(): new phase is 'Feedback Phase'.
