Tue Nov 19 17:01:46 IST 2013	This is the CT debug logger; svn version 638; sep 27 09
Tue Nov 19 17:01:46 IST 2013	Tue Nov 19 17:01:46 IST 2013
Tue Nov 19 17:01:46 IST 2013	ThreePlayersAgentPlayerNastySP(): entering.
Tue Nov 19 17:02:03 IST 2013	phaseAdvanced(): entering.
Tue Nov 19 17:02:03 IST 2013	phaseAdvanced(): new phase is 'Strategy Prep Phase'.
Tue Nov 19 17:03:03 IST 2013	phaseAdvanced(): entering.
Tue Nov 19 17:03:03 IST 2013	phaseAdvanced(): new phase is 'Communication Phase'.
Tue Nov 19 17:04:00 IST 2013	phaseAdvanced(): entering.
Tue Nov 19 17:04:00 IST 2013	phaseAdvanced(): new phase is 'Movement Phase'.
Tue Nov 19 17:04:45 IST 2013	phaseAdvanced(): entering.
Tue Nov 19 17:04:45 IST 2013	phaseAdvanced(): new phase is 'Feedback Phase'.
Tue Nov 19 17:04:50 IST 2013	phaseAdvanced(): entering.
Tue Nov 19 17:04:50 IST 2013	phaseAdvanced(): new phase is 'Communication Phase'.
Tue Nov 19 17:05:45 IST 2013	onReceipt(): entering.
Tue Nov 19 17:05:45 IST 2013	onReceipt(): opponent's proposal: ({ chips  'CTRed':4 'CTPurple':0 'CTGreen':0 'grey78':0 'CTYellow':0 }, { chips  'CTRed':0 'CTPurple':2 'CTGreen':0 'grey78':0 'CTYellow':0 }).
Tue Nov 19 17:05:45 IST 2013	respondToProposal(): entering.
Tue Nov 19 17:05:45 IST 2013	respondToProposal(): my chips: ({ chips  'CTRed':33 'CTPurple':7 'CTGreen':0 'grey78':0 'CTYellow':0 }).
Tue Nov 19 17:05:45 IST 2013	responseToSend(): entering.
Tue Nov 19 17:05:45 IST 2013	responseToSend(): accepting proposal 
Tue Nov 19 17:05:45 IST 2013	phaseAdvanced(): entering.
Tue Nov 19 17:05:45 IST 2013	phaseAdvanced(): new phase is 'Movement Phase'.
Tue Nov 19 17:06:30 IST 2013	phaseAdvanced(): entering.
Tue Nov 19 17:06:30 IST 2013	phaseAdvanced(): new phase is 'Feedback Phase'.
Tue Nov 19 17:06:35 IST 2013	phaseAdvanced(): entering.
Tue Nov 19 17:06:35 IST 2013	phaseAdvanced(): new phase is 'Communication Phase'.
Tue Nov 19 17:07:09 IST 2013	onReceipt(): entering.
Tue Nov 19 17:07:09 IST 2013	phaseAdvanced(): entering.
Tue Nov 19 17:07:09 IST 2013	phaseAdvanced(): new phase is 'Movement Phase'.
Tue Nov 19 17:07:53 IST 2013	phaseAdvanced(): entering.
Tue Nov 19 17:07:53 IST 2013	phaseAdvanced(): new phase is 'Feedback Phase'.
Tue Nov 19 17:07:58 IST 2013	phaseAdvanced(): entering.
Tue Nov 19 17:07:58 IST 2013	phaseAdvanced(): new phase is 'Communication Phase'.
Tue Nov 19 17:08:44 IST 2013	onReceipt(): entering.
Tue Nov 19 17:08:44 IST 2013	onReceipt(): opponent's proposal: ({ chips  'CTRed':3 'CTPurple':0 'CTGreen':0 'grey78':0 'CTYellow':0 }, { chips  'CTRed':0 'CTPurple':3 'CTGreen':0 'grey78':0 'CTYellow':0 }).
Tue Nov 19 17:08:44 IST 2013	respondToProposal(): entering.
Tue Nov 19 17:08:44 IST 2013	respondToProposal(): my chips: ({ chips  'CTRed':25 'CTPurple':5 'CTGreen':0 'grey78':3 'CTYellow':0 }).
Tue Nov 19 17:08:44 IST 2013	responseToSend(): entering.
Tue Nov 19 17:08:44 IST 2013	responseToSend(): accepting proposal 
Tue Nov 19 17:08:44 IST 2013	phaseAdvanced(): entering.
Tue Nov 19 17:08:44 IST 2013	phaseAdvanced(): new phase is 'Movement Phase'.
Tue Nov 19 17:09:28 IST 2013	phaseAdvanced(): entering.
Tue Nov 19 17:09:28 IST 2013	phaseAdvanced(): new phase is 'Feedback Phase'.
Tue Nov 19 17:09:33 IST 2013	phaseAdvanced(): entering.
Tue Nov 19 17:09:33 IST 2013	phaseAdvanced(): new phase is 'Communication Phase'.
Tue Nov 19 17:09:49 IST 2013	onReceipt(): entering.
Tue Nov 19 17:10:28 IST 2013	phaseAdvanced(): entering.
Tue Nov 19 17:10:28 IST 2013	phaseAdvanced(): new phase is 'Movement Phase'.
Tue Nov 19 17:11:13 IST 2013	phaseAdvanced(): entering.
Tue Nov 19 17:11:13 IST 2013	phaseAdvanced(): new phase is 'Feedback Phase'.
Tue Nov 19 17:11:18 IST 2013	phaseAdvanced(): entering.
Tue Nov 19 17:11:18 IST 2013	phaseAdvanced(): new phase is 'Communication Phase'.
Tue Nov 19 17:12:09 IST 2013	phaseAdvanced(): entering.
Tue Nov 19 17:12:09 IST 2013	phaseAdvanced(): new phase is 'Movement Phase'.
Tue Nov 19 17:12:53 IST 2013	phaseAdvanced(): entering.
Tue Nov 19 17:12:53 IST 2013	phaseAdvanced(): new phase is 'Feedback Phase'.
Tue Nov 19 17:12:58 IST 2013	phaseAdvanced(): entering.
Tue Nov 19 17:12:58 IST 2013	phaseAdvanced(): new phase is 'Communication Phase'.
Tue Nov 19 17:13:18 IST 2013	onReceipt(): entering.
Tue Nov 19 17:13:47 IST 2013	phaseAdvanced(): entering.
Tue Nov 19 17:13:47 IST 2013	phaseAdvanced(): new phase is 'Movement Phase'.
Tue Nov 19 17:14:31 IST 2013	phaseAdvanced(): entering.
Tue Nov 19 17:14:31 IST 2013	phaseAdvanced(): new phase is 'Feedback Phase'.
Tue Nov 19 17:14:36 IST 2013	phaseAdvanced(): entering.
Tue Nov 19 17:14:36 IST 2013	phaseAdvanced(): new phase is 'Communication Phase'.
Tue Nov 19 17:15:40 IST 2013	phaseAdvanced(): entering.
Tue Nov 19 17:15:40 IST 2013	phaseAdvanced(): new phase is 'Movement Phase'.
Tue Nov 19 17:16:25 IST 2013	phaseAdvanced(): entering.
Tue Nov 19 17:16:25 IST 2013	phaseAdvanced(): new phase is 'Feedback Phase'.
Tue Nov 19 17:16:30 IST 2013	phaseAdvanced(): entering.
Tue Nov 19 17:16:30 IST 2013	phaseAdvanced(): new phase is 'Communication Phase'.
Tue Nov 19 17:16:41 IST 2013	onReceipt(): entering.
Tue Nov 19 17:17:12 IST 2013	phaseAdvanced(): entering.
Tue Nov 19 17:17:12 IST 2013	phaseAdvanced(): new phase is 'Movement Phase'.
Tue Nov 19 17:17:57 IST 2013	phaseAdvanced(): entering.
Tue Nov 19 17:17:57 IST 2013	phaseAdvanced(): new phase is 'Feedback Phase'.
