filename,round,propID,respID,IsPropCustomer,chipsToSend,chipsToReceive,accept,propCurrentScore,respCurrentScore,actualSent,ActualRcvd,propResultingScore,respResultingScore,#ofCustomerMovesInRound,customerRowPositionAfterMovePhase,customerColPositionAfterMovePhase,Player100ChipsAfterMovePhase,Player100ScoreAfterMovePhase,Player200ChipsAfterMovePhase,Player200ScoreAfterMovePhase,Player300ChipsAfterMovePhase,Player300ScoreAfterMovePhase,generosityLevel,ClientReachedGoal
3playersLog_1391710550801.csv,1,530,500,false,{ chips  'CTRed':33 'CTPurple':7 },{ chips  'grey78':11 },IGNORED,200,120,,,,,2,(R:4,C:5),{ chips  'CTRed':33 'CTGreen':0 'CTPurple':4 'grey78':11 'CTYellow':10 },290,{ chips  'CTRed':33 'CTGreen':0 'CTPurple':7 'grey78':0 'CTYellow':0 },200,{ chips  'CTRed':0 'CTGreen':0 'CTPurple':3 'grey78':1 'CTYellow':0 },20
3playersLog_1391710550801.csv,1,540,500,false,{ chips  'CTRed':33 'CTPurple':4 },{ chips  'grey78':1 },TRUE,200,120,{ chips  'CTRed':33 'CTPurple':4 'CTGreen':0 'grey78':0 'CTYellow':0 },{ chips  'CTRed':0 'CTPurple':0 'CTGreen':0 'grey78':1 'CTYellow':0 },20,300,2,(R:4,C:5),{ chips  'CTRed':33 'CTGreen':0 'CTPurple':4 'grey78':11 'CTYellow':10 },290,{ chips  'CTRed':33 'CTGreen':0 'CTPurple':7 'grey78':0 'CTYellow':0 },200,{ chips  'CTRed':0 'CTGreen':0 'CTPurple':3 'grey78':1 'CTYellow':0 },20
3playersLog_1391710550801.csv,2,500,530,true,{ chips  },{ chips  'CTRed':1 'CTPurple':1 },FALSE,285,200,,,,,4,(R:2,C:8),{ chips  'CTRed':33 'CTGreen':0 'CTPurple':3 'grey78':11 'CTYellow':6 },265,{ chips  'CTRed':33 'CTGreen':0 'CTPurple':7 'grey78':0 'CTYellow':0 },200,{ chips  'CTRed':0 'CTGreen':0 'CTPurple':3 'grey78':1 'CTYellow':0 },20
3playersLog_1391710550801.csv,3,530,500,false,{ chips  'CTRed':33 'CTPurple':7 },{ chips  'grey78':11 },TRUE,200,265,{ chips  'CTRed':33 'CTPurple':7 'CTYellow':0 },{ chips  'grey78':11 },55,410,2,(R:0,C:8),{ chips  'CTRed':66 'CTGreen':0 'CTPurple':10 'grey78':0 'CTYellow':4 },550,{ chips  'CTRed':0 'CTGreen':0 'CTPurple':0 'grey78':11 'CTYellow':0 },205,{ chips  'CTRed':0 'CTGreen':0 'CTPurple':3 'grey78':1 'CTYellow':0 },20
3playersLog_1391710550801.csv,,,,,,,,,,,,,,,,,,,,,,,,true
