filename,round,propID,respID,IsPropCustomer,chipsToSend,chipsToReceive,accept,propCurrentScore,respCurrentScore,actualSent,ActualRcvd,propResultingScore,respResultingScore,#ofCustomerMovesInRound,customerRowPositionAfterMovePhase,customerColPositionAfterMovePhase,Player100ChipsAfterMovePhase,Player100ScoreAfterMovePhase,Player200ChipsAfterMovePhase,Player200ScoreAfterMovePhase,Player300ChipsAfterMovePhase,Player300ScoreAfterMovePhase,generosityLevel,ClientReachedGoal
3playersLog_1391613792133.csv,1,530,500,false,{ chips  'CTRed':33 'CTPurple':7 },{ chips  'grey78':11 },FALSE,200,120,,,,,4,(R:3,C:6),{ chips  'CTRed':0 'CTGreen':0 'CTPurple':1 'grey78':12 'CTYellow':8 },105,{ chips  'CTRed':33 'CTGreen':0 'CTPurple':7 'grey78':0 'CTYellow':0 },200,{ chips  'CTRed':33 'CTGreen':0 'CTPurple':6 'grey78':0 'CTYellow':0 },195
3playersLog_1391613792133.csv,1,540,500,false,{ chips  'CTPurple':1 },{ chips  },TRUE,200,120,{ chips  'CTRed':0 'CTPurple':1 'CTGreen':0 'grey78':0 'CTYellow':0 },{ chips  'CTRed':0 'CTPurple':0 'CTGreen':0 'grey78':0 'CTYellow':0 },195,125,4,(R:3,C:6),{ chips  'CTRed':0 'CTGreen':0 'CTPurple':1 'grey78':12 'CTYellow':8 },105,{ chips  'CTRed':33 'CTGreen':0 'CTPurple':7 'grey78':0 'CTYellow':0 },200,{ chips  'CTRed':33 'CTGreen':0 'CTPurple':6 'grey78':0 'CTYellow':0 },195
3playersLog_1391613792133.csv,2,500,540,true,{ chips  'CTYellow':3 },{ chips  'CTRed':5 'CTPurple':3 },TRUE,105,200,{ chips  'CTRed':0 'CTPurple':0 'CTGreen':0 'grey78':0 'CTYellow':3 },{ chips  'CTRed':5 'CTPurple':3 'CTGreen':0 'grey78':0 'CTYellow':0 },130,170,8,(R:1,C:0),{ chips  'CTRed':5 'CTGreen':0 'CTPurple':1 'grey78':7 'CTYellow':5 },90,{ chips  'CTRed':33 'CTGreen':0 'CTPurple':7 'grey78':0 'CTYellow':0 },200,{ chips  'CTRed':28 'CTGreen':0 'CTPurple':3 'grey78':0 'CTYellow':3 },170
3playersLog_1391613792133.csv,3,530,500,false,{ chips  },{ chips  },FALSE,200,90,,,,,0,(R:1,C:0),{ chips  'CTRed':19 'CTGreen':0 'CTPurple':0 'grey78':7 'CTYellow':4 },150,{ chips  'CTRed':33 'CTGreen':0 'CTPurple':7 'grey78':0 'CTYellow':0 },200,{ chips  'CTRed':14 'CTGreen':0 'CTPurple':4 'grey78':0 'CTYellow':4 },110
3playersLog_1391613792133.csv,3,540,500,false,{ chips  'CTRed':14 },{ chips  'CTPurple':1 'CTYellow':1 },TRUE,170,90,{ chips  'CTRed':14 'CTPurple':0 'CTGreen':0 'grey78':0 'CTYellow':0 },{ chips  'CTRed':0 'CTPurple':1 'CTGreen':0 'grey78':0 'CTYellow':1 },110,150,0,(R:1,C:0),{ chips  'CTRed':19 'CTGreen':0 'CTPurple':0 'grey78':7 'CTYellow':4 },150,{ chips  'CTRed':33 'CTGreen':0 'CTPurple':7 'grey78':0 'CTYellow':0 },200,{ chips  'CTRed':14 'CTGreen':0 'CTPurple':4 'grey78':0 'CTYellow':4 },110
3playersLog_1391613792133.csv,4,500,530,true,{ chips  },{ chips  'CTRed':33 'CTPurple':7 },IGNORED,150,200,,,,,1,(R:0,C:0),{ chips  'CTRed':19 'CTGreen':0 'CTPurple':0 'grey78':6 'CTYellow':4 },295,{ chips  'CTRed':33 'CTGreen':0 'CTPurple':7 'grey78':0 'CTYellow':0 },200,{ chips  'CTRed':14 'CTGreen':0 'CTPurple':4 'grey78':0 'CTYellow':4 },260
3playersLog_1391613792133.csv,,,,,,,,,,,,,,,,,,,,,,,,true
