Sun May 26 18:08:02 IDT 2013	This is the CT debug logger; svn version 638; sep 27 09
Sun May 26 18:08:02 IDT 2013	Sun May 26 18:08:02 IDT 2013
Sun May 26 18:08:02 IDT 2013	ID Number: 62327
Sun May 26 18:08:02 IDT 2013	Creating board
Sun May 26 18:08:02 IDT 2013	<colors>
Sun May 26 18:08:02 IDT 2013	{ GamePalette  'CTPurple':0 'CTRed':1 'CTGreen':2 'grey78':3 'CTYellow':4 }
Sun May 26 18:08:02 IDT 2013	<rows>
Sun May 26 18:08:02 IDT 2013	6
Sun May 26 18:08:02 IDT 2013	<columns>
Sun May 26 18:08:02 IDT 2013	9
Sun May 26 18:08:02 IDT 2013	<squaresColors>
Sun May 26 18:08:02 IDT 2013	grey78 CTGreen CTGreen CTGreen CTGreen CTGreen CTGreen CTGreen CTYellow 
Sun May 26 18:08:02 IDT 2013	grey78 CTPurple CTPurple CTPurple CTPurple CTPurple CTPurple CTPurple CTYellow 
Sun May 26 18:08:02 IDT 2013	grey78 grey78 CTGreen CTGreen CTGreen CTGreen CTGreen CTYellow CTYellow 
Sun May 26 18:08:02 IDT 2013	CTGreen grey78 grey78 CTPurple CTPurple CTPurple CTYellow CTYellow CTGreen 
Sun May 26 18:08:02 IDT 2013	CTGreen CTGreen grey78 grey78 CTGreen CTYellow CTYellow CTGreen CTGreen 
Sun May 26 18:08:02 IDT 2013	CTGreen CTGreen CTGreen grey78 CTGreen CTYellow CTGreen CTGreen CTGreen 
Sun May 26 18:08:02 IDT 2013	</squareColors>
Sun May 26 18:08:02 IDT 2013	<goalPosition>
Sun May 26 18:08:02 IDT 2013	Goal position: (R:0,C:0)
Sun May 26 18:08:02 IDT 2013	<goalPosition>
Sun May 26 18:08:02 IDT 2013	Goal position: (R:0,C:0)
Sun May 26 18:08:02 IDT 2013	<firstPlayerPossibleGoal1>
Sun May 26 18:08:02 IDT 2013	0.5
Sun May 26 18:08:02 IDT 2013	0
Sun May 26 18:08:02 IDT 2013	0
Sun May 26 18:08:02 IDT 2013	</firstPlayerPossibleGoal1>
Sun May 26 18:08:02 IDT 2013	<firstPlayerPossibleGoal2>
Sun May 26 18:08:02 IDT 2013	0.5
Sun May 26 18:08:02 IDT 2013	0
Sun May 26 18:08:02 IDT 2013	8
Sun May 26 18:08:02 IDT 2013	</firstPlayerPossibleGoal2>
Sun May 26 18:08:02 IDT 2013	<numberOfPlayers>
Sun May 26 18:08:02 IDT 2013	3
Sun May 26 18:08:02 IDT 2013	<firstPlayerChips>
Sun May 26 18:08:02 IDT 2013	Setting chips for player: 100 id:0
Sun May 26 18:08:02 IDT 2013	{ chips  'CTRed':0 'CTGreen':0 'CTPurple':0 'grey78':12 'CTYellow':12 }
Sun May 26 18:08:02 IDT 2013	Player position: (R:5,C:4)
Sun May 26 18:08:02 IDT 2013	Setting chips for player: 200 id:1
Sun May 26 18:08:02 IDT 2013	{ chips  'CTRed':33 'CTGreen':0 'CTPurple':7 'grey78':0 'CTYellow':0 }
Sun May 26 18:08:02 IDT 2013	Player position: (R:0,C:8)
Sun May 26 18:08:02 IDT 2013	Setting chips for player: 300 id:2
Sun May 26 18:08:02 IDT 2013	{ chips  'CTRed':33 'CTGreen':0 'CTPurple':7 'grey78':0 'CTYellow':0 }
Sun May 26 18:08:02 IDT 2013	Player position: (R:0,C:0)
Sun May 26 18:08:02 IDT 2013	Protocol: A New Phase Began: Strategy Prep Phase. loop is true
Sun May 26 18:08:02 IDT 2013	---------- Beginning Strategy Prep Phase at round 0 ----------
Sun May 26 18:09:02 IDT 2013	A Phase Ended: Strategy Prep Phase
Sun May 26 18:09:02 IDT 2013	Protocol: A New Phase Began: Communication Phase. loop is true
Sun May 26 18:09:02 IDT 2013	---------- Beginning Communication Phase at round 1 ----------
Sun May 26 18:09:48 IDT 2013	Received communication message 
Sun May 26 18:09:48 IDT 2013	From player: 300
Sun May 26 18:09:48 IDT 2013	To player: 100
Sun May 26 18:09:48 IDT 2013	Chips to send by proposer: { chips  'CTRed':0 'CTPurple':3 'CTGreen':0 'grey78':0 'CTYellow':0 }
Sun May 26 18:09:48 IDT 2013	Chips to send by responder: { chips  'CTRed':0 'CTPurple':0 'CTGreen':0 'grey78':2 'CTYellow':0 }
Sun May 26 18:09:55 IDT 2013	Received communication message 
Sun May 26 18:09:55 IDT 2013	From player: 200
Sun May 26 18:09:55 IDT 2013	To player: 100
Sun May 26 18:09:55 IDT 2013	Chips to send by proposer: { chips  'CTRed':3 'CTPurple':2 'CTGreen':0 'grey78':0 'CTYellow':0 }
Sun May 26 18:09:55 IDT 2013	Chips to send by responder: { chips  'CTRed':0 'CTPurple':0 'CTGreen':0 'grey78':4 'CTYellow':0 }
Sun May 26 18:11:01 IDT 2013	Received communication message 
Sun May 26 18:11:01 IDT 2013	Proposer 1 accepted? true
Sun May 26 18:11:01 IDT 2013	A Phase Ended: Communication Phase
Sun May 26 18:11:01 IDT 2013	Protocol: A New Phase Began: Movement Phase. loop is true
Sun May 26 18:11:01 IDT 2013	---------- Beginning Movement Phase at round 1 ----------
Sun May 26 18:11:01 IDT 2013	remove strategy phase. 
Sun May 26 18:11:45 IDT 2013	A Phase Ended: Movement Phase
Sun May 26 18:11:45 IDT 2013	Protocol: A New Phase Began: Feedback Phase. loop is true
Sun May 26 18:11:45 IDT 2013	---------- Beginning Feedback Phase at round 1 ----------
Sun May 26 18:11:45 IDT 2013	Number of consecutive no movements for player 100 is 0
Sun May 26 18:11:45 IDT 2013	TDPlayerPosition is(R:4,C:3)goal location 0(R:0,C:0)goal location 1(R:0,C:8)
Sun May 26 18:11:45 IDT 2013	ended is false
Sun May 26 18:11:50 IDT 2013	A Phase Ended: Feedback Phase
Sun May 26 18:11:50 IDT 2013	 numberofMoves in round 1 is 2
Sun May 26 18:11:50 IDT 2013	Swaping roles:
Sun May 26 18:11:50 IDT 2013	Protocol: A New Phase Began: Communication Phase. loop is true
Sun May 26 18:11:50 IDT 2013	---------- Beginning Communication Phase at round 2 ----------
Sun May 26 18:12:49 IDT 2013	Received communication message 
Sun May 26 18:12:49 IDT 2013	From player: 100
Sun May 26 18:12:49 IDT 2013	To player: 300
Sun May 26 18:12:49 IDT 2013	Chips to send by proposer: { chips  'CTRed':0 'CTPurple':0 'CTGreen':0 'grey78':0 'CTYellow':2 }
Sun May 26 18:12:49 IDT 2013	Chips to send by responder: { chips  'CTRed':1 'CTPurple':1 'CTGreen':0 'grey78':1 'CTYellow':0 }
Sun May 26 18:13:13 IDT 2013	Received communication message 
Sun May 26 18:13:13 IDT 2013	Proposer 1 accepted? true
Sun May 26 18:13:13 IDT 2013	A Phase Ended: Communication Phase
Sun May 26 18:13:13 IDT 2013	Protocol: A New Phase Began: Movement Phase. loop is true
Sun May 26 18:13:13 IDT 2013	---------- Beginning Movement Phase at round 2 ----------
Sun May 26 18:13:57 IDT 2013	A Phase Ended: Movement Phase
Sun May 26 18:13:57 IDT 2013	Protocol: A New Phase Began: Feedback Phase. loop is true
Sun May 26 18:13:57 IDT 2013	---------- Beginning Feedback Phase at round 2 ----------
Sun May 26 18:13:57 IDT 2013	The TD player reached the goal, end the game
Sun May 26 18:13:57 IDT 2013	ended is true
Sun May 26 18:14:02 IDT 2013	A Phase Ended: Feedback Phase
Sun May 26 18:14:02 IDT 2013	 numberofMoves in round 2 is 7
Sun May 26 18:14:02 IDT 2013	Loop status: false
Sun May 26 18:14:02 IDT 2013	Player: 300 ,role: Responder score is: 340
Sun May 26 18:14:02 IDT 2013	Player: 300Game Ended
Sun May 26 18:14:02 IDT 2013	Player: 200 ,role: Responder score is: 200
Sun May 26 18:14:02 IDT 2013	Player: 200Game Ended
Sun May 26 18:14:02 IDT 2013	Player: 100 ,role: Proposer score is: 235
Sun May 26 18:14:02 IDT 2013	Player: 100Game Ended
Sun May 26 18:14:02 IDT 2013	Protocol: A New Phase Began: Communication Phase. loop is false
Sun May 26 18:14:02 IDT 2013	---------- Beginning Communication Phase at round 2 ----------
