Thu May 23 14:20:57 IDT 2013	This is the CT debug logger; svn version 638; sep 27 09
Thu May 23 14:20:57 IDT 2013	Thu May 23 14:20:57 IDT 2013
Thu May 23 14:20:57 IDT 2013	ID Number: 67588
Thu May 23 14:20:57 IDT 2013	Creating board
Thu May 23 14:20:57 IDT 2013	<colors>
Thu May 23 14:20:57 IDT 2013	{ GamePalette  'CTPurple':0 'CTRed':1 'CTGreen':2 'grey78':3 'CTYellow':4 }
Thu May 23 14:20:57 IDT 2013	<rows>
Thu May 23 14:20:57 IDT 2013	6
Thu May 23 14:20:57 IDT 2013	<columns>
Thu May 23 14:20:57 IDT 2013	9
Thu May 23 14:20:57 IDT 2013	<squaresColors>
Thu May 23 14:20:57 IDT 2013	grey78 CTGreen CTGreen CTGreen CTGreen CTGreen CTGreen CTGreen CTYellow 
Thu May 23 14:20:57 IDT 2013	grey78 CTPurple CTPurple CTPurple CTPurple CTPurple CTPurple CTPurple CTYellow 
Thu May 23 14:20:57 IDT 2013	grey78 grey78 CTGreen CTGreen CTGreen CTGreen CTGreen CTYellow CTYellow 
Thu May 23 14:20:57 IDT 2013	CTGreen grey78 grey78 CTPurple CTPurple CTPurple CTYellow CTYellow CTGreen 
Thu May 23 14:20:57 IDT 2013	CTGreen CTGreen grey78 grey78 CTGreen CTYellow CTYellow CTGreen CTGreen 
Thu May 23 14:20:57 IDT 2013	CTGreen CTGreen CTGreen grey78 CTGreen CTYellow CTGreen CTGreen CTGreen 
Thu May 23 14:20:57 IDT 2013	</squareColors>
Thu May 23 14:20:57 IDT 2013	<goalPosition>
Thu May 23 14:20:57 IDT 2013	Goal position: (R:0,C:0)
Thu May 23 14:20:57 IDT 2013	<goalPosition>
Thu May 23 14:20:57 IDT 2013	Goal position: (R:0,C:0)
Thu May 23 14:20:57 IDT 2013	<firstPlayerPossibleGoal1>
Thu May 23 14:20:57 IDT 2013	0.5
Thu May 23 14:20:57 IDT 2013	0
Thu May 23 14:20:57 IDT 2013	0
Thu May 23 14:20:57 IDT 2013	</firstPlayerPossibleGoal1>
Thu May 23 14:20:57 IDT 2013	<firstPlayerPossibleGoal2>
Thu May 23 14:20:57 IDT 2013	0.5
Thu May 23 14:20:57 IDT 2013	0
Thu May 23 14:20:57 IDT 2013	8
Thu May 23 14:20:57 IDT 2013	</firstPlayerPossibleGoal2>
Thu May 23 14:20:57 IDT 2013	<numberOfPlayers>
Thu May 23 14:20:57 IDT 2013	3
Thu May 23 14:20:57 IDT 2013	<firstPlayerChips>
Thu May 23 14:20:57 IDT 2013	Setting chips for player: 200 id:0
Thu May 23 14:20:57 IDT 2013	{ chips  'CTRed':0 'CTGreen':0 'CTPurple':0 'grey78':12 'CTYellow':12 }
Thu May 23 14:20:57 IDT 2013	Player position: (R:5,C:4)
Thu May 23 14:20:57 IDT 2013	Setting chips for player: 100 id:1
Thu May 23 14:20:57 IDT 2013	{ chips  'CTRed':33 'CTGreen':0 'CTPurple':7 'grey78':0 'CTYellow':0 }
Thu May 23 14:20:57 IDT 2013	Player position: (R:0,C:8)
Thu May 23 14:20:57 IDT 2013	Setting chips for player: 300 id:2
Thu May 23 14:20:57 IDT 2013	{ chips  'CTRed':33 'CTGreen':0 'CTPurple':7 'grey78':0 'CTYellow':0 }
Thu May 23 14:20:57 IDT 2013	Player position: (R:0,C:0)
Thu May 23 14:20:57 IDT 2013	Protocol: A New Phase Began: Strategy Prep Phase. loop is true
Thu May 23 14:20:57 IDT 2013	---------- Beginning Strategy Prep Phase at round 0 ----------
Thu May 23 14:21:57 IDT 2013	A Phase Ended: Strategy Prep Phase
Thu May 23 14:21:57 IDT 2013	Protocol: A New Phase Began: Communication Phase. loop is true
Thu May 23 14:21:57 IDT 2013	---------- Beginning Communication Phase at round 1 ----------
Thu May 23 14:22:55 IDT 2013	Received communication message 
Thu May 23 14:22:55 IDT 2013	From player: 100
Thu May 23 14:22:55 IDT 2013	To player: 200
Thu May 23 14:22:55 IDT 2013	Chips to send by proposer: { chips  'CTRed':4 'CTPurple':0 'CTGreen':0 'grey78':0 'CTYellow':0 }
Thu May 23 14:22:55 IDT 2013	Chips to send by responder: { chips  'CTRed':0 'CTPurple':0 'CTGreen':0 'grey78':2 'CTYellow':0 }
Thu May 23 14:23:42 IDT 2013	Received communication message 
Thu May 23 14:23:42 IDT 2013	Proposer 0 accepted? false
Thu May 23 14:23:42 IDT 2013	case that we had one reject, and one accept
Thu May 23 14:23:46 IDT 2013	Received communication message 
Thu May 23 14:23:46 IDT 2013	From player: 300
Thu May 23 14:23:46 IDT 2013	To player: 200
Thu May 23 14:23:46 IDT 2013	Chips to send by proposer: { chips  'CTRed':10 'CTPurple':0 'CTGreen':0 'grey78':0 'CTYellow':0 }
Thu May 23 14:23:46 IDT 2013	Chips to send by responder: { chips  'CTRed':0 'CTPurple':0 'CTGreen':0 'grey78':0 'CTYellow':5 }
Thu May 23 14:24:06 IDT 2013	Received communication message 
Thu May 23 14:24:06 IDT 2013	Proposer 1 accepted? true
Thu May 23 14:24:06 IDT 2013	A Phase Ended: Communication Phase
Thu May 23 14:24:06 IDT 2013	Protocol: A New Phase Began: Movement Phase. loop is true
Thu May 23 14:24:06 IDT 2013	---------- Beginning Movement Phase at round 1 ----------
Thu May 23 14:24:06 IDT 2013	remove strategy phase. 
Thu May 23 14:24:50 IDT 2013	A Phase Ended: Movement Phase
Thu May 23 14:24:50 IDT 2013	Protocol: A New Phase Began: Feedback Phase. loop is true
Thu May 23 14:24:50 IDT 2013	---------- Beginning Feedback Phase at round 1 ----------
Thu May 23 14:24:50 IDT 2013	Number of consecutive no movements for player 200 is 0
Thu May 23 14:24:50 IDT 2013	TDPlayerPosition is(R:3,C:2)goal location 0(R:0,C:0)goal location 1(R:0,C:8)
Thu May 23 14:24:50 IDT 2013	ended is false
Thu May 23 14:24:55 IDT 2013	A Phase Ended: Feedback Phase
Thu May 23 14:24:55 IDT 2013	 numberofMoves in round 1 is 4
Thu May 23 14:24:55 IDT 2013	Swaping roles:
Thu May 23 14:24:55 IDT 2013	Protocol: A New Phase Began: Communication Phase. loop is true
Thu May 23 14:24:55 IDT 2013	---------- Beginning Communication Phase at round 2 ----------
Thu May 23 14:25:29 IDT 2013	Received communication message 
Thu May 23 14:25:29 IDT 2013	From player: 200
Thu May 23 14:25:29 IDT 2013	To player: 100
Thu May 23 14:25:29 IDT 2013	Chips to send by proposer: { chips  'CTRed':0 'CTPurple':0 'CTGreen':0 'grey78':0 'CTYellow':0 }
Thu May 23 14:25:29 IDT 2013	Chips to send by responder: { chips  'CTRed':10 'CTPurple':3 'CTGreen':0 'grey78':0 'CTYellow':0 }
Thu May 23 14:26:26 IDT 2013	Received communication message 
Thu May 23 14:26:26 IDT 2013	Proposer 0 accepted? true
Thu May 23 14:26:26 IDT 2013	A Phase Ended: Communication Phase
Thu May 23 14:26:26 IDT 2013	Protocol: A New Phase Began: Movement Phase. loop is true
Thu May 23 14:26:26 IDT 2013	---------- Beginning Movement Phase at round 2 ----------
Thu May 23 14:27:11 IDT 2013	A Phase Ended: Movement Phase
Thu May 23 14:27:11 IDT 2013	Protocol: A New Phase Began: Feedback Phase. loop is true
Thu May 23 14:27:11 IDT 2013	---------- Beginning Feedback Phase at round 2 ----------
Thu May 23 14:27:11 IDT 2013	Number of consecutive no movements for player 200 is 0
Thu May 23 14:27:11 IDT 2013	TDPlayerPosition is(R:3,C:6)goal location 0(R:0,C:0)goal location 1(R:0,C:8)
Thu May 23 14:27:11 IDT 2013	ended is false
Thu May 23 14:27:16 IDT 2013	A Phase Ended: Feedback Phase
Thu May 23 14:27:16 IDT 2013	 numberofMoves in round 2 is 4
Thu May 23 14:27:16 IDT 2013	Swaping roles:
Thu May 23 14:27:16 IDT 2013	Protocol: A New Phase Began: Communication Phase. loop is true
Thu May 23 14:27:16 IDT 2013	---------- Beginning Communication Phase at round 3 ----------
Thu May 23 14:28:20 IDT 2013	Received communication message 
Thu May 23 14:28:20 IDT 2013	From player: 300
Thu May 23 14:28:20 IDT 2013	To player: 200
Thu May 23 14:28:20 IDT 2013	Chips to send by proposer: { chips  'CTRed':8 'CTPurple':3 'CTGreen':0 'grey78':0 'CTYellow':0 }
Thu May 23 14:28:20 IDT 2013	Chips to send by responder: { chips  'CTRed':0 'CTPurple':0 'CTGreen':0 'grey78':0 'CTYellow':6 }
Thu May 23 14:28:42 IDT 2013	Received communication message 
Thu May 23 14:28:42 IDT 2013	Proposer 1 accepted? false
Thu May 23 14:28:42 IDT 2013	case that we had one reject, and one accept
Thu May 23 14:28:48 IDT 2013	Received communication message 
Thu May 23 14:28:48 IDT 2013	From player: 100
Thu May 23 14:28:48 IDT 2013	To player: 200
Thu May 23 14:28:48 IDT 2013	Chips to send by proposer: { chips  'CTRed':6 'CTPurple':0 'CTGreen':0 'grey78':0 'CTYellow':0 }
Thu May 23 14:28:48 IDT 2013	Chips to send by responder: { chips  'CTRed':0 'CTPurple':0 'CTGreen':0 'grey78':0 'CTYellow':0 }
Thu May 23 14:28:59 IDT 2013	Received communication message 
Thu May 23 14:28:59 IDT 2013	Proposer 0 accepted? true
Thu May 23 14:28:59 IDT 2013	A Phase Ended: Communication Phase
Thu May 23 14:28:59 IDT 2013	Protocol: A New Phase Began: Movement Phase. loop is true
Thu May 23 14:28:59 IDT 2013	---------- Beginning Movement Phase at round 3 ----------
Thu May 23 14:29:43 IDT 2013	A Phase Ended: Movement Phase
Thu May 23 14:29:43 IDT 2013	Protocol: A New Phase Began: Feedback Phase. loop is true
Thu May 23 14:29:43 IDT 2013	---------- Beginning Feedback Phase at round 3 ----------
Thu May 23 14:29:43 IDT 2013	Number of consecutive no movements for player 200 is 0
Thu May 23 14:29:43 IDT 2013	TDPlayerPosition is(R:2,C:7)goal location 0(R:0,C:0)goal location 1(R:0,C:8)
Thu May 23 14:29:43 IDT 2013	ended is false
Thu May 23 14:29:48 IDT 2013	A Phase Ended: Feedback Phase
Thu May 23 14:29:48 IDT 2013	 numberofMoves in round 3 is 2
Thu May 23 14:29:48 IDT 2013	Swaping roles:
Thu May 23 14:29:48 IDT 2013	Protocol: A New Phase Began: Communication Phase. loop is true
Thu May 23 14:29:48 IDT 2013	---------- Beginning Communication Phase at round 4 ----------
Thu May 23 14:30:25 IDT 2013	Received communication message 
Thu May 23 14:30:25 IDT 2013	From player: 200
Thu May 23 14:30:25 IDT 2013	To player: 300
Thu May 23 14:30:25 IDT 2013	Chips to send by proposer: { chips  'CTRed':0 'CTPurple':0 'CTGreen':0 'grey78':0 'CTYellow':0 }
Thu May 23 14:30:25 IDT 2013	Chips to send by responder: { chips  'CTRed':10 'CTPurple':7 'CTGreen':0 'grey78':0 'CTYellow':5 }
Thu May 23 14:32:04 IDT 2013	Received communication message 
Thu May 23 14:32:04 IDT 2013	Proposer 1 accepted? false
Thu May 23 14:32:04 IDT 2013	case that we had one reject, and one accept
Thu May 23 14:32:04 IDT 2013	A Phase Ended: Communication Phase
Thu May 23 14:32:04 IDT 2013	Protocol: A New Phase Began: Movement Phase. loop is true
Thu May 23 14:32:04 IDT 2013	---------- Beginning Movement Phase at round 4 ----------
Thu May 23 14:32:48 IDT 2013	A Phase Ended: Movement Phase
Thu May 23 14:32:48 IDT 2013	Protocol: A New Phase Began: Feedback Phase. loop is true
Thu May 23 14:32:48 IDT 2013	---------- Beginning Feedback Phase at round 4 ----------
Thu May 23 14:32:48 IDT 2013	Number of consecutive no movements for player 200 is 0
Thu May 23 14:32:48 IDT 2013	TDPlayerPosition is(R:2,C:8)goal location 0(R:0,C:0)goal location 1(R:0,C:8)
Thu May 23 14:32:48 IDT 2013	ended is false
Thu May 23 14:32:53 IDT 2013	A Phase Ended: Feedback Phase
Thu May 23 14:32:53 IDT 2013	 numberofMoves in round 4 is 1
Thu May 23 14:32:53 IDT 2013	Swaping roles:
Thu May 23 14:32:53 IDT 2013	Protocol: A New Phase Began: Communication Phase. loop is true
Thu May 23 14:32:53 IDT 2013	---------- Beginning Communication Phase at round 5 ----------
Thu May 23 14:33:40 IDT 2013	Received communication message 
Thu May 23 14:33:40 IDT 2013	From player: 100
Thu May 23 14:33:40 IDT 2013	To player: 200
Thu May 23 14:33:40 IDT 2013	Chips to send by proposer: { chips  'CTRed':14 'CTPurple':0 'CTGreen':0 'grey78':0 'CTYellow':0 }
Thu May 23 14:33:40 IDT 2013	Chips to send by responder: { chips  'CTRed':0 'CTPurple':0 'CTGreen':0 'grey78':8 'CTYellow':0 }
Thu May 23 14:33:49 IDT 2013	Received communication message 
Thu May 23 14:33:49 IDT 2013	Proposer 0 accepted? false
Thu May 23 14:33:49 IDT 2013	case that we had one reject, and one accept
Thu May 23 14:35:50 IDT 2013	Received communication message 
Thu May 23 14:35:50 IDT 2013	From player: 300
Thu May 23 14:35:50 IDT 2013	To player: 200
Thu May 23 14:35:50 IDT 2013	Chips to send by proposer: { chips  'CTRed':15 'CTPurple':7 'CTGreen':0 'grey78':0 'CTYellow':0 }
Thu May 23 14:35:50 IDT 2013	Chips to send by responder: { chips  'CTRed':0 'CTPurple':0 'CTGreen':0 'grey78':0 'CTYellow':2 }
Thu May 23 14:35:53 IDT 2013	A Phase Ended: Communication Phase
Thu May 23 14:35:53 IDT 2013	Protocol: A New Phase Began: Movement Phase. loop is true
Thu May 23 14:35:53 IDT 2013	---------- Beginning Movement Phase at round 5 ----------
Thu May 23 14:35:57 IDT 2013	Received communication message 
Thu May 23 14:35:57 IDT 2013	Proposer 1 accepted? true
Thu May 23 14:35:57 IDT 2013	A Phase Ended: Movement Phase
Thu May 23 14:35:57 IDT 2013	Protocol: A New Phase Began: Feedback Phase. loop is true
Thu May 23 14:35:57 IDT 2013	---------- Beginning Feedback Phase at round 5 ----------
Thu May 23 14:35:57 IDT 2013	Number of consecutive no movements for player 200 is 1
Thu May 23 14:35:57 IDT 2013	TDPlayerPosition is(R:2,C:8)goal location 0(R:0,C:0)goal location 1(R:0,C:8)
Thu May 23 14:35:57 IDT 2013	ended is false
Thu May 23 14:36:02 IDT 2013	A Phase Ended: Feedback Phase
Thu May 23 14:36:02 IDT 2013	 numberofMoves in round 5 is 0
Thu May 23 14:36:02 IDT 2013	Swaping roles:
Thu May 23 14:36:02 IDT 2013	Protocol: A New Phase Began: Communication Phase. loop is true
Thu May 23 14:36:02 IDT 2013	---------- Beginning Communication Phase at round 6 ----------
Thu May 23 14:36:55 IDT 2013	Received communication message 
Thu May 23 14:36:55 IDT 2013	From player: 200
Thu May 23 14:36:55 IDT 2013	To player: 300
Thu May 23 14:36:55 IDT 2013	Chips to send by proposer: { chips  'CTRed':0 'CTPurple':0 'CTGreen':0 'grey78':0 'CTYellow':1 }
Thu May 23 14:36:55 IDT 2013	Chips to send by responder: { chips  'CTRed':4 'CTPurple':0 'CTGreen':0 'grey78':0 'CTYellow':0 }
Thu May 23 14:38:54 IDT 2013	Received communication message 
Thu May 23 14:38:54 IDT 2013	Proposer 1 accepted? false
Thu May 23 14:38:54 IDT 2013	case that we had one reject, and one accept
Thu May 23 14:38:54 IDT 2013	A Phase Ended: Communication Phase
Thu May 23 14:38:54 IDT 2013	Protocol: A New Phase Began: Movement Phase. loop is true
Thu May 23 14:38:54 IDT 2013	---------- Beginning Movement Phase at round 6 ----------
Thu May 23 14:39:38 IDT 2013	A Phase Ended: Movement Phase
Thu May 23 14:39:38 IDT 2013	Protocol: A New Phase Began: Feedback Phase. loop is true
Thu May 23 14:39:38 IDT 2013	---------- Beginning Feedback Phase at round 6 ----------
Thu May 23 14:39:38 IDT 2013	Number of consecutive no movements for player 200 is 0
Thu May 23 14:39:38 IDT 2013	TDPlayerPosition is(R:1,C:8)goal location 0(R:0,C:0)goal location 1(R:0,C:8)
Thu May 23 14:39:38 IDT 2013	ended is false
Thu May 23 14:39:43 IDT 2013	A Phase Ended: Feedback Phase
Thu May 23 14:39:43 IDT 2013	 numberofMoves in round 6 is 1
Thu May 23 14:39:43 IDT 2013	Swaping roles:
Thu May 23 14:39:43 IDT 2013	Protocol: A New Phase Began: Communication Phase. loop is true
Thu May 23 14:39:43 IDT 2013	---------- Beginning Communication Phase at round 7 ----------
Thu May 23 14:39:58 IDT 2013	Received communication message 
Thu May 23 14:39:58 IDT 2013	From player: 100
Thu May 23 14:39:58 IDT 2013	To player: 200
Thu May 23 14:39:58 IDT 2013	Chips to send by proposer: { chips  'CTRed':3 'CTPurple':0 'CTGreen':0 'grey78':0 'CTYellow':0 }
Thu May 23 14:39:58 IDT 2013	Chips to send by responder: { chips  'CTRed':0 'CTPurple':1 'CTGreen':0 'grey78':0 'CTYellow':0 }
Thu May 23 14:40:16 IDT 2013	Received communication message 
Thu May 23 14:40:16 IDT 2013	Proposer 0 accepted? true
Thu May 23 14:40:16 IDT 2013	A Phase Ended: Communication Phase
Thu May 23 14:40:16 IDT 2013	Protocol: A New Phase Began: Movement Phase. loop is true
Thu May 23 14:40:16 IDT 2013	---------- Beginning Movement Phase at round 7 ----------
Thu May 23 14:41:00 IDT 2013	A Phase Ended: Movement Phase
Thu May 23 14:41:00 IDT 2013	Protocol: A New Phase Began: Feedback Phase. loop is true
Thu May 23 14:41:00 IDT 2013	---------- Beginning Feedback Phase at round 7 ----------
Thu May 23 14:41:00 IDT 2013	Number of consecutive no movements for player 200 is 0
Thu May 23 14:41:00 IDT 2013	TDPlayerPosition is(R:1,C:7)goal location 0(R:0,C:0)goal location 1(R:0,C:8)
Thu May 23 14:41:00 IDT 2013	ended is false
Thu May 23 14:41:05 IDT 2013	A Phase Ended: Feedback Phase
Thu May 23 14:41:05 IDT 2013	 numberofMoves in round 7 is 1
Thu May 23 14:41:05 IDT 2013	Swaping roles:
Thu May 23 14:41:05 IDT 2013	Protocol: A New Phase Began: Communication Phase. loop is true
Thu May 23 14:41:05 IDT 2013	---------- Beginning Communication Phase at round 8 ----------
Thu May 23 14:41:41 IDT 2013	Received communication message 
Thu May 23 14:41:41 IDT 2013	From player: 200
Thu May 23 14:41:41 IDT 2013	To player: 300
Thu May 23 14:41:41 IDT 2013	Chips to send by proposer: { chips  'CTRed':0 'CTPurple':0 'CTGreen':0 'grey78':0 'CTYellow':0 }
Thu May 23 14:41:41 IDT 2013	Chips to send by responder: { chips  'CTRed':2 'CTPurple':0 'CTGreen':0 'grey78':0 'CTYellow':2 }
Thu May 23 14:42:18 IDT 2013	Received communication message 
Thu May 23 14:42:18 IDT 2013	Proposer 1 accepted? false
Thu May 23 14:42:18 IDT 2013	case that we had one reject, and one accept
Thu May 23 14:42:18 IDT 2013	A Phase Ended: Communication Phase
Thu May 23 14:42:18 IDT 2013	Protocol: A New Phase Began: Movement Phase. loop is true
Thu May 23 14:42:18 IDT 2013	---------- Beginning Movement Phase at round 8 ----------
Thu May 23 14:43:03 IDT 2013	A Phase Ended: Movement Phase
Thu May 23 14:43:03 IDT 2013	Protocol: A New Phase Began: Feedback Phase. loop is true
Thu May 23 14:43:03 IDT 2013	---------- Beginning Feedback Phase at round 8 ----------
Thu May 23 14:43:03 IDT 2013	Number of consecutive no movements for player 200 is 1
Thu May 23 14:43:03 IDT 2013	TDPlayerPosition is(R:1,C:7)goal location 0(R:0,C:0)goal location 1(R:0,C:8)
Thu May 23 14:43:03 IDT 2013	ended is false
Thu May 23 14:43:08 IDT 2013	A Phase Ended: Feedback Phase
Thu May 23 14:43:08 IDT 2013	 numberofMoves in round 8 is 0
Thu May 23 14:43:08 IDT 2013	Swaping roles:
Thu May 23 14:43:08 IDT 2013	Protocol: A New Phase Began: Communication Phase. loop is true
Thu May 23 14:43:08 IDT 2013	---------- Beginning Communication Phase at round 9 ----------
Thu May 23 14:43:39 IDT 2013	Received communication message 
Thu May 23 14:43:39 IDT 2013	From player: 100
Thu May 23 14:43:39 IDT 2013	To player: 200
Thu May 23 14:43:39 IDT 2013	Chips to send by proposer: { chips  'CTRed':14 'CTPurple':0 'CTGreen':0 'grey78':0 'CTYellow':0 }
Thu May 23 14:43:39 IDT 2013	Chips to send by responder: { chips  'CTRed':0 'CTPurple':3 'CTGreen':0 'grey78':7 'CTYellow':0 }
Thu May 23 14:43:56 IDT 2013	Received communication message 
Thu May 23 14:43:56 IDT 2013	Proposer 0 accepted? false
Thu May 23 14:43:56 IDT 2013	case that we had one reject, and one accept
Thu May 23 14:46:08 IDT 2013	A Phase Ended: Communication Phase
Thu May 23 14:46:08 IDT 2013	Protocol: A New Phase Began: Movement Phase. loop is true
Thu May 23 14:46:08 IDT 2013	---------- Beginning Movement Phase at round 9 ----------
Thu May 23 14:46:53 IDT 2013	A Phase Ended: Movement Phase
Thu May 23 14:46:53 IDT 2013	Protocol: A New Phase Began: Feedback Phase. loop is true
Thu May 23 14:46:53 IDT 2013	---------- Beginning Feedback Phase at round 9 ----------
Thu May 23 14:46:53 IDT 2013	Number of consecutive no movements for player 200 is 0
Thu May 23 14:46:53 IDT 2013	TDPlayerPosition is(R:1,C:4)goal location 0(R:0,C:0)goal location 1(R:0,C:8)
Thu May 23 14:46:53 IDT 2013	ended is false
Thu May 23 14:46:58 IDT 2013	A Phase Ended: Feedback Phase
Thu May 23 14:46:58 IDT 2013	 numberofMoves in round 9 is 3
Thu May 23 14:46:58 IDT 2013	Swaping roles:
Thu May 23 14:46:58 IDT 2013	Protocol: A New Phase Began: Communication Phase. loop is true
Thu May 23 14:46:58 IDT 2013	---------- Beginning Communication Phase at round 10 ----------
Thu May 23 14:47:27 IDT 2013	Received communication message 
Thu May 23 14:47:27 IDT 2013	From player: 200
Thu May 23 14:47:27 IDT 2013	To player: 100
Thu May 23 14:47:27 IDT 2013	Chips to send by proposer: { chips  'CTRed':0 'CTPurple':0 'CTGreen':0 'grey78':8 'CTYellow':0 }
Thu May 23 14:47:27 IDT 2013	Chips to send by responder: { chips  'CTRed':10 'CTPurple':1 'CTGreen':0 'grey78':0 'CTYellow':0 }
Thu May 23 14:47:37 IDT 2013	Received communication message 
Thu May 23 14:47:37 IDT 2013	Proposer 0 accepted? false
Thu May 23 14:47:37 IDT 2013	case that we had one reject, and one accept
Thu May 23 14:47:37 IDT 2013	A Phase Ended: Communication Phase
Thu May 23 14:47:37 IDT 2013	Protocol: A New Phase Began: Movement Phase. loop is true
Thu May 23 14:47:37 IDT 2013	---------- Beginning Movement Phase at round 10 ----------
Thu May 23 14:48:22 IDT 2013	A Phase Ended: Movement Phase
Thu May 23 14:48:22 IDT 2013	Protocol: A New Phase Began: Feedback Phase. loop is true
Thu May 23 14:48:22 IDT 2013	---------- Beginning Feedback Phase at round 10 ----------
Thu May 23 14:48:22 IDT 2013	Number of consecutive no movements for player 200 is 0
Thu May 23 14:48:22 IDT 2013	TDPlayerPosition is(R:1,C:3)goal location 0(R:0,C:0)goal location 1(R:0,C:8)
Thu May 23 14:48:22 IDT 2013	ended is false
Thu May 23 14:48:27 IDT 2013	A Phase Ended: Feedback Phase
Thu May 23 14:48:27 IDT 2013	 numberofMoves in round 10 is 1
Thu May 23 14:48:27 IDT 2013	Swaping roles:
Thu May 23 14:48:27 IDT 2013	Protocol: A New Phase Began: Communication Phase. loop is true
Thu May 23 14:48:27 IDT 2013	---------- Beginning Communication Phase at round 11 ----------
Thu May 23 14:48:52 IDT 2013	Received communication message 
Thu May 23 14:48:52 IDT 2013	From player: 100
Thu May 23 14:48:52 IDT 2013	To player: 200
Thu May 23 14:48:52 IDT 2013	Chips to send by proposer: { chips  'CTRed':0 'CTPurple':1 'CTGreen':0 'grey78':0 'CTYellow':0 }
Thu May 23 14:48:52 IDT 2013	Chips to send by responder: { chips  'CTRed':40 'CTPurple':0 'CTGreen':0 'grey78':0 'CTYellow':0 }
Thu May 23 14:49:07 IDT 2013	Received communication message 
Thu May 23 14:49:07 IDT 2013	Proposer 0 accepted? false
Thu May 23 14:49:07 IDT 2013	case that we had one reject, and one accept
Thu May 23 14:51:27 IDT 2013	A Phase Ended: Communication Phase
Thu May 23 14:51:27 IDT 2013	Protocol: A New Phase Began: Movement Phase. loop is true
Thu May 23 14:51:27 IDT 2013	---------- Beginning Movement Phase at round 11 ----------
Thu May 23 14:52:12 IDT 2013	A Phase Ended: Movement Phase
Thu May 23 14:52:12 IDT 2013	Protocol: A New Phase Began: Feedback Phase. loop is true
Thu May 23 14:52:12 IDT 2013	---------- Beginning Feedback Phase at round 11 ----------
Thu May 23 14:52:12 IDT 2013	Number of consecutive no movements for player 200 is 0
Thu May 23 14:52:12 IDT 2013	TDPlayerPosition is(R:1,C:2)goal location 0(R:0,C:0)goal location 1(R:0,C:8)
Thu May 23 14:52:12 IDT 2013	ended is false
Thu May 23 14:52:17 IDT 2013	A Phase Ended: Feedback Phase
Thu May 23 14:52:17 IDT 2013	 numberofMoves in round 11 is 1
Thu May 23 14:52:17 IDT 2013	Swaping roles:
Thu May 23 14:52:17 IDT 2013	Protocol: A New Phase Began: Communication Phase. loop is true
Thu May 23 14:52:17 IDT 2013	---------- Beginning Communication Phase at round 12 ----------
Thu May 23 14:52:57 IDT 2013	Received communication message 
Thu May 23 14:52:57 IDT 2013	From player: 200
Thu May 23 14:52:57 IDT 2013	To player: 100
Thu May 23 14:52:57 IDT 2013	Chips to send by proposer: { chips  'CTRed':0 'CTPurple':0 'CTGreen':0 'grey78':8 'CTYellow':0 }
Thu May 23 14:52:57 IDT 2013	Chips to send by responder: { chips  'CTRed':6 'CTPurple':5 'CTGreen':0 'grey78':0 'CTYellow':0 }
Thu May 23 14:53:28 IDT 2013	Received communication message 
Thu May 23 14:53:28 IDT 2013	Proposer 0 accepted? false
Thu May 23 14:53:28 IDT 2013	case that we had one reject, and one accept
Thu May 23 14:53:28 IDT 2013	A Phase Ended: Communication Phase
Thu May 23 14:53:28 IDT 2013	Protocol: A New Phase Began: Movement Phase. loop is true
Thu May 23 14:53:28 IDT 2013	---------- Beginning Movement Phase at round 12 ----------
Thu May 23 14:54:12 IDT 2013	A Phase Ended: Movement Phase
Thu May 23 14:54:12 IDT 2013	Protocol: A New Phase Began: Feedback Phase. loop is true
Thu May 23 14:54:12 IDT 2013	---------- Beginning Feedback Phase at round 12 ----------
Thu May 23 14:54:12 IDT 2013	Number of consecutive no movements for player 200 is 1
Thu May 23 14:54:12 IDT 2013	TDPlayerPosition is(R:1,C:2)goal location 0(R:0,C:0)goal location 1(R:0,C:8)
Thu May 23 14:54:12 IDT 2013	ended is false
Thu May 23 14:54:17 IDT 2013	A Phase Ended: Feedback Phase
Thu May 23 14:54:17 IDT 2013	 numberofMoves in round 12 is 0
Thu May 23 14:54:17 IDT 2013	Swaping roles:
Thu May 23 14:54:17 IDT 2013	Protocol: A New Phase Began: Communication Phase. loop is true
Thu May 23 14:54:17 IDT 2013	---------- Beginning Communication Phase at round 13 ----------
Thu May 23 14:54:33 IDT 2013	Received communication message 
Thu May 23 14:54:33 IDT 2013	From player: 100
Thu May 23 14:54:33 IDT 2013	To player: 200
Thu May 23 14:54:33 IDT 2013	Chips to send by proposer: { chips  'CTRed':0 'CTPurple':1 'CTGreen':0 'grey78':0 'CTYellow':0 }
Thu May 23 14:54:33 IDT 2013	Chips to send by responder: { chips  'CTRed':25 'CTPurple':0 'CTGreen':0 'grey78':0 'CTYellow':0 }
Thu May 23 14:54:42 IDT 2013	Received communication message 
Thu May 23 14:54:42 IDT 2013	Proposer 0 accepted? true
Thu May 23 14:54:42 IDT 2013	A Phase Ended: Communication Phase
Thu May 23 14:54:42 IDT 2013	Protocol: A New Phase Began: Movement Phase. loop is true
Thu May 23 14:54:42 IDT 2013	---------- Beginning Movement Phase at round 13 ----------
Thu May 23 14:55:27 IDT 2013	A Phase Ended: Movement Phase
Thu May 23 14:55:27 IDT 2013	Protocol: A New Phase Began: Feedback Phase. loop is true
Thu May 23 14:55:27 IDT 2013	---------- Beginning Feedback Phase at round 13 ----------
Thu May 23 14:55:27 IDT 2013	The TD player reached the goal, end the game
Thu May 23 14:55:27 IDT 2013	ended is true
Thu May 23 14:55:32 IDT 2013	A Phase Ended: Feedback Phase
Thu May 23 14:55:32 IDT 2013	 numberofMoves in round 13 is 3
Thu May 23 14:55:32 IDT 2013	Loop status: false
Thu May 23 14:55:32 IDT 2013	Player: 100 ,role: Proposer score is: 215
Thu May 23 14:55:32 IDT 2013	Player: 100Game Ended
Thu May 23 14:55:32 IDT 2013	Player: 300 ,role: Proposer score is: 225
Thu May 23 14:55:32 IDT 2013	Player: 300Game Ended
Thu May 23 14:55:32 IDT 2013	Player: 200 ,role: Responder score is: 275
Thu May 23 14:55:32 IDT 2013	Player: 200Game Ended
Thu May 23 14:55:32 IDT 2013	Protocol: A New Phase Began: Communication Phase. loop is false
Thu May 23 14:55:32 IDT 2013	---------- Beginning Communication Phase at round 13 ----------
Thu May 23 14:58:32 IDT 2013	A Phase Ended: Communication Phase
Thu May 23 14:58:32 IDT 2013	Protocol: A New Phase Began: Movement Phase. loop is false
Thu May 23 14:58:32 IDT 2013	---------- Beginning Movement Phase at round 13 ----------
