Wed Sep 11 08:18:53 IST 2013	This is the CT debug logger; svn version 638; sep 27 09
Wed Sep 11 08:18:53 IST 2013	Wed Sep 11 08:18:53 IST 2013
Wed Sep 11 08:18:53 IST 2013	ThreePlayersAgentPlayer(): entering.
Wed Sep 11 08:20:22 IST 2013	phaseAdvanced(): entering.
Wed Sep 11 08:20:22 IST 2013	phaseAdvanced(): new phase is 'Strategy Prep Phase'.
Wed Sep 11 08:21:22 IST 2013	phaseAdvanced(): entering.
Wed Sep 11 08:21:22 IST 2013	phaseAdvanced(): new phase is 'Communication Phase'.
Wed Sep 11 08:22:01 IST 2013	onReceipt(): entering.
Wed Sep 11 08:22:01 IST 2013	phaseAdvanced(): entering.
Wed Sep 11 08:22:01 IST 2013	phaseAdvanced(): new phase is 'Movement Phase'.
Wed Sep 11 08:22:46 IST 2013	phaseAdvanced(): entering.
Wed Sep 11 08:22:46 IST 2013	phaseAdvanced(): new phase is 'Feedback Phase'.
Wed Sep 11 08:22:51 IST 2013	phaseAdvanced(): entering.
Wed Sep 11 08:22:51 IST 2013	phaseAdvanced(): new phase is 'Communication Phase'.
Wed Sep 11 08:24:46 IST 2013	onReceipt(): entering.
Wed Sep 11 08:24:46 IST 2013	onReceipt(): opponent's proposal: ({ chips  'CTRed':0 'CTPurple':0 'CTGreen':0 'grey78':1 'CTYellow':0 }, { chips  'CTRed':0 'CTPurple':0 'CTGreen':0 'grey78':0 'CTYellow':0 }).
Wed Sep 11 08:24:46 IST 2013	respondToProposal(): entering.
Wed Sep 11 08:24:46 IST 2013	respondToProposal(): my chips: ({ chips  'CTRed':0 'CTPurple':0 'CTGreen':0 'grey78':11 'CTYellow':0 }).
Wed Sep 11 08:24:46 IST 2013	responseToSend(): entering.
Wed Sep 11 08:24:46 IST 2013	responseToSend(): accepting proposal 
Wed Sep 11 08:24:46 IST 2013	phaseAdvanced(): entering.
Wed Sep 11 08:24:46 IST 2013	phaseAdvanced(): new phase is 'Movement Phase'.
Wed Sep 11 08:25:30 IST 2013	phaseAdvanced(): entering.
Wed Sep 11 08:25:30 IST 2013	phaseAdvanced(): new phase is 'Feedback Phase'.
