filename,round,propID,respID,IsPropCustomer,chipsToSend,chipsToReceive,accept,propCurrentScore,respCurrentScore,actualSent,ActualRcvd,propResultingScore,respResultingScore,#ofCustomerMovesInRound,customerRowPositionAfterMovePhase,customerColPositionAfterMovePhase,Player100ChipsAfterMovePhase,Player100ScoreAfterMovePhase,Player200ChipsAfterMovePhase,Player200ScoreAfterMovePhase,Player300ChipsAfterMovePhase,Player300ScoreAfterMovePhase,generosityLevel,ClientReachedGoal
3playersLog_1369581834435.csv,1,200,100,false,{ chips  'CTRed':20 'CTPurple':2 },{ chips  'grey78':6 },TRUE,200,120,{ chips  'CTRed':20 'CTPurple':2 'CTGreen':0 'grey78':0 'CTYellow':0 },{ chips  'CTRed':0 'CTPurple':0 'CTGreen':0 'grey78':6 'CTYellow':0 },120,200,3,(R:3,C:5),{ chips  'CTRed':20 'CTGreen':0 'CTPurple':1 'grey78':6 'CTYellow':10 },185,{ chips  'CTRed':13 'CTGreen':0 'CTPurple':5 'grey78':6 'CTYellow':0 },120,{ chips  'CTRed':33 'CTGreen':0 'CTPurple':7 'grey78':0 'CTYellow':0 },200
3playersLog_1369581834435.csv,1,300,100,false,{ chips  'CTRed':6 },{ chips  'grey78':2 },IGNORED,200,200,,,,,3,(R:3,C:5),{ chips  'CTRed':20 'CTGreen':0 'CTPurple':1 'grey78':6 'CTYellow':10 },185,{ chips  'CTRed':13 'CTGreen':0 'CTPurple':5 'grey78':6 'CTYellow':0 },120,{ chips  'CTRed':33 'CTGreen':0 'CTPurple':7 'grey78':0 'CTYellow':0 },200
3playersLog_1369581834435.csv,2,100,300,true,{ chips  'CTYellow':4 },{ chips  'CTRed':10 'CTPurple':7 },TRUE,185,200,{ chips  'CTRed':0 'CTPurple':0 'CTGreen':0 'grey78':0 'CTYellow':4 },{ chips  'CTRed':10 'CTPurple':7 'CTGreen':0 'grey78':0 'CTYellow':0 },250,135,4,(R:3,C:1),{ chips  'CTRed':30 'CTGreen':0 'CTPurple':6 'grey78':4 'CTYellow':6 },230,{ chips  'CTRed':13 'CTGreen':0 'CTPurple':5 'grey78':6 'CTYellow':0 },120,{ chips  'CTRed':23 'CTGreen':0 'CTPurple':0 'grey78':0 'CTYellow':4 },135
3playersLog_1369581834435.csv,3,200,100,false,{ chips  'CTRed':13 },{ chips  'grey78':3 },TRUE,120,230,{ chips  'CTRed':13 'CTPurple':0 'CTGreen':0 'grey78':0 'CTYellow':0 },{ chips  'CTRed':0 'CTPurple':0 'CTGreen':0 'grey78':3 'CTYellow':0 },70,280,8,(R:2,C:8),{ chips  'CTRed':43 'CTGreen':0 'CTPurple':3 'grey78':0 'CTYellow':2 },240,{ chips  'CTRed':0 'CTGreen':0 'CTPurple':5 'grey78':9 'CTYellow':0 },70,{ chips  'CTRed':23 'CTGreen':0 'CTPurple':0 'grey78':0 'CTYellow':4 },135
3playersLog_1369581834435.csv,3,300,100,false,{ chips  'CTRed':8 },{ chips  'grey78':2 },IGNORED,135,280,,,,,8,(R:2,C:8),{ chips  'CTRed':43 'CTGreen':0 'CTPurple':3 'grey78':0 'CTYellow':2 },240,{ chips  'CTRed':0 'CTGreen':0 'CTPurple':5 'grey78':9 'CTYellow':0 },70,{ chips  'CTRed':23 'CTGreen':0 'CTPurple':0 'grey78':0 'CTYellow':4 },135
3playersLog_1369581834435.csv,4,100,200,true,{ chips  'CTRed':1 },{ chips  'CTPurple':5 'grey78':1 },FALSE,240,70,,,,,2,(R:0,C:8),{ chips  'CTRed':43 'CTGreen':0 'CTPurple':3 'grey78':0 'CTYellow':0 },380,{ chips  'CTRed':0 'CTGreen':0 'CTPurple':5 'grey78':9 'CTYellow':0 },220,{ chips  'CTRed':23 'CTGreen':0 'CTPurple':0 'grey78':0 'CTYellow':4 },135
3playersLog_1369581834435.csv,,,,,,,,,,,,,,,,,,,,,,,,true
