Wed Sep 11 09:26:53 IDT 2013	This is the CT debug logger; svn version 638; sep 27 09
Wed Sep 11 09:26:54 IDT 2013	Wed Sep 11 09:26:54 IDT 2013
Wed Sep 11 09:26:54 IDT 2013	ThreePlayersAgentPlayer(): entering.
Wed Sep 11 09:27:17 IDT 2013	phaseAdvanced(): entering.
Wed Sep 11 09:27:17 IDT 2013	phaseAdvanced(): new phase is 'Strategy Prep Phase'.
Wed Sep 11 09:28:17 IDT 2013	phaseAdvanced(): entering.
Wed Sep 11 09:28:17 IDT 2013	phaseAdvanced(): new phase is 'Communication Phase'.
Wed Sep 11 09:28:55 IDT 2013	onReceipt(): entering.
Wed Sep 11 09:28:55 IDT 2013	phaseAdvanced(): entering.
Wed Sep 11 09:28:55 IDT 2013	phaseAdvanced(): new phase is 'Movement Phase'.
Wed Sep 11 09:29:39 IDT 2013	phaseAdvanced(): entering.
Wed Sep 11 09:29:39 IDT 2013	phaseAdvanced(): new phase is 'Feedback Phase'.
Wed Sep 11 09:29:44 IDT 2013	phaseAdvanced(): entering.
Wed Sep 11 09:29:44 IDT 2013	phaseAdvanced(): new phase is 'Communication Phase'.
Wed Sep 11 09:30:38 IDT 2013	onReceipt(): entering.
Wed Sep 11 09:30:38 IDT 2013	onReceipt(): opponent's proposal: ({ chips  'CTRed':4 'CTPurple':0 'CTGreen':0 'grey78':1 'CTYellow':0 }, { chips  'CTRed':0 'CTPurple':0 'CTGreen':0 'grey78':11 'CTYellow':0 }).
Wed Sep 11 09:30:38 IDT 2013	respondToProposal(): entering.
Wed Sep 11 09:30:38 IDT 2013	respondToProposal(): my chips: ({ chips  'CTRed':0 'CTPurple':0 'CTGreen':0 'grey78':11 'CTYellow':0 }).
Wed Sep 11 09:30:38 IDT 2013	responseToSend(): entering.
Wed Sep 11 09:30:38 IDT 2013	responseToSend(): rejecting proposal
Wed Sep 11 09:30:38 IDT 2013	phaseAdvanced(): entering.
Wed Sep 11 09:30:38 IDT 2013	phaseAdvanced(): new phase is 'Movement Phase'.
Wed Sep 11 09:31:23 IDT 2013	phaseAdvanced(): entering.
Wed Sep 11 09:31:23 IDT 2013	phaseAdvanced(): new phase is 'Feedback Phase'.
Wed Sep 11 09:31:28 IDT 2013	phaseAdvanced(): entering.
Wed Sep 11 09:31:28 IDT 2013	phaseAdvanced(): new phase is 'Communication Phase'.
Wed Sep 11 09:31:52 IDT 2013	onReceipt(): entering.
Wed Sep 11 09:32:48 IDT 2013	phaseAdvanced(): entering.
Wed Sep 11 09:32:48 IDT 2013	phaseAdvanced(): new phase is 'Movement Phase'.
Wed Sep 11 09:33:32 IDT 2013	phaseAdvanced(): entering.
Wed Sep 11 09:33:32 IDT 2013	phaseAdvanced(): new phase is 'Feedback Phase'.
Wed Sep 11 09:33:37 IDT 2013	phaseAdvanced(): entering.
Wed Sep 11 09:33:37 IDT 2013	phaseAdvanced(): new phase is 'Communication Phase'.
Wed Sep 11 09:34:02 IDT 2013	onReceipt(): entering.
Wed Sep 11 09:34:02 IDT 2013	onReceipt(): opponent's proposal: ({ chips  'CTRed':4 'CTPurple':0 'CTGreen':0 'grey78':0 'CTYellow':0 }, { chips  'CTRed':0 'CTPurple':0 'CTGreen':0 'grey78':6 'CTYellow':0 }).
Wed Sep 11 09:34:02 IDT 2013	respondToProposal(): entering.
Wed Sep 11 09:34:02 IDT 2013	respondToProposal(): my chips: ({ chips  'CTRed':0 'CTPurple':0 'CTGreen':0 'grey78':11 'CTYellow':0 }).
Wed Sep 11 09:34:02 IDT 2013	responseToSend(): entering.
Wed Sep 11 09:34:02 IDT 2013	responseToSend(): rejecting proposal
Wed Sep 11 09:34:02 IDT 2013	phaseAdvanced(): entering.
Wed Sep 11 09:34:02 IDT 2013	phaseAdvanced(): new phase is 'Movement Phase'.
Wed Sep 11 09:34:47 IDT 2013	phaseAdvanced(): entering.
Wed Sep 11 09:34:47 IDT 2013	phaseAdvanced(): new phase is 'Feedback Phase'.
Wed Sep 11 09:34:52 IDT 2013	phaseAdvanced(): entering.
Wed Sep 11 09:34:52 IDT 2013	phaseAdvanced(): new phase is 'Communication Phase'.
Wed Sep 11 09:35:02 IDT 2013	onReceipt(): entering.
Wed Sep 11 09:35:52 IDT 2013	phaseAdvanced(): entering.
Wed Sep 11 09:35:52 IDT 2013	phaseAdvanced(): new phase is 'Movement Phase'.
Wed Sep 11 09:36:37 IDT 2013	phaseAdvanced(): entering.
Wed Sep 11 09:36:37 IDT 2013	phaseAdvanced(): new phase is 'Feedback Phase'.
