filename,round,propID,respID,IsPropCustomer,chipsToSend,chipsToReceive,accept,propCurrentScore,respCurrentScore,actualSent,ActualRcvd,propResultingScore,respResultingScore,#ofCustomerMovesInRound,customerRowPositionAfterMovePhase,customerColPositionAfterMovePhase,Player100ChipsAfterMovePhase,Player100ScoreAfterMovePhase,Player200ChipsAfterMovePhase,Player200ScoreAfterMovePhase,Player300ChipsAfterMovePhase,Player300ScoreAfterMovePhase,generosityLevel,ClientReachedGoal
3playersLog_1388233445107.csv,1,520,510,false,{ chips  'CTRed':2 'CTPurple':1 },{ chips  'grey78':2 },IGNORED,200,120,,,,,0,(R:5,C:4),{ chips  'CTRed':3 'CTGreen':0 'CTPurple':1 'grey78':12 'CTYellow':12 },140,{ chips  'CTRed':33 'CTGreen':0 'CTPurple':7 'grey78':0 'CTYellow':0 },200,{ chips  'CTRed':30 'CTGreen':0 'CTPurple':6 'grey78':0 'CTYellow':0 },180
3playersLog_1388233445107.csv,1,540,510,false,{ chips  'CTRed':3 'CTPurple':1 },{ chips  },TRUE,200,120,{ chips  'CTRed':3 'CTPurple':1 'CTGreen':0 'grey78':0 'CTYellow':0 },{ chips  'CTRed':0 'CTPurple':0 'CTGreen':0 'grey78':0 'CTYellow':0 },180,140,0,(R:5,C:4),{ chips  'CTRed':3 'CTGreen':0 'CTPurple':1 'grey78':12 'CTYellow':12 },140,{ chips  'CTRed':33 'CTGreen':0 'CTPurple':7 'grey78':0 'CTYellow':0 },200,{ chips  'CTRed':30 'CTGreen':0 'CTPurple':6 'grey78':0 'CTYellow':0 },180
3playersLog_1388233445107.csv,2,510,520,true,{ chips  'grey78':11 },{ chips  'CTRed':33 'CTPurple':7 },FALSE,140,200,,,,,1,(R:5,C:5),{ chips  'CTRed':3 'CTGreen':0 'CTPurple':1 'grey78':12 'CTYellow':11 },135,{ chips  'CTRed':33 'CTGreen':0 'CTPurple':7 'grey78':0 'CTYellow':0 },200,{ chips  'CTRed':30 'CTGreen':0 'CTPurple':6 'grey78':0 'CTYellow':0 },180
3playersLog_1388233445107.csv,3,520,510,false,{ chips  'CTRed':2 'CTPurple':1 },{ chips  'grey78':2 },TRUE,200,135,{ chips  'CTRed':2 'CTPurple':1 'CTGreen':0 'grey78':0 'CTYellow':0 },{ chips  'CTRed':0 'CTPurple':0 'CTGreen':0 'grey78':2 'CTYellow':0 },195,140,0,(R:5,C:5),{ chips  'CTRed':5 'CTGreen':0 'CTPurple':2 'grey78':10 'CTYellow':11 },140,{ chips  'CTRed':31 'CTGreen':0 'CTPurple':6 'grey78':2 'CTYellow':0 },195,{ chips  'CTRed':30 'CTGreen':0 'CTPurple':6 'grey78':0 'CTYellow':0 },180
3playersLog_1388233445107.csv,3,540,510,false,{ chips  'CTRed':1 },{ chips  },IGNORED,180,135,,,,,0,(R:5,C:5),{ chips  'CTRed':5 'CTGreen':0 'CTPurple':2 'grey78':10 'CTYellow':11 },140,{ chips  'CTRed':31 'CTGreen':0 'CTPurple':6 'grey78':2 'CTYellow':0 },195,{ chips  'CTRed':30 'CTGreen':0 'CTPurple':6 'grey78':0 'CTYellow':0 },180
3playersLog_1388233445107.csv,4,510,520,true,{ chips  'grey78':9 },{ chips  'CTRed':31 'CTPurple':6 },FALSE,140,195,,,,,1,(R:4,C:5),{ chips  'CTRed':5 'CTGreen':0 'CTPurple':2 'grey78':10 'CTYellow':10 },135,{ chips  'CTRed':31 'CTGreen':0 'CTPurple':6 'grey78':2 'CTYellow':0 },195,{ chips  'CTRed':30 'CTGreen':0 'CTPurple':6 'grey78':0 'CTYellow':0 },180
3playersLog_1388233445107.csv,5,520,510,false,{ chips  'CTRed':5 'CTPurple':1 },{ chips  'grey78':4 },TRUE,195,135,{ chips  'CTRed':5 'CTPurple':1 'CTGreen':0 'grey78':0 'CTYellow':0 },{ chips  'CTRed':0 'CTPurple':0 'CTGreen':0 'grey78':4 'CTYellow':0 },185,145,0,(R:4,C:5),{ chips  'CTRed':10 'CTGreen':0 'CTPurple':3 'grey78':6 'CTYellow':10 },145,{ chips  'CTRed':26 'CTGreen':0 'CTPurple':5 'grey78':6 'CTYellow':0 },185,{ chips  'CTRed':30 'CTGreen':0 'CTPurple':6 'grey78':0 'CTYellow':0 },180
3playersLog_1388233445107.csv,5,540,510,false,{ chips  'CTPurple':2 },{ chips  },IGNORED,180,135,,,,,0,(R:4,C:5),{ chips  'CTRed':10 'CTGreen':0 'CTPurple':3 'grey78':6 'CTYellow':10 },145,{ chips  'CTRed':26 'CTGreen':0 'CTPurple':5 'grey78':6 'CTYellow':0 },185,{ chips  'CTRed':30 'CTGreen':0 'CTPurple':6 'grey78':0 'CTYellow':0 },180
3playersLog_1388233445107.csv,6,510,520,true,{ chips  'grey78':5 },{ chips  'CTRed':26 'CTPurple':5 },FALSE,145,185,,,,,1,(R:3,C:5),{ chips  'CTRed':10 'CTGreen':0 'CTPurple':2 'grey78':6 'CTYellow':10 },140,{ chips  'CTRed':26 'CTGreen':0 'CTPurple':5 'grey78':6 'CTYellow':0 },185,{ chips  'CTRed':30 'CTGreen':0 'CTPurple':6 'grey78':0 'CTYellow':0 },180
3playersLog_1388233445107.csv,7,520,510,false,{ chips  'CTRed':5 'CTPurple':1 },{ chips  'grey78':4 },IGNORED,185,140,,,,,0,(R:3,C:5),{ chips  'CTRed':10 'CTGreen':0 'CTPurple':4 'grey78':6 'CTYellow':10 },150,{ chips  'CTRed':26 'CTGreen':0 'CTPurple':5 'grey78':6 'CTYellow':0 },185,{ chips  'CTRed':30 'CTGreen':0 'CTPurple':4 'grey78':0 'CTYellow':0 },170
3playersLog_1388233445107.csv,7,540,510,false,{ chips  'CTPurple':2 },{ chips  },TRUE,180,140,{ chips  'CTRed':0 'CTPurple':2 'CTGreen':0 'grey78':0 'CTYellow':0 },{ chips  'CTRed':0 'CTPurple':0 'CTGreen':0 'grey78':0 'CTYellow':0 },170,150,0,(R:3,C:5),{ chips  'CTRed':10 'CTGreen':0 'CTPurple':4 'grey78':6 'CTYellow':10 },150,{ chips  'CTRed':26 'CTGreen':0 'CTPurple':5 'grey78':6 'CTYellow':0 },185,{ chips  'CTRed':30 'CTGreen':0 'CTPurple':4 'grey78':0 'CTYellow':0 },170
3playersLog_1388233445107.csv,8,510,520,true,{ chips  'grey78':5 },{ chips  'CTRed':26 'CTPurple':5 },FALSE,150,185,,,,,1,(R:3,C:6),{ chips  'CTRed':10 'CTGreen':0 'CTPurple':4 'grey78':6 'CTYellow':9 },145,{ chips  'CTRed':26 'CTGreen':0 'CTPurple':5 'grey78':6 'CTYellow':0 },185,{ chips  'CTRed':30 'CTGreen':0 'CTPurple':4 'grey78':0 'CTYellow':0 },170
3playersLog_1388233445107.csv,9,520,510,false,{ chips  'CTRed':4 },{ chips  'grey78':2 },TRUE,185,145,{ chips  'CTRed':4 'CTPurple':0 'CTGreen':0 'grey78':0 'CTYellow':0 },{ chips  'CTRed':0 'CTPurple':0 'CTGreen':0 'grey78':2 'CTYellow':0 },175,155,0,(R:3,C:6),{ chips  'CTRed':14 'CTGreen':0 'CTPurple':4 'grey78':4 'CTYellow':9 },155,{ chips  'CTRed':22 'CTGreen':0 'CTPurple':5 'grey78':8 'CTYellow':0 },175,{ chips  'CTRed':30 'CTGreen':0 'CTPurple':4 'grey78':0 'CTYellow':0 },170
3playersLog_1388233445107.csv,9,540,510,false,{ chips  },{ chips  },IGNORED,170,145,,,,,0,(R:3,C:6),{ chips  'CTRed':14 'CTGreen':0 'CTPurple':4 'grey78':4 'CTYellow':9 },155,{ chips  'CTRed':22 'CTGreen':0 'CTPurple':5 'grey78':8 'CTYellow':0 },175,{ chips  'CTRed':30 'CTGreen':0 'CTPurple':4 'grey78':0 'CTYellow':0 },170
3playersLog_1388233445107.csv,10,510,520,true,{ chips  'grey78':3 },{ chips  'CTRed':22 'CTPurple':5 },FALSE,155,175,,,,,1,(R:3,C:7),{ chips  'CTRed':14 'CTGreen':0 'CTPurple':4 'grey78':4 'CTYellow':8 },150,{ chips  'CTRed':22 'CTGreen':0 'CTPurple':5 'grey78':8 'CTYellow':0 },175,{ chips  'CTRed':30 'CTGreen':0 'CTPurple':4 'grey78':0 'CTYellow':0 },170
3playersLog_1388233445107.csv,11,520,510,false,{ chips  'CTRed':5 },{ chips  'grey78':3 },FALSE,175,150,,,,,0,(R:3,C:7),{ chips  'CTRed':14 'CTGreen':0 'CTPurple':4 'grey78':4 'CTYellow':8 },150,{ chips  'CTRed':22 'CTGreen':0 'CTPurple':5 'grey78':8 'CTYellow':0 },175,{ chips  'CTRed':30 'CTGreen':0 'CTPurple':4 'grey78':0 'CTYellow':0 },170
3playersLog_1388233445107.csv,11,540,510,false,{ chips  'CTPurple':2 },{ chips  'CTYellow':2 },FALSE,170,150,,,,,0,(R:3,C:7),{ chips  'CTRed':14 'CTGreen':0 'CTPurple':4 'grey78':4 'CTYellow':8 },150,{ chips  'CTRed':22 'CTGreen':0 'CTPurple':5 'grey78':8 'CTYellow':0 },175,{ chips  'CTRed':30 'CTGreen':0 'CTPurple':4 'grey78':0 'CTYellow':0 },170
3playersLog_1388233445107.csv,12,510,520,true,{ chips  'grey78':3 },{ chips  'CTRed':22 'CTPurple':5 },FALSE,150,175,,,,,1,(R:2,C:7),{ chips  'CTRed':14 'CTGreen':0 'CTPurple':4 'grey78':4 'CTYellow':7 },145,{ chips  'CTRed':22 'CTGreen':0 'CTPurple':5 'grey78':8 'CTYellow':0 },175,{ chips  'CTRed':30 'CTGreen':0 'CTPurple':4 'grey78':0 'CTYellow':0 },170
3playersLog_1388233445107.csv,13,520,510,false,{ chips  'CTRed':4 'CTPurple':1 },{ chips  'CTRed':1 'grey78':2 },TRUE,175,145,{ chips  'CTRed':4 'CTPurple':1 'CTGreen':0 'grey78':0 'CTYellow':0 },{ chips  'CTRed':1 'CTPurple':0 'CTGreen':0 'grey78':2 'CTYellow':0 },165,155,0,(R:2,C:7),{ chips  'CTRed':17 'CTGreen':0 'CTPurple':5 'grey78':2 'CTYellow':7 },155,{ chips  'CTRed':19 'CTGreen':0 'CTPurple':4 'grey78':10 'CTYellow':0 },165,{ chips  'CTRed':30 'CTGreen':0 'CTPurple':4 'grey78':0 'CTYellow':0 },170
3playersLog_1388233445107.csv,13,540,510,false,{ chips  'CTPurple':2 },{ chips  'grey78':2 },IGNORED,170,145,,,,,0,(R:2,C:7),{ chips  'CTRed':17 'CTGreen':0 'CTPurple':5 'grey78':2 'CTYellow':7 },155,{ chips  'CTRed':19 'CTGreen':0 'CTPurple':4 'grey78':10 'CTYellow':0 },165,{ chips  'CTRed':30 'CTGreen':0 'CTPurple':4 'grey78':0 'CTYellow':0 },170
3playersLog_1388233445107.csv,14,510,520,true,{ chips  'grey78':1 },{ chips  'CTRed':19 'CTPurple':4 },FALSE,155,165,,,,,1,(R:1,C:7),{ chips  'CTRed':17 'CTGreen':0 'CTPurple':4 'grey78':2 'CTYellow':7 },150,{ chips  'CTRed':19 'CTGreen':0 'CTPurple':4 'grey78':10 'CTYellow':0 },165,{ chips  'CTRed':30 'CTGreen':0 'CTPurple':4 'grey78':0 'CTYellow':0 },170
3playersLog_1388233445107.csv,15,520,510,false,{ chips  'grey78':1 },{ chips  'grey78':1 },FALSE,165,150,,,,,0,(R:1,C:7),{ chips  'CTRed':17 'CTGreen':0 'CTPurple':4 'grey78':2 'CTYellow':7 },150,{ chips  'CTRed':19 'CTGreen':0 'CTPurple':4 'grey78':10 'CTYellow':0 },165,{ chips  'CTRed':30 'CTGreen':0 'CTPurple':4 'grey78':0 'CTYellow':0 },170
3playersLog_1388233445107.csv,15,540,510,false,{ chips  'CTPurple':4 },{ chips  'CTRed':4 },FALSE,170,150,,,,,0,(R:1,C:7),{ chips  'CTRed':17 'CTGreen':0 'CTPurple':4 'grey78':2 'CTYellow':7 },150,{ chips  'CTRed':19 'CTGreen':0 'CTPurple':4 'grey78':10 'CTYellow':0 },165,{ chips  'CTRed':30 'CTGreen':0 'CTPurple':4 'grey78':0 'CTYellow':0 },170
3playersLog_1388233445107.csv,16,510,520,true,{ chips  'grey78':1 },{ chips  'CTRed':19 'CTPurple':4 },FALSE,150,165,,,,,1,(R:1,C:8),{ chips  'CTRed':17 'CTGreen':0 'CTPurple':4 'grey78':2 'CTYellow':6 },145,{ chips  'CTRed':19 'CTGreen':0 'CTPurple':4 'grey78':10 'CTYellow':0 },165,{ chips  'CTRed':30 'CTGreen':0 'CTPurple':4 'grey78':0 'CTYellow':0 },170
3playersLog_1388233445107.csv,17,520,510,false,{ chips  'grey78':1 },{ chips  'CTRed':2 },FALSE,165,145,,,,,0,(R:1,C:8),{ chips  'CTRed':17 'CTGreen':0 'CTPurple':4 'grey78':2 'CTYellow':6 },145,{ chips  'CTRed':19 'CTGreen':0 'CTPurple':4 'grey78':10 'CTYellow':0 },165,{ chips  'CTRed':30 'CTGreen':0 'CTPurple':4 'grey78':0 'CTYellow':0 },170
3playersLog_1388233445107.csv,17,540,510,false,{ chips  'CTPurple':4 },{ chips  'CTYellow':4 },FALSE,170,145,,,,,0,(R:1,C:8),{ chips  'CTRed':17 'CTGreen':0 'CTPurple':4 'grey78':2 'CTYellow':6 },145,{ chips  'CTRed':19 'CTGreen':0 'CTPurple':4 'grey78':10 'CTYellow':0 },165,{ chips  'CTRed':30 'CTGreen':0 'CTPurple':4 'grey78':0 'CTYellow':0 },170
3playersLog_1388233445107.csv,18,510,520,true,{ chips  'grey78':1 },{ chips  'CTRed':19 'CTPurple':4 },FALSE,145,165,,,,,1,(R:0,C:8),{ chips  'CTRed':17 'CTGreen':0 'CTPurple':4 'grey78':2 'CTYellow':5 },290,{ chips  'CTRed':19 'CTGreen':0 'CTPurple':4 'grey78':10 'CTYellow':0 },315,{ chips  'CTRed':30 'CTGreen':0 'CTPurple':4 'grey78':0 'CTYellow':0 },170
3playersLog_1388233445107.csv,,,,,,,,,,,,,,,,,,,,,,,,true
