filename,round,propID,respID,IsPropCustomer,accept,propCurrentScore,respCurrentScore,propResultingScore,respResultingScore,#ofCustomerMovesInRound,customerRowPositionAfterMovePhase,customerColPositionAfterMovePhase,Player100ScoreAfterMovePhase,Player200ScoreAfterMovePhase,Player300ScoreAfterMovePhase,isCommitment,generosityLevel,ClientReachedGoal
3playersLog_1378885357867.csv,1,520,510,FALSE,IGNORED,200,120,175,145,0,5,4,150,200,170,FALSE,,
3playersLog_1378885357867.csv,1,540,510,FALSE,TRUE,200,120,170,150,0,5,4,150,200,170,FALSE,,
3playersLog_1378885357867.csv,2,510,520,TRUE,FALSE,150,200,295,55,1,5,3,145,200,170,TRUE,,
3playersLog_1378885357867.csv,3,520,510,FALSE,TRUE,200,145,175,170,0,5,3,170,175,170,FALSE,,
3playersLog_1378885357867.csv,3,540,510,FALSE,IGNORED,170,145,160,155,0,5,3,170,175,170,FALSE,,
3playersLog_1378885357867.csv,4,510,540,TRUE,TRUE,170,175,280,60,1,4,3,275,175,60,FALSE,,
3playersLog_1378885357867.csv,5,520,510,FALSE,IGNORED,175,275,145,305,0,4,3,280,175,55,TRUE,,
3playersLog_1378885357867.csv,5,540,510,FALSE,TRUE,60,275,55,280,0,4,3,280,175,55,FALSE,,
3playersLog_1378885357867.csv,6,510,540,TRUE,FALSE,280,55,315,20,1,3,3,275,175,55,FALSE,,
3playersLog_1378885357867.csv,7,520,510,FALSE,TRUE,175,275,135,315,0,3,3,315,135,55,FALSE,,
3playersLog_1378885357867.csv,7,540,510,FALSE,IGNORED,55,275,50,280,0,3,3,315,135,55,FALSE,,
3playersLog_1378885357867.csv,8,510,540,TRUE,FALSE,315,55,355,15,1,3,2,310,135,55,FALSE,,
3playersLog_1378885357867.csv,9,520,510,FALSE,IGNORED,135,310,125,320,0,3,2,315,135,50,TRUE,,
3playersLog_1378885357867.csv,9,540,510,FALSE,TRUE,55,310,50,315,0,3,2,315,135,50,FALSE,,
3playersLog_1378885357867.csv,10,510,540,TRUE,FALSE,315,50,330,35,1,3,1,310,135,50,FALSE,,
3playersLog_1378885357867.csv,11,520,510,FALSE,IGNORED,135,310,105,340,0,3,1,315,135,45,TRUE,,
3playersLog_1378885357867.csv,11,540,510,FALSE,TRUE,50,310,45,315,0,3,1,315,135,45,FALSE,,
3playersLog_1378885357867.csv,12,510,520,TRUE,FALSE,315,135,420,30,1,2,1,310,135,45,TRUE,,
3playersLog_1378885357867.csv,13,520,510,FALSE,IGNORED,135,310,95,350,0,2,1,325,135,30,TRUE,,
3playersLog_1378885357867.csv,13,540,510,FALSE,TRUE,45,310,30,325,0,2,1,325,135,30,FALSE,,
3playersLog_1378885357867.csv,14,510,520,TRUE,FALSE,325,135,430,30,1,1,1,320,135,30,TRUE,,
3playersLog_1378885357867.csv,15,520,510,FALSE,IGNORED,135,320,160,295,0,1,1,345,135,5,FALSE,,
3playersLog_1378885357867.csv,15,540,510,FALSE,TRUE,30,320,5,345,0,1,1,345,135,5,FALSE,,
3playersLog_1378885357867.csv,16,510,520,TRUE,FALSE,345,135,450,30,1,1,0,340,135,5,TRUE,,
3playersLog_1378885357867.csv,17,520,510,FALSE,IGNORED,135,340,75,400,0,1,0,345,135,0,TRUE,,
3playersLog_1378885357867.csv,17,540,510,FALSE,TRUE,5,340,0,345,0,1,0,345,135,0,FALSE,,
3playersLog_1378885357867.csv,18,510,520,TRUE,FALSE,345,135,450,30,1,0,0,490,135,150,TRUE,,
3playersLog_1378885379314.csv,1,520,510,FALSE,TRUE,200,120,195,125,0,5,4,125,195,200,FALSE,,
3playersLog_1378885379314.csv,1,540,510,FALSE,IGNORED,200,120,210,110,0,5,4,125,195,200,FALSE,,
3playersLog_1378885379314.csv,2,510,520,TRUE,FALSE,125,195,265,55,1,5,5,120,195,200,TRUE,,
3playersLog_1378885379314.csv,3,520,510,FALSE,TRUE,195,120,125,190,0,5,5,190,125,200,FALSE,,
3playersLog_1378885379314.csv,3,540,510,FALSE,IGNORED,200,120,165,155,0,5,5,190,125,200,FALSE,,
3playersLog_1378885379314.csv,4,510,520,TRUE,FALSE,190,125,260,55,1,4,5,185,125,200,TRUE,,
3playersLog_1378885379314.csv,5,520,510,FALSE,FALSE,125,185,145,165,0,4,5,185,125,200,TRUE,,
3playersLog_1378885379314.csv,5,540,510,FALSE,FALSE,200,185,200,185,0,4,5,185,125,200,FALSE,,
3playersLog_1378885379314.csv,6,510,520,TRUE,FALSE,185,125,255,55,1,4,6,180,125,200,TRUE,,
3playersLog_1378885379314.csv,7,520,510,FALSE,IGNORED,125,180,125,180,0,4,6,205,125,175,TRUE,,
3playersLog_1378885379314.csv,7,540,510,FALSE,TRUE,200,180,175,205,0,4,6,205,125,175,FALSE,,
3playersLog_1378885379314.csv,8,510,520,TRUE,FALSE,205,125,270,60,1,3,6,200,125,175,FALSE,,
3playersLog_1378885379314.csv,9,520,510,FALSE,FALSE,125,200,95,230,0,3,6,200,125,175,FALSE,,
3playersLog_1378885379314.csv,9,540,510,FALSE,FALSE,175,200,185,190,0,3,6,200,125,175,FALSE,,
3playersLog_1378885379314.csv,10,510,520,TRUE,FALSE,200,125,240,85,1,3,7,195,125,175,FALSE,,
3playersLog_1378885379314.csv,11,520,510,FALSE,FALSE,125,195,175,145,0,3,7,195,125,175,FALSE,,
3playersLog_1378885379314.csv,11,540,510,FALSE,FALSE,175,195,180,190,0,3,7,195,125,175,FALSE,,
3playersLog_1378885379314.csv,12,510,520,TRUE,FALSE,195,125,270,50,1,2,7,190,125,175,FALSE,,
3playersLog_1378885379314.csv,13,520,510,FALSE,FALSE,125,190,200,115,0,2,7,190,125,175,FALSE,,
3playersLog_1378885379314.csv,13,540,510,FALSE,FALSE,175,190,185,180,0,2,7,190,125,175,FALSE,,
3playersLog_1378885379314.csv,14,510,520,TRUE,FALSE,190,125,265,50,1,1,7,185,125,175,FALSE,,
3playersLog_1378885379314.csv,15,520,510,FALSE,FALSE,125,185,190,120,0,1,7,185,125,175,FALSE,,
3playersLog_1378885379314.csv,15,540,510,FALSE,FALSE,175,185,175,185,0,1,7,185,125,175,FALSE,,
3playersLog_1378885379314.csv,16,510,520,TRUE,FALSE,185,125,220,90,1,1,8,180,125,175,FALSE,,
3playersLog_1378885379314.csv,17,520,510,FALSE,IGNORED,125,180,225,80,0,1,8,200,125,155,FALSE,,
3playersLog_1378885379314.csv,17,540,510,FALSE,TRUE,175,180,155,200,0,1,8,200,125,155,FALSE,,
3playersLog_1378885379314.csv,18,510,520,TRUE,FALSE,200,125,260,65,1,0,8,345,275,155,FALSE,,
3playersLog_1378885585275.csv,1,520,510,FALSE,TRUE,200,120,105,215,0,5,4,215,105,200,FALSE,,
3playersLog_1378885585275.csv,1,540,510,FALSE,IGNORED,200,120,200,120,0,5,4,215,105,200,FALSE,,
3playersLog_1378885585275.csv,2,510,520,TRUE,FALSE,215,105,265,55,1,5,3,210,105,200,TRUE,,
3playersLog_1378885585275.csv,3,520,510,FALSE,IGNORED,105,210,90,225,0,5,3,255,105,155,FALSE,,
3playersLog_1378885585275.csv,3,540,510,FALSE,TRUE,200,210,155,255,0,5,3,255,105,155,FALSE,,
3playersLog_1378885585275.csv,4,510,540,TRUE,FALSE,255,155,355,55,1,4,3,250,105,155,TRUE,,
3playersLog_1378885585275.csv,5,540,510,FALSE,TRUE,155,250,135,270,0,4,3,270,105,135,FALSE,,
3playersLog_1378885585275.csv,6,510,540,TRUE,FALSE,270,135,350,55,1,3,3,265,105,135,TRUE,,
3playersLog_1378885585275.csv,7,520,510,FALSE,IGNORED,105,265,100,270,0,3,3,280,105,120,FALSE,,
3playersLog_1378885585275.csv,7,540,510,FALSE,TRUE,135,265,120,280,0,3,3,280,105,120,FALSE,,
3playersLog_1378885585275.csv,8,510,540,TRUE,FALSE,280,120,345,55,1,3,2,275,105,120,TRUE,,
3playersLog_1378885585275.csv,9,520,510,FALSE,TRUE,105,275,65,315,0,3,2,315,65,120,FALSE,,
3playersLog_1378885585275.csv,9,540,510,FALSE,IGNORED,120,275,120,275,0,3,2,315,65,120,FALSE,,
3playersLog_1378885585275.csv,10,510,520,TRUE,FALSE,315,65,335,45,1,3,3,310,65,120,FALSE,,
3playersLog_1378885585275.csv,11,520,510,FALSE,FALSE,65,310,75,300,0,3,3,310,65,120,FALSE,,
3playersLog_1378885585275.csv,11,540,510,FALSE,FALSE,120,310,130,300,0,3,3,310,65,120,FALSE,,
3playersLog_1378885585275.csv,12,510,520,TRUE,TRUE,310,65,310,65,1,3,4,305,65,120,FALSE,,
3playersLog_1378885585275.csv,13,520,510,FALSE,FALSE,65,305,65,305,0,3,4,305,65,120,FALSE,,
3playersLog_1378885585275.csv,13,540,510,FALSE,FALSE,120,305,120,305,0,3,4,305,65,120,FALSE,,
3playersLog_1378885585275.csv,14,510,520,TRUE,FALSE,305,65,325,45,1,3,5,300,65,120,FALSE,,
3playersLog_1378885585275.csv,15,520,510,FALSE,IGNORED,65,300,65,300,0,3,5,310,65,110,FALSE,,
3playersLog_1378885585275.csv,15,540,510,FALSE,TRUE,120,300,110,310,0,3,5,310,65,110,FALSE,,
3playersLog_1378885585275.csv,16,510,520,TRUE,FALSE,310,65,335,40,1,3,6,305,65,110,TRUE,,
3playersLog_1378885585275.csv,17,520,510,FALSE,IGNORED,65,305,65,305,0,3,6,335,65,80,FALSE,,
3playersLog_1378885585275.csv,17,540,510,FALSE,TRUE,110,305,80,335,0,3,6,335,65,80,FALSE,,
3playersLog_1378885585275.csv,18,510,520,TRUE,FALSE,335,65,360,40,1,3,7,330,65,80,TRUE,,
3playersLog_1378885585275.csv,19,520,510,FALSE,IGNORED,65,330,70,325,0,3,7,340,65,70,TRUE,,
3playersLog_1378885585275.csv,19,540,510,FALSE,TRUE,80,330,70,340,0,3,7,340,65,70,FALSE,,
3playersLog_1378885585275.csv,20,510,520,TRUE,FALSE,340,65,365,40,1,2,7,335,65,70,TRUE,,
3playersLog_1378885585275.csv,21,520,510,FALSE,IGNORED,65,335,70,330,0,2,7,340,65,65,TRUE,,
3playersLog_1378885585275.csv,21,540,510,FALSE,TRUE,70,335,65,340,0,2,7,340,65,65,FALSE,,
3playersLog_1378885585275.csv,22,510,520,TRUE,FALSE,340,65,365,40,1,1,7,335,65,65,TRUE,,
3playersLog_1378885585275.csv,23,520,510,FALSE,FALSE,65,335,65,335,0,1,7,335,65,65,FALSE,,
3playersLog_1378885585275.csv,23,540,510,FALSE,FALSE,65,335,40,360,0,1,7,335,65,65,TRUE,,
3playersLog_1378885585275.csv,24,510,520,TRUE,FALSE,335,65,360,40,1,1,8,330,65,65,TRUE,,
3playersLog_1378885585275.csv,25,520,510,FALSE,FALSE,65,330,75,320,0,1,8,330,65,65,TRUE,,
3playersLog_1378885585275.csv,25,540,510,FALSE,FALSE,65,330,40,355,0,1,8,330,65,65,TRUE,,
3playersLog_1378885585275.csv,26,510,520,TRUE,FALSE,330,65,355,40,1,0,8,475,215,65,TRUE,,
3playersLog_1378889109735.csv,1,520,510,FALSE,TRUE,200,120,190,130,0,5,4,130,190,200,FALSE,,
3playersLog_1378889109735.csv,1,540,510,FALSE,IGNORED,200,120,215,105,0,5,4,130,190,200,FALSE,,
3playersLog_1378889109735.csv,2,510,540,TRUE,TRUE,130,190,275,55,9,0,0,380,190,205,TRUE,,
3playersLog_1378889406775.csv,1,520,510,FALSE,IGNORED,200,120,190,130,0,5,4,140,200,180,FALSE,,
3playersLog_1378889406775.csv,1,540,510,FALSE,TRUE,200,120,180,140,0,5,4,140,200,180,FALSE,,
3playersLog_1378889406775.csv,2,510,540,TRUE,FALSE,140,180,265,55,1,5,3,135,200,180,TRUE,,
3playersLog_1378889406775.csv,3,520,510,FALSE,TRUE,200,135,155,180,0,5,3,180,155,180,FALSE,,
3playersLog_1378889406775.csv,3,540,510,FALSE,IGNORED,180,135,185,130,0,5,3,180,155,180,TRUE,,
3playersLog_1378889406775.csv,4,510,540,TRUE,FALSE,180,180,305,55,1,4,3,175,155,180,TRUE,,
3playersLog_1378889406775.csv,5,520,510,FALSE,IGNORED,155,175,145,185,0,4,3,225,155,130,FALSE,,
3playersLog_1378889406775.csv,5,540,510,FALSE,TRUE,180,175,130,225,0,4,3,225,155,130,FALSE,,
3playersLog_1378889406775.csv,6,510,540,TRUE,FALSE,225,130,300,55,1,3,3,220,155,130,TRUE,,
3playersLog_1378889406775.csv,7,520,510,FALSE,TRUE,155,220,140,235,0,3,3,235,140,130,FALSE,,
3playersLog_1378889406775.csv,7,540,510,FALSE,IGNORED,130,220,130,220,0,3,3,235,140,130,FALSE,,
3playersLog_1378889406775.csv,8,510,540,TRUE,FALSE,235,130,290,75,1,3,2,230,140,130,TRUE,,
3playersLog_1378889406775.csv,9,520,510,FALSE,TRUE,140,230,120,250,0,3,2,250,120,130,FALSE,,
3playersLog_1378889406775.csv,9,540,510,FALSE,IGNORED,130,230,130,230,0,3,2,250,120,130,TRUE,,
3playersLog_1378889406775.csv,10,510,520,TRUE,TRUE,250,120,330,40,9,0,8,435,190,130,TRUE,,
3playersLog_1378889938670.csv,1,520,510,FALSE,TRUE,200,120,175,145,0,5,4,145,175,200,FALSE,,
3playersLog_1378889938670.csv,1,540,510,FALSE,IGNORED,200,120,200,120,0,5,4,145,175,200,FALSE,,
3playersLog_1378889938670.csv,2,510,520,TRUE,TRUE,145,175,265,55,9,0,8,370,205,200,TRUE,,
3playersLog_1378893765922.csv,1,520,510,FALSE,TRUE,200,120,190,130,0,5,4,130,190,200,FALSE,,
3playersLog_1378893765922.csv,1,540,510,FALSE,IGNORED,200,120,205,115,0,5,4,130,190,200,FALSE,,
3playersLog_1378893765922.csv,2,510,520,TRUE,FALSE,130,190,265,55,1,5,3,125,190,200,TRUE,,
3playersLog_1378893765922.csv,3,520,510,FALSE,FALSE,190,125,190,125,0,5,3,125,190,200,FALSE,,
3playersLog_1378893765922.csv,3,540,510,FALSE,FALSE,200,125,200,125,0,5,3,125,190,200,FALSE,,
3playersLog_1378893765922.csv,4,510,540,TRUE,FALSE,125,200,145,180,1,4,3,120,190,200,FALSE,,
3playersLog_1378893765922.csv,5,520,510,FALSE,TRUE,190,120,180,130,0,4,3,130,180,200,FALSE,,
3playersLog_1378893765922.csv,5,540,510,FALSE,IGNORED,200,120,210,110,0,4,3,130,180,200,FALSE,,
3playersLog_1378893765922.csv,6,510,540,TRUE,FALSE,130,200,235,95,1,3,3,125,180,200,FALSE,,
3playersLog_1378893765922.csv,7,520,510,FALSE,TRUE,180,125,160,145,0,3,3,145,160,200,FALSE,,
3playersLog_1378893765922.csv,7,540,510,FALSE,IGNORED,200,125,195,130,0,3,3,145,160,200,FALSE,,
3playersLog_1378893765922.csv,8,510,520,TRUE,FALSE,145,160,260,45,1,3,4,140,160,200,TRUE,,
3playersLog_1378893765922.csv,9,520,510,FALSE,IGNORED,160,140,140,160,0,3,4,175,160,165,TRUE,,
3playersLog_1378893765922.csv,9,540,510,FALSE,TRUE,200,140,165,175,0,3,4,175,160,165,FALSE,,
3playersLog_1378893765922.csv,10,510,520,TRUE,FALSE,175,160,290,45,1,3,5,170,160,165,TRUE,,
3playersLog_1378893765922.csv,11,520,510,FALSE,TRUE,160,170,150,180,0,3,5,180,150,165,FALSE,,
3playersLog_1378893765922.csv,11,540,510,FALSE,IGNORED,165,170,130,205,0,3,5,180,150,165,FALSE,,
3playersLog_1378893765922.csv,12,510,520,TRUE,FALSE,180,150,285,45,1,3,6,175,150,165,TRUE,,
3playersLog_1378893765922.csv,13,520,510,FALSE,FALSE,150,175,145,180,0,3,6,175,150,165,TRUE,,
3playersLog_1378893765922.csv,13,540,510,FALSE,FALSE,165,175,110,230,0,3,6,175,150,165,FALSE,,
3playersLog_1378893765922.csv,14,510,520,TRUE,FALSE,175,150,280,45,1,3,7,170,150,165,TRUE,,
3playersLog_1378893765922.csv,15,520,510,FALSE,IGNORED,150,170,130,190,0,3,7,180,150,155,TRUE,,
3playersLog_1378893765922.csv,15,540,510,FALSE,TRUE,165,170,155,180,0,3,7,180,150,155,FALSE,,
3playersLog_1378893765922.csv,16,510,520,TRUE,FALSE,180,150,195,135,1,2,7,175,150,155,FALSE,,
3playersLog_1378893765922.csv,17,540,510,FALSE,IGNORED,155,175,155,175,0,2,7,175,150,155,FALSE,,
3playersLog_1378893765922.csv,18,510,520,TRUE,FALSE,175,150,235,90,1,1,7,170,150,155,FALSE,,
3playersLog_1378893765922.csv,19,520,510,FALSE,IGNORED,150,170,135,185,0,1,7,250,150,75,FALSE,,
3playersLog_1378893765922.csv,19,540,510,FALSE,TRUE,155,170,75,250,0,1,7,250,150,75,FALSE,,
3playersLog_1378893765922.csv,20,510,540,TRUE,TRUE,250,150,255,70,1,1,6,250,150,70,FALSE,,
3playersLog_1378893765922.csv,21,520,510,FALSE,TRUE,150,250,120,280,0,1,6,280,120,70,FALSE,,
3playersLog_1378893765922.csv,21,540,510,FALSE,IGNORED,70,250,80,240,0,1,6,280,120,70,TRUE,,
3playersLog_1378893765922.csv,22,510,520,TRUE,TRUE,280,120,355,45,3,0,8,490,195,70,TRUE,,
3playersLog_1378893768361.csv,1,520,510,FALSE,TRUE,200,120,160,160,0,5,4,160,160,200,FALSE,,
3playersLog_1378893768361.csv,1,540,510,FALSE,IGNORED,200,120,180,140,0,5,4,160,160,200,FALSE,,
3playersLog_1378893768361.csv,2,510,520,TRUE,TRUE,160,160,265,55,9,0,8,370,205,200,TRUE,,
3playersLog_1378967170052.csv,1,520,510,FALSE,IGNORED,200,120,190,130,0,5,4,155,200,165,FALSE,,
3playersLog_1378967170052.csv,1,540,510,FALSE,TRUE,200,120,165,155,0,5,4,155,200,165,FALSE,,
3playersLog_1378967170052.csv,2,510,540,TRUE,TRUE,155,200,265,55,9,0,0,370,200,205,TRUE,,
3playersLog_1378967183131.csv,1,520,510,FALSE,IGNORED,200,120,190,130,0,5,4,130,200,190,FALSE,,
3playersLog_1378967183131.csv,1,540,510,FALSE,TRUE,200,120,190,130,0,5,4,130,200,190,FALSE,,
3playersLog_1378967183131.csv,2,510,540,TRUE,TRUE,130,200,265,55,9,0,0,370,200,205,TRUE,,
3playersLog_1378971877048.csv,1,520,510,FALSE,TRUE,200,120,185,135,0,5,4,135,185,200,FALSE,,
3playersLog_1378971877048.csv,1,540,510,FALSE,IGNORED,200,120,200,120,0,5,4,135,185,200,FALSE,,
3playersLog_1378971877048.csv,2,510,540,TRUE,TRUE,135,185,280,55,9,0,0,385,185,205,TRUE,,
3playersLog_1377179062103.csv,1,520,510,FALSE,TRUE,200,120,165,155,0,5,4,155,165,200,FALSE,,
3playersLog_1377179062103.csv,1,540,510,FALSE,IGNORED,200,120,190,130,0,5,4,155,165,200,FALSE,,
3playersLog_1377179062103.csv,2,510,520,TRUE,TRUE,155,165,265,55,9,0,8,370,205,200,TRUE,,
3playersLog_1377183390606.csv,1,520,510,FALSE,IGNORED,200,120,195,125,0,5,4,170,200,150,FALSE,,
3playersLog_1377183390606.csv,1,540,510,FALSE,TRUE,200,120,150,170,0,5,4,170,200,150,FALSE,,
3playersLog_1377183390606.csv,2,510,520,TRUE,FALSE,170,200,315,55,1,5,5,165,200,150,TRUE,,
3playersLog_1377183390606.csv,3,520,510,FALSE,IGNORED,200,165,250,115,0,5,5,165,200,150,TRUE,,
3playersLog_1377183390606.csv,4,510,520,TRUE,FALSE,165,200,310,55,1,4,5,160,200,150,TRUE,,
3playersLog_1377183390606.csv,5,520,510,FALSE,FALSE,200,160,190,170,0,4,5,160,200,150,TRUE,,
3playersLog_1377183390606.csv,5,540,510,FALSE,FALSE,150,160,155,155,0,4,5,160,200,150,FALSE,,
3playersLog_1377183390606.csv,6,510,520,TRUE,TRUE,160,200,305,55,7,0,8,420,205,150,TRUE,,
3playersLog_1378207807843.csv,1,520,510,FALSE,FALSE,200,120,200,120,0,5,4,120,200,200,FALSE,,
3playersLog_1378207807843.csv,1,540,510,FALSE,FALSE,200,120,200,120,0,5,4,120,200,200,FALSE,,
3playersLog_1378207807843.csv,2,510,520,TRUE,TRUE,120,200,265,55,9,0,8,370,205,200,TRUE,,
3playersLog_1378215800276.csv,1,540,510,FALSE,IGNORED,200,120,200,120,0,5,4,120,200,200,FALSE,,
3playersLog_1378215800276.csv,2,510,520,TRUE,FALSE,120,200,265,55,1,5,5,115,200,200,TRUE,,
3playersLog_1378215800276.csv,3,520,510,FALSE,TRUE,200,115,165,150,0,5,5,150,165,200,FALSE,,
3playersLog_1378215800276.csv,3,540,510,FALSE,IGNORED,200,115,210,105,0,5,5,150,165,200,FALSE,,
3playersLog_1378215800276.csv,4,510,520,TRUE,FALSE,150,165,260,55,1,4,5,145,165,200,TRUE,,
3playersLog_1378215800276.csv,5,520,510,FALSE,TRUE,165,145,140,170,0,4,5,170,140,200,FALSE,,
3playersLog_1378215800276.csv,5,540,510,FALSE,IGNORED,200,145,245,100,0,4,5,170,140,200,FALSE,,
3playersLog_1378215800276.csv,6,510,520,TRUE,FALSE,170,140,255,55,1,4,6,165,140,200,TRUE,,
3playersLog_1378215800276.csv,7,520,510,FALSE,IGNORED,140,165,140,165,0,4,6,270,140,95,FALSE,,
3playersLog_1378215800276.csv,7,540,510,FALSE,TRUE,200,165,95,270,0,4,6,270,140,95,FALSE,,
3playersLog_1378215800276.csv,8,510,520,TRUE,FALSE,270,140,355,55,1,3,6,265,140,95,TRUE,,
3playersLog_1378215800276.csv,9,540,510,FALSE,IGNORED,95,265,65,295,0,3,6,265,140,95,TRUE,,
3playersLog_1378215800276.csv,10,510,520,TRUE,FALSE,265,140,350,55,1,3,7,260,140,95,TRUE,,
3playersLog_1378215800276.csv,11,520,510,FALSE,IGNORED,140,260,140,260,10,0,0,410,140,195,FALSE,,
3playersLog_1378215800276.csv,11,540,510,FALSE,TRUE,95,260,45,310,10,0,0,410,140,195,TRUE,,
3playersLog_1378880416013.csv,1,530,500,FALSE,TRUE,200,120,55,265,1,5,5,260,55,200,TRUE,,
3playersLog_1378880416013.csv,2,500,530,TRUE,FALSE,255,55,280,30,2,3,6,245,55,200,FALSE,,
3playersLog_1378880416013.csv,3,530,500,FALSE,IGNORED,55,245,55,245,1,3,5,300,55,140,TRUE,,
3playersLog_1378880416013.csv,3,540,500,FALSE,TRUE,200,245,140,305,1,3,5,300,55,140,FALSE,,
3playersLog_1378880416013.csv,4,500,540,TRUE,TRUE,300,55,340,100,1,3,4,335,55,100,FALSE,,
3playersLog_1378880416013.csv,5,530,500,FALSE,TRUE,55,335,55,335,7,0,8,450,205,100,TRUE,,
3playersLog_1378880416013.csv,5,540,500,FALSE,IGNORED,100,335,110,325,7,0,8,450,205,100,FALSE,,
3playersLog_1378880422374.csv,1,530,500,FALSE,TRUE,200,120,55,265,0,5,4,265,55,200,TRUE,,
3playersLog_1378880422374.csv,2,500,530,TRUE,TRUE,265,55,260,60,9,0,8,365,210,200,TRUE,,
3playersLog_1378880443387.csv,1,530,500,FALSE,FALSE,200,120,55,265,0,5,4,120,200,200,TRUE,,
3playersLog_1378880443387.csv,1,540,500,FALSE,FALSE,200,120,210,110,0,5,4,120,200,200,FALSE,,
3playersLog_1378880443387.csv,2,500,530,TRUE,FALSE,120,200,130,190,9,0,0,225,200,350,FALSE,,
3playersLog_1378972008630.csv,1,530,500,FALSE,IGNORED,200,120,55,265,0,5,4,120,200,200,TRUE,,
3playersLog_1378972008630.csv,1,540,500,FALSE,IGNORED,200,120,195,125,0,5,4,120,200,200,FALSE,,
3playersLog_1378972008630.csv,2,500,540,TRUE,TRUE,120,200,130,190,1,5,3,125,200,190,FALSE,,
3playersLog_1378972008630.csv,3,530,500,FALSE,FALSE,200,125,55,270,0,5,3,125,200,190,TRUE,,
3playersLog_1378972008630.csv,3,540,500,FALSE,FALSE,190,125,130,185,0,5,3,125,200,190,TRUE,,
3playersLog_1378972008630.csv,4,500,540,TRUE,FALSE,120,190,175,135,1,4,2,115,200,190,FALSE,,
3playersLog_1378972008630.csv,5,530,500,FALSE,FALSE,200,115,55,260,1,3,2,110,200,190,TRUE,,
3playersLog_1378972008630.csv,5,540,500,FALSE,FALSE,190,115,150,155,1,3,2,110,200,190,FALSE,,
3playersLog_1378972008630.csv,6,500,530,TRUE,IGNORED,110,200,170,140,0,3,2,110,200,190,FALSE,,
3playersLog_1378972008630.csv,7,530,500,FALSE,FALSE,200,110,55,255,1,3,3,105,200,190,TRUE,,
3playersLog_1378972008630.csv,7,540,500,FALSE,FALSE,190,110,110,190,1,3,3,105,200,190,TRUE,,
3playersLog_1378972008630.csv,8,500,540,TRUE,IGNORED,105,190,140,155,1,3,4,100,200,190,FALSE,,
3playersLog_1378972008630.csv,9,530,500,FALSE,FALSE,200,100,55,245,1,3,5,95,200,190,TRUE,,
3playersLog_1378972008630.csv,9,540,500,FALSE,FALSE,190,100,70,220,1,3,5,95,200,190,TRUE,,
3playersLog_1378972008630.csv,10,500,530,TRUE,IGNORED,95,200,80,215,1,3,6,90,200,190,FALSE,,
3playersLog_1378972008630.csv,11,530,500,FALSE,FALSE,200,90,55,235,0,3,6,90,200,190,TRUE,,
3playersLog_1378972008630.csv,11,540,500,FALSE,FALSE,190,90,275,5,0,3,6,90,200,190,TRUE,,
3playersLog_1378972008630.csv,12,500,540,TRUE,FALSE,90,190,230,50,2,2,7,80,200,190,FALSE,,
3playersLog_1378972008630.csv,13,530,500,FALSE,TRUE,200,75,55,220,2,0,8,360,205,190,TRUE,,
3playersLog_1378975781675.csv,1,530,500,FALSE,IGNORED,200,120,55,265,0,5,4,175,200,145,TRUE,,
3playersLog_1378975781675.csv,1,540,500,FALSE,TRUE,200,120,145,175,0,5,4,175,200,145,FALSE,,
3playersLog_1378975781675.csv,2,500,540,TRUE,TRUE,175,200,195,125,9,0,8,300,350,125,FALSE,,
3playersLog_1378976067161.csv,1,530,500,FALSE,FALSE,200,120,55,265,0,5,4,120,200,200,TRUE,,
3playersLog_1378976067161.csv,1,540,500,FALSE,FALSE,200,120,190,130,0,5,4,120,200,200,FALSE,,
3playersLog_1378976067161.csv,2,500,530,TRUE,TRUE,120,200,110,210,1,5,5,105,210,200,FALSE,,
3playersLog_1378976067161.csv,3,530,500,FALSE,FALSE,210,105,65,250,1,4,5,100,210,200,TRUE,,
3playersLog_1378976067161.csv,3,540,500,FALSE,FALSE,200,105,215,90,1,4,5,100,210,200,FALSE,,
3playersLog_1378976067161.csv,4,500,530,TRUE,FALSE,100,210,280,30,1,5,5,95,210,200,FALSE,,
3playersLog_1378976067161.csv,5,530,500,FALSE,TRUE,210,95,65,240,1,4,5,235,65,200,TRUE,,
3playersLog_1378976067161.csv,6,500,530,TRUE,TRUE,235,65,215,85,2,3,4,205,85,200,FALSE,,
3playersLog_1378976067161.csv,7,530,500,FALSE,FALSE,85,205,55,235,1,3,3,200,85,200,TRUE,,
3playersLog_1378976067161.csv,7,540,500,FALSE,FALSE,200,205,200,205,1,3,3,200,85,200,TRUE,,
3playersLog_1378976067161.csv,8,500,540,TRUE,FALSE,200,200,280,120,2,3,5,190,85,200,FALSE,,
3playersLog_1378976067161.csv,9,530,500,FALSE,IGNORED,85,190,55,220,1,3,6,220,85,165,TRUE,,
3playersLog_1378976067161.csv,9,540,500,FALSE,TRUE,200,190,165,225,1,3,6,220,85,165,FALSE,,
3playersLog_1378976067161.csv,10,500,540,TRUE,TRUE,220,85,265,120,1,3,5,260,85,120,TRUE,,
3playersLog_1378976067161.csv,11,530,500,FALSE,TRUE,85,255,85,255,3,3,7,240,85,120,TRUE,,
3playersLog_1378976067161.csv,11,540,500,FALSE,IGNORED,120,255,185,190,3,3,7,240,85,120,TRUE,,
3playersLog_1378976067161.csv,12,500,530,TRUE,TRUE,240,85,255,70,4,1,5,235,70,120,TRUE,,
3playersLog_1378976067161.csv,13,530,500,FALSE,TRUE,70,235,70,235,0,1,5,235,70,120,TRUE,,
3playersLog_1378976067161.csv,13,540,500,FALSE,FALSE,120,235,160,195,0,1,5,235,70,120,TRUE,,
3playersLog_1378976067161.csv,14,500,540,TRUE,FALSE,235,120,255,100,0,1,5,235,70,120,TRUE,,
3playersLog_1378976168801.csv,1,530,500,FALSE,TRUE,200,120,55,265,1,5,5,260,55,200,TRUE,,
3playersLog_1378976168801.csv,1,540,500,FALSE,IGNORED,200,120,200,120,1,5,5,260,55,200,FALSE,,
3playersLog_1378976168801.csv,2,500,530,TRUE,TRUE,260,55,260,55,1,4,5,255,55,200,FALSE,,
3playersLog_1378976168801.csv,3,530,500,FALSE,FALSE,55,255,55,255,1,3,5,250,55,200,FALSE,,
3playersLog_1378976168801.csv,3,540,500,FALSE,FALSE,200,255,195,260,1,3,5,250,55,200,FALSE,,
3playersLog_1378976168801.csv,4,500,540,TRUE,TRUE,250,55,295,155,1,3,4,290,55,155,FALSE,,
3playersLog_1378976168801.csv,5,530,500,FALSE,FALSE,55,290,55,290,0,3,4,290,55,155,FALSE,,
3playersLog_1378976168801.csv,5,540,500,FALSE,FALSE,155,290,160,285,0,3,4,290,55,155,FALSE,,
3playersLog_1378976168801.csv,6,500,540,TRUE,FALSE,290,155,335,110,1,3,5,285,55,155,FALSE,,
3playersLog_1378976168801.csv,7,530,500,FALSE,FALSE,55,285,55,285,0,3,5,285,55,155,FALSE,,
3playersLog_1378976168801.csv,7,540,500,FALSE,FALSE,155,285,120,320,0,3,5,285,55,155,TRUE,,
3playersLog_1378976168801.csv,8,500,530,TRUE,FALSE,285,55,315,25,0,3,5,285,55,155,FALSE,,
3playersLog_1377180047084.csv,1,530,500,FALSE,FALSE,200,120,55,265,9,0,0,225,200,350,TRUE,,
3playersLog_1377180047084.csv,1,540,500,FALSE,TRUE,200,120,200,120,9,0,0,225,200,350,FALSE,,
3playersLog_1377183378640.csv,1,530,500,FALSE,FALSE,200,120,55,265,0,5,4,120,200,200,TRUE,,
3playersLog_1377183378640.csv,1,540,500,FALSE,FALSE,200,120,135,185,0,5,4,120,200,200,TRUE,,
3playersLog_1377183378640.csv,2,500,530,TRUE,FALSE,120,200,125,195,7,2,0,85,200,200,FALSE,,
3playersLog_1377183378640.csv,3,530,500,FALSE,IGNORED,200,80,200,80,1,2,0,135,200,140,FALSE,,
3playersLog_1377183378640.csv,3,540,500,FALSE,TRUE,200,80,140,140,1,2,0,135,200,140,TRUE,,
3playersLog_1377183378640.csv,4,500,540,TRUE,FALSE,135,140,135,140,0,2,0,135,200,140,TRUE,,
3playersLog_1377183378640.csv,5,530,500,FALSE,FALSE,200,135,200,135,1,1,0,130,200,140,FALSE,,
3playersLog_1377183378640.csv,5,540,500,FALSE,FALSE,140,135,225,50,1,1,0,130,200,140,TRUE,,
3playersLog_1377183378640.csv,6,500,540,TRUE,FALSE,130,140,130,140,0,1,0,130,200,140,TRUE,,
3playersLog_1377183378640.csv,7,530,500,FALSE,FALSE,200,130,200,130,1,0,0,275,200,290,FALSE,,
3playersLog_1377183378640.csv,7,540,500,FALSE,FALSE,140,130,180,90,1,0,0,275,200,290,TRUE,,
3playersLog_1377183385501.csv,1,530,500,FALSE,IGNORED,200,120,55,265,0,5,4,120,200,200,TRUE,,
3playersLog_1377183385501.csv,1,540,500,FALSE,IGNORED,200,120,205,115,0,5,4,120,200,200,FALSE,,
3playersLog_1377183385501.csv,2,500,540,TRUE,TRUE,120,200,125,195,0,5,4,125,200,195,FALSE,,
3playersLog_1378204369468.csv,1,530,500,FALSE,IGNORED,200,120,55,265,2,4,5,110,200,200,TRUE,,
3playersLog_1378204369468.csv,1,540,500,FALSE,IGNORED,200,120,175,145,2,4,5,110,200,200,FALSE,,
3playersLog_1378204369468.csv,2,500,530,TRUE,FALSE,110,200,160,150,2,3,6,100,200,200,FALSE,,
3playersLog_1378204369468.csv,3,530,500,FALSE,TRUE,200,100,55,245,4,1,8,225,55,200,TRUE,,
3playersLog_1378204369468.csv,3,540,500,FALSE,FALSE,200,100,205,95,4,1,8,225,55,200,FALSE,,
3playersLog_1378204369468.csv,4,500,530,TRUE,FALSE,225,55,240,40,1,0,8,370,205,200,FALSE,,
3playersLog_1378204380041.csv,1,530,500,FALSE,TRUE,200,120,55,265,4,3,6,245,55,200,TRUE,,
3playersLog_1378204380041.csv,2,500,540,TRUE,FALSE,245,200,405,40,4,1,8,225,55,200,FALSE,,
3playersLog_1378204380041.csv,3,530,500,FALSE,FALSE,55,225,55,225,0,1,8,225,55,200,TRUE,,
3playersLog_1378204380041.csv,3,540,500,FALSE,FALSE,200,225,195,230,0,1,8,225,55,200,FALSE,,
3playersLog_1378204380041.csv,4,500,530,TRUE,IGNORED,225,55,200,80,1,1,7,220,55,200,FALSE,,
3playersLog_1378204380041.csv,5,530,500,FALSE,FALSE,55,220,55,220,0,1,7,225,55,195,TRUE,,
3playersLog_1378204380041.csv,5,540,500,FALSE,TRUE,200,220,195,225,0,1,7,225,55,195,TRUE,,
3playersLog_1378204380041.csv,6,500,530,TRUE,IGNORED,225,55,185,95,1,1,6,220,55,195,FALSE,,
3playersLog_1378204380041.csv,7,530,500,FALSE,TRUE,55,220,55,220,0,1,6,220,55,195,TRUE,,
3playersLog_1378204380041.csv,8,500,540,TRUE,TRUE,220,55,40,375,3,0,8,175,205,375,FALSE,,
3playersLog_1378205563639.csv,1,530,520,FALSE,FALSE,200,120,55,265,9,0,8,225,350,200,TRUE,,
3playersLog_1378205563639.csv,1,540,520,FALSE,FALSE,200,120,200,120,9,0,8,225,350,200,FALSE,,
3playersLog_1378211356750.csv,1,530,500,FALSE,IGNORED,200,120,55,265,2,4,5,125,200,185,TRUE,,
3playersLog_1378211356750.csv,1,540,500,FALSE,TRUE,200,120,185,135,2,4,5,125,200,185,FALSE,,
3playersLog_1378211356750.csv,2,500,530,TRUE,FALSE,125,200,280,45,1,4,6,120,200,185,FALSE,,
3playersLog_1378211356750.csv,3,530,500,FALSE,TRUE,200,120,55,265,5,1,8,240,55,185,TRUE,,
3playersLog_1378211356750.csv,4,500,540,TRUE,TRUE,240,55,315,110,1,0,8,460,205,110,FALSE,,
3playersLog_1378211416205.csv,1,530,500,FALSE,FALSE,200,120,55,265,2,4,3,115,200,195,TRUE,,
3playersLog_1378211416205.csv,1,540,500,FALSE,TRUE,200,120,195,125,2,4,3,115,200,195,FALSE,,
3playersLog_1378211416205.csv,2,500,530,TRUE,FALSE,115,200,130,185,2,4,3,105,200,195,FALSE,,
3playersLog_1378211416205.csv,3,530,500,FALSE,FALSE,200,105,55,250,1,3,3,105,200,190,TRUE,,
3playersLog_1378211416205.csv,3,540,500,FALSE,TRUE,195,105,190,110,1,3,3,105,200,190,FALSE,,
3playersLog_1378211416205.csv,4,500,540,TRUE,FALSE,105,190,110,185,0,3,3,105,200,190,FALSE,,
3playersLog_1378211416205.csv,5,530,500,FALSE,IGNORED,200,105,55,250,1,3,4,105,200,185,TRUE,,
3playersLog_1378211416205.csv,5,540,500,FALSE,TRUE,190,105,185,110,1,3,4,105,200,185,FALSE,,
3playersLog_1378211416205.csv,6,500,530,TRUE,FALSE,105,200,110,195,0,3,4,105,200,185,FALSE,,
3playersLog_1378211416205.csv,7,530,500,FALSE,IGNORED,200,105,55,250,1,3,5,105,200,180,TRUE,,
3playersLog_1378211416205.csv,7,540,500,FALSE,TRUE,185,105,180,110,1,3,5,105,200,180,FALSE,,
3playersLog_1378211416205.csv,8,500,540,TRUE,TRUE,105,200,115,170,2,3,3,105,200,170,FALSE,,
3playersLog_1378211416205.csv,9,530,500,FALSE,FALSE,200,105,55,250,0,3,3,105,200,170,TRUE,,
3playersLog_1378211416205.csv,9,540,500,FALSE,FALSE,170,105,170,105,0,3,3,105,200,170,FALSE,,
3playersLog_1378211416205.csv,10,500,530,TRUE,FALSE,105,200,275,30,1,3,2,100,200,170,FALSE,,
3playersLog_1378211416205.csv,11,530,500,FALSE,TRUE,200,100,55,245,9,0,8,350,205,170,TRUE,,
3playersLog_1378211416205.csv,11,540,500,FALSE,FALSE,170,100,165,105,9,0,8,350,205,170,FALSE,,
3playersLog_1378211468878.csv,1,530,500,FALSE,FALSE,200,120,55,265,2,4,3,120,200,190,TRUE,,
3playersLog_1378211468878.csv,1,540,500,FALSE,TRUE,200,120,190,130,2,4,3,120,200,190,FALSE,,
3playersLog_1378211468878.csv,2,500,530,TRUE,FALSE,120,200,135,185,1,4,2,115,200,190,FALSE,,
3playersLog_1378211468878.csv,3,530,500,FALSE,TRUE,200,115,200,115,1,3,2,110,200,190,FALSE,,
3playersLog_1378211468878.csv,4,500,540,TRUE,TRUE,110,200,130,170,2,2,1,120,200,170,FALSE,,
3playersLog_1378211468878.csv,5,530,500,FALSE,FALSE,200,120,200,120,1,2,0,120,200,165,FALSE,,
3playersLog_1378211468878.csv,5,540,500,FALSE,TRUE,170,120,165,125,1,2,0,120,200,165,FALSE,,
3playersLog_1378211468878.csv,6,500,540,TRUE,FALSE,120,165,135,150,0,2,0,120,200,165,FALSE,,
3playersLog_1378211468878.csv,7,530,500,FALSE,FALSE,200,120,200,120,1,1,0,115,200,165,FALSE,,
3playersLog_1378211468878.csv,7,540,500,FALSE,TRUE,165,120,165,120,1,1,0,115,200,165,FALSE,,
3playersLog_1378211468878.csv,8,500,540,TRUE,TRUE,115,200,135,145,0,1,0,135,200,145,FALSE,,
3playersLog_1378211468878.csv,9,530,500,FALSE,FALSE,200,135,200,135,1,0,0,295,200,280,FALSE,,
3playersLog_1378211468878.csv,9,540,500,FALSE,TRUE,145,135,130,150,1,0,0,295,200,280,FALSE,,
3playersLog_1378971879255.csv,1,530,500,FALSE,TRUE,200,120,55,265,1,5,5,260,55,200,TRUE,,
3playersLog_1378971879255.csv,1,540,500,FALSE,IGNORED,200,120,185,135,1,5,5,260,55,200,FALSE,,
3playersLog_1378971879255.csv,2,500,540,TRUE,FALSE,255,200,300,155,1,3,5,250,55,200,FALSE,,
3playersLog_1378971879255.csv,3,530,500,FALSE,FALSE,55,250,55,250,1,3,4,330,55,115,TRUE,,
3playersLog_1378971879255.csv,3,540,500,FALSE,TRUE,200,250,115,335,1,3,4,330,55,115,FALSE,,
3playersLog_1378971879255.csv,4,500,530,TRUE,IGNORED,330,55,330,55,1,3,3,325,55,115,FALSE,,
3playersLog_1378971879255.csv,5,530,500,FALSE,FALSE,55,325,55,325,0,3,3,335,55,105,TRUE,,
3playersLog_1378971879255.csv,5,540,500,FALSE,TRUE,115,325,105,335,0,3,3,335,55,105,FALSE,,
3playersLog_1378971879255.csv,6,500,530,TRUE,IGNORED,335,55,290,100,1,3,2,330,55,105,FALSE,,
3playersLog_1378971879255.csv,7,530,500,FALSE,FALSE,55,330,55,330,0,3,2,330,55,105,TRUE,,
3playersLog_1378971879255.csv,7,540,500,FALSE,FALSE,105,330,105,330,0,3,2,330,55,105,FALSE,,
3playersLog_1378971879255.csv,8,500,540,TRUE,IGNORED,330,105,305,130,1,3,3,325,55,105,FALSE,,
3playersLog_1378971879255.csv,9,530,500,FALSE,FALSE,55,325,55,325,1,3,4,320,55,105,TRUE,,
3playersLog_1378971879255.csv,9,540,500,FALSE,FALSE,105,325,105,325,1,3,4,320,55,105,FALSE,,
3playersLog_1378971879255.csv,10,500,530,TRUE,IGNORED,320,55,350,25,0,3,4,320,55,105,FALSE,,
3playersLog_1378971879255.csv,11,530,500,FALSE,FALSE,55,320,55,320,1,3,5,315,55,105,TRUE,,
3playersLog_1378971879255.csv,11,540,500,FALSE,FALSE,105,320,105,320,1,3,5,315,55,105,FALSE,,
3playersLog_1378971879255.csv,12,500,540,TRUE,FALSE,315,105,320,100,1,3,6,310,55,105,FALSE,,
3playersLog_1378971879255.csv,13,530,500,FALSE,FALSE,55,310,55,310,1,3,7,305,55,105,TRUE,,
3playersLog_1378971879255.csv,13,540,500,FALSE,FALSE,105,310,145,270,1,3,7,305,55,105,FALSE,,
3playersLog_1378971879255.csv,14,500,540,TRUE,FALSE,305,105,310,100,1,2,7,300,55,105,FALSE,,
3playersLog_1378971879255.csv,15,530,500,FALSE,FALSE,55,300,55,300,1,2,8,295,55,105,TRUE,,
3playersLog_1378971879255.csv,15,540,500,FALSE,FALSE,105,300,105,300,1,2,8,295,55,105,FALSE,,
3playersLog_1378971879255.csv,16,500,540,TRUE,FALSE,295,105,300,100,0,2,8,295,55,105,FALSE,,
3playersLog_1378971879255.csv,17,530,500,FALSE,FALSE,55,295,55,295,1,1,8,290,55,105,TRUE,,
3playersLog_1378971879255.csv,17,540,500,FALSE,FALSE,105,295,105,295,1,1,8,290,55,105,FALSE,,
3playersLog_1378971879255.csv,18,500,540,TRUE,FALSE,290,105,295,100,0,1,8,290,55,105,FALSE,,
3playersLog_1378971879255.csv,19,530,500,FALSE,FALSE,55,290,55,290,0,1,8,290,55,105,TRUE,,
3playersLog_1378971879255.csv,19,540,500,FALSE,FALSE,105,290,105,290,0,1,8,290,55,105,TRUE,,
3playersLog_1369308057586.csv,1,200,100,FALSE,FALSE,200,145,190,155,4,3,2,125,200,175,FALSE,,
3playersLog_1369308057586.csv,1,300,100,FALSE,TRUE,200,120,175,145,4,3,2,125,200,175,FALSE,,
3playersLog_1369308057586.csv,2,100,200,TRUE,TRUE,125,200,190,135,4,3,6,170,135,175,FALSE,,
3playersLog_1369308057586.csv,3,200,100,FALSE,TRUE,135,170,105,200,2,2,7,190,105,175,FALSE,,
3playersLog_1369308057586.csv,3,300,100,FALSE,FALSE,175,200,150,225,2,2,7,190,105,175,TRUE,,
3playersLog_1369308057586.csv,4,100,300,TRUE,FALSE,190,175,300,65,1,2,8,185,105,175,FALSE,,
3playersLog_1369308057586.csv,5,200,100,FALSE,FALSE,105,285,75,315,0,2,8,285,105,75,TRUE,,
3playersLog_1369308057586.csv,5,300,100,FALSE,TRUE,175,185,75,285,0,2,8,285,105,75,TRUE,,
3playersLog_1369308057586.csv,6,100,300,TRUE,FALSE,285,75,300,60,1,1,8,280,105,75,TRUE,,
3playersLog_1369308057586.csv,7,200,100,FALSE,TRUE,105,280,95,290,1,1,7,285,95,75,FALSE,,
3playersLog_1369308057586.csv,8,100,300,TRUE,FALSE,285,75,305,55,0,1,7,285,95,75,FALSE,,
3playersLog_1369308057586.csv,9,200,100,FALSE,IGNORED,95,270,75,290,3,1,4,270,95,75,TRUE,,
3playersLog_1369308057586.csv,10,100,200,TRUE,FALSE,270,95,285,80,1,1,3,265,95,75,TRUE,,
3playersLog_1369308057586.csv,11,200,100,FALSE,IGNORED,95,260,290,65,1,1,2,260,95,75,FALSE,,
3playersLog_1369308057586.csv,12,100,200,TRUE,FALSE,260,95,275,80,0,1,2,260,95,75,TRUE,,
3playersLog_1369308057586.csv,13,200,100,FALSE,TRUE,95,260,215,140,3,0,0,365,125,225,,,
3playersLog_1369580868698.csv,1,200,100,FALSE,TRUE,200,120,200,120,9,0,0,225,200,350,FALSE,,
3playersLog_1369580882324.csv,1,200,100,FALSE,IGNORED,200,125,195,130,2,4,3,115,200,195,FALSE,,
3playersLog_1369580882324.csv,1,300,100,FALSE,TRUE,200,120,195,125,2,4,3,115,200,195,FALSE,,
3playersLog_1369580882324.csv,2,100,300,TRUE,TRUE,115,195,120,190,7,0,0,235,200,340,FALSE,,
3playersLog_1370168083937.csv,1,200,100,FALSE,FALSE,200,180,200,180,3,3,3,165,200,140,FALSE,,
3playersLog_1370168083937.csv,1,300,100,FALSE,TRUE,200,120,140,180,3,3,3,165,200,140,FALSE,,
3playersLog_1370168083937.csv,2,100,200,TRUE,FALSE,165,200,240,125,0,3,3,165,200,140,FALSE,,
3playersLog_1370168083937.csv,3,200,100,FALSE,FALSE,200,165,175,190,4,1,1,145,200,140,FALSE,,
3playersLog_1370168083937.csv,3,300,100,FALSE,FALSE,140,165,150,155,4,1,1,145,200,140,FALSE,,
3playersLog_1370168083937.csv,4,100,200,TRUE,TRUE,145,200,220,125,8,0,8,330,275,140,TRUE,,
3playersLog_1370168102005.csv,1,200,100,FALSE,IGNORED,200,165,180,185,9,0,0,270,200,305,FALSE,,
3playersLog_1370168102005.csv,1,300,100,FALSE,TRUE,200,120,155,165,9,0,0,270,200,305,FALSE,,
3playersLog_1370172115641.csv,1,200,100,FALSE,TRUE,200,120,175,145,3,3,3,130,175,200,FALSE,,
3playersLog_1370172115641.csv,1,300,100,FALSE,IGNORED,200,145,195,150,3,3,3,130,175,200,FALSE,,
3playersLog_1370172115641.csv,2,100,300,TRUE,TRUE,130,200,150,180,4,1,1,130,175,180,FALSE,,
3playersLog_1370172115641.csv,3,200,100,FALSE,TRUE,175,130,90,215,1,1,0,210,90,180,FALSE,,
3playersLog_1370172115641.csv,3,300,100,FALSE,IGNORED,180,215,150,245,1,1,0,210,90,180,TRUE,,
3playersLog_1370172115641.csv,4,100,300,TRUE,TRUE,210,180,250,140,1,0,0,395,90,290,FALSE,,
3playersLog_1370172128709.csv,1,200,100,FALSE,IGNORED,200,100,200,100,4,3,6,100,200,200,FALSE,,
3playersLog_1370172128709.csv,2,100,300,TRUE,TRUE,100,200,110,190,0,3,6,110,200,190,FALSE,,
3playersLog_1370172128709.csv,3,200,100,FALSE,TRUE,200,110,125,185,5,0,8,310,275,190,TRUE,,
3playersLog_1370778451806.csv,1,200,100,FALSE,IGNORED,200,130,190,140,4,3,2,110,200,190,FALSE,,
3playersLog_1370778451806.csv,1,300,100,FALSE,TRUE,200,120,190,130,4,3,2,110,200,190,FALSE,,
3playersLog_1370778451806.csv,2,100,200,TRUE,TRUE,110,200,115,195,3,1,1,100,195,190,FALSE,,
3playersLog_1370778451806.csv,3,200,100,FALSE,TRUE,195,100,150,145,0,1,1,145,150,190,FALSE,,
3playersLog_1370778451806.csv,3,300,100,FALSE,IGNORED,190,145,175,160,0,1,1,145,150,190,FALSE,,
3playersLog_1370778451806.csv,4,100,200,TRUE,FALSE,145,150,180,115,2,0,0,285,150,340,FALSE,,
3playersLog_1371106042605.csv,1,200,100,FALSE,TRUE,200,120,195,125,2,4,5,115,195,200,FALSE,,
3playersLog_1371106042605.csv,2,100,200,TRUE,TRUE,115,195,105,205,2,3,6,95,205,200,FALSE,,
3playersLog_1371106042605.csv,3,200,100,FALSE,FALSE,205,100,205,100,1,3,5,95,205,195,FALSE,,
3playersLog_1371106042605.csv,3,300,100,FALSE,TRUE,200,95,195,100,1,3,5,95,205,195,FALSE,,
3playersLog_1371106042605.csv,4,100,200,TRUE,FALSE,95,205,120,180,1,3,4,90,205,195,FALSE,,
3playersLog_1371106042605.csv,5,200,100,FALSE,FALSE,205,90,205,90,0,3,4,90,205,195,FALSE,,
3playersLog_1371106042605.csv,5,300,100,FALSE,FALSE,195,90,195,90,0,3,4,90,205,195,FALSE,,
3playersLog_1371106042605.csv,6,100,200,TRUE,TRUE,90,205,120,175,4,2,7,100,175,195,FALSE,,
3playersLog_1371106042605.csv,7,200,100,FALSE,FALSE,175,125,175,125,2,1,6,115,175,170,FALSE,,
3playersLog_1371106042605.csv,7,300,100,FALSE,TRUE,195,100,170,125,2,1,6,115,175,170,FALSE,,
3playersLog_1371106042605.csv,8,100,300,TRUE,TRUE,115,170,155,130,5,1,1,130,175,130,FALSE,,
3playersLog_1371106042605.csv,9,200,100,FALSE,FALSE,175,130,175,130,0,1,1,130,175,130,FALSE,,
3playersLog_1371106042605.csv,9,300,100,FALSE,FALSE,130,130,135,125,0,1,1,130,175,130,TRUE,,
3playersLog_1371106042605.csv,10,100,300,TRUE,FALSE,130,130,145,115,1,1,0,125,175,130,TRUE,,
3playersLog_1371106042605.csv,11,200,100,FALSE,FALSE,175,125,185,115,0,1,0,125,175,130,FALSE,,
3playersLog_1371106042605.csv,11,300,100,FALSE,FALSE,130,125,135,120,0,1,0,125,175,130,TRUE,,
3playersLog_1371106042605.csv,12,100,200,TRUE,FALSE,125,175,150,150,1,0,0,270,175,280,FALSE,,
3playersLog_1371106045776.csv,1,200,100,FALSE,TRUE,200,120,170,150,3,3,5,135,170,200,FALSE,,
3playersLog_1371106045776.csv,1,300,100,FALSE,IGNORED,200,150,190,160,3,3,5,135,170,200,FALSE,,
3playersLog_1371106045776.csv,2,100,300,TRUE,TRUE,135,200,140,195,8,0,0,250,170,345,FALSE,,
3playersLog_1371110182546.csv,1,200,100,FALSE,TRUE,200,120,190,130,2,4,3,120,190,200,FALSE,,
3playersLog_1371110182546.csv,1,300,100,FALSE,IGNORED,200,130,190,140,2,4,3,120,190,200,FALSE,,
3playersLog_1371110182546.csv,2,100,300,TRUE,TRUE,120,200,115,205,1,4,2,110,190,205,FALSE,,
3playersLog_1371110182546.csv,3,200,100,FALSE,IGNORED,190,145,195,140,2,3,1,135,190,170,FALSE,,
3playersLog_1371110182546.csv,3,300,100,FALSE,TRUE,205,110,170,145,2,3,1,135,190,170,FALSE,,
3playersLog_1371110182546.csv,4,100,300,TRUE,FALSE,135,170,130,175,1,2,1,130,190,170,FALSE,,
3playersLog_1371110182546.csv,5,200,100,FALSE,TRUE,190,130,165,155,0,2,1,155,165,170,FALSE,,
3playersLog_1371110182546.csv,5,300,100,FALSE,IGNORED,170,155,150,175,0,2,1,155,165,170,TRUE,,
3playersLog_1371110182546.csv,6,100,200,TRUE,TRUE,155,165,140,180,1,2,0,135,180,170,FALSE,,
3playersLog_1371110182546.csv,7,200,100,FALSE,FALSE,180,200,190,190,1,1,0,195,180,105,TRUE,,
3playersLog_1371110182546.csv,7,300,100,FALSE,TRUE,170,135,105,200,1,1,0,195,180,105,TRUE,,
3playersLog_1371110182546.csv,8,100,300,TRUE,FALSE,195,105,165,135,1,0,0,340,180,255,FALSE,,
3playersLog_1371110667008.csv,1,300,100,FALSE,TRUE,200,120,185,135,0,5,4,135,200,185,FALSE,,
3playersLog_1371110667008.csv,2,100,200,TRUE,FALSE,135,200,145,190,1,5,3,130,200,185,FALSE,,
3playersLog_1371110667008.csv,3,200,100,FALSE,TRUE,200,130,185,145,0,5,3,145,185,185,FALSE,,
3playersLog_1371110667008.csv,3,300,100,FALSE,FALSE,185,145,175,155,0,5,3,145,185,185,TRUE,,
3playersLog_1371110667008.csv,4,100,200,TRUE,TRUE,145,185,160,170,1,4,3,155,170,185,FALSE,,
3playersLog_1371110667008.csv,5,200,100,FALSE,TRUE,170,155,155,170,0,4,3,170,155,185,FALSE,,
3playersLog_1371110667008.csv,5,300,100,FALSE,IGNORED,185,170,170,185,0,4,3,170,155,185,FALSE,,
3playersLog_1371110667008.csv,6,100,300,TRUE,FALSE,170,185,200,155,1,3,3,165,155,185,FALSE,,
3playersLog_1371110667008.csv,7,200,100,FALSE,FALSE,155,165,155,165,1,3,4,160,155,185,FALSE,,
3playersLog_1371110667008.csv,7,300,100,FALSE,FALSE,185,165,165,185,1,3,4,160,155,185,FALSE,,
3playersLog_1371110667008.csv,8,100,300,TRUE,TRUE,160,185,205,140,1,3,3,200,155,140,FALSE,,
3playersLog_1371110667008.csv,9,200,100,FALSE,FALSE,155,200,155,200,0,3,3,200,155,140,FALSE,,
3playersLog_1371110667008.csv,9,300,100,FALSE,FALSE,140,200,120,220,0,3,3,200,155,140,FALSE,,
3playersLog_1371110667008.csv,10,100,200,TRUE,FALSE,200,155,245,110,1,3,2,195,155,140,FALSE,,
3playersLog_1371110667008.csv,11,200,100,FALSE,FALSE,155,220,155,220,5,0,0,345,155,265,FALSE,,
3playersLog_1371110667008.csv,11,300,100,FALSE,TRUE,140,195,115,220,5,0,0,345,155,265,FALSE,,
3playersLog_1371370871905.csv,1,200,100,FALSE,TRUE,200,120,200,120,9,0,8,225,350,200,FALSE,,
3playersLog_1371370871905.csv,1,300,100,FALSE,IGNORED,200,120,150,170,9,0,8,225,350,200,FALSE,,
3playersLog_1371374990353.csv,1,200,100,FALSE,IGNORED,200,130,190,140,0,5,4,130,200,190,FALSE,,
3playersLog_1371374990353.csv,1,300,100,FALSE,TRUE,200,120,190,130,0,5,4,130,200,190,FALSE,,
3playersLog_1371374990353.csv,2,100,200,TRUE,FALSE,105,200,265,40,0,3,1,105,200,190,FALSE,,
3playersLog_1371374994726.csv,1,200,100,FALSE,IGNORED,200,130,200,130,9,0,0,235,200,340,FALSE,,
3playersLog_1371374994726.csv,1,300,100,FALSE,TRUE,200,120,190,130,9,0,0,235,200,340,FALSE,,
3playersLog_1371378161482.csv,1,200,100,FALSE,FALSE,200,140,195,145,3,4,2,125,200,180,FALSE,,
3playersLog_1371378161482.csv,1,300,100,FALSE,TRUE,200,120,180,140,3,4,2,125,200,180,FALSE,,
3playersLog_1371378161482.csv,2,100,200,TRUE,FALSE,125,200,140,185,0,4,2,125,200,180,FALSE,,
3playersLog_1371378161482.csv,3,200,100,FALSE,TRUE,200,125,190,135,3,3,4,120,190,180,FALSE,,
3playersLog_1371378161482.csv,3,300,100,FALSE,FALSE,180,135,165,150,3,3,4,120,190,180,FALSE,,
3playersLog_1371378161482.csv,4,100,200,TRUE,FALSE,120,190,140,170,1,3,3,115,190,180,FALSE,,
3playersLog_1371378161482.csv,5,200,100,FALSE,TRUE,190,115,165,140,2,3,5,130,165,180,FALSE,,
3playersLog_1371378430882.csv,1,200,100,FALSE,FALSE,200,120,195,125,1,5,3,115,200,200,FALSE,,
3playersLog_1371378430882.csv,1,300,100,FALSE,FALSE,200,120,200,120,1,5,3,115,200,200,FALSE,,
3playersLog_1371378430882.csv,2,100,200,TRUE,TRUE,115,200,175,140,1,4,3,170,140,200,FALSE,,
3playersLog_1371378430882.csv,3,200,100,FALSE,FALSE,140,170,115,195,0,4,3,170,140,200,FALSE,,
3playersLog_1371378430882.csv,3,300,100,FALSE,FALSE,200,170,160,210,0,4,3,170,140,200,FALSE,,
3playersLog_1371378430882.csv,4,100,300,TRUE,FALSE,170,200,215,155,1,3,3,165,140,200,FALSE,,
3playersLog_1371378430882.csv,5,200,100,FALSE,FALSE,140,165,130,175,1,3,4,160,140,200,FALSE,,
3playersLog_1371378430882.csv,5,300,100,FALSE,FALSE,200,165,145,220,1,3,4,160,140,200,FALSE,,
3playersLog_1371378430882.csv,6,100,300,TRUE,FALSE,160,200,240,120,1,3,5,155,140,200,FALSE,,
3playersLog_1371378430882.csv,7,200,100,FALSE,FALSE,140,325,130,335,1,3,4,320,140,30,FALSE,,
3playersLog_1371378430882.csv,7,300,100,FALSE,TRUE,200,155,30,325,1,3,4,320,140,30,FALSE,,
3playersLog_1371378430882.csv,8,100,200,TRUE,FALSE,320,140,460,0,6,1,0,290,140,30,FALSE,,
3playersLog_1371378430882.csv,9,200,100,FALSE,TRUE,140,290,0,430,1,0,0,575,0,180,FALSE,,
3playersLog_1371387075540.csv,1,200,100,FALSE,FALSE,200,120,185,135,2,4,3,110,200,200,FALSE,,
3playersLog_1371387075540.csv,1,300,100,FALSE,FALSE,200,120,130,190,2,4,3,110,200,200,FALSE,,
3playersLog_1371387075540.csv,2,100,200,TRUE,FALSE,110,200,135,175,1,4,2,105,200,200,FALSE,,
3playersLog_1371387075540.csv,3,200,100,FALSE,IGNORED,200,170,170,200,1,3,2,165,200,135,TRUE,,
3playersLog_1371387075540.csv,3,300,100,FALSE,TRUE,200,105,135,170,1,3,2,165,200,135,FALSE,,
3playersLog_1371387075540.csv,4,100,200,TRUE,FALSE,165,200,165,200,0,3,2,165,200,135,FALSE,,
3playersLog_1371387075540.csv,5,200,100,FALSE,FALSE,200,175,165,210,1,3,1,170,200,125,TRUE,,
3playersLog_1371387075540.csv,5,300,100,FALSE,TRUE,135,165,125,175,1,3,1,170,200,125,TRUE,,
3playersLog_1371387075540.csv,6,100,200,TRUE,FALSE,170,200,165,205,1,2,1,165,200,125,FALSE,,
3playersLog_1371387075540.csv,7,200,100,FALSE,FALSE,200,165,160,205,0,2,1,165,200,125,FALSE,,
3playersLog_1371387075540.csv,7,300,100,FALSE,FALSE,125,165,145,145,0,2,1,165,200,125,TRUE,,
3playersLog_1371387075540.csv,8,100,300,TRUE,FALSE,165,125,180,110,1,2,0,160,200,125,TRUE,,
3playersLog_1371387075540.csv,9,200,100,FALSE,FALSE,200,160,180,180,0,2,0,160,200,125,FALSE,,
3playersLog_1371387075540.csv,9,300,100,FALSE,FALSE,125,160,135,150,0,2,0,160,200,125,TRUE,,
3playersLog_1371387075540.csv,10,100,300,TRUE,FALSE,160,125,160,125,1,1,0,155,200,125,FALSE,,
3playersLog_1371387075540.csv,11,200,100,FALSE,IGNORED,200,155,175,180,0,1,0,155,200,125,FALSE,,
3playersLog_1371387075540.csv,12,100,300,TRUE,FALSE,155,125,170,110,1,0,0,300,200,275,TRUE,,
3playersLog_1371387075682.csv,1,200,100,FALSE,IGNORED,200,155,190,165,0,5,4,155,200,165,FALSE,,
3playersLog_1371387075682.csv,1,300,100,FALSE,TRUE,200,120,165,155,0,5,4,155,200,165,FALSE,,
3playersLog_1371387075682.csv,2,100,200,TRUE,TRUE,155,200,155,200,0,5,4,155,200,165,FALSE,,
3playersLog_1372252618899.csv,1,200,100,FALSE,IGNORED,200,130,200,130,2,4,3,120,200,190,TRUE,,
3playersLog_1372252618899.csv,1,300,100,FALSE,TRUE,200,120,190,130,2,4,3,120,200,190,FALSE,,
3playersLog_1372252618899.csv,2,100,200,TRUE,FALSE,120,200,180,140,2,3,2,110,200,190,FALSE,,
3playersLog_1372252618899.csv,3,200,100,FALSE,TRUE,200,110,185,125,2,2,1,115,185,190,FALSE,,
3playersLog_1372252618899.csv,3,300,100,FALSE,IGNORED,190,125,180,135,2,2,1,115,185,190,FALSE,,
3playersLog_1372252618899.csv,4,100,200,TRUE,FALSE,115,185,190,110,2,1,0,105,185,190,FALSE,,
3playersLog_1372252618899.csv,5,200,100,FALSE,IGNORED,185,125,145,165,0,1,0,125,185,170,FALSE,,
3playersLog_1372252618899.csv,5,300,100,FALSE,TRUE,190,105,170,125,0,1,0,125,185,170,FALSE,,
3playersLog_1372252618899.csv,6,100,200,TRUE,TRUE,125,185,155,155,4,1,4,135,155,170,FALSE,,
3playersLog_1372252618899.csv,7,200,100,FALSE,TRUE,155,135,135,155,2,1,6,145,135,170,FALSE,,
3playersLog_1372252618899.csv,7,300,100,FALSE,IGNORED,170,155,165,160,2,1,6,145,135,170,TRUE,,
3playersLog_1372252618899.csv,8,100,300,TRUE,FALSE,145,170,240,75,3,0,8,280,285,170,FALSE,,
3playersLog_1372252629794.csv,1,200,100,FALSE,IGNORED,200,130,200,130,3,5,3,115,200,190,FALSE,,
3playersLog_1372252629794.csv,1,300,100,FALSE,TRUE,200,120,190,130,3,5,3,115,200,190,FALSE,,
3playersLog_1372252629794.csv,2,100,300,TRUE,FALSE,115,190,120,185,1,4,3,110,200,190,FALSE,,
3playersLog_1372252629794.csv,3,200,100,FALSE,TRUE,200,110,195,115,1,3,3,110,195,190,FALSE,,
3playersLog_1372252629794.csv,3,300,100,FALSE,IGNORED,190,115,190,115,1,3,3,110,195,190,FALSE,,
3playersLog_1372252629794.csv,4,100,200,TRUE,TRUE,110,195,115,190,1,3,4,110,190,190,FALSE,,
3playersLog_1372252629794.csv,5,200,100,FALSE,IGNORED,190,140,185,145,1,3,5,135,190,160,FALSE,,
3playersLog_1372252629794.csv,5,300,100,FALSE,TRUE,190,110,160,140,1,3,5,135,190,160,FALSE,,
3playersLog_1372252629794.csv,6,100,200,TRUE,FALSE,135,190,145,180,1,3,6,130,190,160,FALSE,,
3playersLog_1372252629794.csv,7,200,100,FALSE,IGNORED,190,135,190,135,1,3,5,130,190,155,FALSE,,
3playersLog_1372252629794.csv,7,300,100,FALSE,TRUE,160,130,155,135,1,3,5,130,190,155,FALSE,,
3playersLog_1372252629794.csv,8,100,200,TRUE,TRUE,130,190,135,185,0,3,5,135,185,155,FALSE,,
3playersLog_1372252629794.csv,9,200,100,FALSE,TRUE,185,135,175,145,1,3,4,140,175,155,FALSE,,
3playersLog_1372252629794.csv,9,300,100,FALSE,IGNORED,155,145,155,145,1,3,4,140,175,155,FALSE,,
3playersLog_1372252629794.csv,10,100,300,TRUE,TRUE,140,155,155,140,1,3,3,150,175,140,FALSE,,
3playersLog_1372252629794.csv,11,200,100,FALSE,IGNORED,175,165,160,180,1,3,2,160,175,125,TRUE,,
3playersLog_1372252629794.csv,11,300,100,FALSE,TRUE,140,150,125,165,1,3,2,160,175,125,FALSE,,
3playersLog_1372252629794.csv,12,100,300,TRUE,FALSE,160,125,170,115,1,3,1,155,175,125,FALSE,,
3playersLog_1372252629794.csv,13,200,100,FALSE,IGNORED,175,140,135,180,1,2,1,135,175,140,TRUE,,
3playersLog_1372252629794.csv,13,300,100,FALSE,TRUE,125,155,140,140,1,2,1,135,175,140,FALSE,,
3playersLog_1372252629794.csv,14,100,200,TRUE,TRUE,135,175,165,145,1,1,1,160,145,140,FALSE,,
3playersLog_1372252629794.csv,15,200,100,FALSE,TRUE,145,160,125,180,3,1,4,165,125,140,TRUE,,
3playersLog_1372252629794.csv,15,300,100,FALSE,IGNORED,140,180,125,195,3,1,4,165,125,140,FALSE,,
3playersLog_1372252629794.csv,16,100,200,TRUE,TRUE,165,125,170,120,3,1,7,155,120,140,TRUE,,
3playersLog_1372252629794.csv,17,200,100,FALSE,TRUE,120,155,105,170,1,1,8,165,105,140,TRUE,,
3playersLog_1372252629794.csv,17,300,100,FALSE,IGNORED,140,170,140,170,1,1,8,165,105,140,FALSE,,
3playersLog_1372252629794.csv,18,100,200,TRUE,FALSE,165,105,190,80,1,0,8,310,255,140,TRUE,,
3playersLog_1372256825032.csv,1,200,100,FALSE,FALSE,200,190,195,195,4,3,2,170,200,130,FALSE,,
3playersLog_1372256825032.csv,1,300,100,FALSE,TRUE,200,120,130,190,4,3,2,170,200,130,FALSE,,
3playersLog_1372256825032.csv,2,100,200,TRUE,TRUE,170,200,170,200,5,0,0,295,200,280,FALSE,,
3playersLog_1372257795385.csv,1,200,100,FALSE,FALSE,200,180,200,180,4,3,2,160,200,140,FALSE,,
3playersLog_1372257795385.csv,1,300,100,FALSE,TRUE,200,120,140,180,4,3,2,160,200,140,FALSE,,
3playersLog_1372257795385.csv,2,100,300,TRUE,FALSE,160,140,165,135,4,1,0,140,200,140,FALSE,,
3playersLog_1372257795385.csv,3,200,100,FALSE,FALSE,200,165,235,130,1,0,0,310,200,265,FALSE,,
3playersLog_1372257795385.csv,3,300,100,FALSE,TRUE,140,140,115,165,1,0,0,310,200,265,TRUE,,
3playersLog_1366798926627.csv,3,300,100,FALSE,TRUE,180,130,165,145,6,1,0,115,200,165,FALSE,,
3playersLog_1366798926627.csv,4,100,200,TRUE,FALSE,115,200,285,30,0,1,0,115,200,165,FALSE,,
3playersLog_1366798926627.csv,5,200,100,FALSE,FALSE,200,120,55,265,1,0,0,265,200,310,TRUE,,
3playersLog_1366798926627.csv,5,300,100,FALSE,TRUE,165,115,160,120,1,0,0,265,200,310,TRUE,,
3playersLog_1366875105425.csv,1,200,100,FALSE,FALSE,200,120,185,135,4,3,2,100,200,200,FALSE,,
3playersLog_1366875105425.csv,1,300,100,FALSE,FALSE,200,120,150,170,4,3,2,100,200,200,FALSE,,
3playersLog_1366875105425.csv,2,100,200,TRUE,TRUE,100,200,85,215,0,3,2,85,215,200,FALSE,,
3playersLog_1366875105425.csv,3,200,100,FALSE,TRUE,215,85,105,195,1,3,3,190,105,200,FALSE,,
3playersLog_1366875105425.csv,3,300,100,FALSE,IGNORED,200,195,135,260,1,3,3,190,105,200,FALSE,,
3playersLog_1366875105425.csv,4,100,200,TRUE,FALSE,190,105,210,85,1,3,2,185,105,200,FALSE,,
3playersLog_1366875105425.csv,5,200,100,FALSE,IGNORED,105,215,100,220,1,3,1,210,105,170,FALSE,,
3playersLog_1366875105425.csv,5,300,100,FALSE,TRUE,200,185,170,215,1,3,1,210,105,170,FALSE,,
3playersLog_1366875105425.csv,6,100,200,TRUE,FALSE,210,105,280,35,0,3,1,210,105,170,TRUE,,
3playersLog_1366875105425.csv,7,200,100,FALSE,IGNORED,105,305,150,260,1,2,1,300,105,75,FALSE,,
3playersLog_1366875105425.csv,7,300,100,FALSE,TRUE,170,210,75,305,1,2,1,300,105,75,FALSE,,
3playersLog_1366875105425.csv,8,100,200,TRUE,FALSE,300,105,185,220,0,2,1,300,105,75,FALSE,,
3playersLog_1366875105425.csv,9,200,100,FALSE,FALSE,105,300,160,245,0,2,1,300,105,75,FALSE,,
3playersLog_1366875105425.csv,9,300,100,FALSE,FALSE,75,300,105,270,0,2,1,300,105,75,FALSE,,
3playersLog_1367319625514.csv,1,200,100,FALSE,FALSE,200,120,150,170,0,5,4,120,200,200,FALSE,,
3playersLog_1367319625514.csv,1,300,100,FALSE,FALSE,200,120,105,215,0,5,4,120,200,200,FALSE,,
3playersLog_1367319625514.csv,2,100,300,TRUE,FALSE,120,200,300,20,1,5,5,115,200,200,FALSE,,
3playersLog_1367319625514.csv,3,200,100,FALSE,FALSE,200,115,115,200,0,5,5,115,200,200,FALSE,,
3playersLog_1367319625514.csv,3,300,100,FALSE,FALSE,200,115,105,210,0,5,5,115,200,200,FALSE,,
3playersLog_1367319625514.csv,4,100,200,TRUE,FALSE,115,200,280,35,1,4,5,110,200,200,FALSE,,
3playersLog_1367319625514.csv,5,200,100,FALSE,TRUE,200,110,80,230,1,3,5,225,80,200,FALSE,,
3playersLog_1367319625514.csv,5,300,100,FALSE,IGNORED,200,230,90,340,1,3,5,225,80,200,TRUE,,
3playersLog_1367319625514.csv,6,100,300,TRUE,FALSE,225,200,370,55,1,3,4,220,80,200,FALSE,,
3playersLog_1367319625514.csv,7,200,100,FALSE,FALSE,80,305,75,310,1,3,3,300,80,115,FALSE,,
3playersLog_1367319625514.csv,7,300,100,FALSE,TRUE,200,220,115,305,1,3,3,300,80,115,FALSE,,
3playersLog_1367319625514.csv,8,100,200,TRUE,FALSE,300,80,325,55,1,3,2,295,80,115,FALSE,,
3playersLog_1367319625514.csv,9,200,100,FALSE,TRUE,80,295,65,310,3,1,1,295,65,115,FALSE,,
3playersLog_1367319625514.csv,9,300,100,FALSE,FALSE,115,310,95,330,3,1,1,295,65,115,TRUE,,
3playersLog_1367319625514.csv,10,100,300,TRUE,FALSE,295,115,330,80,3,1,4,280,65,115,FALSE,,
3playersLog_1367319625514.csv,11,200,100,FALSE,IGNORED,65,330,40,355,5,0,0,455,65,215,TRUE,,
3playersLog_1367319625514.csv,11,300,100,FALSE,TRUE,115,280,65,330,5,0,0,455,65,215,TRUE,,
3playersLog_1367396599272.csv,1,300,100,FALSE,TRUE,200,120,180,140,4,3,2,120,200,180,FALSE,,
3playersLog_1367396599272.csv,2,100,200,TRUE,FALSE,120,200,210,110,0,3,2,120,200,180,FALSE,,
3playersLog_1367396599272.csv,3,200,100,FALSE,TRUE,200,120,105,215,5,3,7,190,105,180,FALSE,,
3playersLog_1367396599272.csv,3,300,100,FALSE,IGNORED,180,215,140,255,5,3,7,190,105,180,TRUE,,
3playersLog_1367396599272.csv,4,100,300,TRUE,TRUE,190,180,315,55,4,3,3,295,105,55,FALSE,,
3playersLog_1367396599272.csv,5,300,100,FALSE,TRUE,55,290,55,290,0,3,2,290,105,55,TRUE,,
3playersLog_1367396599272.csv,6,100,200,TRUE,FALSE,290,105,340,55,2,2,1,280,105,55,TRUE,,
3playersLog_1367396599272.csv,7,200,100,FALSE,FALSE,105,275,370,10,0,2,0,275,105,55,FALSE,,
3playersLog_1367396599272.csv,7,300,100,FALSE,FALSE,55,275,105,225,0,2,0,275,105,55,TRUE,,
3playersLog_1367396599272.csv,8,100,200,TRUE,FALSE,275,105,265,115,0,2,0,275,105,55,FALSE,,
3playersLog_1367483018882.csv,1,200,100,FALSE,IGNORED,200,125,200,125,0,5,4,125,200,195,FALSE,,
3playersLog_1367483018882.csv,1,300,100,FALSE,TRUE,200,120,195,125,0,5,4,125,200,195,FALSE,,
3playersLog_1367483018882.csv,2,100,200,TRUE,TRUE,125,200,130,195,1,5,5,125,195,195,FALSE,,
3playersLog_1367483018882.csv,3,200,100,FALSE,FALSE,195,125,185,135,0,5,5,125,195,195,FALSE,,
3playersLog_1367483018882.csv,3,300,100,FALSE,FALSE,195,125,180,140,0,5,5,125,195,195,FALSE,,
3playersLog_1367483018882.csv,4,100,200,TRUE,FALSE,125,195,150,170,1,4,5,120,195,195,FALSE,,
3playersLog_1367483018882.csv,5,200,100,FALSE,IGNORED,195,130,190,135,1,3,5,125,195,185,FALSE,,
3playersLog_1367483018882.csv,5,300,100,FALSE,TRUE,195,120,185,130,1,3,5,125,195,185,FALSE,,
3playersLog_1367483018882.csv,6,100,200,TRUE,FALSE,125,195,170,150,1,3,4,120,195,185,FALSE,,
3playersLog_1367483018882.csv,7,200,100,FALSE,TRUE,195,120,180,135,0,3,4,135,180,185,FALSE,,
3playersLog_1367483018882.csv,7,300,100,FALSE,IGNORED,185,135,175,145,0,3,4,135,180,185,FALSE,,
3playersLog_1367483018882.csv,8,100,300,TRUE,TRUE,135,185,155,165,1,3,5,150,180,165,FALSE,,
3playersLog_1367483018882.csv,9,200,100,FALSE,IGNORED,180,160,170,170,2,3,3,150,180,155,FALSE,,
3playersLog_1367483018882.csv,9,300,100,FALSE,TRUE,165,150,155,160,2,3,3,150,180,155,FALSE,,
3playersLog_1367483018882.csv,10,100,200,TRUE,FALSE,150,180,210,120,3,2,1,135,180,155,FALSE,,
3playersLog_1367483018882.csv,11,200,100,FALSE,IGNORED,180,145,225,100,0,2,1,145,180,145,FALSE,,
3playersLog_1367483018882.csv,11,300,100,FALSE,TRUE,155,135,145,145,0,2,1,145,180,145,TRUE,,
3playersLog_1367483018882.csv,12,100,200,TRUE,TRUE,145,180,185,140,2,1,2,175,140,145,FALSE,,
3playersLog_1367483018882.csv,13,200,100,FALSE,IGNORED,140,165,160,145,0,1,2,165,140,155,FALSE,,
3playersLog_1367483018882.csv,13,300,100,FALSE,TRUE,145,175,155,165,0,1,2,165,140,155,TRUE,,
3playersLog_1367483018882.csv,14,100,200,TRUE,FALSE,165,140,215,90,1,1,3,160,140,155,FALSE,,
3playersLog_1367483018882.csv,15,200,100,FALSE,FALSE,140,160,150,150,0,1,3,160,140,155,TRUE,,
3playersLog_1367483018882.csv,15,300,100,FALSE,FALSE,155,160,165,150,0,1,3,160,140,155,TRUE,,
3playersLog_1367483018882.csv,16,100,300,TRUE,FALSE,160,155,180,135,1,1,4,155,140,155,FALSE,,
3playersLog_1367483018882.csv,17,300,100,FALSE,TRUE,155,155,155,155,1,1,3,150,140,155,TRUE,,
3playersLog_1367483018882.csv,18,100,300,TRUE,FALSE,150,155,170,135,1,1,2,145,140,155,FALSE,,
3playersLog_1367483018882.csv,19,200,100,FALSE,FALSE,140,145,150,135,0,1,2,145,140,155,FALSE,,
3playersLog_1367483018882.csv,19,300,100,FALSE,FALSE,155,145,170,130,0,1,2,145,140,155,TRUE,,
3playersLog_1367483018882.csv,20,100,300,TRUE,FALSE,145,155,165,135,0,1,2,145,140,155,TRUE,,
3playersLog_1367924963800.csv,1,200,100,FALSE,TRUE,200,120,180,140,9,0,0,245,180,350,FALSE,,
3playersLog_1367924963800.csv,1,300,100,FALSE,IGNORED,200,140,185,155,9,0,0,245,180,350,FALSE,,
3playersLog_1368346264572.csv,1,200,100,FALSE,IGNORED,200,145,195,150,2,4,3,135,200,175,FALSE,,
3playersLog_1368346264572.csv,1,300,100,FALSE,TRUE,200,120,175,145,2,4,3,135,200,175,FALSE,,
3playersLog_1368346264572.csv,2,100,300,TRUE,FALSE,135,175,135,175,0,4,3,135,200,175,FALSE,,
3playersLog_1368346264572.csv,3,200,100,FALSE,IGNORED,200,155,235,120,1,3,3,150,200,155,FALSE,,
3playersLog_1368346264572.csv,3,300,100,FALSE,TRUE,175,135,155,155,1,3,3,150,200,155,FALSE,,
3playersLog_1368346264572.csv,4,100,200,TRUE,TRUE,150,200,150,200,7,1,8,115,200,155,FALSE,,
3playersLog_1368346264572.csv,5,200,100,FALSE,IGNORED,200,140,200,140,0,1,8,140,200,130,TRUE,,
3playersLog_1368346264572.csv,5,300,100,FALSE,TRUE,155,115,130,140,0,1,8,140,200,130,FALSE,,
3playersLog_1368346264572.csv,6,100,200,TRUE,FALSE,140,200,215,125,1,0,8,285,350,130,FALSE,,
3playersLog_1368434068324.csv,1,200,100,FALSE,TRUE,200,120,195,125,9,0,8,230,345,200,FALSE,,
3playersLog_1368440572330.csv,1,200,100,FALSE,TRUE,200,120,195,125,3,3,5,110,195,200,FALSE,,
3playersLog_1368440572330.csv,1,300,100,FALSE,IGNORED,200,125,190,135,3,3,5,110,195,200,FALSE,,
3playersLog_1368440572330.csv,2,100,300,TRUE,TRUE,110,200,160,150,0,3,5,160,195,150,FALSE,,
3playersLog_1368440572330.csv,3,200,100,FALSE,TRUE,195,155,190,160,2,2,7,150,190,150,FALSE,,
3playersLog_1368440572330.csv,3,300,100,FALSE,IGNORED,150,160,150,160,2,2,7,150,190,150,FALSE,,
3playersLog_1368440572330.csv,4,100,300,TRUE,TRUE,150,150,200,100,2,1,6,190,190,100,FALSE,,
3playersLog_1368440572330.csv,5,200,100,FALSE,IGNORED,190,205,135,260,1,1,5,200,190,85,FALSE,,
3playersLog_1368440572330.csv,5,300,100,FALSE,TRUE,100,190,85,205,1,1,5,200,190,85,FALSE,,
3playersLog_1368440572330.csv,6,100,200,TRUE,TRUE,200,190,275,115,1,1,4,270,115,85,FALSE,,
3playersLog_1368440572330.csv,7,200,100,FALSE,TRUE,115,270,75,310,1,1,5,305,75,85,FALSE,,
3playersLog_1368440572330.csv,7,300,100,FALSE,IGNORED,85,310,85,310,1,1,5,305,75,85,FALSE,,
3playersLog_1368440572330.csv,8,100,200,TRUE,TRUE,305,75,370,10,4,0,8,500,160,85,FALSE,,
3playersLog_1369221255959.csv,1,200,100,FALSE,FALSE,200,120,180,140,1,5,3,115,200,200,FALSE,,
3playersLog_1369221255959.csv,1,300,100,FALSE,FALSE,200,120,190,130,1,5,3,115,200,200,FALSE,,
3playersLog_1369221255959.csv,2,100,300,TRUE,FALSE,115,200,215,100,1,4,3,110,200,200,FALSE,,
3playersLog_1369221255959.csv,3,200,100,FALSE,FALSE,200,110,200,110,1,4,2,105,200,200,FALSE,,
3playersLog_1369221255959.csv,3,300,100,FALSE,FALSE,200,110,200,110,1,4,2,105,200,200,FALSE,,
3playersLog_1369221255959.csv,4,100,200,TRUE,FALSE,105,200,155,150,1,3,2,100,200,200,FALSE,,
3playersLog_1369221255959.csv,5,200,100,FALSE,TRUE,200,100,170,130,4,3,6,110,170,200,TRUE,,
3playersLog_1369221255959.csv,5,300,100,FALSE,FALSE,200,130,200,130,4,3,6,110,170,200,FALSE,,
3playersLog_1369221255959.csv,6,100,200,TRUE,FALSE,110,170,130,150,5,0,8,235,320,200,TRUE,,
3playersLog_1369812772286.csv,1,200,100,FALSE,IGNORED,200,275,125,350,2,4,3,265,200,45,FALSE,,
3playersLog_1369812772286.csv,1,300,100,FALSE,TRUE,200,120,45,275,2,4,3,265,200,45,FALSE,,
3playersLog_1369812772286.csv,2,100,300,TRUE,FALSE,265,45,305,5,2,3,4,255,200,45,FALSE,,
3playersLog_1369812772286.csv,3,200,100,FALSE,IGNORED,200,270,115,355,2,3,2,260,200,30,FALSE,,
3playersLog_1369812772286.csv,3,300,100,FALSE,TRUE,45,255,30,270,2,3,2,260,200,30,FALSE,,
3playersLog_1369812772286.csv,4,100,200,TRUE,FALSE,260,200,330,130,1,3,1,255,200,30,FALSE,,
3playersLog_1369812772286.csv,5,200,100,FALSE,TRUE,200,255,115,340,10,0,8,440,265,30,TRUE,,
3playersLog_1369812772286.csv,5,300,100,FALSE,IGNORED,30,340,25,345,10,0,8,440,265,30,FALSE,,
3playersLog_1369823839526.csv,1,200,100,FALSE,FALSE,200,140,185,155,1,5,3,135,200,180,FALSE,,
3playersLog_1369823839526.csv,1,300,100,FALSE,TRUE,200,120,180,140,1,5,3,135,200,180,FALSE,,
3playersLog_1369823839526.csv,2,100,200,TRUE,TRUE,135,200,140,195,2,3,3,130,195,180,FALSE,,
3playersLog_1369823839526.csv,3,200,100,FALSE,TRUE,195,130,175,150,1,3,2,145,175,180,FALSE,,
3playersLog_1369823839526.csv,3,300,100,FALSE,IGNORED,180,150,160,170,1,3,2,145,175,180,FALSE,,
3playersLog_1369823839526.csv,4,100,300,TRUE,TRUE,145,180,170,155,2,2,1,160,175,155,FALSE,,
3playersLog_1369823839526.csv,5,200,100,FALSE,FALSE,175,205,170,210,1,1,1,200,175,110,FALSE,,
3playersLog_1369823839526.csv,5,300,100,FALSE,TRUE,155,160,110,205,1,1,1,200,175,110,FALSE,,
3playersLog_1369823839526.csv,6,100,200,TRUE,TRUE,200,175,280,95,8,0,8,390,245,110,TRUE,,
3playersLog_1369902365306.csv,1,200,100,FALSE,FALSE,200,140,185,155,9,0,0,245,200,330,FALSE,,
3playersLog_1369902365306.csv,1,300,100,FALSE,TRUE,200,120,180,140,9,0,0,245,200,330,FALSE,,
,,,,,,,,,,,,,,,,,,
