filename,round,propID,respID,IsPropCustomer,chipsToSend,chipsToReceive,accept,propCurrentScore,respCurrentScore,actualSent,ActualRcvd,propResultingScore,respResultingScore,#ofCustomerMovesInRound,customerRowPositionAfterMovePhase,customerColPositionAfterMovePhase,Player100ChipsAfterMovePhase,Player100ScoreAfterMovePhase,Player200ChipsAfterMovePhase,Player200ScoreAfterMovePhase,Player300ChipsAfterMovePhase,Player300ScoreAfterMovePhase,isCommitment,generosityLevel,ClientReachedGoal
3playersLog_1378885357867.csv,1,520,510,FALSE,{ chips  'CTRed':4 'CTPurple':1 },{ chips  },IGNORED,200,120,,,175,145,0,(R:5,C:4),{ chips  'CTRed':2 'CTGreen':0 'CTPurple':4 'grey78':12 'CTYellow':12 },150,{ chips  'CTRed':33 'CTGreen':0 'CTPurple':7 'grey78':0 'CTYellow':0 },200,{ chips  'CTRed':31 'CTGreen':0 'CTPurple':3 'grey78':0 'CTYellow':0 },170,FALSE,,
3playersLog_1378885357867.csv,1,540,510,FALSE,{ chips  'CTRed':2 'CTPurple':4 },{ chips  },TRUE,200,120,{ chips  'CTRed':2 'CTPurple':4 'CTGreen':0 'grey78':0 'CTYellow':0 },{ chips  'CTRed':0 'CTPurple':0 'CTGreen':0 'grey78':0 'CTYellow':0 },170,150,0,(R:5,C:4),{ chips  'CTRed':2 'CTGreen':0 'CTPurple':4 'grey78':12 'CTYellow':12 },150,{ chips  'CTRed':33 'CTGreen':0 'CTPurple':7 'grey78':0 'CTYellow':0 },200,{ chips  'CTRed':31 'CTGreen':0 'CTPurple':3 'grey78':0 'CTYellow':0 },170,FALSE,,
3playersLog_1378885357867.csv,2,510,520,TRUE,{ chips  'grey78':11 },{ chips  'CTRed':33 'CTPurple':7 },FALSE,150,200,,,295,55,1,(R:5,C:3),{ chips  'CTRed':2 'CTGreen':0 'CTPurple':4 'grey78':11 'CTYellow':12 },145,{ chips  'CTRed':33 'CTGreen':0 'CTPurple':7 'grey78':0 'CTYellow':0 },200,{ chips  'CTRed':31 'CTGreen':0 'CTPurple':3 'grey78':0 'CTYellow':0 },170,TRUE,,
3playersLog_1378885357867.csv,3,520,510,FALSE,{ chips  'CTRed':10 'CTPurple':1 },{ chips  'CTYellow':6 },TRUE,200,145,{ chips  'CTRed':10 'CTPurple':1 'CTGreen':0 'grey78':0 'CTYellow':0 },{ chips  'CTRed':0 'CTPurple':0 'CTGreen':0 'grey78':0 'CTYellow':6 },175,170,0,(R:5,C:3),{ chips  'CTRed':12 'CTGreen':0 'CTPurple':5 'grey78':11 'CTYellow':6 },170,{ chips  'CTRed':23 'CTGreen':0 'CTPurple':6 'grey78':0 'CTYellow':6 },175,{ chips  'CTRed':31 'CTGreen':0 'CTPurple':3 'grey78':0 'CTYellow':0 },170,FALSE,,
3playersLog_1378885357867.csv,3,540,510,FALSE,{ chips  'CTRed':2 },{ chips  },IGNORED,170,145,,,160,155,0,(R:5,C:3),{ chips  'CTRed':12 'CTGreen':0 'CTPurple':5 'grey78':11 'CTYellow':6 },170,{ chips  'CTRed':23 'CTGreen':0 'CTPurple':6 'grey78':0 'CTYellow':6 },175,{ chips  'CTRed':31 'CTGreen':0 'CTPurple':3 'grey78':0 'CTYellow':0 },170,FALSE,,
3playersLog_1378885357867.csv,4,510,540,TRUE,{ chips  },{ chips  'CTRed':21 'CTPurple':1 },TRUE,170,175,{ chips  'CTYellow':0 },{ chips  'CTRed':21 'CTPurple':1 'grey78':0 },280,60,1,(R:4,C:3),{ chips  'CTRed':33 'CTGreen':0 'CTPurple':6 'grey78':10 'CTYellow':6 },275,{ chips  'CTRed':23 'CTGreen':0 'CTPurple':6 'grey78':0 'CTYellow':6 },175,{ chips  'CTRed':10 'CTGreen':0 'CTPurple':2 'grey78':0 'CTYellow':0 },60,FALSE,,
3playersLog_1378885357867.csv,5,520,510,FALSE,{ chips  'CTRed':11 'CTPurple':1 },{ chips  'grey78':6 },IGNORED,175,275,,,145,305,0,(R:4,C:3),{ chips  'CTRed':34 'CTGreen':0 'CTPurple':6 'grey78':10 'CTYellow':6 },280,{ chips  'CTRed':23 'CTGreen':0 'CTPurple':6 'grey78':0 'CTYellow':6 },175,{ chips  'CTRed':9 'CTGreen':0 'CTPurple':2 'grey78':0 'CTYellow':0 },55,TRUE,,
3playersLog_1378885357867.csv,5,540,510,FALSE,{ chips  'CTRed':1 },{ chips  },TRUE,60,275,{ chips  'CTRed':1 'CTPurple':0 'CTGreen':0 'grey78':0 'CTYellow':0 },{ chips  'CTRed':0 'CTPurple':0 'CTGreen':0 'grey78':0 'CTYellow':0 },55,280,0,(R:4,C:3),{ chips  'CTRed':34 'CTGreen':0 'CTPurple':6 'grey78':10 'CTYellow':6 },280,{ chips  'CTRed':23 'CTGreen':0 'CTPurple':6 'grey78':0 'CTYellow':6 },175,{ chips  'CTRed':9 'CTGreen':0 'CTPurple':2 'grey78':0 'CTYellow':0 },55,FALSE,,
3playersLog_1378885357867.csv,6,510,540,TRUE,{ chips  },{ chips  'CTRed':7 },FALSE,280,55,,,315,20,1,(R:3,C:3),{ chips  'CTRed':34 'CTGreen':0 'CTPurple':5 'grey78':10 'CTYellow':6 },275,{ chips  'CTRed':23 'CTGreen':0 'CTPurple':6 'grey78':0 'CTYellow':6 },175,{ chips  'CTRed':9 'CTGreen':0 'CTPurple':2 'grey78':0 'CTYellow':0 },55,FALSE,,
3playersLog_1378885357867.csv,7,520,510,FALSE,{ chips  'CTRed':10 'CTPurple':2 'CTYellow':1 },{ chips  'grey78':5 },TRUE,175,275,{ chips  'CTRed':10 'CTPurple':2 'CTGreen':0 'grey78':0 'CTYellow':1 },{ chips  'CTRed':0 'CTPurple':0 'CTGreen':0 'grey78':5 'CTYellow':0 },135,315,0,(R:3,C:3),{ chips  'CTRed':44 'CTGreen':0 'CTPurple':7 'grey78':5 'CTYellow':7 },315,{ chips  'CTRed':13 'CTGreen':0 'CTPurple':4 'grey78':5 'CTYellow':5 },135,{ chips  'CTRed':9 'CTGreen':0 'CTPurple':2 'grey78':0 'CTYellow':0 },55,FALSE,,
3playersLog_1378885357867.csv,7,540,510,FALSE,{ chips  'CTPurple':1 },{ chips  },IGNORED,55,275,,,50,280,0,(R:3,C:3),{ chips  'CTRed':44 'CTGreen':0 'CTPurple':7 'grey78':5 'CTYellow':7 },315,{ chips  'CTRed':13 'CTGreen':0 'CTPurple':4 'grey78':5 'CTYellow':5 },135,{ chips  'CTRed':9 'CTGreen':0 'CTPurple':2 'grey78':0 'CTYellow':0 },55,FALSE,,
3playersLog_1378885357867.csv,8,510,540,TRUE,{ chips  },{ chips  'CTRed':7 'CTPurple':1 },FALSE,315,55,,,355,15,1,(R:3,C:2),{ chips  'CTRed':44 'CTGreen':0 'CTPurple':7 'grey78':4 'CTYellow':7 },310,{ chips  'CTRed':13 'CTGreen':0 'CTPurple':4 'grey78':5 'CTYellow':5 },135,{ chips  'CTRed':9 'CTGreen':0 'CTPurple':2 'grey78':0 'CTYellow':0 },55,FALSE,,
3playersLog_1378885357867.csv,9,520,510,FALSE,{ chips  'CTRed':3 'CTYellow':1 },{ chips  'grey78':2 },IGNORED,135,310,,,125,320,0,(R:3,C:2),{ chips  'CTRed':45 'CTGreen':0 'CTPurple':7 'grey78':4 'CTYellow':7 },315,{ chips  'CTRed':13 'CTGreen':0 'CTPurple':4 'grey78':5 'CTYellow':5 },135,{ chips  'CTRed':8 'CTGreen':0 'CTPurple':2 'grey78':0 'CTYellow':0 },50,TRUE,,
3playersLog_1378885357867.csv,9,540,510,FALSE,{ chips  'CTRed':1 },{ chips  },TRUE,55,310,{ chips  'CTRed':1 'CTPurple':0 'CTGreen':0 'grey78':0 'CTYellow':0 },{ chips  'CTRed':0 'CTPurple':0 'CTGreen':0 'grey78':0 'CTYellow':0 },50,315,0,(R:3,C:2),{ chips  'CTRed':45 'CTGreen':0 'CTPurple':7 'grey78':4 'CTYellow':7 },315,{ chips  'CTRed':13 'CTGreen':0 'CTPurple':4 'grey78':5 'CTYellow':5 },135,{ chips  'CTRed':8 'CTGreen':0 'CTPurple':2 'grey78':0 'CTYellow':0 },50,FALSE,,
3playersLog_1378885357867.csv,10,510,540,TRUE,{ chips  },{ chips  'CTRed':3 },FALSE,315,50,,,330,35,1,(R:3,C:1),{ chips  'CTRed':45 'CTGreen':0 'CTPurple':7 'grey78':3 'CTYellow':7 },310,{ chips  'CTRed':13 'CTGreen':0 'CTPurple':4 'grey78':5 'CTYellow':5 },135,{ chips  'CTRed':8 'CTGreen':0 'CTPurple':2 'grey78':0 'CTYellow':0 },50,FALSE,,
3playersLog_1378885357867.csv,11,520,510,FALSE,{ chips  'CTRed':5 'CTPurple':2 'CTYellow':1 },{ chips  'grey78':2 },IGNORED,135,310,,,105,340,0,(R:3,C:1),{ chips  'CTRed':46 'CTGreen':0 'CTPurple':7 'grey78':3 'CTYellow':7 },315,{ chips  'CTRed':13 'CTGreen':0 'CTPurple':4 'grey78':5 'CTYellow':5 },135,{ chips  'CTRed':7 'CTGreen':0 'CTPurple':2 'grey78':0 'CTYellow':0 },45,TRUE,,
3playersLog_1378885357867.csv,11,540,510,FALSE,{ chips  'CTRed':1 },{ chips  },TRUE,50,310,{ chips  'CTRed':1 'CTPurple':0 'CTGreen':0 'grey78':0 'CTYellow':0 },{ chips  'CTRed':0 'CTPurple':0 'CTGreen':0 'grey78':0 'CTYellow':0 },45,315,0,(R:3,C:1),{ chips  'CTRed':46 'CTGreen':0 'CTPurple':7 'grey78':3 'CTYellow':7 },315,{ chips  'CTRed':13 'CTGreen':0 'CTPurple':4 'grey78':5 'CTYellow':5 },135,{ chips  'CTRed':7 'CTGreen':0 'CTPurple':2 'grey78':0 'CTYellow':0 },45,FALSE,,
3playersLog_1378885357867.csv,12,510,520,TRUE,{ chips  'grey78':1 },{ chips  'CTRed':13 'CTPurple':4 'CTYellow':5 },FALSE,315,135,,,420,30,1,(R:2,C:1),{ chips  'CTRed':46 'CTGreen':0 'CTPurple':7 'grey78':2 'CTYellow':7 },310,{ chips  'CTRed':13 'CTGreen':0 'CTPurple':4 'grey78':5 'CTYellow':5 },135,{ chips  'CTRed':7 'CTGreen':0 'CTPurple':2 'grey78':0 'CTYellow':0 },45,TRUE,,
3playersLog_1378885357867.csv,13,520,510,FALSE,{ chips  'CTRed':6 'CTPurple':2 'CTYellow':1 },{ chips  'grey78':1 },IGNORED,135,310,,,95,350,0,(R:2,C:1),{ chips  'CTRed':49 'CTGreen':0 'CTPurple':8 'grey78':1 'CTYellow':7 },325,{ chips  'CTRed':13 'CTGreen':0 'CTPurple':4 'grey78':5 'CTYellow':5 },135,{ chips  'CTRed':4 'CTGreen':0 'CTPurple':1 'grey78':1 'CTYellow':0 },30,TRUE,,
3playersLog_1378885357867.csv,13,540,510,FALSE,{ chips  'CTRed':3 'CTPurple':1 },{ chips  'grey78':1 },TRUE,45,310,{ chips  'CTRed':3 'CTPurple':1 'CTGreen':0 'grey78':0 'CTYellow':0 },{ chips  'CTRed':0 'CTPurple':0 'CTGreen':0 'grey78':1 'CTYellow':0 },30,325,0,(R:2,C:1),{ chips  'CTRed':49 'CTGreen':0 'CTPurple':8 'grey78':1 'CTYellow':7 },325,{ chips  'CTRed':13 'CTGreen':0 'CTPurple':4 'grey78':5 'CTYellow':5 },135,{ chips  'CTRed':4 'CTGreen':0 'CTPurple':1 'grey78':1 'CTYellow':0 },30,FALSE,,
3playersLog_1378885357867.csv,14,510,520,TRUE,{ chips  'grey78':1 },{ chips  'CTRed':13 'CTPurple':4 'CTYellow':5 },FALSE,325,135,,,430,30,1,(R:1,C:1),{ chips  'CTRed':49 'CTGreen':0 'CTPurple':7 'grey78':1 'CTYellow':7 },320,{ chips  'CTRed':13 'CTGreen':0 'CTPurple':4 'grey78':5 'CTYellow':5 },135,{ chips  'CTRed':4 'CTGreen':0 'CTPurple':1 'grey78':1 'CTYellow':0 },30,TRUE,,
3playersLog_1378885357867.csv,15,520,510,FALSE,{ chips  'CTPurple':1 },{ chips  'CTRed':6 },IGNORED,135,320,,,160,295,0,(R:1,C:1),{ chips  'CTRed':53 'CTGreen':0 'CTPurple':7 'grey78':2 'CTYellow':7 },345,{ chips  'CTRed':13 'CTGreen':0 'CTPurple':4 'grey78':5 'CTYellow':5 },135,{ chips  'CTRed':0 'CTGreen':0 'CTPurple':1 'grey78':0 'CTYellow':0 },5,FALSE,,
3playersLog_1378885357867.csv,15,540,510,FALSE,{ chips  'CTRed':4 'grey78':1 },{ chips  },TRUE,30,320,{ chips  'CTRed':4 'CTPurple':0 'CTGreen':0 'grey78':1 'CTYellow':0 },{ chips  'CTRed':0 'CTPurple':0 'CTGreen':0 'grey78':0 'CTYellow':0 },5,345,0,(R:1,C:1),{ chips  'CTRed':53 'CTGreen':0 'CTPurple':7 'grey78':2 'CTYellow':7 },345,{ chips  'CTRed':13 'CTGreen':0 'CTPurple':4 'grey78':5 'CTYellow':5 },135,{ chips  'CTRed':0 'CTGreen':0 'CTPurple':1 'grey78':0 'CTYellow':0 },5,FALSE,,
3playersLog_1378885357867.csv,16,510,520,TRUE,{ chips  'grey78':1 },{ chips  'CTRed':13 'CTPurple':4 'CTYellow':5 },FALSE,345,135,,,450,30,1,(R:1,C:0),{ chips  'CTRed':53 'CTGreen':0 'CTPurple':7 'grey78':1 'CTYellow':7 },340,{ chips  'CTRed':13 'CTGreen':0 'CTPurple':4 'grey78':5 'CTYellow':5 },135,{ chips  'CTRed':0 'CTGreen':0 'CTPurple':1 'grey78':0 'CTYellow':0 },5,TRUE,,
3playersLog_1378885357867.csv,17,520,510,FALSE,{ chips  'CTRed':8 'CTPurple':2 'CTYellow':3 },{ chips  'grey78':1 },IGNORED,135,340,,,75,400,0,(R:1,C:0),{ chips  'CTRed':53 'CTGreen':0 'CTPurple':8 'grey78':1 'CTYellow':7 },345,{ chips  'CTRed':13 'CTGreen':0 'CTPurple':4 'grey78':5 'CTYellow':5 },135,{ chips  'CTRed':0 'CTGreen':0 'CTPurple':0 'grey78':0 'CTYellow':0 },0,TRUE,,
3playersLog_1378885357867.csv,17,540,510,FALSE,{ chips  'CTPurple':1 },{ chips  },TRUE,5,340,{ chips  'CTRed':0 'CTPurple':1 'CTGreen':0 'grey78':0 'CTYellow':0 },{ chips  'CTRed':0 'CTPurple':0 'CTGreen':0 'grey78':0 'CTYellow':0 },0,345,0,(R:1,C:0),{ chips  'CTRed':53 'CTGreen':0 'CTPurple':8 'grey78':1 'CTYellow':7 },345,{ chips  'CTRed':13 'CTGreen':0 'CTPurple':4 'grey78':5 'CTYellow':5 },135,{ chips  'CTRed':0 'CTGreen':0 'CTPurple':0 'grey78':0 'CTYellow':0 },0,FALSE,,
3playersLog_1378885357867.csv,18,510,520,TRUE,{ chips  'grey78':1 },{ chips  'CTRed':13 'CTPurple':4 'CTYellow':5 },FALSE,345,135,,,450,30,1,(R:0,C:0),{ chips  'CTRed':53 'CTGreen':0 'CTPurple':8 'grey78':0 'CTYellow':7 },490,{ chips  'CTRed':13 'CTGreen':0 'CTPurple':4 'grey78':5 'CTYellow':5 },135,{ chips  'CTRed':0 'CTGreen':0 'CTPurple':0 'grey78':0 'CTYellow':0 },150,TRUE,,
3playersLog_1378885357867.csv,18,510,520,TRUE,{ chips  'grey78':1 },{ chips  'CTRed':13 'CTPurple':4 'CTYellow':5 },FALSE,345,135,,,450,30,1,(R:0,C:0),{ chips  'CTRed':53 'CTGreen':0 'CTPurple':8 'grey78':0 'CTYellow':7 },490,{ chips  'CTRed':13 'CTGreen':0 'CTPurple':4 'grey78':5 'CTYellow':5 },135,{ chips  'CTRed':0 'CTGreen':0 'CTPurple':0 'grey78':0 'CTYellow':0 },150,FALSE,,TRUE
3playersLog_1378885379314.csv,1,520,510,FALSE,{ chips  'CTPurple':1 },{ chips  },TRUE,200,120,{ chips  'CTRed':0 'CTPurple':1 'CTGreen':0 'grey78':0 'CTYellow':0 },{ chips  'CTRed':0 'CTPurple':0 'CTGreen':0 'grey78':0 'CTYellow':0 },195,125,0,(R:5,C:4),{ chips  'CTRed':0 'CTGreen':0 'CTPurple':1 'grey78':12 'CTYellow':12 },125,{ chips  'CTRed':33 'CTGreen':0 'CTPurple':6 'grey78':0 'CTYellow':0 },195,{ chips  'CTRed':33 'CTGreen':0 'CTPurple':7 'grey78':0 'CTYellow':0 },200,FALSE,,
3playersLog_1378885379314.csv,1,540,510,FALSE,{ chips  'CTPurple':2 },{ chips  'grey78':4 },IGNORED,200,120,,,210,110,0,(R:5,C:4),{ chips  'CTRed':0 'CTGreen':0 'CTPurple':1 'grey78':12 'CTYellow':12 },125,{ chips  'CTRed':33 'CTGreen':0 'CTPurple':6 'grey78':0 'CTYellow':0 },195,{ chips  'CTRed':33 'CTGreen':0 'CTPurple':7 'grey78':0 'CTYellow':0 },200,FALSE,,
3playersLog_1378885379314.csv,2,510,520,TRUE,{ chips  'grey78':11 },{ chips  'CTRed':33 'CTPurple':6 },FALSE,125,195,,,265,55,1,(R:5,C:5),{ chips  'CTRed':0 'CTGreen':0 'CTPurple':1 'grey78':12 'CTYellow':11 },120,{ chips  'CTRed':33 'CTGreen':0 'CTPurple':6 'grey78':0 'CTYellow':0 },195,{ chips  'CTRed':33 'CTGreen':0 'CTPurple':7 'grey78':0 'CTYellow':0 },200,TRUE,,
3playersLog_1378885379314.csv,3,520,510,FALSE,{ chips  'CTRed':20 },{ chips  'grey78':6 },TRUE,195,120,{ chips  'CTRed':20 'CTPurple':0 'CTGreen':0 'grey78':0 'CTYellow':0 },{ chips  'CTRed':0 'CTPurple':0 'CTGreen':0 'grey78':6 'CTYellow':0 },125,190,0,(R:5,C:5),{ chips  'CTRed':20 'CTGreen':0 'CTPurple':1 'grey78':6 'CTYellow':11 },190,{ chips  'CTRed':13 'CTGreen':0 'CTPurple':6 'grey78':6 'CTYellow':0 },125,{ chips  'CTRed':33 'CTGreen':0 'CTPurple':7 'grey78':0 'CTYellow':0 },200,FALSE,,
3playersLog_1378885379314.csv,3,540,510,FALSE,{ chips  'CTRed':5 'CTPurple':7 },{ chips  'grey78':5 },IGNORED,200,120,,,165,155,0,(R:5,C:5),{ chips  'CTRed':20 'CTGreen':0 'CTPurple':1 'grey78':6 'CTYellow':11 },190,{ chips  'CTRed':13 'CTGreen':0 'CTPurple':6 'grey78':6 'CTYellow':0 },125,{ chips  'CTRed':33 'CTGreen':0 'CTPurple':7 'grey78':0 'CTYellow':0 },200,FALSE,,
3playersLog_1378885379314.csv,4,510,520,TRUE,{ chips  'grey78':5 },{ chips  'CTRed':13 'CTPurple':6 },FALSE,190,125,,,260,55,1,(R:4,C:5),{ chips  'CTRed':20 'CTGreen':0 'CTPurple':1 'grey78':6 'CTYellow':10 },185,{ chips  'CTRed':13 'CTGreen':0 'CTPurple':6 'grey78':6 'CTYellow':0 },125,{ chips  'CTRed':33 'CTGreen':0 'CTPurple':7 'grey78':0 'CTYellow':0 },200,TRUE,,
3playersLog_1378885379314.csv,5,520,510,FALSE,{ chips  'CTPurple':2 },{ chips  'grey78':6 },FALSE,125,185,,,145,165,0,(R:4,C:5),{ chips  'CTRed':20 'CTGreen':0 'CTPurple':1 'grey78':6 'CTYellow':10 },185,{ chips  'CTRed':13 'CTGreen':0 'CTPurple':6 'grey78':6 'CTYellow':0 },125,{ chips  'CTRed':33 'CTGreen':0 'CTPurple':7 'grey78':0 'CTYellow':0 },200,TRUE,,
3playersLog_1378885379314.csv,5,540,510,FALSE,{ chips  'CTPurple':4 },{ chips  'grey78':4 },FALSE,200,185,,,200,185,0,(R:4,C:5),{ chips  'CTRed':20 'CTGreen':0 'CTPurple':1 'grey78':6 'CTYellow':10 },185,{ chips  'CTRed':13 'CTGreen':0 'CTPurple':6 'grey78':6 'CTYellow':0 },125,{ chips  'CTRed':33 'CTGreen':0 'CTPurple':7 'grey78':0 'CTYellow':0 },200,FALSE,,
3playersLog_1378885379314.csv,6,510,520,TRUE,{ chips  'grey78':5 },{ chips  'CTRed':13 'CTPurple':6 },FALSE,185,125,,,255,55,1,(R:4,C:6),{ chips  'CTRed':20 'CTGreen':0 'CTPurple':1 'grey78':6 'CTYellow':9 },180,{ chips  'CTRed':13 'CTGreen':0 'CTPurple':6 'grey78':6 'CTYellow':0 },125,{ chips  'CTRed':33 'CTGreen':0 'CTPurple':7 'grey78':0 'CTYellow':0 },200,TRUE,,
3playersLog_1378885379314.csv,7,520,510,FALSE,{ chips  'CTRed':6 },{ chips  'grey78':6 },IGNORED,125,180,,,125,180,0,(R:4,C:6),{ chips  'CTRed':31 'CTGreen':0 'CTPurple':4 'grey78':1 'CTYellow':5 },205,{ chips  'CTRed':13 'CTGreen':0 'CTPurple':6 'grey78':6 'CTYellow':0 },125,{ chips  'CTRed':22 'CTGreen':0 'CTPurple':4 'grey78':5 'CTYellow':4 },175,TRUE,,
3playersLog_1378885379314.csv,7,540,510,FALSE,{ chips  'CTRed':11 'CTPurple':3 },{ chips  'grey78':5 'CTYellow':4 },TRUE,200,180,{ chips  'CTRed':11 'CTPurple':3 'CTGreen':0 'grey78':0 'CTYellow':0 },{ chips  'CTRed':0 'CTPurple':0 'CTGreen':0 'grey78':5 'CTYellow':4 },175,205,0,(R:4,C:6),{ chips  'CTRed':31 'CTGreen':0 'CTPurple':4 'grey78':1 'CTYellow':5 },205,{ chips  'CTRed':13 'CTGreen':0 'CTPurple':6 'grey78':6 'CTYellow':0 },125,{ chips  'CTRed':22 'CTGreen':0 'CTPurple':4 'grey78':5 'CTYellow':4 },175,FALSE,,
3playersLog_1378885379314.csv,8,510,520,TRUE,{ chips  },{ chips  'CTRed':12 'CTPurple':1 },FALSE,205,125,,,270,60,1,(R:3,C:6),{ chips  'CTRed':31 'CTGreen':0 'CTPurple':4 'grey78':1 'CTYellow':4 },200,{ chips  'CTRed':13 'CTGreen':0 'CTPurple':6 'grey78':6 'CTYellow':0 },125,{ chips  'CTRed':22 'CTGreen':0 'CTPurple':4 'grey78':5 'CTYellow':4 },175,FALSE,,
3playersLog_1378885379314.csv,9,520,510,FALSE,{ chips  'CTRed':10 },{ chips  'CTPurple':4 },FALSE,125,200,,,95,230,0,(R:3,C:6),{ chips  'CTRed':31 'CTGreen':0 'CTPurple':4 'grey78':1 'CTYellow':4 },200,{ chips  'CTRed':13 'CTGreen':0 'CTPurple':6 'grey78':6 'CTYellow':0 },125,{ chips  'CTRed':22 'CTGreen':0 'CTPurple':4 'grey78':5 'CTYellow':4 },175,FALSE,,
3playersLog_1378885379314.csv,9,540,510,FALSE,{ chips  'grey78':3 },{ chips  'CTRed':5 },FALSE,175,200,,,185,190,0,(R:3,C:6),{ chips  'CTRed':31 'CTGreen':0 'CTPurple':4 'grey78':1 'CTYellow':4 },200,{ chips  'CTRed':13 'CTGreen':0 'CTPurple':6 'grey78':6 'CTYellow':0 },125,{ chips  'CTRed':22 'CTGreen':0 'CTPurple':4 'grey78':5 'CTYellow':4 },175,FALSE,,
3playersLog_1378885379314.csv,10,510,520,TRUE,{ chips  },{ chips  'CTRed':6 'CTPurple':2 },FALSE,200,125,,,240,85,1,(R:3,C:7),{ chips  'CTRed':31 'CTGreen':0 'CTPurple':4 'grey78':1 'CTYellow':3 },195,{ chips  'CTRed':13 'CTGreen':0 'CTPurple':6 'grey78':6 'CTYellow':0 },125,{ chips  'CTRed':22 'CTGreen':0 'CTPurple':4 'grey78':5 'CTYellow':4 },175,FALSE,,
3playersLog_1378885379314.csv,11,520,510,FALSE,{ chips  },{ chips  'CTRed':5 'CTPurple':4 'grey78':1 },FALSE,125,195,,,175,145,0,(R:3,C:7),{ chips  'CTRed':31 'CTGreen':0 'CTPurple':4 'grey78':1 'CTYellow':3 },195,{ chips  'CTRed':13 'CTGreen':0 'CTPurple':6 'grey78':6 'CTYellow':0 },125,{ chips  'CTRed':22 'CTGreen':0 'CTPurple':4 'grey78':5 'CTYellow':4 },175,FALSE,,
3playersLog_1378885379314.csv,11,540,510,FALSE,{ chips  'grey78':3 },{ chips  'CTRed':4 },FALSE,175,195,,,180,190,0,(R:3,C:7),{ chips  'CTRed':31 'CTGreen':0 'CTPurple':4 'grey78':1 'CTYellow':3 },195,{ chips  'CTRed':13 'CTGreen':0 'CTPurple':6 'grey78':6 'CTYellow':0 },125,{ chips  'CTRed':22 'CTGreen':0 'CTPurple':4 'grey78':5 'CTYellow':4 },175,FALSE,,
3playersLog_1378885379314.csv,12,510,520,TRUE,{ chips  },{ chips  'CTRed':12 'CTPurple':3 },FALSE,195,125,,,270,50,1,(R:2,C:7),{ chips  'CTRed':31 'CTGreen':0 'CTPurple':4 'grey78':1 'CTYellow':2 },190,{ chips  'CTRed':13 'CTGreen':0 'CTPurple':6 'grey78':6 'CTYellow':0 },125,{ chips  'CTRed':22 'CTGreen':0 'CTPurple':4 'grey78':5 'CTYellow':4 },175,FALSE,,
3playersLog_1378885379314.csv,13,520,510,FALSE,{ chips  },{ chips  'CTRed':10 'CTPurple':4 'grey78':1 },FALSE,125,190,,,200,115,0,(R:2,C:7),{ chips  'CTRed':31 'CTGreen':0 'CTPurple':4 'grey78':1 'CTYellow':2 },190,{ chips  'CTRed':13 'CTGreen':0 'CTPurple':6 'grey78':6 'CTYellow':0 },125,{ chips  'CTRed':22 'CTGreen':0 'CTPurple':4 'grey78':5 'CTYellow':4 },175,FALSE,,
3playersLog_1378885379314.csv,13,540,510,FALSE,{ chips  'CTPurple':1 'grey78':3 },{ chips  'CTRed':6 },FALSE,175,190,,,185,180,0,(R:2,C:7),{ chips  'CTRed':31 'CTGreen':0 'CTPurple':4 'grey78':1 'CTYellow':2 },190,{ chips  'CTRed':13 'CTGreen':0 'CTPurple':6 'grey78':6 'CTYellow':0 },125,{ chips  'CTRed':22 'CTGreen':0 'CTPurple':4 'grey78':5 'CTYellow':4 },175,FALSE,,
3playersLog_1378885379314.csv,14,510,520,TRUE,{ chips  },{ chips  'CTRed':10 'CTPurple':5 },FALSE,190,125,,,265,50,1,(R:1,C:7),{ chips  'CTRed':31 'CTGreen':0 'CTPurple':3 'grey78':1 'CTYellow':2 },185,{ chips  'CTRed':13 'CTGreen':0 'CTPurple':6 'grey78':6 'CTYellow':0 },125,{ chips  'CTRed':22 'CTGreen':0 'CTPurple':4 'grey78':5 'CTYellow':4 },175,FALSE,,
3playersLog_1378885379314.csv,15,520,510,FALSE,{ chips  'CTRed':1 },{ chips  'CTRed':10 'CTPurple':3 'grey78':1 },FALSE,125,185,,,190,120,0,(R:1,C:7),{ chips  'CTRed':31 'CTGreen':0 'CTPurple':3 'grey78':1 'CTYellow':2 },185,{ chips  'CTRed':13 'CTGreen':0 'CTPurple':6 'grey78':6 'CTYellow':0 },125,{ chips  'CTRed':22 'CTGreen':0 'CTPurple':4 'grey78':5 'CTYellow':4 },175,FALSE,,
3playersLog_1378885379314.csv,15,540,510,FALSE,{ chips  'CTPurple':4 },{ chips  'CTRed':4 },FALSE,175,185,,,175,185,0,(R:1,C:7),{ chips  'CTRed':31 'CTGreen':0 'CTPurple':3 'grey78':1 'CTYellow':2 },185,{ chips  'CTRed':13 'CTGreen':0 'CTPurple':6 'grey78':6 'CTYellow':0 },125,{ chips  'CTRed':22 'CTGreen':0 'CTPurple':4 'grey78':5 'CTYellow':4 },175,FALSE,,
3playersLog_1378885379314.csv,16,510,520,TRUE,{ chips  },{ chips  'CTRed':6 'CTPurple':1 },FALSE,185,125,,,220,90,1,(R:1,C:8),{ chips  'CTRed':31 'CTGreen':0 'CTPurple':3 'grey78':1 'CTYellow':1 },180,{ chips  'CTRed':13 'CTGreen':0 'CTPurple':6 'grey78':6 'CTYellow':0 },125,{ chips  'CTRed':22 'CTGreen':0 'CTPurple':4 'grey78':5 'CTYellow':4 },175,FALSE,,
3playersLog_1378885379314.csv,17,520,510,FALSE,{ chips  },{ chips  'CTRed':20 },IGNORED,125,180,,,225,80,0,(R:1,C:8),{ chips  'CTRed':31 'CTGreen':0 'CTPurple':7 'grey78':1 'CTYellow':1 },200,{ chips  'CTRed':13 'CTGreen':0 'CTPurple':6 'grey78':6 'CTYellow':0 },125,{ chips  'CTRed':22 'CTGreen':0 'CTPurple':0 'grey78':5 'CTYellow':4 },155,FALSE,,
3playersLog_1378885379314.csv,17,540,510,FALSE,{ chips  'CTPurple':4 },{ chips  },TRUE,175,180,{ chips  'CTRed':0 'CTPurple':4 'CTGreen':0 'grey78':0 'CTYellow':0 },{ chips  'CTRed':0 'CTPurple':0 'CTGreen':0 'grey78':0 'CTYellow':0 },155,200,0,(R:1,C:8),{ chips  'CTRed':31 'CTGreen':0 'CTPurple':7 'grey78':1 'CTYellow':1 },200,{ chips  'CTRed':13 'CTGreen':0 'CTPurple':6 'grey78':6 'CTYellow':0 },125,{ chips  'CTRed':22 'CTGreen':0 'CTPurple':0 'grey78':5 'CTYellow':4 },155,FALSE,,
3playersLog_1378885379314.csv,18,510,520,TRUE,{ chips  },{ chips  'CTRed':8 'CTPurple':4 },FALSE,200,125,,,260,65,1,(R:0,C:8),{ chips  'CTRed':31 'CTGreen':0 'CTPurple':7 'grey78':1 'CTYellow':0 },345,{ chips  'CTRed':13 'CTGreen':0 'CTPurple':6 'grey78':6 'CTYellow':0 },275,{ chips  'CTRed':22 'CTGreen':0 'CTPurple':0 'grey78':5 'CTYellow':4 },155,FALSE,,
3playersLog_1378885379314.csv,18,510,520,TRUE,{ chips  },{ chips  'CTRed':8 'CTPurple':4 },FALSE,200,125,,,260,65,1,(R:0,C:8),{ chips  'CTRed':31 'CTGreen':0 'CTPurple':7 'grey78':1 'CTYellow':0 },345,{ chips  'CTRed':13 'CTGreen':0 'CTPurple':6 'grey78':6 'CTYellow':0 },275,{ chips  'CTRed':22 'CTGreen':0 'CTPurple':0 'grey78':5 'CTYellow':4 },155,FALSE,,TRUE
3playersLog_1378885585275.csv,1,520,510,FALSE,{ chips  'CTRed':15 'CTPurple':4 },{ chips  },TRUE,200,120,{ chips  'CTRed':15 'CTPurple':4 'CTGreen':0 'grey78':0 'CTYellow':0 },{ chips  'CTRed':0 'CTPurple':0 'CTGreen':0 'grey78':0 'CTYellow':0 },105,215,0,(R:5,C:4),{ chips  'CTRed':15 'CTGreen':0 'CTPurple':4 'grey78':12 'CTYellow':12 },215,{ chips  'CTRed':18 'CTGreen':0 'CTPurple':3 'grey78':0 'CTYellow':0 },105,{ chips  'CTRed':33 'CTGreen':0 'CTPurple':7 'grey78':0 'CTYellow':0 },200,FALSE,,
3playersLog_1378885585275.csv,1,540,510,FALSE,{ chips  'CTPurple':1 },{ chips  'CTYellow':1 },IGNORED,200,120,,,200,120,0,(R:5,C:4),{ chips  'CTRed':15 'CTGreen':0 'CTPurple':4 'grey78':12 'CTYellow':12 },215,{ chips  'CTRed':18 'CTGreen':0 'CTPurple':3 'grey78':0 'CTYellow':0 },105,{ chips  'CTRed':33 'CTGreen':0 'CTPurple':7 'grey78':0 'CTYellow':0 },200,FALSE,,
3playersLog_1378885585275.csv,2,510,520,TRUE,{ chips  'grey78':11 },{ chips  'CTRed':18 'CTPurple':3 },FALSE,215,105,,,265,55,1,(R:5,C:3),{ chips  'CTRed':15 'CTGreen':0 'CTPurple':4 'grey78':11 'CTYellow':12 },210,{ chips  'CTRed':18 'CTGreen':0 'CTPurple':3 'grey78':0 'CTYellow':0 },105,{ chips  'CTRed':33 'CTGreen':0 'CTPurple':7 'grey78':0 'CTYellow':0 },200,TRUE,,
3playersLog_1378885585275.csv,3,520,510,FALSE,{ chips  'CTPurple':3 },{ chips  },IGNORED,105,210,,,90,225,0,(R:5,C:3),{ chips  'CTRed':25 'CTGreen':0 'CTPurple':6 'grey78':9 'CTYellow':11 },255,{ chips  'CTRed':18 'CTGreen':0 'CTPurple':3 'grey78':0 'CTYellow':0 },105,{ chips  'CTRed':23 'CTGreen':0 'CTPurple':5 'grey78':2 'CTYellow':1 },155,FALSE,,
3playersLog_1378885585275.csv,3,540,510,FALSE,{ chips  'CTRed':10 'CTPurple':2 },{ chips  'grey78':2 'CTYellow':1 },TRUE,200,210,{ chips  'CTRed':10 'CTPurple':2 'CTGreen':0 'grey78':0 'CTYellow':0 },{ chips  'CTRed':0 'CTPurple':0 'CTGreen':0 'grey78':2 'CTYellow':1 },155,255,0,(R:5,C:3),{ chips  'CTRed':25 'CTGreen':0 'CTPurple':6 'grey78':9 'CTYellow':11 },255,{ chips  'CTRed':18 'CTGreen':0 'CTPurple':3 'grey78':0 'CTYellow':0 },105,{ chips  'CTRed':23 'CTGreen':0 'CTPurple':5 'grey78':2 'CTYellow':1 },155,FALSE,,
3playersLog_1378885585275.csv,4,510,540,TRUE,{ chips  'CTYellow':10 },{ chips  'CTRed':23 'CTPurple':5 'grey78':2 },FALSE,255,155,,,355,55,1,(R:4,C:3),{ chips  'CTRed':25 'CTGreen':0 'CTPurple':6 'grey78':8 'CTYellow':11 },250,{ chips  'CTRed':18 'CTGreen':0 'CTPurple':3 'grey78':0 'CTYellow':0 },105,{ chips  'CTRed':23 'CTGreen':0 'CTPurple':5 'grey78':2 'CTYellow':1 },155,TRUE,,
3playersLog_1378885585275.csv,5,540,510,FALSE,{ chips  'CTRed':4 'CTPurple':1 },{ chips  'CTYellow':1 },TRUE,155,250,{ chips  'CTRed':4 'CTPurple':1 'CTGreen':0 'grey78':0 'CTYellow':0 },{ chips  'CTRed':0 'CTPurple':0 'CTGreen':0 'grey78':0 'CTYellow':1 },135,270,0,(R:4,C:3),{ chips  'CTRed':29 'CTGreen':0 'CTPurple':7 'grey78':8 'CTYellow':10 },270,{ chips  'CTRed':18 'CTGreen':0 'CTPurple':3 'grey78':0 'CTYellow':0 },105,{ chips  'CTRed':19 'CTGreen':0 'CTPurple':4 'grey78':2 'CTYellow':2 },135,FALSE,,
3playersLog_1378885585275.csv,6,510,540,TRUE,{ chips  'CTYellow':9 },{ chips  'CTRed':19 'CTPurple':4 'grey78':2 },FALSE,270,135,,,350,55,1,(R:3,C:3),{ chips  'CTRed':29 'CTGreen':0 'CTPurple':6 'grey78':8 'CTYellow':10 },265,{ chips  'CTRed':18 'CTGreen':0 'CTPurple':3 'grey78':0 'CTYellow':0 },105,{ chips  'CTRed':19 'CTGreen':0 'CTPurple':4 'grey78':2 'CTYellow':2 },135,TRUE,,
3playersLog_1378885585275.csv,7,520,510,FALSE,{ chips  'CTPurple':3 },{ chips  'CTRed':1 'CTYellow':1 },IGNORED,105,265,,,100,270,0,(R:3,C:3),{ chips  'CTRed':31 'CTGreen':0 'CTPurple':7 'grey78':8 'CTYellow':10 },280,{ chips  'CTRed':18 'CTGreen':0 'CTPurple':3 'grey78':0 'CTYellow':0 },105,{ chips  'CTRed':17 'CTGreen':0 'CTPurple':3 'grey78':2 'CTYellow':2 },120,FALSE,,
3playersLog_1378885585275.csv,7,540,510,FALSE,{ chips  'CTRed':2 'CTPurple':1 },{ chips  },TRUE,135,265,{ chips  'CTRed':2 'CTPurple':1 'CTGreen':0 'grey78':0 'CTYellow':0 },{ chips  'CTRed':0 'CTPurple':0 'CTGreen':0 'grey78':0 'CTYellow':0 },120,280,0,(R:3,C:3),{ chips  'CTRed':31 'CTGreen':0 'CTPurple':7 'grey78':8 'CTYellow':10 },280,{ chips  'CTRed':18 'CTGreen':0 'CTPurple':3 'grey78':0 'CTYellow':0 },105,{ chips  'CTRed':17 'CTGreen':0 'CTPurple':3 'grey78':2 'CTYellow':2 },120,FALSE,,
3playersLog_1378885585275.csv,8,510,540,TRUE,{ chips  'CTYellow':9 },{ chips  'CTRed':17 'CTPurple':3 'grey78':2 },FALSE,280,120,,,345,55,1,(R:3,C:2),{ chips  'CTRed':31 'CTGreen':0 'CTPurple':7 'grey78':7 'CTYellow':10 },275,{ chips  'CTRed':18 'CTGreen':0 'CTPurple':3 'grey78':0 'CTYellow':0 },105,{ chips  'CTRed':17 'CTGreen':0 'CTPurple':3 'grey78':2 'CTYellow':2 },120,TRUE,,
3playersLog_1378885585275.csv,9,520,510,FALSE,{ chips  'CTRed':12 'CTPurple':3 },{ chips  'grey78':7 },TRUE,105,275,{ chips  'CTRed':12 'CTPurple':3 'CTGreen':0 'grey78':0 'CTYellow':0 },{ chips  'CTRed':0 'CTPurple':0 'CTGreen':0 'grey78':7 'CTYellow':0 },65,315,0,(R:3,C:2),{ chips  'CTRed':43 'CTGreen':0 'CTPurple':10 'grey78':0 'CTYellow':10 },315,{ chips  'CTRed':6 'CTGreen':0 'CTPurple':0 'grey78':7 'CTYellow':0 },65,{ chips  'CTRed':17 'CTGreen':0 'CTPurple':3 'grey78':2 'CTYellow':2 },120,FALSE,,
3playersLog_1378885585275.csv,9,540,510,FALSE,{ chips  'CTRed':3 },{ chips  'CTPurple':1 'CTYellow':2 },IGNORED,120,275,,,120,275,0,(R:3,C:2),{ chips  'CTRed':43 'CTGreen':0 'CTPurple':10 'grey78':0 'CTYellow':10 },315,{ chips  'CTRed':6 'CTGreen':0 'CTPurple':0 'grey78':7 'CTYellow':0 },65,{ chips  'CTRed':17 'CTGreen':0 'CTPurple':3 'grey78':2 'CTYellow':2 },120,FALSE,,
3playersLog_1378885585275.csv,10,510,520,TRUE,{ chips  },{ chips  'CTRed':4 },FALSE,315,65,,,335,45,1,(R:3,C:3),{ chips  'CTRed':43 'CTGreen':0 'CTPurple':9 'grey78':0 'CTYellow':10 },310,{ chips  'CTRed':6 'CTGreen':0 'CTPurple':0 'grey78':7 'CTYellow':0 },65,{ chips  'CTRed':17 'CTGreen':0 'CTPurple':3 'grey78':2 'CTYellow':2 },120,FALSE,,
3playersLog_1378885585275.csv,11,520,510,FALSE,{ chips  'CTRed':1 'grey78':3 },{ chips  'CTPurple':6 },FALSE,65,310,,,75,300,0,(R:3,C:3),{ chips  'CTRed':43 'CTGreen':0 'CTPurple':9 'grey78':0 'CTYellow':10 },310,{ chips  'CTRed':6 'CTGreen':0 'CTPurple':0 'grey78':7 'CTYellow':0 },65,{ chips  'CTRed':17 'CTGreen':0 'CTPurple':3 'grey78':2 'CTYellow':2 },120,FALSE,,
3playersLog_1378885585275.csv,11,540,510,FALSE,{ chips  'grey78':1 'CTYellow':1 },{ chips  'CTRed':4 },FALSE,120,310,,,130,300,0,(R:3,C:3),{ chips  'CTRed':43 'CTGreen':0 'CTPurple':9 'grey78':0 'CTYellow':10 },310,{ chips  'CTRed':6 'CTGreen':0 'CTPurple':0 'grey78':7 'CTYellow':0 },65,{ chips  'CTRed':17 'CTGreen':0 'CTPurple':3 'grey78':2 'CTYellow':2 },120,FALSE,,
3playersLog_1378885585275.csv,12,510,520,TRUE,{ chips  },{ chips  },TRUE,310,65,{ chips  'grey78':0 },{ chips  'CTRed':0 'CTPurple':0 'CTYellow':0 },310,65,1,(R:3,C:4),{ chips  'CTRed':43 'CTGreen':0 'CTPurple':8 'grey78':0 'CTYellow':10 },305,{ chips  'CTRed':6 'CTGreen':0 'CTPurple':0 'grey78':7 'CTYellow':0 },65,{ chips  'CTRed':17 'CTGreen':0 'CTPurple':3 'grey78':2 'CTYellow':2 },120,FALSE,,
3playersLog_1378885585275.csv,13,520,510,FALSE,{ chips  'CTRed':4 'grey78':1 },{ chips  'CTPurple':2 'CTYellow':3 },FALSE,65,305,,,65,305,0,(R:3,C:4),{ chips  'CTRed':43 'CTGreen':0 'CTPurple':8 'grey78':0 'CTYellow':10 },305,{ chips  'CTRed':6 'CTGreen':0 'CTPurple':0 'grey78':7 'CTYellow':0 },65,{ chips  'CTRed':17 'CTGreen':0 'CTPurple':3 'grey78':2 'CTYellow':2 },120,FALSE,,
3playersLog_1378885585275.csv,13,540,510,FALSE,{ chips  'grey78':2 },{ chips  'CTRed':2 },FALSE,120,305,,,120,305,0,(R:3,C:4),{ chips  'CTRed':43 'CTGreen':0 'CTPurple':8 'grey78':0 'CTYellow':10 },305,{ chips  'CTRed':6 'CTGreen':0 'CTPurple':0 'grey78':7 'CTYellow':0 },65,{ chips  'CTRed':17 'CTGreen':0 'CTPurple':3 'grey78':2 'CTYellow':2 },120,FALSE,,
3playersLog_1378885585275.csv,14,510,520,TRUE,{ chips  },{ chips  'CTRed':4 },FALSE,305,65,,,325,45,1,(R:3,C:5),{ chips  'CTRed':43 'CTGreen':0 'CTPurple':7 'grey78':0 'CTYellow':10 },300,{ chips  'CTRed':6 'CTGreen':0 'CTPurple':0 'grey78':7 'CTYellow':0 },65,{ chips  'CTRed':17 'CTGreen':0 'CTPurple':3 'grey78':2 'CTYellow':2 },120,FALSE,,
3playersLog_1378885585275.csv,15,520,510,FALSE,{ chips  'CTRed':3 },{ chips  'CTPurple':3 },IGNORED,65,300,,,65,300,0,(R:3,C:5),{ chips  'CTRed':41 'CTGreen':0 'CTPurple':9 'grey78':2 'CTYellow':10 },310,{ chips  'CTRed':6 'CTGreen':0 'CTPurple':0 'grey78':7 'CTYellow':0 },65,{ chips  'CTRed':19 'CTGreen':0 'CTPurple':1 'grey78':0 'CTYellow':2 },110,FALSE,,
3playersLog_1378885585275.csv,15,540,510,FALSE,{ chips  'CTPurple':2 'grey78':2 },{ chips  'CTRed':2 },TRUE,120,300,{ chips  'CTRed':0 'CTPurple':2 'CTGreen':0 'grey78':2 'CTYellow':0 },{ chips  'CTRed':2 'CTPurple':0 'CTGreen':0 'grey78':0 'CTYellow':0 },110,310,0,(R:3,C:5),{ chips  'CTRed':41 'CTGreen':0 'CTPurple':9 'grey78':2 'CTYellow':10 },310,{ chips  'CTRed':6 'CTGreen':0 'CTPurple':0 'grey78':7 'CTYellow':0 },65,{ chips  'CTRed':19 'CTGreen':0 'CTPurple':1 'grey78':0 'CTYellow':2 },110,FALSE,,
3playersLog_1378885585275.csv,16,510,520,TRUE,{ chips  'grey78':1 },{ chips  'CTRed':6 },FALSE,310,65,,,335,40,1,(R:3,C:6),{ chips  'CTRed':41 'CTGreen':0 'CTPurple':9 'grey78':2 'CTYellow':9 },305,{ chips  'CTRed':6 'CTGreen':0 'CTPurple':0 'grey78':7 'CTYellow':0 },65,{ chips  'CTRed':19 'CTGreen':0 'CTPurple':1 'grey78':0 'CTYellow':2 },110,TRUE,,
3playersLog_1378885585275.csv,17,520,510,FALSE,{ chips  'CTRed':3 },{ chips  'CTPurple':3 },IGNORED,65,305,,,65,305,0,(R:3,C:6),{ chips  'CTRed':51 'CTGreen':0 'CTPurple':10 'grey78':2 'CTYellow':4 },335,{ chips  'CTRed':6 'CTGreen':0 'CTPurple':0 'grey78':7 'CTYellow':0 },65,{ chips  'CTRed':9 'CTGreen':0 'CTPurple':0 'grey78':0 'CTYellow':7 },80,FALSE,,
3playersLog_1378885585275.csv,17,540,510,FALSE,{ chips  'CTRed':10 'CTPurple':1 },{ chips  'CTYellow':5 },TRUE,110,305,{ chips  'CTRed':10 'CTPurple':1 'CTGreen':0 'grey78':0 'CTYellow':0 },{ chips  'CTRed':0 'CTPurple':0 'CTGreen':0 'grey78':0 'CTYellow':5 },80,335,0,(R:3,C:6),{ chips  'CTRed':51 'CTGreen':0 'CTPurple':10 'grey78':2 'CTYellow':4 },335,{ chips  'CTRed':6 'CTGreen':0 'CTPurple':0 'grey78':7 'CTYellow':0 },65,{ chips  'CTRed':9 'CTGreen':0 'CTPurple':0 'grey78':0 'CTYellow':7 },80,FALSE,,
3playersLog_1378885585275.csv,18,510,520,TRUE,{ chips  'grey78':1 },{ chips  'CTRed':6 },FALSE,335,65,,,360,40,1,(R:3,C:7),{ chips  'CTRed':51 'CTGreen':0 'CTPurple':10 'grey78':2 'CTYellow':3 },330,{ chips  'CTRed':6 'CTGreen':0 'CTPurple':0 'grey78':7 'CTYellow':0 },65,{ chips  'CTRed':9 'CTGreen':0 'CTPurple':0 'grey78':0 'CTYellow':7 },80,TRUE,,
3playersLog_1378885585275.csv,19,520,510,FALSE,{ chips  'CTRed':3 },{ chips  'CTPurple':4 },IGNORED,65,330,,,70,325,0,(R:3,C:7),{ chips  'CTRed':53 'CTGreen':0 'CTPurple':10 'grey78':2 'CTYellow':3 },340,{ chips  'CTRed':6 'CTGreen':0 'CTPurple':0 'grey78':7 'CTYellow':0 },65,{ chips  'CTRed':7 'CTGreen':0 'CTPurple':0 'grey78':0 'CTYellow':7 },70,TRUE,,
3playersLog_1378885585275.csv,19,540,510,FALSE,{ chips  'CTRed':2 },{ chips  },TRUE,80,330,{ chips  'CTRed':2 'CTPurple':0 'CTGreen':0 'grey78':0 'CTYellow':0 },{ chips  'CTRed':0 'CTPurple':0 'CTGreen':0 'grey78':0 'CTYellow':0 },70,340,0,(R:3,C:7),{ chips  'CTRed':53 'CTGreen':0 'CTPurple':10 'grey78':2 'CTYellow':3 },340,{ chips  'CTRed':6 'CTGreen':0 'CTPurple':0 'grey78':7 'CTYellow':0 },65,{ chips  'CTRed':7 'CTGreen':0 'CTPurple':0 'grey78':0 'CTYellow':7 },70,FALSE,,
3playersLog_1378885585275.csv,20,510,520,TRUE,{ chips  'grey78':1 },{ chips  'CTRed':6 },FALSE,340,65,,,365,40,1,(R:2,C:7),{ chips  'CTRed':53 'CTGreen':0 'CTPurple':10 'grey78':2 'CTYellow':2 },335,{ chips  'CTRed':6 'CTGreen':0 'CTPurple':0 'grey78':7 'CTYellow':0 },65,{ chips  'CTRed':7 'CTGreen':0 'CTPurple':0 'grey78':0 'CTYellow':7 },70,TRUE,,
3playersLog_1378885585275.csv,21,520,510,FALSE,{ chips  'CTRed':6 },{ chips  'CTPurple':7 },IGNORED,65,335,,,70,330,0,(R:2,C:7),{ chips  'CTRed':54 'CTGreen':0 'CTPurple':10 'grey78':2 'CTYellow':2 },340,{ chips  'CTRed':6 'CTGreen':0 'CTPurple':0 'grey78':7 'CTYellow':0 },65,{ chips  'CTRed':6 'CTGreen':0 'CTPurple':0 'grey78':0 'CTYellow':7 },65,TRUE,,
3playersLog_1378885585275.csv,21,540,510,FALSE,{ chips  'CTRed':1 },{ chips  },TRUE,70,335,{ chips  'CTRed':1 'CTPurple':0 'CTGreen':0 'grey78':0 'CTYellow':0 },{ chips  'CTRed':0 'CTPurple':0 'CTGreen':0 'grey78':0 'CTYellow':0 },65,340,0,(R:2,C:7),{ chips  'CTRed':54 'CTGreen':0 'CTPurple':10 'grey78':2 'CTYellow':2 },340,{ chips  'CTRed':6 'CTGreen':0 'CTPurple':0 'grey78':7 'CTYellow':0 },65,{ chips  'CTRed':6 'CTGreen':0 'CTPurple':0 'grey78':0 'CTYellow':7 },65,FALSE,,
3playersLog_1378885585275.csv,22,510,520,TRUE,{ chips  'grey78':1 },{ chips  'CTRed':6 },FALSE,340,65,,,365,40,1,(R:1,C:7),{ chips  'CTRed':54 'CTGreen':0 'CTPurple':9 'grey78':2 'CTYellow':2 },335,{ chips  'CTRed':6 'CTGreen':0 'CTPurple':0 'grey78':7 'CTYellow':0 },65,{ chips  'CTRed':6 'CTGreen':0 'CTPurple':0 'grey78':0 'CTYellow':7 },65,TRUE,,
3playersLog_1378885585275.csv,23,520,510,FALSE,{ chips  'CTRed':3 },{ chips  'CTPurple':3 },FALSE,65,335,,,65,335,0,(R:1,C:7),{ chips  'CTRed':54 'CTGreen':0 'CTPurple':9 'grey78':2 'CTYellow':2 },335,{ chips  'CTRed':6 'CTGreen':0 'CTPurple':0 'grey78':7 'CTYellow':0 },65,{ chips  'CTRed':6 'CTGreen':0 'CTPurple':0 'grey78':0 'CTYellow':7 },65,FALSE,,
3playersLog_1378885585275.csv,23,540,510,FALSE,{ chips  'CTRed':6 },{ chips  'CTYellow':1 },FALSE,65,335,,,40,360,0,(R:1,C:7),{ chips  'CTRed':54 'CTGreen':0 'CTPurple':9 'grey78':2 'CTYellow':2 },335,{ chips  'CTRed':6 'CTGreen':0 'CTPurple':0 'grey78':7 'CTYellow':0 },65,{ chips  'CTRed':6 'CTGreen':0 'CTPurple':0 'grey78':0 'CTYellow':7 },65,TRUE,,
3playersLog_1378885585275.csv,24,510,520,TRUE,{ chips  'grey78':1 },{ chips  'CTRed':6 },FALSE,335,65,,,360,40,1,(R:1,C:8),{ chips  'CTRed':54 'CTGreen':0 'CTPurple':9 'grey78':2 'CTYellow':1 },330,{ chips  'CTRed':6 'CTGreen':0 'CTPurple':0 'grey78':7 'CTYellow':0 },65,{ chips  'CTRed':6 'CTGreen':0 'CTPurple':0 'grey78':0 'CTYellow':7 },65,TRUE,,
3playersLog_1378885585275.csv,25,520,510,FALSE,{ chips  'CTRed':6 },{ chips  'CTPurple':8 },FALSE,65,330,,,75,320,0,(R:1,C:8),{ chips  'CTRed':54 'CTGreen':0 'CTPurple':9 'grey78':2 'CTYellow':1 },330,{ chips  'CTRed':6 'CTGreen':0 'CTPurple':0 'grey78':7 'CTYellow':0 },65,{ chips  'CTRed':6 'CTGreen':0 'CTPurple':0 'grey78':0 'CTYellow':7 },65,TRUE,,
3playersLog_1378885585275.csv,25,540,510,FALSE,{ chips  'CTRed':6 },{ chips  'CTYellow':1 },FALSE,65,330,,,40,355,0,(R:1,C:8),{ chips  'CTRed':54 'CTGreen':0 'CTPurple':9 'grey78':2 'CTYellow':1 },330,{ chips  'CTRed':6 'CTGreen':0 'CTPurple':0 'grey78':7 'CTYellow':0 },65,{ chips  'CTRed':6 'CTGreen':0 'CTPurple':0 'grey78':0 'CTYellow':7 },65,TRUE,,
3playersLog_1378885585275.csv,26,510,520,TRUE,{ chips  'grey78':1 },{ chips  'CTRed':6 },FALSE,330,65,,,355,40,1,(R:0,C:8),{ chips  'CTRed':54 'CTGreen':0 'CTPurple':9 'grey78':2 'CTYellow':0 },475,{ chips  'CTRed':6 'CTGreen':0 'CTPurple':0 'grey78':7 'CTYellow':0 },215,{ chips  'CTRed':6 'CTGreen':0 'CTPurple':0 'grey78':0 'CTYellow':7 },65,TRUE,,
3playersLog_1378885585275.csv,26,510,520,TRUE,{ chips  'grey78':1 },{ chips  'CTRed':6 },FALSE,330,65,,,355,40,1,(R:0,C:8),{ chips  'CTRed':54 'CTGreen':0 'CTPurple':9 'grey78':2 'CTYellow':0 },475,{ chips  'CTRed':6 'CTGreen':0 'CTPurple':0 'grey78':7 'CTYellow':0 },215,{ chips  'CTRed':6 'CTGreen':0 'CTPurple':0 'grey78':0 'CTYellow':7 },65,TRUE,,TRUE
3playersLog_1378889109735.csv,1,520,510,FALSE,{ chips  'CTPurple':2 },{ chips  },TRUE,200,120,{ chips  'CTRed':0 'CTPurple':2 'CTGreen':0 'grey78':0 'CTYellow':0 },{ chips  'CTRed':0 'CTPurple':0 'CTGreen':0 'grey78':0 'CTYellow':0 },190,130,0,(R:5,C:4),{ chips  'CTRed':0 'CTGreen':0 'CTPurple':2 'grey78':12 'CTYellow':12 },130,{ chips  'CTRed':33 'CTGreen':0 'CTPurple':5 'grey78':0 'CTYellow':0 },190,{ chips  'CTRed':33 'CTGreen':0 'CTPurple':7 'grey78':0 'CTYellow':0 },200,FALSE,,
3playersLog_1378889109735.csv,1,540,510,FALSE,{ chips  'CTPurple':1 },{ chips  'CTYellow':4 },IGNORED,200,120,,,215,105,0,(R:5,C:4),{ chips  'CTRed':0 'CTGreen':0 'CTPurple':2 'grey78':12 'CTYellow':12 },130,{ chips  'CTRed':33 'CTGreen':0 'CTPurple':5 'grey78':0 'CTYellow':0 },190,{ chips  'CTRed':33 'CTGreen':0 'CTPurple':7 'grey78':0 'CTYellow':0 },200,FALSE,,
3playersLog_1378889109735.csv,2,510,540,TRUE,{ chips  'CTYellow':11 },{ chips  'CTRed':33 'CTPurple':7 },TRUE,130,190,{ chips  'CTYellow':11 },{ chips  'CTRed':33 'CTPurple':7 'grey78':0 },275,55,9,(R:0,C:0),{ chips  'CTRed':33 'CTGreen':0 'CTPurple':8 'grey78':4 'CTYellow':1 },380,{ chips  'CTRed':33 'CTGreen':0 'CTPurple':5 'grey78':0 'CTYellow':0 },190,{ chips  'CTRed':0 'CTGreen':0 'CTPurple':0 'grey78':0 'CTYellow':11 },205,TRUE,,
3playersLog_1378889109735.csv,2,510,540,TRUE,{ chips  'CTYellow':11 },{ chips  'CTRed':33 'CTPurple':7 },TRUE,130,190,{ chips  'CTYellow':11 },{ chips  'CTRed':33 'CTPurple':7 'grey78':0 },275,55,9,(R:0,C:0),{ chips  'CTRed':33 'CTGreen':0 'CTPurple':8 'grey78':4 'CTYellow':1 },380,{ chips  'CTRed':33 'CTGreen':0 'CTPurple':5 'grey78':0 'CTYellow':0 },190,{ chips  'CTRed':0 'CTGreen':0 'CTPurple':0 'grey78':0 'CTYellow':11 },205,TRUE,,TRUE
3playersLog_1378889406775.csv,1,520,510,FALSE,{ chips  'CTPurple':6 },{ chips  'grey78':4 },IGNORED,200,120,,,190,130,0,(R:5,C:4),{ chips  'CTRed':11 'CTGreen':0 'CTPurple':0 'grey78':11 'CTYellow':6 },140,{ chips  'CTRed':33 'CTGreen':0 'CTPurple':7 'grey78':0 'CTYellow':0 },200,{ chips  'CTRed':22 'CTGreen':0 'CTPurple':7 'grey78':1 'CTYellow':6 },180,FALSE,,
3playersLog_1378889406775.csv,1,540,510,FALSE,{ chips  'CTRed':11 },{ chips  'grey78':1 'CTYellow':6 },TRUE,200,120,{ chips  'CTRed':11 'CTPurple':0 'CTGreen':0 'grey78':0 'CTYellow':0 },{ chips  'CTRed':0 'CTPurple':0 'CTGreen':0 'grey78':1 'CTYellow':6 },180,140,0,(R:5,C:4),{ chips  'CTRed':11 'CTGreen':0 'CTPurple':0 'grey78':11 'CTYellow':6 },140,{ chips  'CTRed':33 'CTGreen':0 'CTPurple':7 'grey78':0 'CTYellow':0 },200,{ chips  'CTRed':22 'CTGreen':0 'CTPurple':7 'grey78':1 'CTYellow':6 },180,FALSE,,
3playersLog_1378889406775.csv,2,510,540,TRUE,{ chips  'CTYellow':5 },{ chips  'CTRed':22 'CTPurple':7 'grey78':1 },FALSE,140,180,,,265,55,1,(R:5,C:3),{ chips  'CTRed':11 'CTGreen':0 'CTPurple':0 'grey78':10 'CTYellow':6 },135,{ chips  'CTRed':33 'CTGreen':0 'CTPurple':7 'grey78':0 'CTYellow':0 },200,{ chips  'CTRed':22 'CTGreen':0 'CTPurple':7 'grey78':1 'CTYellow':6 },180,TRUE,,
3playersLog_1378889406775.csv,3,520,510,FALSE,{ chips  'CTRed':6 'CTPurple':6 },{ chips  'grey78':3 },TRUE,200,135,{ chips  'CTRed':6 'CTPurple':6 'CTGreen':0 'grey78':0 'CTYellow':0 },{ chips  'CTRed':0 'CTPurple':0 'CTGreen':0 'grey78':3 'CTYellow':0 },155,180,0,(R:5,C:3),{ chips  'CTRed':17 'CTGreen':0 'CTPurple':6 'grey78':7 'CTYellow':6 },180,{ chips  'CTRed':27 'CTGreen':0 'CTPurple':1 'grey78':3 'CTYellow':0 },155,{ chips  'CTRed':22 'CTGreen':0 'CTPurple':7 'grey78':1 'CTYellow':6 },180,FALSE,,
3playersLog_1378889406775.csv,3,540,510,FALSE,{ chips  'grey78':1 'CTYellow':3 },{ chips  'CTRed':5 },IGNORED,180,135,,,185,130,0,(R:5,C:3),{ chips  'CTRed':17 'CTGreen':0 'CTPurple':6 'grey78':7 'CTYellow':6 },180,{ chips  'CTRed':27 'CTGreen':0 'CTPurple':1 'grey78':3 'CTYellow':0 },155,{ chips  'CTRed':22 'CTGreen':0 'CTPurple':7 'grey78':1 'CTYellow':6 },180,TRUE,,
3playersLog_1378889406775.csv,4,510,540,TRUE,{ chips  'CTYellow':5 },{ chips  'CTRed':22 'CTPurple':7 'grey78':1 },FALSE,180,180,,,305,55,1,(R:4,C:3),{ chips  'CTRed':17 'CTGreen':0 'CTPurple':6 'grey78':6 'CTYellow':6 },175,{ chips  'CTRed':27 'CTGreen':0 'CTPurple':1 'grey78':3 'CTYellow':0 },155,{ chips  'CTRed':22 'CTGreen':0 'CTPurple':7 'grey78':1 'CTYellow':6 },180,TRUE,,
3playersLog_1378889406775.csv,5,520,510,FALSE,{ chips  'CTRed':4 },{ chips  'grey78':2 },IGNORED,155,175,,,145,185,0,(R:4,C:3),{ chips  'CTRed':29 'CTGreen':0 'CTPurple':5 'grey78':6 'CTYellow':5 },225,{ chips  'CTRed':27 'CTGreen':0 'CTPurple':1 'grey78':3 'CTYellow':0 },155,{ chips  'CTRed':10 'CTGreen':0 'CTPurple':8 'grey78':1 'CTYellow':7 },130,FALSE,,
3playersLog_1378889406775.csv,5,540,510,FALSE,{ chips  'CTRed':12 },{ chips  'CTPurple':1 'CTYellow':1 },TRUE,180,175,{ chips  'CTRed':12 'CTPurple':0 'CTGreen':0 'grey78':0 'CTYellow':0 },{ chips  'CTRed':0 'CTPurple':1 'CTGreen':0 'grey78':0 'CTYellow':1 },130,225,0,(R:4,C:3),{ chips  'CTRed':29 'CTGreen':0 'CTPurple':5 'grey78':6 'CTYellow':5 },225,{ chips  'CTRed':27 'CTGreen':0 'CTPurple':1 'grey78':3 'CTYellow':0 },155,{ chips  'CTRed':10 'CTGreen':0 'CTPurple':8 'grey78':1 'CTYellow':7 },130,FALSE,,
3playersLog_1378889406775.csv,6,510,540,TRUE,{ chips  'CTYellow':4 },{ chips  'CTRed':10 'CTPurple':8 'grey78':1 },FALSE,225,130,,,300,55,1,(R:3,C:3),{ chips  'CTRed':29 'CTGreen':0 'CTPurple':4 'grey78':6 'CTYellow':5 },220,{ chips  'CTRed':27 'CTGreen':0 'CTPurple':1 'grey78':3 'CTYellow':0 },155,{ chips  'CTRed':10 'CTGreen':0 'CTPurple':8 'grey78':1 'CTYellow':7 },130,TRUE,,
3playersLog_1378889406775.csv,7,520,510,FALSE,{ chips  'CTRed':6 },{ chips  'CTYellow':3 },TRUE,155,220,{ chips  'CTRed':6 'CTPurple':0 'CTGreen':0 'grey78':0 'CTYellow':0 },{ chips  'CTRed':0 'CTPurple':0 'CTGreen':0 'grey78':0 'CTYellow':3 },140,235,0,(R:3,C:3),{ chips  'CTRed':35 'CTGreen':0 'CTPurple':4 'grey78':6 'CTYellow':2 },235,{ chips  'CTRed':21 'CTGreen':0 'CTPurple':1 'grey78':3 'CTYellow':3 },140,{ chips  'CTRed':10 'CTGreen':0 'CTPurple':8 'grey78':1 'CTYellow':7 },130,FALSE,,
3playersLog_1378889406775.csv,7,540,510,FALSE,{ chips  'CTRed':2 },{ chips  'CTPurple':2 },IGNORED,130,220,,,130,220,0,(R:3,C:3),{ chips  'CTRed':35 'CTGreen':0 'CTPurple':4 'grey78':6 'CTYellow':2 },235,{ chips  'CTRed':21 'CTGreen':0 'CTPurple':1 'grey78':3 'CTYellow':3 },140,{ chips  'CTRed':10 'CTGreen':0 'CTPurple':8 'grey78':1 'CTYellow':7 },130,FALSE,,
3playersLog_1378889406775.csv,8,510,540,TRUE,{ chips  'CTYellow':1 },{ chips  'CTRed':10 'CTPurple':1 'grey78':1 },FALSE,235,130,,,290,75,1,(R:3,C:2),{ chips  'CTRed':35 'CTGreen':0 'CTPurple':4 'grey78':5 'CTYellow':2 },230,{ chips  'CTRed':21 'CTGreen':0 'CTPurple':1 'grey78':3 'CTYellow':3 },140,{ chips  'CTRed':10 'CTGreen':0 'CTPurple':8 'grey78':1 'CTYellow':7 },130,TRUE,,
3playersLog_1378889406775.csv,9,520,510,FALSE,{ chips  'CTRed':2 'CTPurple':1 'CTYellow':3 },{ chips  'grey78':2 },TRUE,140,230,{ chips  'CTRed':2 'CTPurple':1 'CTGreen':0 'grey78':0 'CTYellow':3 },{ chips  'CTRed':0 'CTPurple':0 'CTGreen':0 'grey78':2 'CTYellow':0 },120,250,0,(R:3,C:2),{ chips  'CTRed':37 'CTGreen':0 'CTPurple':5 'grey78':3 'CTYellow':5 },250,{ chips  'CTRed':19 'CTGreen':0 'CTPurple':0 'grey78':5 'CTYellow':0 },120,{ chips  'CTRed':10 'CTGreen':0 'CTPurple':8 'grey78':1 'CTYellow':7 },130,FALSE,,
3playersLog_1378889406775.csv,9,540,510,FALSE,{ chips  'CTRed':2 },{ chips  'CTPurple':2 },IGNORED,130,230,,,130,230,0,(R:3,C:2),{ chips  'CTRed':37 'CTGreen':0 'CTPurple':5 'grey78':3 'CTYellow':5 },250,{ chips  'CTRed':19 'CTGreen':0 'CTPurple':0 'grey78':5 'CTYellow':0 },120,{ chips  'CTRed':10 'CTGreen':0 'CTPurple':8 'grey78':1 'CTYellow':7 },130,TRUE,,
3playersLog_1378889406775.csv,10,510,520,TRUE,{ chips  'grey78':3 },{ chips  'CTRed':19 },TRUE,250,120,{ chips  'grey78':3 },{ chips  'CTRed':19 'CTPurple':0 'CTYellow':0 },330,40,9,(R:0,C:8),{ chips  'CTRed':56 'CTGreen':0 'CTPurple':1 'grey78':0 'CTYellow':0 },435,{ chips  'CTRed':0 'CTGreen':0 'CTPurple':0 'grey78':8 'CTYellow':0 },190,{ chips  'CTRed':10 'CTGreen':0 'CTPurple':8 'grey78':1 'CTYellow':7 },130,TRUE,,
3playersLog_1378889406775.csv,10,510,520,TRUE,{ chips  'grey78':3 },{ chips  'CTRed':19 },TRUE,250,120,{ chips  'grey78':3 },{ chips  'CTRed':19 'CTPurple':0 'CTYellow':0 },330,40,9,(R:0,C:8),{ chips  'CTRed':56 'CTGreen':0 'CTPurple':1 'grey78':0 'CTYellow':0 },435,{ chips  'CTRed':0 'CTGreen':0 'CTPurple':0 'grey78':8 'CTYellow':0 },190,{ chips  'CTRed':10 'CTGreen':0 'CTPurple':8 'grey78':1 'CTYellow':7 },130,TRUE,,TRUE
3playersLog_1378889938670.csv,1,520,510,FALSE,{ chips  'CTRed':2 'CTPurple':3 },{ chips  },TRUE,200,120,{ chips  'CTRed':2 'CTPurple':3 'CTGreen':0 'grey78':0 'CTYellow':0 },{ chips  'CTRed':0 'CTPurple':0 'CTGreen':0 'grey78':0 'CTYellow':0 },175,145,0,(R:5,C:4),{ chips  'CTRed':2 'CTGreen':0 'CTPurple':3 'grey78':12 'CTYellow':12 },145,{ chips  'CTRed':31 'CTGreen':0 'CTPurple':4 'grey78':0 'CTYellow':0 },175,{ chips  'CTRed':33 'CTGreen':0 'CTPurple':7 'grey78':0 'CTYellow':0 },200,FALSE,,
3playersLog_1378889938670.csv,1,540,510,FALSE,{ chips  'CTRed':2 },{ chips  'CTYellow':2 },IGNORED,200,120,,,200,120,0,(R:5,C:4),{ chips  'CTRed':2 'CTGreen':0 'CTPurple':3 'grey78':12 'CTYellow':12 },145,{ chips  'CTRed':31 'CTGreen':0 'CTPurple':4 'grey78':0 'CTYellow':0 },175,{ chips  'CTRed':33 'CTGreen':0 'CTPurple':7 'grey78':0 'CTYellow':0 },200,FALSE,,
3playersLog_1378889938670.csv,2,510,520,TRUE,{ chips  'grey78':11 },{ chips  'CTRed':31 'CTPurple':4 },TRUE,145,175,{ chips  'grey78':11 },{ chips  'CTRed':31 'CTPurple':4 'CTYellow':0 },265,55,9,(R:0,C:8),{ chips  'CTRed':33 'CTGreen':0 'CTPurple':7 'grey78':1 'CTYellow':3 },370,{ chips  'CTRed':0 'CTGreen':0 'CTPurple':0 'grey78':11 'CTYellow':0 },205,{ chips  'CTRed':33 'CTGreen':0 'CTPurple':7 'grey78':0 'CTYellow':0 },200,TRUE,,
3playersLog_1378889938670.csv,2,510,520,TRUE,{ chips  'grey78':11 },{ chips  'CTRed':31 'CTPurple':4 },TRUE,145,175,{ chips  'grey78':11 },{ chips  'CTRed':31 'CTPurple':4 'CTYellow':0 },265,55,9,(R:0,C:8),{ chips  'CTRed':33 'CTGreen':0 'CTPurple':7 'grey78':1 'CTYellow':3 },370,{ chips  'CTRed':0 'CTGreen':0 'CTPurple':0 'grey78':11 'CTYellow':0 },205,{ chips  'CTRed':33 'CTGreen':0 'CTPurple':7 'grey78':0 'CTYellow':0 },200,TRUE,,TRUE
3playersLog_1378893765922.csv,1,520,510,FALSE,{ chips  'CTPurple':4 },{ chips  'CTYellow':2 },TRUE,200,120,{ chips  'CTRed':0 'CTPurple':4 'CTGreen':0 'grey78':0 'CTYellow':0 },{ chips  'CTRed':0 'CTPurple':0 'CTGreen':0 'grey78':0 'CTYellow':2 },190,130,0,(R:5,C:4),{ chips  'CTRed':0 'CTGreen':0 'CTPurple':4 'grey78':12 'CTYellow':10 },130,{ chips  'CTRed':33 'CTGreen':0 'CTPurple':3 'grey78':0 'CTYellow':2 },190,{ chips  'CTRed':33 'CTGreen':0 'CTPurple':7 'grey78':0 'CTYellow':0 },200,FALSE,,
3playersLog_1378893765922.csv,1,540,510,FALSE,{ chips  'CTPurple':2 },{ chips  'grey78':3 },IGNORED,200,120,,,205,115,0,(R:5,C:4),{ chips  'CTRed':0 'CTGreen':0 'CTPurple':4 'grey78':12 'CTYellow':10 },130,{ chips  'CTRed':33 'CTGreen':0 'CTPurple':3 'grey78':0 'CTYellow':2 },190,{ chips  'CTRed':33 'CTGreen':0 'CTPurple':7 'grey78':0 'CTYellow':0 },200,FALSE,,
3playersLog_1378893765922.csv,2,510,520,TRUE,{ chips  'grey78':11 },{ chips  'CTRed':33 'CTPurple':3 'CTYellow':2 },FALSE,130,190,,,265,55,1,(R:5,C:3),{ chips  'CTRed':0 'CTGreen':0 'CTPurple':4 'grey78':11 'CTYellow':10 },125,{ chips  'CTRed':33 'CTGreen':0 'CTPurple':3 'grey78':0 'CTYellow':2 },190,{ chips  'CTRed':33 'CTGreen':0 'CTPurple':7 'grey78':0 'CTYellow':0 },200,TRUE,,
3playersLog_1378893765922.csv,3,520,510,FALSE,{ chips  'CTRed':7 },{ chips  'grey78':7 },FALSE,190,125,,,190,125,0,(R:5,C:3),{ chips  'CTRed':0 'CTGreen':0 'CTPurple':4 'grey78':11 'CTYellow':10 },125,{ chips  'CTRed':33 'CTGreen':0 'CTPurple':3 'grey78':0 'CTYellow':2 },190,{ chips  'CTRed':33 'CTGreen':0 'CTPurple':7 'grey78':0 'CTYellow':0 },200,FALSE,,
3playersLog_1378893765922.csv,3,540,510,FALSE,{ chips  'CTPurple':2 },{ chips  'CTYellow':2 },FALSE,200,125,,,200,125,0,(R:5,C:3),{ chips  'CTRed':0 'CTGreen':0 'CTPurple':4 'grey78':11 'CTYellow':10 },125,{ chips  'CTRed':33 'CTGreen':0 'CTPurple':3 'grey78':0 'CTYellow':2 },190,{ chips  'CTRed':33 'CTGreen':0 'CTPurple':7 'grey78':0 'CTYellow':0 },200,FALSE,,
3playersLog_1378893765922.csv,4,510,540,TRUE,{ chips  },{ chips  'CTRed':4 },FALSE,125,200,,,145,180,1,(R:4,C:3),{ chips  'CTRed':0 'CTGreen':0 'CTPurple':4 'grey78':10 'CTYellow':10 },120,{ chips  'CTRed':33 'CTGreen':0 'CTPurple':3 'grey78':0 'CTYellow':2 },190,{ chips  'CTRed':33 'CTGreen':0 'CTPurple':7 'grey78':0 'CTYellow':0 },200,FALSE,,
3playersLog_1378893765922.csv,5,520,510,FALSE,{ chips  'CTPurple':3 },{ chips  'CTYellow':1 },TRUE,190,120,{ chips  'CTRed':0 'CTPurple':3 'CTGreen':0 'grey78':0 'CTYellow':0 },{ chips  'CTRed':0 'CTPurple':0 'CTGreen':0 'grey78':0 'CTYellow':1 },180,130,0,(R:4,C:3),{ chips  'CTRed':0 'CTGreen':0 'CTPurple':7 'grey78':10 'CTYellow':9 },130,{ chips  'CTRed':33 'CTGreen':0 'CTPurple':0 'grey78':0 'CTYellow':3 },180,{ chips  'CTRed':33 'CTGreen':0 'CTPurple':7 'grey78':0 'CTYellow':0 },200,FALSE,,
3playersLog_1378893765922.csv,5,540,510,FALSE,{ chips  'CTRed':2 },{ chips  'CTPurple':1 'grey78':1 'CTYellow':2 },IGNORED,200,120,,,210,110,0,(R:4,C:3),{ chips  'CTRed':0 'CTGreen':0 'CTPurple':7 'grey78':10 'CTYellow':9 },130,{ chips  'CTRed':33 'CTGreen':0 'CTPurple':0 'grey78':0 'CTYellow':3 },180,{ chips  'CTRed':33 'CTGreen':0 'CTPurple':7 'grey78':0 'CTYellow':0 },200,FALSE,,
3playersLog_1378893765922.csv,6,510,540,TRUE,{ chips  },{ chips  'CTRed':20 'CTPurple':1 },FALSE,130,200,,,235,95,1,(R:3,C:3),{ chips  'CTRed':0 'CTGreen':0 'CTPurple':6 'grey78':10 'CTYellow':9 },125,{ chips  'CTRed':33 'CTGreen':0 'CTPurple':0 'grey78':0 'CTYellow':3 },180,{ chips  'CTRed':33 'CTGreen':0 'CTPurple':7 'grey78':0 'CTYellow':0 },200,FALSE,,
3playersLog_1378893765922.csv,7,520,510,FALSE,{ chips  'CTRed':11 },{ chips  'grey78':7 },TRUE,180,125,{ chips  'CTRed':11 'CTPurple':0 'CTGreen':0 'grey78':0 'CTYellow':0 },{ chips  'CTRed':0 'CTPurple':0 'CTGreen':0 'grey78':7 'CTYellow':0 },160,145,0,(R:3,C:3),{ chips  'CTRed':11 'CTGreen':0 'CTPurple':6 'grey78':3 'CTYellow':9 },145,{ chips  'CTRed':22 'CTGreen':0 'CTPurple':0 'grey78':7 'CTYellow':3 },160,{ chips  'CTRed':33 'CTGreen':0 'CTPurple':7 'grey78':0 'CTYellow':0 },200,FALSE,,
3playersLog_1378893765922.csv,7,540,510,FALSE,{ chips  'CTRed':4 },{ chips  'CTYellow':3 },IGNORED,200,125,,,195,130,0,(R:3,C:3),{ chips  'CTRed':11 'CTGreen':0 'CTPurple':6 'grey78':3 'CTYellow':9 },145,{ chips  'CTRed':22 'CTGreen':0 'CTPurple':0 'grey78':7 'CTYellow':3 },160,{ chips  'CTRed':33 'CTGreen':0 'CTPurple':7 'grey78':0 'CTYellow':0 },200,FALSE,,
3playersLog_1378893765922.csv,8,510,520,TRUE,{ chips  'grey78':2 },{ chips  'CTRed':22 'CTYellow':3 },FALSE,145,160,,,260,45,1,(R:3,C:4),{ chips  'CTRed':11 'CTGreen':0 'CTPurple':5 'grey78':3 'CTYellow':9 },140,{ chips  'CTRed':22 'CTGreen':0 'CTPurple':0 'grey78':7 'CTYellow':3 },160,{ chips  'CTRed':33 'CTGreen':0 'CTPurple':7 'grey78':0 'CTYellow':0 },200,TRUE,,
3playersLog_1378893765922.csv,9,520,510,FALSE,{ chips  'CTRed':7 },{ chips  'grey78':3 },IGNORED,160,140,,,140,160,0,(R:3,C:4),{ chips  'CTRed':22 'CTGreen':0 'CTPurple':1 'grey78':3 'CTYellow':9 },175,{ chips  'CTRed':22 'CTGreen':0 'CTPurple':0 'grey78':7 'CTYellow':3 },160,{ chips  'CTRed':22 'CTGreen':0 'CTPurple':11 'grey78':0 'CTYellow':0 },165,TRUE,,
3playersLog_1378893765922.csv,9,540,510,FALSE,{ chips  'CTRed':11 },{ chips  'CTPurple':4 },TRUE,200,140,{ chips  'CTRed':11 'CTPurple':0 'CTGreen':0 'grey78':0 'CTYellow':0 },{ chips  'CTRed':0 'CTPurple':4 'CTGreen':0 'grey78':0 'CTYellow':0 },165,175,0,(R:3,C:4),{ chips  'CTRed':22 'CTGreen':0 'CTPurple':1 'grey78':3 'CTYellow':9 },175,{ chips  'CTRed':22 'CTGreen':0 'CTPurple':0 'grey78':7 'CTYellow':3 },160,{ chips  'CTRed':22 'CTGreen':0 'CTPurple':11 'grey78':0 'CTYellow':0 },165,FALSE,,
3playersLog_1378893765922.csv,10,510,520,TRUE,{ chips  'grey78':2 },{ chips  'CTRed':22 'CTYellow':3 },FALSE,175,160,,,290,45,1,(R:3,C:5),{ chips  'CTRed':22 'CTGreen':0 'CTPurple':0 'grey78':3 'CTYellow':9 },170,{ chips  'CTRed':22 'CTGreen':0 'CTPurple':0 'grey78':7 'CTYellow':3 },160,{ chips  'CTRed':22 'CTGreen':0 'CTPurple':11 'grey78':0 'CTYellow':0 },165,TRUE,,
3playersLog_1378893765922.csv,11,520,510,FALSE,{ chips  'CTRed':3 },{ chips  'grey78':1 },TRUE,160,170,{ chips  'CTRed':3 'CTPurple':0 'CTGreen':0 'grey78':0 'CTYellow':0 },{ chips  'CTRed':0 'CTPurple':0 'CTGreen':0 'grey78':1 'CTYellow':0 },150,180,0,(R:3,C:5),{ chips  'CTRed':25 'CTGreen':0 'CTPurple':0 'grey78':2 'CTYellow':9 },180,{ chips  'CTRed':19 'CTGreen':0 'CTPurple':0 'grey78':8 'CTYellow':3 },150,{ chips  'CTRed':22 'CTGreen':0 'CTPurple':11 'grey78':0 'CTYellow':0 },165,FALSE,,
3playersLog_1378893765922.csv,11,540,510,FALSE,{ chips  'CTRed':12 'CTPurple':2 },{ chips  'CTYellow':7 },IGNORED,165,170,,,130,205,0,(R:3,C:5),{ chips  'CTRed':25 'CTGreen':0 'CTPurple':0 'grey78':2 'CTYellow':9 },180,{ chips  'CTRed':19 'CTGreen':0 'CTPurple':0 'grey78':8 'CTYellow':3 },150,{ chips  'CTRed':22 'CTGreen':0 'CTPurple':11 'grey78':0 'CTYellow':0 },165,FALSE,,
3playersLog_1378893765922.csv,12,510,520,TRUE,{ chips  'grey78':1 },{ chips  'CTRed':19 'CTYellow':3 },FALSE,180,150,,,285,45,1,(R:3,C:6),{ chips  'CTRed':25 'CTGreen':0 'CTPurple':0 'grey78':2 'CTYellow':8 },175,{ chips  'CTRed':19 'CTGreen':0 'CTPurple':0 'grey78':8 'CTYellow':3 },150,{ chips  'CTRed':22 'CTGreen':0 'CTPurple':11 'grey78':0 'CTYellow':0 },165,TRUE,,
3playersLog_1378893765922.csv,13,520,510,FALSE,{ chips  'CTRed':2 },{ chips  'grey78':1 },FALSE,150,175,,,145,180,0,(R:3,C:6),{ chips  'CTRed':25 'CTGreen':0 'CTPurple':0 'grey78':2 'CTYellow':8 },175,{ chips  'CTRed':19 'CTGreen':0 'CTPurple':0 'grey78':8 'CTYellow':3 },150,{ chips  'CTRed':22 'CTGreen':0 'CTPurple':11 'grey78':0 'CTYellow':0 },165,TRUE,,
3playersLog_1378893765922.csv,13,540,510,FALSE,{ chips  'CTRed':12 'CTPurple':4 },{ chips  'CTYellow':5 },FALSE,165,175,,,110,230,0,(R:3,C:6),{ chips  'CTRed':25 'CTGreen':0 'CTPurple':0 'grey78':2 'CTYellow':8 },175,{ chips  'CTRed':19 'CTGreen':0 'CTPurple':0 'grey78':8 'CTYellow':3 },150,{ chips  'CTRed':22 'CTGreen':0 'CTPurple':11 'grey78':0 'CTYellow':0 },165,FALSE,,
3playersLog_1378893765922.csv,14,510,520,TRUE,{ chips  'grey78':1 },{ chips  'CTRed':19 'CTYellow':3 },FALSE,175,150,,,280,45,1,(R:3,C:7),{ chips  'CTRed':25 'CTGreen':0 'CTPurple':0 'grey78':2 'CTYellow':7 },170,{ chips  'CTRed':19 'CTGreen':0 'CTPurple':0 'grey78':8 'CTYellow':3 },150,{ chips  'CTRed':22 'CTGreen':0 'CTPurple':11 'grey78':0 'CTYellow':0 },165,TRUE,,
3playersLog_1378893765922.csv,15,520,510,FALSE,{ chips  'CTRed':5 },{ chips  'grey78':1 },IGNORED,150,170,,,130,190,0,(R:3,C:7),{ chips  'CTRed':29 'CTGreen':0 'CTPurple':2 'grey78':0 'CTYellow':5 },180,{ chips  'CTRed':19 'CTGreen':0 'CTPurple':0 'grey78':8 'CTYellow':3 },150,{ chips  'CTRed':18 'CTGreen':0 'CTPurple':9 'grey78':2 'CTYellow':2 },155,TRUE,,
3playersLog_1378893765922.csv,15,540,510,FALSE,{ chips  'CTRed':4 'CTPurple':2 },{ chips  'grey78':2 'CTYellow':2 },TRUE,165,170,{ chips  'CTRed':4 'CTPurple':2 'CTGreen':0 'grey78':0 'CTYellow':0 },{ chips  'CTRed':0 'CTPurple':0 'CTGreen':0 'grey78':2 'CTYellow':2 },155,180,0,(R:3,C:7),{ chips  'CTRed':29 'CTGreen':0 'CTPurple':2 'grey78':0 'CTYellow':5 },180,{ chips  'CTRed':19 'CTGreen':0 'CTPurple':0 'grey78':8 'CTYellow':3 },150,{ chips  'CTRed':18 'CTGreen':0 'CTPurple':9 'grey78':2 'CTYellow':2 },155,FALSE,,
3playersLog_1378893765922.csv,16,510,520,TRUE,{ chips  },{ chips  'CTYellow':3 },FALSE,180,150,,,195,135,1,(R:2,C:7),{ chips  'CTRed':29 'CTGreen':0 'CTPurple':2 'grey78':0 'CTYellow':4 },175,{ chips  'CTRed':19 'CTGreen':0 'CTPurple':0 'grey78':8 'CTYellow':3 },150,{ chips  'CTRed':18 'CTGreen':0 'CTPurple':9 'grey78':2 'CTYellow':2 },155,FALSE,,
3playersLog_1378893765922.csv,17,540,510,FALSE,{ chips  'CTRed':3 },{ chips  'CTRed':1 'CTYellow':2 },IGNORED,155,175,,,155,175,0,(R:2,C:7),{ chips  'CTRed':29 'CTGreen':0 'CTPurple':2 'grey78':0 'CTYellow':4 },175,{ chips  'CTRed':19 'CTGreen':0 'CTPurple':0 'grey78':8 'CTYellow':3 },150,{ chips  'CTRed':18 'CTGreen':0 'CTPurple':9 'grey78':2 'CTYellow':2 },155,FALSE,,
3playersLog_1378893765922.csv,18,510,520,TRUE,{ chips  },{ chips  'CTRed':9 'CTYellow':3 },FALSE,175,150,,,235,90,1,(R:1,C:7),{ chips  'CTRed':29 'CTGreen':0 'CTPurple':1 'grey78':0 'CTYellow':4 },170,{ chips  'CTRed':19 'CTGreen':0 'CTPurple':0 'grey78':8 'CTYellow':3 },150,{ chips  'CTRed':18 'CTGreen':0 'CTPurple':9 'grey78':2 'CTYellow':2 },155,FALSE,,
3playersLog_1378893765922.csv,19,520,510,FALSE,{ chips  'CTRed':4 },{ chips  'CTPurple':1 },IGNORED,150,170,,,135,185,0,(R:1,C:7),{ chips  'CTRed':38 'CTGreen':0 'CTPurple':10 'grey78':2 'CTYellow':0 },250,{ chips  'CTRed':19 'CTGreen':0 'CTPurple':0 'grey78':8 'CTYellow':3 },150,{ chips  'CTRed':9 'CTGreen':0 'CTPurple':0 'grey78':0 'CTYellow':6 },75,FALSE,,
3playersLog_1378893765922.csv,19,540,510,FALSE,{ chips  'CTRed':9 'CTPurple':9 'grey78':2 },{ chips  'CTYellow':4 },TRUE,155,170,{ chips  'CTRed':9 'CTPurple':9 'CTGreen':0 'grey78':2 'CTYellow':0 },{ chips  'CTRed':0 'CTPurple':0 'CTGreen':0 'grey78':0 'CTYellow':4 },75,250,0,(R:1,C:7),{ chips  'CTRed':38 'CTGreen':0 'CTPurple':10 'grey78':2 'CTYellow':0 },250,{ chips  'CTRed':19 'CTGreen':0 'CTPurple':0 'grey78':8 'CTYellow':3 },150,{ chips  'CTRed':9 'CTGreen':0 'CTPurple':0 'grey78':0 'CTYellow':6 },75,FALSE,,
3playersLog_1378893765922.csv,20,510,540,TRUE,{ chips  },{ chips  'CTRed':1 },TRUE,250,150,{ chips  'CTYellow':0 },{ chips  'CTRed':1 'CTPurple':0 'grey78':0 },255,70,1,(R:1,C:6),{ chips  'CTRed':39 'CTGreen':0 'CTPurple':9 'grey78':2 'CTYellow':0 },250,{ chips  'CTRed':19 'CTGreen':0 'CTPurple':0 'grey78':8 'CTYellow':3 },150,{ chips  'CTRed':8 'CTGreen':0 'CTPurple':0 'grey78':0 'CTYellow':6 },70,FALSE,,
3playersLog_1378893765922.csv,21,520,510,FALSE,{ chips  'CTRed':3 'CTYellow':3 },{ chips  },TRUE,150,250,{ chips  'CTRed':3 'CTPurple':0 'CTGreen':0 'grey78':0 'CTYellow':3 },{ chips  'CTRed':0 'CTPurple':0 'CTGreen':0 'grey78':0 'CTYellow':0 },120,280,0,(R:1,C:6),{ chips  'CTRed':42 'CTGreen':0 'CTPurple':9 'grey78':2 'CTYellow':3 },280,{ chips  'CTRed':16 'CTGreen':0 'CTPurple':0 'grey78':8 'CTYellow':0 },120,{ chips  'CTRed':8 'CTGreen':0 'CTPurple':0 'grey78':0 'CTYellow':6 },70,FALSE,,
3playersLog_1378893765922.csv,21,540,510,FALSE,{ chips  },{ chips  'CTRed':2 },IGNORED,70,250,,,80,240,0,(R:1,C:6),{ chips  'CTRed':42 'CTGreen':0 'CTPurple':9 'grey78':2 'CTYellow':3 },280,{ chips  'CTRed':16 'CTGreen':0 'CTPurple':0 'grey78':8 'CTYellow':0 },120,{ chips  'CTRed':8 'CTGreen':0 'CTPurple':0 'grey78':0 'CTYellow':6 },70,TRUE,,
3playersLog_1378893765922.csv,22,510,520,TRUE,{ chips  'grey78':1 },{ chips  'CTRed':16 },TRUE,280,120,{ chips  'grey78':1 },{ chips  'CTRed':16 'CTPurple':0 'CTYellow':0 },355,45,3,(R:0,C:8),{ chips  'CTRed':58 'CTGreen':0 'CTPurple':8 'grey78':1 'CTYellow':1 },490,{ chips  'CTRed':0 'CTGreen':0 'CTPurple':0 'grey78':9 'CTYellow':0 },195,{ chips  'CTRed':8 'CTGreen':0 'CTPurple':0 'grey78':0 'CTYellow':6 },70,TRUE,,
3playersLog_1378893765922.csv,22,510,520,TRUE,{ chips  'grey78':1 },{ chips  'CTRed':16 },TRUE,280,120,{ chips  'grey78':1 },{ chips  'CTRed':16 'CTPurple':0 'CTYellow':0 },355,45,3,(R:0,C:8),{ chips  'CTRed':58 'CTGreen':0 'CTPurple':8 'grey78':1 'CTYellow':1 },490,{ chips  'CTRed':0 'CTGreen':0 'CTPurple':0 'grey78':9 'CTYellow':0 },195,{ chips  'CTRed':8 'CTGreen':0 'CTPurple':0 'grey78':0 'CTYellow':6 },70,TRUE,,TRUE
3playersLog_1378893768361.csv,1,520,510,FALSE,{ chips  'CTRed':6 'CTPurple':4 },{ chips  'CTYellow':2 },TRUE,200,120,{ chips  'CTRed':6 'CTPurple':4 'CTGreen':0 'grey78':0 'CTYellow':0 },{ chips  'CTRed':0 'CTPurple':0 'CTGreen':0 'grey78':0 'CTYellow':2 },160,160,0,(R:5,C:4),{ chips  'CTRed':6 'CTGreen':0 'CTPurple':4 'grey78':12 'CTYellow':10 },160,{ chips  'CTRed':27 'CTGreen':0 'CTPurple':3 'grey78':0 'CTYellow':2 },160,{ chips  'CTRed':33 'CTGreen':0 'CTPurple':7 'grey78':0 'CTYellow':0 },200,FALSE,,
3playersLog_1378893768361.csv,1,540,510,FALSE,{ chips  'CTPurple':4 },{ chips  },IGNORED,200,120,,,180,140,0,(R:5,C:4),{ chips  'CTRed':6 'CTGreen':0 'CTPurple':4 'grey78':12 'CTYellow':10 },160,{ chips  'CTRed':27 'CTGreen':0 'CTPurple':3 'grey78':0 'CTYellow':2 },160,{ chips  'CTRed':33 'CTGreen':0 'CTPurple':7 'grey78':0 'CTYellow':0 },200,FALSE,,
3playersLog_1378893768361.csv,2,510,520,TRUE,{ chips  'grey78':11 },{ chips  'CTRed':27 'CTPurple':3 'CTYellow':2 },TRUE,160,160,{ chips  'grey78':11 },{ chips  'CTRed':27 'CTPurple':3 'CTYellow':2 },265,55,9,(R:0,C:8),{ chips  'CTRed':33 'CTGreen':0 'CTPurple':7 'grey78':1 'CTYellow':3 },370,{ chips  'CTRed':0 'CTGreen':0 'CTPurple':0 'grey78':11 'CTYellow':0 },205,{ chips  'CTRed':33 'CTGreen':0 'CTPurple':7 'grey78':0 'CTYellow':0 },200,TRUE,,
3playersLog_1378893768361.csv,2,510,520,TRUE,{ chips  'grey78':11 },{ chips  'CTRed':27 'CTPurple':3 'CTYellow':2 },TRUE,160,160,{ chips  'grey78':11 },{ chips  'CTRed':27 'CTPurple':3 'CTYellow':2 },265,55,9,(R:0,C:8),{ chips  'CTRed':33 'CTGreen':0 'CTPurple':7 'grey78':1 'CTYellow':3 },370,{ chips  'CTRed':0 'CTGreen':0 'CTPurple':0 'grey78':11 'CTYellow':0 },205,{ chips  'CTRed':33 'CTGreen':0 'CTPurple':7 'grey78':0 'CTYellow':0 },200,TRUE,,TRUE
3playersLog_1378967170052.csv,1,520,510,FALSE,{ chips  'CTPurple':2 },{ chips  },IGNORED,200,120,,,190,130,0,(R:5,C:4),{ chips  'CTRed':7 'CTGreen':0 'CTPurple':0 'grey78':12 'CTYellow':12 },155,{ chips  'CTRed':33 'CTGreen':0 'CTPurple':7 'grey78':0 'CTYellow':0 },200,{ chips  'CTRed':26 'CTGreen':0 'CTPurple':7 'grey78':0 'CTYellow':0 },165,FALSE,,
3playersLog_1378967170052.csv,1,540,510,FALSE,{ chips  'CTRed':7 },{ chips  },TRUE,200,120,{ chips  'CTRed':7 'CTPurple':0 'CTGreen':0 'grey78':0 'CTYellow':0 },{ chips  'CTRed':0 'CTPurple':0 'CTGreen':0 'grey78':0 'CTYellow':0 },165,155,0,(R:5,C:4),{ chips  'CTRed':7 'CTGreen':0 'CTPurple':0 'grey78':12 'CTYellow':12 },155,{ chips  'CTRed':33 'CTGreen':0 'CTPurple':7 'grey78':0 'CTYellow':0 },200,{ chips  'CTRed':26 'CTGreen':0 'CTPurple':7 'grey78':0 'CTYellow':0 },165,FALSE,,
3playersLog_1378967170052.csv,2,510,540,TRUE,{ chips  'CTYellow':11 },{ chips  'CTRed':26 'CTPurple':7 },TRUE,155,200,{ chips  'CTYellow':11 },{ chips  'CTRed':26 'CTPurple':7 'grey78':0 },265,55,9,(R:0,C:0),{ chips  'CTRed':33 'CTGreen':0 'CTPurple':6 'grey78':4 'CTYellow':1 },370,{ chips  'CTRed':33 'CTGreen':0 'CTPurple':7 'grey78':0 'CTYellow':0 },200,{ chips  'CTRed':0 'CTGreen':0 'CTPurple':0 'grey78':0 'CTYellow':11 },205,TRUE,,
3playersLog_1378967170052.csv,2,510,540,TRUE,{ chips  'CTYellow':11 },{ chips  'CTRed':26 'CTPurple':7 },TRUE,155,200,{ chips  'CTYellow':11 },{ chips  'CTRed':26 'CTPurple':7 'grey78':0 },265,55,9,(R:0,C:0),{ chips  'CTRed':33 'CTGreen':0 'CTPurple':6 'grey78':4 'CTYellow':1 },370,{ chips  'CTRed':33 'CTGreen':0 'CTPurple':7 'grey78':0 'CTYellow':0 },200,{ chips  'CTRed':0 'CTGreen':0 'CTPurple':0 'grey78':0 'CTYellow':11 },205,TRUE,,TRUE
3playersLog_1378967183131.csv,1,520,510,FALSE,{ chips  'CTPurple':2 },{ chips  },IGNORED,200,120,,,190,130,0,(R:5,C:4),{ chips  'CTRed':0 'CTGreen':0 'CTPurple':2 'grey78':12 'CTYellow':12 },130,{ chips  'CTRed':33 'CTGreen':0 'CTPurple':7 'grey78':0 'CTYellow':0 },200,{ chips  'CTRed':33 'CTGreen':0 'CTPurple':5 'grey78':0 'CTYellow':0 },190,FALSE,,
3playersLog_1378967183131.csv,1,540,510,FALSE,{ chips  'CTPurple':2 },{ chips  },TRUE,200,120,{ chips  'CTRed':0 'CTPurple':2 'CTGreen':0 'grey78':0 'CTYellow':0 },{ chips  'CTRed':0 'CTPurple':0 'CTGreen':0 'grey78':0 'CTYellow':0 },190,130,0,(R:5,C:4),{ chips  'CTRed':0 'CTGreen':0 'CTPurple':2 'grey78':12 'CTYellow':12 },130,{ chips  'CTRed':33 'CTGreen':0 'CTPurple':7 'grey78':0 'CTYellow':0 },200,{ chips  'CTRed':33 'CTGreen':0 'CTPurple':5 'grey78':0 'CTYellow':0 },190,FALSE,,
3playersLog_1378967183131.csv,2,510,540,TRUE,{ chips  'CTYellow':11 },{ chips  'CTRed':33 'CTPurple':5 },TRUE,130,200,{ chips  'CTYellow':11 },{ chips  'CTRed':33 'CTPurple':5 'grey78':0 },265,55,9,(R:0,C:0),{ chips  'CTRed':33 'CTGreen':0 'CTPurple':6 'grey78':4 'CTYellow':1 },370,{ chips  'CTRed':33 'CTGreen':0 'CTPurple':7 'grey78':0 'CTYellow':0 },200,{ chips  'CTRed':0 'CTGreen':0 'CTPurple':0 'grey78':0 'CTYellow':11 },205,TRUE,,
3playersLog_1378967183131.csv,2,510,540,TRUE,{ chips  'CTYellow':11 },{ chips  'CTRed':33 'CTPurple':5 },TRUE,130,200,{ chips  'CTYellow':11 },{ chips  'CTRed':33 'CTPurple':5 'grey78':0 },265,55,9,(R:0,C:0),{ chips  'CTRed':33 'CTGreen':0 'CTPurple':6 'grey78':4 'CTYellow':1 },370,{ chips  'CTRed':33 'CTGreen':0 'CTPurple':7 'grey78':0 'CTYellow':0 },200,{ chips  'CTRed':0 'CTGreen':0 'CTPurple':0 'grey78':0 'CTYellow':11 },205,TRUE,,TRUE
3playersLog_1378971877048.csv,1,520,510,FALSE,{ chips  'CTRed':1 'CTPurple':2 },{ chips  },TRUE,200,120,{ chips  'CTRed':1 'CTPurple':2 'CTGreen':0 'grey78':0 'CTYellow':0 },{ chips  'CTRed':0 'CTPurple':0 'CTGreen':0 'grey78':0 'CTYellow':0 },185,135,0,(R:5,C:4),{ chips  'CTRed':1 'CTGreen':0 'CTPurple':2 'grey78':12 'CTYellow':12 },135,{ chips  'CTRed':32 'CTGreen':0 'CTPurple':5 'grey78':0 'CTYellow':0 },185,{ chips  'CTRed':33 'CTGreen':0 'CTPurple':7 'grey78':0 'CTYellow':0 },200,FALSE,,
3playersLog_1378971877048.csv,1,540,510,FALSE,{ chips  'CTPurple':2 },{ chips  'CTYellow':2 },IGNORED,200,120,,,200,120,0,(R:5,C:4),{ chips  'CTRed':1 'CTGreen':0 'CTPurple':2 'grey78':12 'CTYellow':12 },135,{ chips  'CTRed':32 'CTGreen':0 'CTPurple':5 'grey78':0 'CTYellow':0 },185,{ chips  'CTRed':33 'CTGreen':0 'CTPurple':7 'grey78':0 'CTYellow':0 },200,FALSE,,
3playersLog_1378971877048.csv,2,510,540,TRUE,{ chips  'CTYellow':11 },{ chips  'CTRed':33 'CTPurple':7 },TRUE,135,185,{ chips  'CTYellow':11 },{ chips  'CTRed':33 'CTPurple':7 'grey78':0 },280,55,9,(R:0,C:0),{ chips  'CTRed':34 'CTGreen':0 'CTPurple':8 'grey78':4 'CTYellow':1 },385,{ chips  'CTRed':32 'CTGreen':0 'CTPurple':5 'grey78':0 'CTYellow':0 },185,{ chips  'CTRed':0 'CTGreen':0 'CTPurple':0 'grey78':0 'CTYellow':11 },205,TRUE,,
3playersLog_1378971877048.csv,2,510,540,TRUE,{ chips  'CTYellow':11 },{ chips  'CTRed':33 'CTPurple':7 },TRUE,135,185,{ chips  'CTYellow':11 },{ chips  'CTRed':33 'CTPurple':7 'grey78':0 },280,55,9,(R:0,C:0),{ chips  'CTRed':34 'CTGreen':0 'CTPurple':8 'grey78':4 'CTYellow':1 },385,{ chips  'CTRed':32 'CTGreen':0 'CTPurple':5 'grey78':0 'CTYellow':0 },185,{ chips  'CTRed':0 'CTGreen':0 'CTPurple':0 'grey78':0 'CTYellow':11 },205,TRUE,,TRUE
3playersLog_1377179062103.csv,1,520,510,FALSE,{ chips  'CTRed':5 'CTPurple':2 },{ chips  },TRUE,200,120,{ chips  'CTRed':5 'CTPurple':2 'CTGreen':0 'grey78':0 'CTYellow':0 },{ chips  'CTRed':0 'CTPurple':0 'CTGreen':0 'grey78':0 'CTYellow':0 },165,155,0,(R:5,C:4),{ chips  'CTRed':5 'CTGreen':0 'CTPurple':2 'grey78':12 'CTYellow':12 },155,{ chips  'CTRed':28 'CTGreen':0 'CTPurple':5 'grey78':0 'CTYellow':0 },165,{ chips  'CTRed':33 'CTGreen':0 'CTPurple':7 'grey78':0 'CTYellow':0 },200,FALSE,,
3playersLog_1377179062103.csv,1,540,510,FALSE,{ chips  'CTPurple':2 },{ chips  },IGNORED,200,120,,,190,130,0,(R:5,C:4),{ chips  'CTRed':5 'CTGreen':0 'CTPurple':2 'grey78':12 'CTYellow':12 },155,{ chips  'CTRed':28 'CTGreen':0 'CTPurple':5 'grey78':0 'CTYellow':0 },165,{ chips  'CTRed':33 'CTGreen':0 'CTPurple':7 'grey78':0 'CTYellow':0 },200,FALSE,,
3playersLog_1377179062103.csv,2,510,520,TRUE,{ chips  'grey78':11 },{ chips  'CTRed':28 'CTPurple':5 },TRUE,155,165,{ chips  'grey78':11 },{ chips  'CTRed':28 'CTPurple':5 },265,55,9,(R:0,C:8),{ chips  'CTRed':33 'CTGreen':0 'CTPurple':7 'grey78':1 'CTYellow':3 },370,{ chips  'CTRed':0 'CTGreen':0 'CTPurple':0 'grey78':11 'CTYellow':0 },205,{ chips  'CTRed':33 'CTGreen':0 'CTPurple':7 'grey78':0 'CTYellow':0 },200,TRUE,,
3playersLog_1377179062103.csv,2,510,520,TRUE,{ chips  'grey78':11 },{ chips  'CTRed':28 'CTPurple':5 },TRUE,155,165,{ chips  'grey78':11 },{ chips  'CTRed':28 'CTPurple':5 },265,55,9,(R:0,C:8),{ chips  'CTRed':33 'CTGreen':0 'CTPurple':7 'grey78':1 'CTYellow':3 },370,{ chips  'CTRed':0 'CTGreen':0 'CTPurple':0 'grey78':11 'CTYellow':0 },205,{ chips  'CTRed':33 'CTGreen':0 'CTPurple':7 'grey78':0 'CTYellow':0 },200,TRUE,,TRUE
3playersLog_1377183390606.csv,1,520,510,FALSE,{ chips  'CTRed':2 'CTPurple':1 },{ chips  'CTYellow':2 },IGNORED,200,120,,,195,125,0,(R:5,C:4),{ chips  'CTRed':8 'CTGreen':0 'CTPurple':2 'grey78':12 'CTYellow':12 },170,{ chips  'CTRed':33 'CTGreen':0 'CTPurple':7 'grey78':0 'CTYellow':0 },200,{ chips  'CTRed':25 'CTGreen':0 'CTPurple':5 'grey78':0 'CTYellow':0 },150,FALSE,,
3playersLog_1377183390606.csv,1,540,510,FALSE,{ chips  'CTRed':8 'CTPurple':2 },{ chips  },TRUE,200,120,{ chips  'CTRed':8 'CTPurple':2 'CTGreen':0 'grey78':0 'CTYellow':0 },{ chips  'CTRed':0 'CTPurple':0 'CTGreen':0 'grey78':0 'CTYellow':0 },150,170,0,(R:5,C:4),{ chips  'CTRed':8 'CTGreen':0 'CTPurple':2 'grey78':12 'CTYellow':12 },170,{ chips  'CTRed':33 'CTGreen':0 'CTPurple':7 'grey78':0 'CTYellow':0 },200,{ chips  'CTRed':25 'CTGreen':0 'CTPurple':5 'grey78':0 'CTYellow':0 },150,FALSE,,
3playersLog_1377183390606.csv,2,510,520,TRUE,{ chips  'grey78':11 },{ chips  'CTRed':33 'CTPurple':7 },FALSE,170,200,,,315,55,1,(R:5,C:5),{ chips  'CTRed':8 'CTGreen':0 'CTPurple':2 'grey78':12 'CTYellow':11 },165,{ chips  'CTRed':33 'CTGreen':0 'CTPurple':7 'grey78':0 'CTYellow':0 },200,{ chips  'CTRed':25 'CTGreen':0 'CTPurple':5 'grey78':0 'CTYellow':0 },150,TRUE,,
3playersLog_1377183390606.csv,3,520,510,FALSE,{ chips  'CTRed':10 'CTPurple':3 },{ chips  'CTRed':2 'grey78':11 'CTYellow':10 },IGNORED,200,165,,,250,115,0,(R:5,C:5),{ chips  'CTRed':8 'CTGreen':0 'CTPurple':2 'grey78':12 'CTYellow':11 },165,{ chips  'CTRed':33 'CTGreen':0 'CTPurple':7 'grey78':0 'CTYellow':0 },200,{ chips  'CTRed':25 'CTGreen':0 'CTPurple':5 'grey78':0 'CTYellow':0 },150,TRUE,,
3playersLog_1377183390606.csv,4,510,520,TRUE,{ chips  'grey78':11 },{ chips  'CTRed':33 'CTPurple':7 },FALSE,165,200,,,310,55,1,(R:4,C:5),{ chips  'CTRed':8 'CTGreen':0 'CTPurple':2 'grey78':12 'CTYellow':10 },160,{ chips  'CTRed':33 'CTGreen':0 'CTPurple':7 'grey78':0 'CTYellow':0 },200,{ chips  'CTRed':25 'CTGreen':0 'CTPurple':5 'grey78':0 'CTYellow':0 },150,TRUE,,
3playersLog_1377183390606.csv,5,520,510,FALSE,{ chips  'CTRed':18 'CTPurple':6 },{ chips  'grey78':12 'CTYellow':10 },FALSE,200,160,,,190,170,0,(R:4,C:5),{ chips  'CTRed':8 'CTGreen':0 'CTPurple':2 'grey78':12 'CTYellow':10 },160,{ chips  'CTRed':33 'CTGreen':0 'CTPurple':7 'grey78':0 'CTYellow':0 },200,{ chips  'CTRed':25 'CTGreen':0 'CTPurple':5 'grey78':0 'CTYellow':0 },150,TRUE,,
3playersLog_1377183390606.csv,5,540,510,FALSE,{ chips  'CTPurple':5 },{ chips  'grey78':6 },FALSE,150,160,,,155,155,0,(R:4,C:5),{ chips  'CTRed':8 'CTGreen':0 'CTPurple':2 'grey78':12 'CTYellow':10 },160,{ chips  'CTRed':33 'CTGreen':0 'CTPurple':7 'grey78':0 'CTYellow':0 },200,{ chips  'CTRed':25 'CTGreen':0 'CTPurple':5 'grey78':0 'CTYellow':0 },150,FALSE,,
3playersLog_1377183390606.csv,6,510,520,TRUE,{ chips  'grey78':11 },{ chips  'CTRed':33 'CTPurple':7 },TRUE,160,200,{ chips  'grey78':11 },{ chips  'CTRed':33 'CTPurple':7 },305,55,7,(R:0,C:8),{ chips  'CTRed':41 'CTGreen':0 'CTPurple':7 'grey78':1 'CTYellow':5 },420,{ chips  'CTRed':0 'CTGreen':0 'CTPurple':0 'grey78':11 'CTYellow':0 },205,{ chips  'CTRed':25 'CTGreen':0 'CTPurple':5 'grey78':0 'CTYellow':0 },150,TRUE,,
3playersLog_1377183390606.csv,6,510,520,TRUE,{ chips  'grey78':11 },{ chips  'CTRed':33 'CTPurple':7 },TRUE,160,200,{ chips  'grey78':11 },{ chips  'CTRed':33 'CTPurple':7 },305,55,7,(R:0,C:8),{ chips  'CTRed':41 'CTGreen':0 'CTPurple':7 'grey78':1 'CTYellow':5 },420,{ chips  'CTRed':0 'CTGreen':0 'CTPurple':0 'grey78':11 'CTYellow':0 },205,{ chips  'CTRed':25 'CTGreen':0 'CTPurple':5 'grey78':0 'CTYellow':0 },150,TRUE,,TRUE
3playersLog_1378207807843.csv,1,520,510,FALSE,{ chips  'CTRed':2 'CTPurple':2 },{ chips  'grey78':4 },FALSE,200,120,,,200,120,0,(R:5,C:4),{ chips  'CTRed':0 'CTGreen':0 'CTPurple':0 'grey78':12 'CTYellow':12 },120,{ chips  'CTRed':33 'CTGreen':0 'CTPurple':7 'grey78':0 'CTYellow':0 },200,{ chips  'CTRed':33 'CTGreen':0 'CTPurple':7 'grey78':0 'CTYellow':0 },200,FALSE,,
3playersLog_1378207807843.csv,1,540,510,FALSE,{ chips  'CTPurple':1 },{ chips  'CTYellow':1 },FALSE,200,120,,,200,120,0,(R:5,C:4),{ chips  'CTRed':0 'CTGreen':0 'CTPurple':0 'grey78':12 'CTYellow':12 },120,{ chips  'CTRed':33 'CTGreen':0 'CTPurple':7 'grey78':0 'CTYellow':0 },200,{ chips  'CTRed':33 'CTGreen':0 'CTPurple':7 'grey78':0 'CTYellow':0 },200,FALSE,,
3playersLog_1378207807843.csv,2,510,520,TRUE,{ chips  'grey78':11 },{ chips  'CTRed':33 'CTPurple':7 },TRUE,120,200,{ chips  'grey78':11 },{ chips  'CTRed':33 'CTPurple':7 'CTYellow':0 },265,55,9,(R:0,C:8),{ chips  'CTRed':33 'CTGreen':0 'CTPurple':7 'grey78':1 'CTYellow':3 },370,{ chips  'CTRed':0 'CTGreen':0 'CTPurple':0 'grey78':11 'CTYellow':0 },205,{ chips  'CTRed':33 'CTGreen':0 'CTPurple':7 'grey78':0 'CTYellow':0 },200,TRUE,,
3playersLog_1378207807843.csv,2,510,520,TRUE,{ chips  'grey78':11 },{ chips  'CTRed':33 'CTPurple':7 },TRUE,120,200,{ chips  'grey78':11 },{ chips  'CTRed':33 'CTPurple':7 'CTYellow':0 },265,55,9,(R:0,C:8),{ chips  'CTRed':33 'CTGreen':0 'CTPurple':7 'grey78':1 'CTYellow':3 },370,{ chips  'CTRed':0 'CTGreen':0 'CTPurple':0 'grey78':11 'CTYellow':0 },205,{ chips  'CTRed':33 'CTGreen':0 'CTPurple':7 'grey78':0 'CTYellow':0 },200,TRUE,,TRUE
3playersLog_1378215800276.csv,1,540,510,FALSE,{ chips  'CTPurple':3 },{ chips  'CTYellow':3 },IGNORED,200,120,,,200,120,0,(R:5,C:4),{ chips  'CTRed':0 'CTGreen':0 'CTPurple':0 'grey78':12 'CTYellow':12 },120,{ chips  'CTRed':33 'CTGreen':0 'CTPurple':7 'grey78':0 'CTYellow':0 },200,{ chips  'CTRed':33 'CTGreen':0 'CTPurple':7 'grey78':0 'CTYellow':0 },200,FALSE,,
3playersLog_1378215800276.csv,2,510,520,TRUE,{ chips  'grey78':11 },{ chips  'CTRed':33 'CTPurple':7 },FALSE,120,200,,,265,55,1,(R:5,C:5),{ chips  'CTRed':0 'CTGreen':0 'CTPurple':0 'grey78':12 'CTYellow':11 },115,{ chips  'CTRed':33 'CTGreen':0 'CTPurple':7 'grey78':0 'CTYellow':0 },200,{ chips  'CTRed':33 'CTGreen':0 'CTPurple':7 'grey78':0 'CTYellow':0 },200,TRUE,,
3playersLog_1378215800276.csv,3,520,510,FALSE,{ chips  'CTRed':10 },{ chips  'grey78':3 },TRUE,200,115,{ chips  'CTRed':10 'CTPurple':0 'CTGreen':0 'grey78':0 'CTYellow':0 },{ chips  'CTRed':0 'CTPurple':0 'CTGreen':0 'grey78':3 'CTYellow':0 },165,150,0,(R:5,C:5),{ chips  'CTRed':10 'CTGreen':0 'CTPurple':0 'grey78':9 'CTYellow':11 },150,{ chips  'CTRed':23 'CTGreen':0 'CTPurple':7 'grey78':3 'CTYellow':0 },165,{ chips  'CTRed':33 'CTGreen':0 'CTPurple':7 'grey78':0 'CTYellow':0 },200,FALSE,,
3playersLog_1378215800276.csv,3,540,510,FALSE,{ chips  'CTPurple':4 },{ chips  'CTYellow':6 },IGNORED,200,115,,,210,105,0,(R:5,C:5),{ chips  'CTRed':10 'CTGreen':0 'CTPurple':0 'grey78':9 'CTYellow':11 },150,{ chips  'CTRed':23 'CTGreen':0 'CTPurple':7 'grey78':3 'CTYellow':0 },165,{ chips  'CTRed':33 'CTGreen':0 'CTPurple':7 'grey78':0 'CTYellow':0 },200,FALSE,,
3playersLog_1378215800276.csv,4,510,520,TRUE,{ chips  'grey78':8 },{ chips  'CTRed':23 'CTPurple':7 },FALSE,150,165,,,260,55,1,(R:4,C:5),{ chips  'CTRed':10 'CTGreen':0 'CTPurple':0 'grey78':9 'CTYellow':10 },145,{ chips  'CTRed':23 'CTGreen':0 'CTPurple':7 'grey78':3 'CTYellow':0 },165,{ chips  'CTRed':33 'CTGreen':0 'CTPurple':7 'grey78':0 'CTYellow':0 },200,TRUE,,
3playersLog_1378215800276.csv,5,520,510,FALSE,{ chips  'CTRed':10 },{ chips  'grey78':5 },TRUE,165,145,{ chips  'CTRed':10 'CTPurple':0 'CTGreen':0 'grey78':0 'CTYellow':0 },{ chips  'CTRed':0 'CTPurple':0 'CTGreen':0 'grey78':5 'CTYellow':0 },140,170,0,(R:4,C:5),{ chips  'CTRed':20 'CTGreen':0 'CTPurple':0 'grey78':4 'CTYellow':10 },170,{ chips  'CTRed':13 'CTGreen':0 'CTPurple':7 'grey78':8 'CTYellow':0 },140,{ chips  'CTRed':33 'CTGreen':0 'CTPurple':7 'grey78':0 'CTYellow':0 },200,FALSE,,
3playersLog_1378215800276.csv,5,540,510,FALSE,{ chips  'CTPurple':4 },{ chips  'CTRed':10 'CTYellow':3 },IGNORED,200,145,,,245,100,0,(R:4,C:5),{ chips  'CTRed':20 'CTGreen':0 'CTPurple':0 'grey78':4 'CTYellow':10 },170,{ chips  'CTRed':13 'CTGreen':0 'CTPurple':7 'grey78':8 'CTYellow':0 },140,{ chips  'CTRed':33 'CTGreen':0 'CTPurple':7 'grey78':0 'CTYellow':0 },200,FALSE,,
3playersLog_1378215800276.csv,6,510,520,TRUE,{ chips  'grey78':3 },{ chips  'CTRed':13 'CTPurple':7 },FALSE,170,140,,,255,55,1,(R:4,C:6),{ chips  'CTRed':20 'CTGreen':0 'CTPurple':0 'grey78':4 'CTYellow':9 },165,{ chips  'CTRed':13 'CTGreen':0 'CTPurple':7 'grey78':8 'CTYellow':0 },140,{ chips  'CTRed':33 'CTGreen':0 'CTPurple':7 'grey78':0 'CTYellow':0 },200,TRUE,,
3playersLog_1378215800276.csv,7,520,510,FALSE,{ chips  'CTRed':1 },{ chips  'grey78':1 },IGNORED,140,165,,,140,165,0,(R:4,C:6),{ chips  'CTRed':40 'CTGreen':0 'CTPurple':6 'grey78':3 'CTYellow':5 },270,{ chips  'CTRed':13 'CTGreen':0 'CTPurple':7 'grey78':8 'CTYellow':0 },140,{ chips  'CTRed':13 'CTGreen':0 'CTPurple':1 'grey78':1 'CTYellow':4 },95,FALSE,,
3playersLog_1378215800276.csv,7,540,510,FALSE,{ chips  'CTRed':20 'CTPurple':6 },{ chips  'grey78':1 'CTYellow':4 },TRUE,200,165,{ chips  'CTRed':20 'CTPurple':6 'CTGreen':0 'grey78':0 'CTYellow':0 },{ chips  'CTRed':0 'CTPurple':0 'CTGreen':0 'grey78':1 'CTYellow':4 },95,270,0,(R:4,C:6),{ chips  'CTRed':40 'CTGreen':0 'CTPurple':6 'grey78':3 'CTYellow':5 },270,{ chips  'CTRed':13 'CTGreen':0 'CTPurple':7 'grey78':8 'CTYellow':0 },140,{ chips  'CTRed':13 'CTGreen':0 'CTPurple':1 'grey78':1 'CTYellow':4 },95,FALSE,,
3playersLog_1378215800276.csv,8,510,520,TRUE,{ chips  'grey78':3 },{ chips  'CTRed':13 'CTPurple':7 },FALSE,270,140,,,355,55,1,(R:3,C:6),{ chips  'CTRed':40 'CTGreen':0 'CTPurple':6 'grey78':3 'CTYellow':4 },265,{ chips  'CTRed':13 'CTGreen':0 'CTPurple':7 'grey78':8 'CTYellow':0 },140,{ chips  'CTRed':13 'CTGreen':0 'CTPurple':1 'grey78':1 'CTYellow':4 },95,TRUE,,
3playersLog_1378215800276.csv,9,540,510,FALSE,{ chips  'CTRed':8 'grey78':1 },{ chips  'CTYellow':3 },IGNORED,95,265,,,65,295,0,(R:3,C:6),{ chips  'CTRed':40 'CTGreen':0 'CTPurple':6 'grey78':3 'CTYellow':4 },265,{ chips  'CTRed':13 'CTGreen':0 'CTPurple':7 'grey78':8 'CTYellow':0 },140,{ chips  'CTRed':13 'CTGreen':0 'CTPurple':1 'grey78':1 'CTYellow':4 },95,TRUE,,
3playersLog_1378215800276.csv,10,510,520,TRUE,{ chips  'grey78':3 },{ chips  'CTRed':13 'CTPurple':7 },FALSE,265,140,,,350,55,1,(R:3,C:7),{ chips  'CTRed':40 'CTGreen':0 'CTPurple':6 'grey78':3 'CTYellow':3 },260,{ chips  'CTRed':13 'CTGreen':0 'CTPurple':7 'grey78':8 'CTYellow':0 },140,{ chips  'CTRed':13 'CTGreen':0 'CTPurple':1 'grey78':1 'CTYellow':4 },95,TRUE,,
3playersLog_1378215800276.csv,11,520,510,FALSE,{ chips  },{ chips  },IGNORED,140,260,,,140,260,10,(R:0,C:0),{ chips  'CTRed':50 'CTGreen':0 'CTPurple':0 'grey78':2 'CTYellow':0 },410,{ chips  'CTRed':13 'CTGreen':0 'CTPurple':7 'grey78':8 'CTYellow':0 },140,{ chips  'CTRed':3 'CTGreen':0 'CTPurple':0 'grey78':0 'CTYellow':6 },195,FALSE,,
3playersLog_1378215800276.csv,11,540,510,FALSE,{ chips  'CTRed':10 'CTPurple':1 'grey78':1 },{ chips  'CTYellow':2 },TRUE,95,260,{ chips  'CTRed':10 'CTPurple':1 'CTGreen':0 'grey78':1 'CTYellow':0 },{ chips  'CTRed':0 'CTPurple':0 'CTGreen':0 'grey78':0 'CTYellow':2 },45,310,10,(R:0,C:0),{ chips  'CTRed':50 'CTGreen':0 'CTPurple':0 'grey78':2 'CTYellow':0 },410,{ chips  'CTRed':13 'CTGreen':0 'CTPurple':7 'grey78':8 'CTYellow':0 },140,{ chips  'CTRed':3 'CTGreen':0 'CTPurple':0 'grey78':0 'CTYellow':6 },195,TRUE,,
3playersLog_1378215800276.csv,11,540,510,FALSE,{ chips  'CTRed':10 'CTPurple':1 'grey78':1 },{ chips  'CTYellow':2 },TRUE,95,260,{ chips  'CTRed':10 'CTPurple':1 'CTGreen':0 'grey78':1 'CTYellow':0 },{ chips  'CTRed':0 'CTPurple':0 'CTGreen':0 'grey78':0 'CTYellow':2 },45,310,10,(R:0,C:0),{ chips  'CTRed':50 'CTGreen':0 'CTPurple':0 'grey78':2 'CTYellow':0 },410,{ chips  'CTRed':13 'CTGreen':0 'CTPurple':7 'grey78':8 'CTYellow':0 },140,{ chips  'CTRed':3 'CTGreen':0 'CTPurple':0 'grey78':0 'CTYellow':6 },195,TRUE,,TRUE
,,,,,,,,,,,,,,,,,,,,,,,,,
,,,,,,,,,,,,,,,,,,,,,,,,,
,,,,,,,,,,,,,,,,,,253.8235294,,153.0392157,,159.2156863,,,
