Thu Jan 24 10:51:39 IST 2013	This is the CT debug logger; svn version 638; sep 27 09
Thu Jan 24 10:51:39 IST 2013	Thu Jan 24 10:51:39 IST 2013
Thu Jan 24 10:51:39 IST 2013	ID Number: 69786
Thu Jan 24 10:51:39 IST 2013	Creating board
Thu Jan 24 10:51:39 IST 2013	<colors>
Thu Jan 24 10:51:39 IST 2013	{ GamePalette  'CTPurple':0 'CTRed':1 'CTGreen':2 'grey78':3 'CTYellow':4 }
Thu Jan 24 10:51:39 IST 2013	<rows>
Thu Jan 24 10:51:39 IST 2013	6
Thu Jan 24 10:51:39 IST 2013	<columns>
Thu Jan 24 10:51:39 IST 2013	9
Thu Jan 24 10:51:39 IST 2013	<squaresColors>
Thu Jan 24 10:51:39 IST 2013	grey78 CTGreen CTGreen CTGreen CTGreen CTGreen CTGreen CTGreen CTYellow 
Thu Jan 24 10:51:39 IST 2013	grey78 CTPurple CTPurple CTPurple CTPurple CTPurple CTPurple CTPurple CTYellow 
Thu Jan 24 10:51:39 IST 2013	grey78 grey78 CTGreen CTGreen CTGreen CTGreen CTGreen CTYellow CTYellow 
Thu Jan 24 10:51:39 IST 2013	CTGreen grey78 grey78 CTPurple CTPurple CTPurple CTYellow CTYellow CTGreen 
Thu Jan 24 10:51:39 IST 2013	CTGreen CTGreen grey78 grey78 CTGreen CTYellow CTYellow CTGreen CTGreen 
Thu Jan 24 10:51:39 IST 2013	CTGreen CTGreen CTGreen grey78 CTGreen CTYellow CTGreen CTGreen CTGreen 
Thu Jan 24 10:51:39 IST 2013	</squareColors>
Thu Jan 24 10:51:39 IST 2013	<goalPosition>
Thu Jan 24 10:51:39 IST 2013	Goal position: (R:0,C:0)
Thu Jan 24 10:51:39 IST 2013	<goalPosition>
Thu Jan 24 10:51:39 IST 2013	Goal position: (R:0,C:0)
Thu Jan 24 10:51:39 IST 2013	<firstPlayerPossibleGoal1>
Thu Jan 24 10:51:39 IST 2013	0.5
Thu Jan 24 10:51:39 IST 2013	0
Thu Jan 24 10:51:39 IST 2013	0
Thu Jan 24 10:51:39 IST 2013	</firstPlayerPossibleGoal1>
Thu Jan 24 10:51:39 IST 2013	<firstPlayerPossibleGoal2>
Thu Jan 24 10:51:39 IST 2013	0.5
Thu Jan 24 10:51:39 IST 2013	0
Thu Jan 24 10:51:39 IST 2013	8
Thu Jan 24 10:51:39 IST 2013	</firstPlayerPossibleGoal2>
Thu Jan 24 10:51:39 IST 2013	<numberOfPlayers>
Thu Jan 24 10:51:39 IST 2013	3
Thu Jan 24 10:51:39 IST 2013	<firstPlayerChips>
Thu Jan 24 10:51:39 IST 2013	Setting chips for player: 100 id:0
Thu Jan 24 10:51:39 IST 2013	{ chips  'CTRed':18 'CTGreen':0 'CTPurple':0 'grey78':0 'CTYellow':0 }
Thu Jan 24 10:51:39 IST 2013	Player position: (R:5,C:4)
Thu Jan 24 10:51:39 IST 2013	Setting chips for player: 200 id:1
Thu Jan 24 10:51:39 IST 2013	{ chips  'CTRed':33 'CTGreen':0 'CTPurple':7 'grey78':0 'CTYellow':9 }
Thu Jan 24 10:51:39 IST 2013	Player position: (R:0,C:8)
Thu Jan 24 10:51:39 IST 2013	Setting chips for player: 300 id:2
Thu Jan 24 10:51:39 IST 2013	{ chips  'CTRed':33 'CTGreen':0 'CTPurple':7 'grey78':9 'CTYellow':0 }
Thu Jan 24 10:51:39 IST 2013	Player position: (R:0,C:0)
Thu Jan 24 10:51:39 IST 2013	Protocol: A New Phase Began: Strategy Prep Phase. loop is true
Thu Jan 24 10:51:39 IST 2013	---------- Beginning Strategy Prep Phase at round 0 ----------
Thu Jan 24 10:52:39 IST 2013	A Phase Ended: Strategy Prep Phase
Thu Jan 24 10:52:39 IST 2013	Protocol: A New Phase Began: Communication Phase. loop is true
Thu Jan 24 10:52:39 IST 2013	---------- Beginning Communication Phase at round 1 ----------
Thu Jan 24 10:53:05 IST 2013	Received communication message 
Thu Jan 24 10:53:05 IST 2013	From player: 300
Thu Jan 24 10:53:05 IST 2013	To player: 100
Thu Jan 24 10:53:05 IST 2013	Chips to send by proposer: { chips  'CTRed':0 'CTPurple':0 'CTGreen':0 'grey78':9 'CTYellow':0 }
Thu Jan 24 10:53:05 IST 2013	Chips to send by responder: { chips  'CTRed':0 'CTPurple':0 'CTGreen':0 'grey78':0 'CTYellow':0 }
Thu Jan 24 10:53:23 IST 2013	Received communication message 
Thu Jan 24 10:53:23 IST 2013	From player: 200
Thu Jan 24 10:53:23 IST 2013	To player: 100
Thu Jan 24 10:53:23 IST 2013	Chips to send by proposer: { chips  'CTRed':0 'CTPurple':0 'CTGreen':0 'grey78':0 'CTYellow':3 }
Thu Jan 24 10:53:23 IST 2013	Chips to send by responder: { chips  'CTRed':0 'CTPurple':0 'CTGreen':0 'grey78':0 'CTYellow':0 }
Thu Jan 24 10:53:29 IST 2013	Received communication message 
Thu Jan 24 10:53:29 IST 2013	Proposer 1 accepted? true
Thu Jan 24 10:53:29 IST 2013	A Phase Ended: Communication Phase
Thu Jan 24 10:53:29 IST 2013	Protocol: A New Phase Began: Movement Phase. loop is true
Thu Jan 24 10:53:29 IST 2013	---------- Beginning Movement Phase at round 1 ----------
Thu Jan 24 10:54:00 IST 2013	The TD player reached the goal, end the game
Thu Jan 24 10:54:00 IST 2013	A Phase Ended: Movement Phase
Thu Jan 24 10:54:00 IST 2013	Protocol: A New Phase Began: Feedback Phase. loop is true
Thu Jan 24 10:54:00 IST 2013	---------- Beginning Feedback Phase at round 1 ----------
Thu Jan 24 10:54:00 IST 2013	Number of consecutive no movements for player 100 is 0
Thu Jan 24 10:54:00 IST 2013	TDPlayerPosition is(R:0,C:0)goal location 0(R:0,C:0)goal location 1(R:0,C:8)
Thu Jan 24 10:54:00 IST 2013	The TD player reached the goal, end the game
Thu Jan 24 10:54:00 IST 2013	ended is true
