filename,round,propID,respID,IsPropCustomer,chipsToSend,chipsToReceive,accept,propCurrentScore,respCurrentScore,actualSent,ActualRcvd,propResultingScore,respResultingScore,#ofCustomerMovesInRound,customerRowPositionAfterMovePhase,customerColPositionAfterMovePhase,Player100ChipsAfterMovePhase,Player100ScoreAfterMovePhase,Player200ChipsAfterMovePhase,Player200ScoreAfterMovePhase,Player300ChipsAfterMovePhase,Player300ScoreAfterMovePhase,generosityLevel,ClientReachedGoal
CT_DbgLog_Agent_24_1_2013_11_132.72.65.14.csv,1,200,100,false,{ chips  'CTRed':8 'CTYellow':9 },{ chips  },TRUE,245,0,{ chips  'CTRed':8 'CTPurple':0 'CTGreen':0 'grey78':0 'CTYellow':9 },{ chips  'CTRed':0 'CTPurple':0 'CTGreen':0 'grey78':0 'CTYellow':0 },160,85,3,(R:4,C:6),{ chips  'CTRed':26 'CTGreen':0 'CTPurple':0 'grey78':0 'CTYellow':6 },100,{ chips  'CTRed':25 'CTGreen':0 'CTPurple':7 'grey78':0 'CTYellow':0 },160,{ chips  'CTRed':33 'CTGreen':0 'CTPurple':7 'grey78':9 'CTYellow':0 },245
CT_DbgLog_Agent_24_1_2013_11_132.72.65.14.csv,1,300,100,false,{ chips  'CTPurple':2 'grey78':6 },{ chips  },IGNORED,245,85,,,,,3,(R:4,C:6),{ chips  'CTRed':26 'CTGreen':0 'CTPurple':0 'grey78':0 'CTYellow':6 },100,{ chips  'CTRed':25 'CTGreen':0 'CTPurple':7 'grey78':0 'CTYellow':0 },160,{ chips  'CTRed':33 'CTGreen':0 'CTPurple':7 'grey78':9 'CTYellow':0 },245
