filename,round,propID,respID,IsPropCustomer,chipsToSend,chipsToReceive,accept,propCurrentScore,respCurrentScore,actualSent,ActualRcvd,propResultingScore,respResultingScore,#ofCustomerMovesInRound,customerRowPositionAfterMovePhase,customerColPositionAfterMovePhase,Player100ChipsAfterMovePhase,Player100ScoreAfterMovePhase,Player200ChipsAfterMovePhase,Player200ScoreAfterMovePhase,Player300ChipsAfterMovePhase,Player300ScoreAfterMovePhase,generosityLevel,ClientReachedGoal
3playersLog_1377184463396.csv,1,520,510,false,{ chips  'CTRed':17 'CTPurple':4 },{ chips  'grey78':10 'CTYellow':10 },FALSE,200,120,,,,,0,(R:5,C:4),{ chips  'CTRed':0 'CTGreen':0 'CTPurple':0 'grey78':12 'CTYellow':12 },120,{ chips  'CTRed':33 'CTGreen':0 'CTPurple':7 'grey78':0 'CTYellow':0 },200,{ chips  'CTRed':33 'CTGreen':0 'CTPurple':7 'grey78':0 'CTYellow':0 },200
3playersLog_1377184463396.csv,1,540,510,false,{ chips  'CTRed':20 },{ chips  'CTYellow':12 },FALSE,200,120,,,,,0,(R:5,C:4),{ chips  'CTRed':0 'CTGreen':0 'CTPurple':0 'grey78':12 'CTYellow':12 },120,{ chips  'CTRed':33 'CTGreen':0 'CTPurple':7 'grey78':0 'CTYellow':0 },200,{ chips  'CTRed':33 'CTGreen':0 'CTPurple':7 'grey78':0 'CTYellow':0 },200
3playersLog_1377184463396.csv,2,510,520,true,{ chips  'grey78':11 },{ chips  'CTRed':33 'CTPurple':7 },FALSE,120,200,,,,,1,(R:5,C:3),{ chips  'CTRed':0 'CTGreen':0 'CTPurple':0 'grey78':11 'CTYellow':12 },115,{ chips  'CTRed':33 'CTGreen':0 'CTPurple':7 'grey78':0 'CTYellow':0 },200,{ chips  'CTRed':33 'CTGreen':0 'CTPurple':7 'grey78':0 'CTYellow':0 },200
3playersLog_1377184463396.csv,3,520,510,false,{ chips  'CTRed':24 'CTPurple':5 },{ chips  'grey78':9 'CTYellow':9 },IGNORED,200,A115,,,,,0,(R:5,C:3),{ chips  'CTRed':0 'CTGreen':0 'CTPurple':0 'grey78':11 'CTYellow':12 },115,{ chips  'CTRed':33 'CTGreen':0 'CTPurple':7 'grey78':0 'CTYellow':0 },200,{ chips  'CTRed':33 'CTGreen':0 'CTPurple':7 'grey78':0 'CTYellow':0 },200
3playersLog_1377184463396.csv,3,540,510,false,{ chips  'CTRed':3 },{ chips  },IGNORED,200,B115,,,,,0,(R:5,C:3),{ chips  'CTRed':0 'CTGreen':0 'CTPurple':0 'grey78':11 'CTYellow':12 },115,{ chips  'CTRed':33 'CTGreen':0 'CTPurple':7 'grey78':0 'CTYellow':0 },200,{ chips  'CTRed':33 'CTGreen':0 'CTPurple':7 'grey78':0 'CTYellow':0 },200
3playersLog_1377184463396.csv,4,510,540,true,{ chips  'CTYellow':11 },{ chips  'CTRed':33 'CTPurple':7 },FALSE,115,200,,,,,1,(R:4,C:3),{ chips  'CTRed':0 'CTGreen':0 'CTPurple':0 'grey78':10 'CTYellow':12 },110,{ chips  'CTRed':33 'CTGreen':0 'CTPurple':7 'grey78':0 'CTYellow':0 },200,{ chips  'CTRed':33 'CTGreen':0 'CTPurple':7 'grey78':0 'CTYellow':0 },200
3playersLog_1377184463396.csv,5,520,510,false,{ chips  'CTRed':26 'CTPurple':6 },{ chips  'grey78':9 'CTYellow':10 },FALSE,200,110,,,,,0,(R:4,C:3),{ chips  'CTRed':0 'CTGreen':0 'CTPurple':0 'grey78':10 'CTYellow':12 },110,{ chips  'CTRed':33 'CTGreen':0 'CTPurple':7 'grey78':0 'CTYellow':0 },200,{ chips  'CTRed':33 'CTGreen':0 'CTPurple':7 'grey78':0 'CTYellow':0 },200
3playersLog_1377184463396.csv,5,540,510,false,{ chips  'CTRed':32 },{ chips  'CTYellow':12 },FALSE,200,110,,,,,0,(R:4,C:3),{ chips  'CTRed':0 'CTGreen':0 'CTPurple':0 'grey78':10 'CTYellow':12 },110,{ chips  'CTRed':33 'CTGreen':0 'CTPurple':7 'grey78':0 'CTYellow':0 },200,{ chips  'CTRed':33 'CTGreen':0 'CTPurple':7 'grey78':0 'CTYellow':0 },200
3playersLog_1377184463396.csv,6,510,540,true,{ chips  'CTYellow':11 },{ chips  'CTRed':33 'CTPurple':7 },FALSE,110,200,,,,,1,(R:4,C:2),{ chips  'CTRed':0 'CTGreen':0 'CTPurple':0 'grey78':9 'CTYellow':12 },105,{ chips  'CTRed':33 'CTGreen':0 'CTPurple':7 'grey78':0 'CTYellow':0 },200,{ chips  'CTRed':33 'CTGreen':0 'CTPurple':7 'grey78':0 'CTYellow':0 },200
3playersLog_1377184463396.csv,7,520,510,false,{ chips  'CTRed':30 'CTPurple':6 },{ chips  'grey78':3 'CTYellow':5 },TRUE,200,105,{ chips  'CTRed':30 'CTPurple':6 'CTGreen':0 'grey78':0 'CTYellow':0 },{ chips  'CTRed':0 'CTPurple':0 'CTGreen':0 'grey78':3 'CTYellow':5 },60,245,0,(R:4,C:2),{ chips  'CTRed':30 'CTGreen':0 'CTPurple':6 'grey78':6 'CTYellow':7 },245,{ chips  'CTRed':3 'CTGreen':0 'CTPurple':1 'grey78':3 'CTYellow':5 },60,{ chips  'CTRed':33 'CTGreen':0 'CTPurple':7 'grey78':0 'CTYellow':0 },200
3playersLog_1377184463396.csv,7,540,510,false,{ chips  'CTRed':33 'CTPurple':2 },{ chips  'CTYellow':12 },IGNORED,200,105,,,,,0,(R:4,C:2),{ chips  'CTRed':30 'CTGreen':0 'CTPurple':6 'grey78':6 'CTYellow':7 },245,{ chips  'CTRed':3 'CTGreen':0 'CTPurple':1 'grey78':3 'CTYellow':5 },60,{ chips  'CTRed':33 'CTGreen':0 'CTPurple':7 'grey78':0 'CTYellow':0 },200
3playersLog_1377184463396.csv,8,510,540,true,{ chips  },{ chips  'CTRed':12 },TRUE,245,60,{ chips  'CTYellow':0 },{ chips  'CTRed':12 },305,140,1,(R:3,C:2),{ chips  'CTRed':42 'CTGreen':0 'CTPurple':6 'grey78':5 'CTYellow':7 },300,{ chips  'CTRed':3 'CTGreen':0 'CTPurple':1 'grey78':3 'CTYellow':5 },60,{ chips  'CTRed':21 'CTGreen':0 'CTPurple':7 'grey78':0 'CTYellow':0 },140
3playersLog_1377184463396.csv,9,520,510,false,{ chips  'CTRed':1 },{ chips  'grey78':5 'CTYellow':7 },IGNORED,60,300,,,,,2,(R:2,C:1),{ chips  'CTRed':51 'CTGreen':0 'CTPurple':0 'grey78':3 'CTYellow':7 },305,{ chips  'CTRed':3 'CTGreen':0 'CTPurple':1 'grey78':3 'CTYellow':5 },60,{ chips  'CTRed':12 'CTGreen':0 'CTPurple':13 'grey78':0 'CTYellow':0 },125
3playersLog_1377184463396.csv,9,540,510,false,{ chips  'CTRed':9 },{ chips  'CTPurple':6 },TRUE,140,300,{ chips  'CTRed':9 'CTPurple':0 'CTGreen':0 'grey78':0 'CTYellow':0 },{ chips  'CTRed':0 'CTPurple':6 'CTGreen':0 'grey78':0 'CTYellow':0 },125,315,2,(R:2,C:1),{ chips  'CTRed':51 'CTGreen':0 'CTPurple':0 'grey78':3 'CTYellow':7 },305,{ chips  'CTRed':3 'CTGreen':0 'CTPurple':1 'grey78':3 'CTYellow':5 },60,{ chips  'CTRed':12 'CTGreen':0 'CTPurple':13 'grey78':0 'CTYellow':0 },125
3playersLog_1377184463396.csv,10,510,540,true,{ chips  },{ chips  'CTRed':12 'CTPurple':1 },FALSE,305,125,,,,,0,(R:2,C:1),{ chips  'CTRed':51 'CTGreen':0 'CTPurple':0 'grey78':3 'CTYellow':7 },305,{ chips  'CTRed':3 'CTGreen':0 'CTPurple':1 'grey78':3 'CTYellow':5 },60,{ chips  'CTRed':12 'CTGreen':0 'CTPurple':13 'grey78':0 'CTYellow':0 },125
3playersLog_1377184463396.csv,11,520,510,false,{ chips  'CTRed':3 'CTPurple':1 },{ chips  'grey78':3 'CTYellow':7 },FALSE,60,305,,,,,0,(R:2,C:1),{ chips  'CTRed':51 'CTGreen':0 'CTPurple':0 'grey78':3 'CTYellow':7 },305,{ chips  'CTRed':3 'CTGreen':0 'CTPurple':1 'grey78':3 'CTYellow':5 },60,{ chips  'CTRed':12 'CTGreen':0 'CTPurple':13 'grey78':0 'CTYellow':0 },125
3playersLog_1377184463396.csv,11,540,510,false,{ chips  },{ chips  'CTYellow':7 },FALSE,125,305,,,,,0,(R:2,C:1),{ chips  'CTRed':51 'CTGreen':0 'CTPurple':0 'grey78':3 'CTYellow':7 },305,{ chips  'CTRed':3 'CTGreen':0 'CTPurple':1 'grey78':3 'CTYellow':5 },60,{ chips  'CTRed':12 'CTGreen':0 'CTPurple':13 'grey78':0 'CTYellow':0 },125
3playersLog_1377184463396.csv,,,,,,,,,,,,,,,,,,,,,,,,false
