filename,round,propID,respID,IsPropCustomer,chipsToSend,chipsToReceive,accept,propCurrentScore,respCurrentScore,actualSent,ActualRcvd,propResultingScore,respResultingScore,#ofCustomerMovesInRound,customerRowPositionAfterMovePhase,customerColPositionAfterMovePhase,Player100ChipsAfterMovePhase,Player100ScoreAfterMovePhase,Player200ChipsAfterMovePhase,Player200ScoreAfterMovePhase,Player300ChipsAfterMovePhase,Player300ScoreAfterMovePhase,generosityLevel,ClientReachedGoal
3playersLog_1377179467257.csv,1,520,510,false,{ chips  'CTRed':17 'CTPurple':2 },{ chips  },IGNORED,200,120,,,,,0,(R:5,C:4),{ chips  'CTRed':33 'CTGreen':0 'CTPurple':7 'grey78':12 'CTYellow':12 },320,{ chips  'CTRed':33 'CTGreen':0 'CTPurple':7 'grey78':0 'CTYellow':0 },200,{ chips  'CTRed':0 'CTGreen':0 'CTPurple':0 'grey78':0 'CTYellow':0 },0
3playersLog_1377179467257.csv,1,540,510,false,{ chips  'CTRed':33 'CTPurple':7 },{ chips  },TRUE,200,120,{ chips  'CTRed':33 'CTPurple':7 'CTGreen':0 'grey78':0 'CTYellow':0 },{ chips  'CTRed':0 'CTPurple':0 'CTGreen':0 'grey78':0 'CTYellow':0 },0,320,0,(R:5,C:4),{ chips  'CTRed':33 'CTGreen':0 'CTPurple':7 'grey78':12 'CTYellow':12 },320,{ chips  'CTRed':33 'CTGreen':0 'CTPurple':7 'grey78':0 'CTYellow':0 },200,{ chips  'CTRed':0 'CTGreen':0 'CTPurple':0 'grey78':0 'CTYellow':0 },0
3playersLog_1377179467257.csv,2,510,520,true,{ chips  'grey78':11 },{ chips  'CTRed':33 'CTPurple':7 },TRUE,320,200,{ chips  'grey78':11 },{ chips  'CTRed':33 'CTPurple':7 },465,55,9,(R:0,C:8),{ chips  'CTRed':66 'CTGreen':0 'CTPurple':14 'grey78':1 'CTYellow':3 },570,{ chips  'CTRed':0 'CTGreen':0 'CTPurple':0 'grey78':11 'CTYellow':0 },205,{ chips  'CTRed':0 'CTGreen':0 'CTPurple':0 'grey78':0 'CTYellow':0 },0
3playersLog_1377179467257.csv,,,,,,,,,,,,,,,,,,,,,,,,true
