filename,round,propID,respID,IsPropCustomer,chipsToSend,chipsToReceive,accept,propCurrentScore,respCurrentScore,actualSent,ActualRcvd,propResultingScore,respResultingScore,#ofCustomerMovesInRound,customerRowPositionAfterMovePhase,customerColPositionAfterMovePhase,Player100ChipsAfterMovePhase,Player100ScoreAfterMovePhase,Player200ChipsAfterMovePhase,Player200ScoreAfterMovePhase,Player300ChipsAfterMovePhase,Player300ScoreAfterMovePhase,generosityLevel,ClientReachedGoal
3playersLog_1377179994279.csv,1,520,510,false,{ chips  'CTRed':19 'CTPurple':4 },{ chips  },TRUE,200,120,{ chips  'CTRed':19 'CTPurple':4 'CTGreen':0 'grey78':0 'CTYellow':0 },{ chips  'CTRed':0 'CTPurple':0 'CTGreen':0 'grey78':0 'CTYellow':0 },85,235,0,(R:5,C:4),{ chips  'CTRed':19 'CTGreen':0 'CTPurple':4 'grey78':12 'CTYellow':12 },235,{ chips  'CTRed':14 'CTGreen':0 'CTPurple':3 'grey78':0 'CTYellow':0 },85,{ chips  'CTRed':33 'CTGreen':0 'CTPurple':7 'grey78':0 'CTYellow':0 },200
3playersLog_1377179994279.csv,1,540,510,false,{ chips  'CTPurple':2 },{ chips  },IGNORED,200,120,,,,,0,(R:5,C:4),{ chips  'CTRed':19 'CTGreen':0 'CTPurple':4 'grey78':12 'CTYellow':12 },235,{ chips  'CTRed':14 'CTGreen':0 'CTPurple':3 'grey78':0 'CTYellow':0 },85,{ chips  'CTRed':33 'CTGreen':0 'CTPurple':7 'grey78':0 'CTYellow':0 },200
3playersLog_1377179994279.csv,2,510,540,true,{ chips  'CTYellow':11 },{ chips  'CTRed':33 'CTPurple':7 },TRUE,235,85,{ chips  'CTYellow':11 },{ chips  'CTRed':33 'CTPurple':7 },380,55,9,(R:0,C:0),{ chips  'CTRed':52 'CTGreen':0 'CTPurple':10 'grey78':4 'CTYellow':1 },485,{ chips  'CTRed':14 'CTGreen':0 'CTPurple':3 'grey78':0 'CTYellow':0 },85,{ chips  'CTRed':0 'CTGreen':0 'CTPurple':0 'grey78':0 'CTYellow':11 },205
3playersLog_1377179994279.csv,,,,,,,,,,,,,,,,,,,,,,,,true
