filename,round,propID,respID,IsPropCustomer,chipsToSend,chipsToReceive,accept,propCurrentScore,respCurrentScore,actualSent,ActualRcvd,propResultingScore,respResultingScore,#ofCustomerMovesInRound,customerRowPositionAfterMovePhase,customerColPositionAfterMovePhase,Player100ChipsAfterMovePhase,Player100ScoreAfterMovePhase,Player200ChipsAfterMovePhase,Player200ScoreAfterMovePhase,Player300ChipsAfterMovePhase,Player300ScoreAfterMovePhase,generosityLevel,ClientReachedGoal
3playersLog_1387542113325.csv,1,200,100,false,{ chips  'CTRed':2 },{ chips  'grey78':6 },TRUE,200,120,{ chips  'CTRed':2 'CTPurple':0 'CTGreen':0 'grey78':0 'CTYellow':0 },{ chips  'CTRed':0 'CTPurple':0 'CTGreen':0 'grey78':6 'CTYellow':0 },220,100,2,(R:4,C:3),{ chips  'CTRed':2 'CTGreen':0 'CTPurple':0 'grey78':4 'CTYellow':12 },90,{ chips  'CTRed':33 'CTGreen':0 'CTPurple':7 'grey78':0 'CTYellow':0 },200,{ chips  'CTRed':31 'CTGreen':0 'CTPurple':7 'grey78':6 'CTYellow':0 },220
3playersLog_1387542113325.csv,2,,,,,,,,,,,,,4,(R:2,C:1),{ chips  'CTRed':2 'CTGreen':0 'CTPurple':0 'grey78':0 'CTYellow':12 },70,{ chips  'CTRed':33 'CTGreen':0 'CTPurple':7 'grey78':0 'CTYellow':0 },200,{ chips  'CTRed':31 'CTGreen':0 'CTPurple':7 'grey78':6 'CTYellow':0 },220
3playersLog_1387542113325.csv,3,300,100,false,{ chips  'CTRed':3 'CTPurple':7 },{ chips  },IGNORED,200,70,,,,,0,(R:2,C:1),{ chips  'CTRed':4 'CTGreen':0 'CTPurple':0 'grey78':0 'CTYellow':6 },50,{ chips  'CTRed':33 'CTGreen':0 'CTPurple':7 'grey78':0 'CTYellow':0 },200,{ chips  'CTRed':29 'CTGreen':0 'CTPurple':7 'grey78':6 'CTYellow':6 },240
3playersLog_1387542113325.csv,3,200,100,false,{ chips  'CTRed':2 },{ chips  'CTYellow':6 },TRUE,220,70,{ chips  'CTRed':2 'CTPurple':0 'CTGreen':0 'grey78':0 'CTYellow':0 },{ chips  'CTRed':0 'CTPurple':0 'CTGreen':0 'grey78':0 'CTYellow':6 },240,50,0,(R:2,C:1),{ chips  'CTRed':4 'CTGreen':0 'CTPurple':0 'grey78':0 'CTYellow':6 },50,{ chips  'CTRed':33 'CTGreen':0 'CTPurple':7 'grey78':0 'CTYellow':0 },200,{ chips  'CTRed':29 'CTGreen':0 'CTPurple':7 'grey78':6 'CTYellow':6 },240
3playersLog_1387542113325.csv,4,,,,,,,,,,,,,0,(R:2,C:1),{ chips  'CTRed':4 'CTGreen':0 'CTPurple':0 'grey78':0 'CTYellow':6 },50,{ chips  'CTRed':33 'CTGreen':0 'CTPurple':7 'grey78':0 'CTYellow':0 },200,{ chips  'CTRed':29 'CTGreen':0 'CTPurple':7 'grey78':6 'CTYellow':6 },240
3playersLog_1387542113325.csv,,,,,,,,,,,,,,,,,,,,,,,,false
