filename,round,propID,respID,IsPropCustomer,chipsToSend,chipsToReceive,accept,propCurrentScore,respCurrentScore,actualSent,ActualRcvd,propResultingScore,respResultingScore,#ofCustomerMovesInRound,customerRowPositionAfterMovePhase,customerColPositionAfterMovePhase,Player100ChipsAfterMovePhase,Player100ScoreAfterMovePhase,Player200ChipsAfterMovePhase,Player200ScoreAfterMovePhase,Player300ChipsAfterMovePhase,Player300ScoreAfterMovePhase,generosityLevel,ClientReachedGoal
3playersLog_1387541917131.csv,1,200,100,false,{ chips  'CTRed':2 'CTPurple':2 },{ chips  'grey78':2 },TRUE,200,120,{ chips  'CTRed':2 'CTPurple':2 'CTGreen':0 'grey78':0 'CTYellow':0 },{ chips  'CTRed':0 'CTPurple':0 'CTGreen':0 'grey78':2 'CTYellow':0 },190,130,2,(R:4,C:3),{ chips  'CTRed':2 'CTGreen':0 'CTPurple':2 'grey78':8 'CTYellow':12 },120,{ chips  'CTRed':33 'CTGreen':0 'CTPurple':7 'grey78':0 'CTYellow':0 },200,{ chips  'CTRed':31 'CTGreen':0 'CTPurple':5 'grey78':2 'CTYellow':0 },190
3playersLog_1387541917131.csv,2,,,,,,,,,,,,,0,(R:4,C:3),{ chips  'CTRed':2 'CTGreen':0 'CTPurple':2 'grey78':8 'CTYellow':12 },120,{ chips  'CTRed':33 'CTGreen':0 'CTPurple':7 'grey78':0 'CTYellow':0 },200,{ chips  'CTRed':31 'CTGreen':0 'CTPurple':5 'grey78':2 'CTYellow':0 },190
3playersLog_1387541917131.csv,3,300,100,false,{ chips  'CTRed':1 },{ chips  },FALSE,200,120,,,,,1,(R:5,C:3),{ chips  'CTRed':2 'CTGreen':0 'CTPurple':2 'grey78':7 'CTYellow':12 },115,{ chips  'CTRed':33 'CTGreen':0 'CTPurple':7 'grey78':0 'CTYellow':0 },200,{ chips  'CTRed':31 'CTGreen':0 'CTPurple':5 'grey78':2 'CTYellow':0 },190
3playersLog_1387541917131.csv,3,200,100,false,{ chips  'CTRed':2 'CTPurple':1 },{ chips  'CTYellow':3 },FALSE,190,120,,,,,1,(R:5,C:3),{ chips  'CTRed':2 'CTGreen':0 'CTPurple':2 'grey78':7 'CTYellow':12 },115,{ chips  'CTRed':33 'CTGreen':0 'CTPurple':7 'grey78':0 'CTYellow':0 },200,{ chips  'CTRed':31 'CTGreen':0 'CTPurple':5 'grey78':2 'CTYellow':0 },190
3playersLog_1387541917131.csv,4,100,300,true,{ chips  'grey78':2 },{ chips  'CTRed':10 },TRUE,115,200,{ chips  'CTRed':0 'CTPurple':0 'CTGreen':0 'grey78':2 'CTYellow':0 },{ chips  'CTRed':10 'CTPurple':0 'CTGreen':0 'grey78':0 'CTYellow':0 },155,160,3,(R:3,C:4),{ chips  'CTRed':12 'CTGreen':0 'CTPurple':0 'grey78':4 'CTYellow':12 },140,{ chips  'CTRed':23 'CTGreen':0 'CTPurple':7 'grey78':2 'CTYellow':0 },160,{ chips  'CTRed':31 'CTGreen':0 'CTPurple':5 'grey78':2 'CTYellow':0 },190
3playersLog_1387541917131.csv,5,300,100,false,{ chips  'CTPurple':1 },{ chips  },FALSE,160,140,,,,,0,(R:3,C:4),{ chips  'CTRed':12 'CTGreen':0 'CTPurple':0 'grey78':4 'CTYellow':12 },140,{ chips  'CTRed':23 'CTGreen':0 'CTPurple':7 'grey78':2 'CTYellow':0 },160,{ chips  'CTRed':31 'CTGreen':0 'CTPurple':5 'grey78':2 'CTYellow':0 },190
3playersLog_1387541917131.csv,5,200,100,false,{ chips  'CTRed':4 'grey78':1 },{ chips  'CTYellow':2 },FALSE,190,140,,,,,0,(R:3,C:4),{ chips  'CTRed':12 'CTGreen':0 'CTPurple':0 'grey78':4 'CTYellow':12 },140,{ chips  'CTRed':23 'CTGreen':0 'CTPurple':7 'grey78':2 'CTYellow':0 },160,{ chips  'CTRed':31 'CTGreen':0 'CTPurple':5 'grey78':2 'CTYellow':0 },190
3playersLog_1387541917131.csv,6,100,200,true,{ chips  'CTYellow':5 },{ chips  'CTRed':10 'CTPurple':1 'grey78':2 },FALSE,140,190,,,,,0,(R:3,C:4),{ chips  'CTRed':12 'CTGreen':0 'CTPurple':0 'grey78':4 'CTYellow':12 },140,{ chips  'CTRed':23 'CTGreen':0 'CTPurple':7 'grey78':2 'CTYellow':0 },160,{ chips  'CTRed':31 'CTGreen':0 'CTPurple':5 'grey78':2 'CTYellow':0 },190
3playersLog_1387541917131.csv,,,,,,,,,,,,,,,,,,,,,,,,false
