filename,round,propID,respID,IsPropCustomer,chipsToSend,chipsToReceive,accept,propCurrentScore,respCurrentScore,actualSent,ActualRcvd,propResultingScore,respResultingScore,#ofCustomerMovesInRound,customerRowPositionAfterMovePhase,customerColPositionAfterMovePhase,Player100ChipsAfterMovePhase,Player100ScoreAfterMovePhase,Player200ChipsAfterMovePhase,Player200ScoreAfterMovePhase,Player300ChipsAfterMovePhase,Player300ScoreAfterMovePhase,generosityLevel,ClientReachedGoal
3playersLog_1370173006293.csv,1,200,100,false,{ chips  'CTRed':6 'CTPurple':2 },{ chips  },TRUE,200,120,{ chips  'CTRed':6 'CTPurple':2 'CTGreen':0 'grey78':0 'CTYellow':0 },{ chips  'CTRed':0 'CTPurple':0 'CTGreen':0 'grey78':0 'CTYellow':0 },160,160,2,(R:4,C:3),{ chips  'CTRed':6 'CTGreen':0 'CTPurple':2 'grey78':10 'CTYellow':12 },150,{ chips  'CTRed':27 'CTGreen':0 'CTPurple':5 'grey78':0 'CTYellow':0 },160,{ chips  'CTRed':33 'CTGreen':0 'CTPurple':7 'grey78':0 'CTYellow':0 },200
3playersLog_1370173006293.csv,1,300,100,false,{ chips  'CTRed':5 'CTPurple':1 },{ chips  'CTYellow':4 },IGNORED,200,160,,,,,2,(R:4,C:3),{ chips  'CTRed':6 'CTGreen':0 'CTPurple':2 'grey78':10 'CTYellow':12 },150,{ chips  'CTRed':27 'CTGreen':0 'CTPurple':5 'grey78':0 'CTYellow':0 },160,{ chips  'CTRed':33 'CTGreen':0 'CTPurple':7 'grey78':0 'CTYellow':0 },200
3playersLog_1370173006293.csv,2,100,300,true,{ chips  'CTRed':1 'CTYellow':2 },{ chips  'CTRed':10 'CTPurple':2 },FALSE,150,200,,,,,2,(R:3,C:2),{ chips  'CTRed':6 'CTGreen':0 'CTPurple':1 'grey78':9 'CTYellow':12 },140,{ chips  'CTRed':27 'CTGreen':0 'CTPurple':5 'grey78':0 'CTYellow':0 },160,{ chips  'CTRed':33 'CTGreen':0 'CTPurple':7 'grey78':0 'CTYellow':0 },200
3playersLog_1370173006293.csv,3,200,100,false,{ chips  'CTRed':7 'CTPurple':3 },{ chips  },TRUE,160,140,{ chips  'CTRed':7 'CTPurple':3 'CTGreen':0 'grey78':0 'CTYellow':0 },{ chips  'CTRed':0 'CTPurple':0 'CTGreen':0 'grey78':0 'CTYellow':0 },110,190,2,(R:2,C:1),{ chips  'CTRed':13 'CTGreen':0 'CTPurple':4 'grey78':7 'CTYellow':12 },180,{ chips  'CTRed':20 'CTGreen':0 'CTPurple':2 'grey78':0 'CTYellow':0 },110,{ chips  'CTRed':33 'CTGreen':0 'CTPurple':7 'grey78':0 'CTYellow':0 },200
3playersLog_1370173006293.csv,4,100,300,true,{ chips  'CTRed':1 'CTYellow':2 },{ chips  'CTRed':6 'CTPurple':2 },FALSE,180,200,,,,,1,(R:1,C:1),{ chips  'CTRed':13 'CTGreen':0 'CTPurple':3 'grey78':7 'CTYellow':12 },175,{ chips  'CTRed':20 'CTGreen':0 'CTPurple':2 'grey78':0 'CTYellow':0 },110,{ chips  'CTRed':33 'CTGreen':0 'CTPurple':7 'grey78':0 'CTYellow':0 },200
3playersLog_1370173006293.csv,5,200,100,false,{ chips  },{ chips  },FALSE,110,205,,,,,2,(R:0,C:0),{ chips  'CTRed':23 'CTGreen':0 'CTPurple':1 'grey78':5 'CTYellow':10 },345,{ chips  'CTRed':20 'CTGreen':0 'CTPurple':2 'grey78':0 'CTYellow':0 },110,{ chips  'CTRed':23 'CTGreen':0 'CTPurple':9 'grey78':0 'CTYellow':2 },320
3playersLog_1370173006293.csv,5,300,100,false,{ chips  'CTRed':10 },{ chips  'CTPurple':2 'CTYellow':2 },TRUE,200,175,{ chips  'CTRed':10 'CTPurple':0 'CTGreen':0 'grey78':0 'CTYellow':0 },{ chips  'CTRed':0 'CTPurple':2 'CTGreen':0 'grey78':0 'CTYellow':2 },170,205,2,(R:0,C:0),{ chips  'CTRed':23 'CTGreen':0 'CTPurple':1 'grey78':5 'CTYellow':10 },345,{ chips  'CTRed':20 'CTGreen':0 'CTPurple':2 'grey78':0 'CTYellow':0 },110,{ chips  'CTRed':23 'CTGreen':0 'CTPurple':9 'grey78':0 'CTYellow':2 },320
3playersLog_1370173006293.csv,,,,,,,,,,,,,,,,,,,,,,,,true
