Sun Jan 05 20:39:48 CST 2014	This is the CT debug logger; svn version 638; sep 27 09
Sun Jan 05 20:39:48 CST 2014	Sun Jan 05 20:39:48 CST 2014
Sun Jan 05 20:39:48 CST 2014	ID Number: 68592
Sun Jan 05 20:39:48 CST 2014	Creating board
Sun Jan 05 20:39:48 CST 2014	<colors>
Sun Jan 05 20:39:48 CST 2014	{ GamePalette  'CTPurple':0 'CTRed':1 'CTGreen':2 'grey78':3 'CTYellow':4 }
Sun Jan 05 20:39:48 CST 2014	<rows>
Sun Jan 05 20:39:48 CST 2014	6
Sun Jan 05 20:39:48 CST 2014	<columns>
Sun Jan 05 20:39:48 CST 2014	9
Sun Jan 05 20:39:48 CST 2014	<squaresColors>
Sun Jan 05 20:39:48 CST 2014	grey78 CTGreen CTGreen CTGreen CTGreen CTGreen CTGreen CTGreen CTYellow 
Sun Jan 05 20:39:48 CST 2014	grey78 CTPurple CTPurple CTPurple CTPurple CTPurple CTPurple CTPurple CTYellow 
Sun Jan 05 20:39:48 CST 2014	grey78 grey78 CTGreen CTGreen CTGreen CTGreen CTGreen CTYellow CTYellow 
Sun Jan 05 20:39:48 CST 2014	CTGreen grey78 grey78 CTPurple CTPurple CTPurple CTYellow CTYellow CTGreen 
Sun Jan 05 20:39:48 CST 2014	CTGreen CTGreen grey78 grey78 CTGreen CTYellow CTYellow CTGreen CTGreen 
Sun Jan 05 20:39:48 CST 2014	CTGreen CTGreen CTGreen grey78 CTGreen CTYellow CTGreen CTGreen CTGreen 
Sun Jan 05 20:39:48 CST 2014	</squareColors>
Sun Jan 05 20:39:48 CST 2014	<goalPosition>
Sun Jan 05 20:39:48 CST 2014	Goal position: (R:0,C:0)
Sun Jan 05 20:39:48 CST 2014	<goalPosition>
Sun Jan 05 20:39:48 CST 2014	Goal position: (R:0,C:0)
Sun Jan 05 20:39:48 CST 2014	<firstPlayerPossibleGoal1>
Sun Jan 05 20:39:48 CST 2014	0.5
Sun Jan 05 20:39:48 CST 2014	0
Sun Jan 05 20:39:48 CST 2014	0
Sun Jan 05 20:39:48 CST 2014	</firstPlayerPossibleGoal1>
Sun Jan 05 20:39:48 CST 2014	<firstPlayerPossibleGoal2>
Sun Jan 05 20:39:48 CST 2014	0.5
Sun Jan 05 20:39:48 CST 2014	0
Sun Jan 05 20:39:48 CST 2014	8
Sun Jan 05 20:39:48 CST 2014	</firstPlayerPossibleGoal2>
Sun Jan 05 20:39:48 CST 2014	<numberOfPlayers>
Sun Jan 05 20:39:48 CST 2014	3
Sun Jan 05 20:39:48 CST 2014	<firstPlayerChips>
Sun Jan 05 20:39:48 CST 2014	Setting chips for player: 100 id:0
Sun Jan 05 20:39:48 CST 2014	{ chips  'CTRed':0 'CTGreen':0 'CTPurple':0 'grey78':12 'CTYellow':12 }
Sun Jan 05 20:39:48 CST 2014	Player position: (R:5,C:4)
Sun Jan 05 20:39:48 CST 2014	Setting chips for player: 200 id:1
Sun Jan 05 20:39:48 CST 2014	{ chips  'CTRed':33 'CTGreen':0 'CTPurple':7 'grey78':0 'CTYellow':0 }
Sun Jan 05 20:39:48 CST 2014	Player position: (R:0,C:8)
Sun Jan 05 20:39:48 CST 2014	Setting chips for player: 300 id:2
Sun Jan 05 20:39:48 CST 2014	{ chips  'CTRed':33 'CTGreen':0 'CTPurple':7 'grey78':0 'CTYellow':0 }
Sun Jan 05 20:39:48 CST 2014	Player position: (R:0,C:0)
Sun Jan 05 20:39:48 CST 2014	Protocol: A New Phase Began: Strategy Prep Phase. loop is true
Sun Jan 05 20:39:48 CST 2014	---------- Beginning Strategy Prep Phase at round 0 ----------
Sun Jan 05 20:40:48 CST 2014	A Phase Ended: Strategy Prep Phase
Sun Jan 05 20:40:48 CST 2014	Protocol: A New Phase Began: Communication Phase. loop is true
Sun Jan 05 20:40:48 CST 2014	---------- Beginning Communication Phase at round 1 ----------
Sun Jan 05 20:41:16 CST 2014	Received communication message 
Sun Jan 05 20:41:16 CST 2014	From player: 300
Sun Jan 05 20:41:16 CST 2014	To player: 100
Sun Jan 05 20:41:16 CST 2014	Chips to send by proposer: { chips  'CTRed':0 'CTPurple':0 'CTGreen':0 'grey78':0 'CTYellow':0 }
Sun Jan 05 20:41:16 CST 2014	Chips to send by responder: { chips  'CTRed':0 'CTPurple':0 'CTGreen':0 'grey78':2 'CTYellow':0 }
Sun Jan 05 20:41:47 CST 2014	Received communication message 
Sun Jan 05 20:41:47 CST 2014	Proposer 1 accepted? true
Sun Jan 05 20:41:47 CST 2014	A Phase Ended: Communication Phase
Sun Jan 05 20:41:47 CST 2014	Protocol: A New Phase Began: Movement Phase. loop is true
Sun Jan 05 20:41:47 CST 2014	---------- Beginning Movement Phase at round 1 ----------
Sun Jan 05 20:41:47 CST 2014	remove strategy phase. 
Sun Jan 05 20:42:31 CST 2014	A Phase Ended: Movement Phase
Sun Jan 05 20:42:31 CST 2014	Protocol: A New Phase Began: Feedback Phase. loop is true
Sun Jan 05 20:42:31 CST 2014	---------- Beginning Feedback Phase at round 1 ----------
Sun Jan 05 20:42:31 CST 2014	Number of consecutive no movements for player 100 is 0
Sun Jan 05 20:42:31 CST 2014	TDPlayerPosition is(R:1,C:0)goal location 0(R:0,C:0)goal location 1(R:0,C:8)
Sun Jan 05 20:42:31 CST 2014	ended is false
Sun Jan 05 20:42:36 CST 2014	A Phase Ended: Feedback Phase
Sun Jan 05 20:42:36 CST 2014	 numberofMoves in round 1 is 10
Sun Jan 05 20:42:36 CST 2014	Swaping roles:
Sun Jan 05 20:42:36 CST 2014	Protocol: A New Phase Began: Communication Phase. loop is true
Sun Jan 05 20:42:36 CST 2014	---------- Beginning Communication Phase at round 2 ----------
Sun Jan 05 20:45:02 CST 2014	Received communication message 
Sun Jan 05 20:45:02 CST 2014	From player: 100
Sun Jan 05 20:45:02 CST 2014	To player: 200
Sun Jan 05 20:45:02 CST 2014	Chips to send by proposer: { chips  'CTRed':0 'CTPurple':0 'CTGreen':0 'grey78':0 'CTYellow':3 }
Sun Jan 05 20:45:02 CST 2014	Chips to send by responder: { chips  'CTRed':10 'CTPurple':3 'CTGreen':0 'grey78':0 'CTYellow':0 }
Sun Jan 05 20:45:36 CST 2014	A Phase Ended: Communication Phase
Sun Jan 05 20:45:36 CST 2014	Protocol: A New Phase Began: Movement Phase. loop is true
Sun Jan 05 20:45:36 CST 2014	---------- Beginning Movement Phase at round 2 ----------
Sun Jan 05 20:46:21 CST 2014	A Phase Ended: Movement Phase
Sun Jan 05 20:46:21 CST 2014	Protocol: A New Phase Began: Feedback Phase. loop is true
Sun Jan 05 20:46:21 CST 2014	---------- Beginning Feedback Phase at round 2 ----------
Sun Jan 05 20:46:21 CST 2014	Number of consecutive no movements for player 100 is 1
Sun Jan 05 20:46:21 CST 2014	TDPlayerPosition is(R:1,C:0)goal location 0(R:0,C:0)goal location 1(R:0,C:8)
Sun Jan 05 20:46:21 CST 2014	ended is false
Sun Jan 05 20:46:26 CST 2014	A Phase Ended: Feedback Phase
Sun Jan 05 20:46:26 CST 2014	 numberofMoves in round 2 is 0
Sun Jan 05 20:46:26 CST 2014	Swaping roles:
Sun Jan 05 20:46:26 CST 2014	Protocol: A New Phase Began: Communication Phase. loop is true
Sun Jan 05 20:46:26 CST 2014	---------- Beginning Communication Phase at round 3 ----------
Sun Jan 05 20:46:57 CST 2014	Received communication message 
Sun Jan 05 20:46:57 CST 2014	From player: 300
Sun Jan 05 20:46:57 CST 2014	To player: 100
Sun Jan 05 20:46:57 CST 2014	Chips to send by proposer: { chips  'CTRed':0 'CTPurple':0 'CTGreen':0 'grey78':2 'CTYellow':0 }
Sun Jan 05 20:46:57 CST 2014	Chips to send by responder: { chips  'CTRed':0 'CTPurple':0 'CTGreen':0 'grey78':0 'CTYellow':0 }
Sun Jan 05 20:47:43 CST 2014	Received communication message 
Sun Jan 05 20:47:43 CST 2014	Proposer 1 accepted? true
Sun Jan 05 20:47:43 CST 2014	A Phase Ended: Communication Phase
Sun Jan 05 20:47:43 CST 2014	Protocol: A New Phase Began: Movement Phase. loop is true
Sun Jan 05 20:47:43 CST 2014	---------- Beginning Movement Phase at round 3 ----------
Sun Jan 05 20:48:27 CST 2014	A Phase Ended: Movement Phase
Sun Jan 05 20:48:27 CST 2014	Protocol: A New Phase Began: Feedback Phase. loop is true
Sun Jan 05 20:48:27 CST 2014	---------- Beginning Feedback Phase at round 3 ----------
Sun Jan 05 20:48:27 CST 2014	ended is true
Sun Jan 05 20:48:32 CST 2014	A Phase Ended: Feedback Phase
Sun Jan 05 20:48:32 CST 2014	 numberofMoves in round 3 is 0
Sun Jan 05 20:48:32 CST 2014	Loop status: false
Sun Jan 05 20:48:32 CST 2014	Player: 300 ,role: Proposer score is: 200
Sun Jan 05 20:48:32 CST 2014	Player: 300Game Ended
Sun Jan 05 20:48:32 CST 2014	Player: 100 ,role: Responder score is: 70
Sun Jan 05 20:48:32 CST 2014	Player: 100Game Ended
Sun Jan 05 20:48:32 CST 2014	Player: 200 ,role: Proposer score is: 200
Sun Jan 05 20:48:32 CST 2014	Player: 200Game Ended
Sun Jan 05 20:48:32 CST 2014	Protocol: A New Phase Began: Communication Phase. loop is false
Sun Jan 05 20:48:32 CST 2014	---------- Beginning Communication Phase at round 3 ----------
Sun Jan 05 20:51:32 CST 2014	A Phase Ended: Communication Phase
Sun Jan 05 20:51:32 CST 2014	Protocol: A New Phase Began: Movement Phase. loop is false
Sun Jan 05 20:51:32 CST 2014	---------- Beginning Movement Phase at round 3 ----------
Sun Jan 05 20:52:17 CST 2014	A Phase Ended: Movement Phase
Sun Jan 05 20:52:17 CST 2014	Protocol: A New Phase Began: Feedback Phase. loop is false
Sun Jan 05 20:52:17 CST 2014	---------- Beginning Feedback Phase at round 3 ----------
Sun Jan 05 20:52:17 CST 2014	ended is true
Sun Jan 05 20:52:22 CST 2014	A Phase Ended: Feedback Phase
Sun Jan 05 20:52:22 CST 2014	 numberofMoves in round 3 is 0
Sun Jan 05 20:52:22 CST 2014	Loop status: false
Sun Jan 05 20:52:22 CST 2014	Player: 300 ,role: GameEnded score is: 200
Sun Jan 05 20:52:22 CST 2014	Player: 300Game Ended
Sun Jan 05 20:52:22 CST 2014	Player: 100 ,role: GameEnded score is: 70
Sun Jan 05 20:52:22 CST 2014	Player: 100Game Ended
Sun Jan 05 20:52:22 CST 2014	Player: 200 ,role: GameEnded score is: 200
Sun Jan 05 20:52:22 CST 2014	Player: 200Game Ended
