filename,round,propID,respID,IsPropCustomer,chipsToSend,chipsToReceive,accept,propCurrentScore,respCurrentScore,actualSent,ActualRcvd,propResultingScore,respResultingScore,#ofCustomerMovesInRound,customerRowPositionAfterMovePhase,customerColPositionAfterMovePhase,Player100ChipsAfterMovePhase,Player100ScoreAfterMovePhase,Player200ChipsAfterMovePhase,Player200ScoreAfterMovePhase,Player300ChipsAfterMovePhase,Player300ScoreAfterMovePhase,generosityLevel,ClientReachedGoal
3playersLog_1378207813176.csv,1,520,510,false,{ chips  'CTRed':7 'CTPurple':2 },{ chips  'CTYellow':5 },TRUE,200,120,{ chips  'CTRed':7 'CTPurple':2 'CTGreen':0 'grey78':0 'CTYellow':0 },{ chips  'CTRed':0 'CTPurple':0 'CTGreen':0 'grey78':0 'CTYellow':5 },180,140,0,(R:5,C:4),{ chips  'CTRed':7 'CTGreen':0 'CTPurple':2 'grey78':12 'CTYellow':7 },140,{ chips  'CTRed':26 'CTGreen':0 'CTPurple':5 'grey78':0 'CTYellow':5 },180,{ chips  'CTRed':33 'CTGreen':0 'CTPurple':7 'grey78':0 'CTYellow':0 },200
3playersLog_1378207813176.csv,1,540,510,false,{ chips  'CTPurple':2 },{ chips  'grey78':1 },IGNORED,200,120,,,,,0,(R:5,C:4),{ chips  'CTRed':7 'CTGreen':0 'CTPurple':2 'grey78':12 'CTYellow':7 },140,{ chips  'CTRed':26 'CTGreen':0 'CTPurple':5 'grey78':0 'CTYellow':5 },180,{ chips  'CTRed':33 'CTGreen':0 'CTPurple':7 'grey78':0 'CTYellow':0 },200
3playersLog_1378207813176.csv,2,510,540,true,{ chips  },{ chips  'CTRed':11 'CTPurple':2 },FALSE,140,200,,,,,1,(R:5,C:5),{ chips  'CTRed':7 'CTGreen':0 'CTPurple':2 'grey78':12 'CTYellow':6 },135,{ chips  'CTRed':26 'CTGreen':0 'CTPurple':5 'grey78':0 'CTYellow':5 },180,{ chips  'CTRed':33 'CTGreen':0 'CTPurple':7 'grey78':0 'CTYellow':0 },200
3playersLog_1378207813176.csv,3,520,510,false,{ chips  'CTRed':10 },{ chips  'CTYellow':6 },TRUE,180,135,{ chips  'CTRed':10 'CTPurple':0 'CTGreen':0 'grey78':0 'CTYellow':0 },{ chips  'CTRed':0 'CTPurple':0 'CTGreen':0 'grey78':0 'CTYellow':6 },160,155,0,(R:5,C:5),{ chips  'CTRed':17 'CTGreen':0 'CTPurple':2 'grey78':12 'CTYellow':0 },155,{ chips  'CTRed':16 'CTGreen':0 'CTPurple':5 'grey78':0 'CTYellow':11 },160,{ chips  'CTRed':33 'CTGreen':0 'CTPurple':7 'grey78':0 'CTYellow':0 },200
3playersLog_1378207813176.csv,3,540,510,false,{ chips  'CTRed':3 },{ chips  'CTYellow':2 },IGNORED,200,135,,,,,0,(R:5,C:5),{ chips  'CTRed':17 'CTGreen':0 'CTPurple':2 'grey78':12 'CTYellow':0 },155,{ chips  'CTRed':16 'CTGreen':0 'CTPurple':5 'grey78':0 'CTYellow':11 },160,{ chips  'CTRed':33 'CTGreen':0 'CTPurple':7 'grey78':0 'CTYellow':0 },200
3playersLog_1378207813176.csv,4,510,520,true,{ chips  },{ chips  'CTRed':14 'CTPurple':2 'CTYellow':11 },FALSE,155,160,,,,,0,(R:5,C:5),{ chips  'CTRed':17 'CTGreen':0 'CTPurple':2 'grey78':12 'CTYellow':0 },155,{ chips  'CTRed':16 'CTGreen':0 'CTPurple':5 'grey78':0 'CTYellow':11 },160,{ chips  'CTRed':33 'CTGreen':0 'CTPurple':7 'grey78':0 'CTYellow':0 },200
3playersLog_1378207813176.csv,,,,,,,,,,,,,,,,,,,,,,,,false
