Sat Dec 08 04:12:08 IST 2012	This is the CT debug logger; svn version 638; sep 27 09
Sat Dec 08 04:12:08 IST 2012	Sat Dec 08 04:12:08 IST 2012
Sat Dec 08 04:12:08 IST 2012	A new Alternative Offers game has began
Sat Dec 08 04:12:08 IST 2012	ID Number: 48084
Sat Dec 08 04:12:08 IST 2012	Creating board
Sat Dec 08 04:12:08 IST 2012	<colors>
Sat Dec 08 04:12:08 IST 2012	{ GamePalette  'CTRed':0 'CTPurple':1 'CTGreen':2 'grey78':3 }
Sat Dec 08 04:12:08 IST 2012	<rows>
Sat Dec 08 04:12:08 IST 2012	7
Sat Dec 08 04:12:08 IST 2012	<columns>
Sat Dec 08 04:12:08 IST 2012	5
Sat Dec 08 04:12:08 IST 2012	<squaresColors>
Sat Dec 08 04:12:08 IST 2012	CTPurple CTRed CTRed CTGreen CTPurple 
Sat Dec 08 04:12:08 IST 2012	CTPurple grey78 CTPurple grey78 CTPurple 
Sat Dec 08 04:12:08 IST 2012	CTPurple CTRed CTPurple CTGreen CTPurple 
Sat Dec 08 04:12:08 IST 2012	CTPurple grey78 CTPurple grey78 CTPurple 
Sat Dec 08 04:12:08 IST 2012	CTPurple CTRed CTPurple CTGreen CTPurple 
Sat Dec 08 04:12:08 IST 2012	CTPurple grey78 CTPurple grey78 CTPurple 
Sat Dec 08 04:12:08 IST 2012	CTPurple CTRed CTPurple CTGreen CTPurple 
Sat Dec 08 04:12:08 IST 2012	</squareColors>
Sat Dec 08 04:12:08 IST 2012	<goalPosition>
Sat Dec 08 04:12:08 IST 2012	Goal position: (R:0,C:2)
Sat Dec 08 04:12:08 IST 2012	<numberOfPlayers>
Sat Dec 08 04:12:08 IST 2012	2
Sat Dec 08 04:12:08 IST 2012	<firstPlayerChips>
Sat Dec 08 04:12:08 IST 2012	Setting chips for player: 337 id:0
Sat Dec 08 04:12:08 IST 2012	{ chips  'CTRed':1 'CTGreen':13 'CTPurple':0 'grey78':10 }
Sat Dec 08 04:12:08 IST 2012	Player position: (R:6,C:4)
Sat Dec 08 04:12:08 IST 2012	Setting chips for player: 210 id:1
Sat Dec 08 04:12:08 IST 2012	{ chips  'CTRed':5 'CTGreen':19 'CTPurple':0 'grey78':0 }
Sat Dec 08 04:12:08 IST 2012	Player position: (R:6,C:0)
Sat Dec 08 04:12:08 IST 2012	Protocol: A New Phase Began: Strategy Prep Phase
Sat Dec 08 04:12:08 IST 2012	Protocol: Strategy Preparation phase, Round: 0
Sat Dec 08 04:12:08 IST 2012	Maximum number of rounds with no consecutive movement is 3
Sat Dec 08 04:12:08 IST 2012	In begin comm. phase, set counter offers count to: 0
Sat Dec 08 04:12:08 IST 2012	In begin comm. phase, get counter offers returned: 0
Sat Dec 08 04:12:28 IST 2012	A Phase Ended: Strategy Prep Phase
Sat Dec 08 04:12:28 IST 2012	Protocol: A New Phase Began: Communication Phase
Sat Dec 08 04:12:28 IST 2012	Protocol: Communication phase, Round: 0
Sat Dec 08 04:13:28 IST 2012	Received communication message 
Sat Dec 08 04:13:28 IST 2012	From player: 337
Sat Dec 08 04:13:28 IST 2012	To player: 210
Sat Dec 08 04:13:28 IST 2012	Message type: basicproposal
Sat Dec 08 04:13:28 IST 2012	Chips to send by proposer: { chips  'grey78':3 }
Sat Dec 08 04:13:28 IST 2012	Chips to send by responder: { chips  'CTGreen':2 }
Sat Dec 08 04:13:41 IST 2012	Received communication message 
Sat Dec 08 04:13:41 IST 2012	From player: 210
Sat Dec 08 04:13:41 IST 2012	To player: 337
Sat Dec 08 04:13:41 IST 2012	Message type: basicproposaldiscussion
Sat Dec 08 04:13:41 IST 2012	Player 210 accepted offer
Sat Dec 08 04:13:41 IST 2012	Prop accepted, set counter offers count to: 0
Sat Dec 08 04:13:41 IST 2012	Prop accepted, get counter offers returned: 0
Sat Dec 08 04:13:41 IST 2012	A Phase Ended: Communication Phase
Sat Dec 08 04:13:41 IST 2012	Protocol: A New Phase Began: Exchange Phase
Sat Dec 08 04:13:41 IST 2012	Protocol: Exchange phase, Round: 0
Sat Dec 08 04:13:41 IST 2012	In begin exch.phase, get counter offers returned: 0
Sat Dec 08 04:14:10 IST 2012	A Phase Ended: Exchange Phase
Sat Dec 08 04:14:10 IST 2012	Proposer 337 sent: { chips  'CTRed':0 'CTPurple':0 'CTGreen':0 'grey78':1 }
Sat Dec 08 04:14:10 IST 2012	Responder 210 sent: { chips  'CTRed':0 'CTPurple':0 'CTGreen':1 'grey78':0 }
Sat Dec 08 04:14:10 IST 2012	Protocol: A New Phase Began: Movement Phase
Sat Dec 08 04:14:10 IST 2012	Protocol: Movement phase, Round: 0
Sat Dec 08 04:14:30 IST 2012	A Phase Ended: Movement Phase
Sat Dec 08 04:14:30 IST 2012	Swaping roles:
Sat Dec 08 04:14:30 IST 2012	Proposer is: 210
Sat Dec 08 04:14:30 IST 2012	Responder is: 337
Sat Dec 08 04:14:30 IST 2012	Protocol: A New Phase Began: Feedback Phase
Sat Dec 08 04:14:30 IST 2012	Protocol: Feedback phase, Round: 0
Sat Dec 08 04:14:30 IST 2012	Number of consecutive no movements for player 337 is 1
Sat Dec 08 04:14:30 IST 2012	Number of consecutive no movements for player 210 is 1
Sat Dec 08 04:14:35 IST 2012	A Phase Ended: Feedback Phase
Sat Dec 08 04:14:35 IST 2012	Protocol: A New Phase Began: Communication Phase
Sat Dec 08 04:14:35 IST 2012	Protocol: Communication phase, Round: 1
Sat Dec 08 04:14:51 IST 2012	Received communication message 
Sat Dec 08 04:14:51 IST 2012	From player: 210
Sat Dec 08 04:14:51 IST 2012	To player: 337
Sat Dec 08 04:14:51 IST 2012	Message type: basicproposal
Sat Dec 08 04:14:51 IST 2012	Chips to send by proposer: { chips  'CTRed':0 'CTPurple':0 'CTGreen':1 'grey78':0 }
Sat Dec 08 04:14:51 IST 2012	Chips to send by responder: { chips  'CTRed':0 'CTPurple':0 'CTGreen':0 'grey78':1 }
Sat Dec 08 04:15:51 IST 2012	Received communication message 
Sat Dec 08 04:15:51 IST 2012	From player: 337
Sat Dec 08 04:15:51 IST 2012	To player: 210
Sat Dec 08 04:15:51 IST 2012	Message type: basicproposaldiscussion
Sat Dec 08 04:15:51 IST 2012	Player 337 accepted offer
Sat Dec 08 04:15:51 IST 2012	Prop accepted, set counter offers count to: 0
Sat Dec 08 04:15:51 IST 2012	Prop accepted, get counter offers returned: 0
Sat Dec 08 04:15:51 IST 2012	A Phase Ended: Communication Phase
Sat Dec 08 04:15:51 IST 2012	Protocol: A New Phase Began: Exchange Phase
Sat Dec 08 04:15:51 IST 2012	Protocol: Exchange phase, Round: 1
Sat Dec 08 04:15:51 IST 2012	In begin exch.phase, get counter offers returned: 0
Sat Dec 08 04:16:20 IST 2012	A Phase Ended: Exchange Phase
Sat Dec 08 04:16:20 IST 2012	Proposer 210 sent: { chips  'CTRed':0 'CTPurple':0 'CTGreen':1 'grey78':0 }
Sat Dec 08 04:16:20 IST 2012	Responder 337 sent: { chips  'CTRed':0 'CTPurple':0 'CTGreen':0 'grey78':0 }
Sat Dec 08 04:16:20 IST 2012	Protocol: A New Phase Began: Movement Phase
Sat Dec 08 04:16:20 IST 2012	Protocol: Movement phase, Round: 1
Sat Dec 08 04:16:39 IST 2012	A Phase Ended: Movement Phase
Sat Dec 08 04:16:39 IST 2012	Swaping roles:
Sat Dec 08 04:16:39 IST 2012	Proposer is: 337
Sat Dec 08 04:16:39 IST 2012	Responder is: 210
Sat Dec 08 04:16:39 IST 2012	Protocol: A New Phase Began: Feedback Phase
Sat Dec 08 04:16:39 IST 2012	Protocol: Feedback phase, Round: 1
Sat Dec 08 04:16:39 IST 2012	Number of consecutive no movements for player 337 is 2
Sat Dec 08 04:16:39 IST 2012	Number of consecutive no movements for player 210 is 2
Sat Dec 08 04:16:45 IST 2012	A Phase Ended: Feedback Phase
Sat Dec 08 04:16:45 IST 2012	Protocol: A New Phase Began: Communication Phase
Sat Dec 08 04:16:45 IST 2012	Protocol: Communication phase, Round: 2
Sat Dec 08 04:17:45 IST 2012	Received communication message 
Sat Dec 08 04:17:45 IST 2012	From player: 337
Sat Dec 08 04:17:45 IST 2012	To player: 210
Sat Dec 08 04:17:45 IST 2012	Message type: basicproposal
Sat Dec 08 04:17:45 IST 2012	Chips to send by proposer: { chips  'grey78':2 }
Sat Dec 08 04:17:45 IST 2012	Chips to send by responder: { chips  'CTGreen':1 }
Sat Dec 08 04:17:59 IST 2012	Received communication message 
Sat Dec 08 04:17:59 IST 2012	From player: 210
Sat Dec 08 04:17:59 IST 2012	To player: 337
Sat Dec 08 04:17:59 IST 2012	Message type: basicproposaldiscussion
Sat Dec 08 04:17:59 IST 2012	Player 210 accepted offer
Sat Dec 08 04:17:59 IST 2012	Prop accepted, set counter offers count to: 0
Sat Dec 08 04:17:59 IST 2012	Prop accepted, get counter offers returned: 0
Sat Dec 08 04:17:59 IST 2012	A Phase Ended: Communication Phase
Sat Dec 08 04:17:59 IST 2012	Protocol: A New Phase Began: Exchange Phase
Sat Dec 08 04:17:59 IST 2012	Protocol: Exchange phase, Round: 2
Sat Dec 08 04:17:59 IST 2012	In begin exch.phase, get counter offers returned: 0
Sat Dec 08 04:18:28 IST 2012	A Phase Ended: Exchange Phase
Sat Dec 08 04:18:28 IST 2012	Proposer 337 sent: { chips  'CTRed':0 'CTPurple':0 'CTGreen':0 'grey78':0 }
Sat Dec 08 04:18:28 IST 2012	Responder 210 sent: { chips  }
Sat Dec 08 04:18:28 IST 2012	Protocol: A New Phase Began: Movement Phase
Sat Dec 08 04:18:28 IST 2012	Protocol: Movement phase, Round: 2
Sat Dec 08 04:18:28 IST 2012	Player 337 moved to (R:6,C:3)
Sat Dec 08 04:18:28 IST 2012	Player 210 moved to (R:6,C:1)
Sat Dec 08 04:18:47 IST 2012	A Phase Ended: Movement Phase
Sat Dec 08 04:18:47 IST 2012	Swaping roles:
Sat Dec 08 04:18:47 IST 2012	Proposer is: 210
Sat Dec 08 04:18:47 IST 2012	Responder is: 337
Sat Dec 08 04:18:47 IST 2012	Protocol: A New Phase Began: Feedback Phase
Sat Dec 08 04:18:47 IST 2012	Protocol: Feedback phase, Round: 2
Sat Dec 08 04:18:47 IST 2012	Number of consecutive no movements for player 337 is 0
Sat Dec 08 04:18:47 IST 2012	Number of consecutive no movements for player 210 is 0
Sat Dec 08 04:18:52 IST 2012	A Phase Ended: Feedback Phase
Sat Dec 08 04:18:52 IST 2012	Protocol: A New Phase Began: Communication Phase
Sat Dec 08 04:18:52 IST 2012	Protocol: Communication phase, Round: 3
Sat Dec 08 04:19:13 IST 2012	Received communication message 
Sat Dec 08 04:19:13 IST 2012	From player: 210
Sat Dec 08 04:19:13 IST 2012	To player: 337
Sat Dec 08 04:19:13 IST 2012	Message type: basicproposal
Sat Dec 08 04:19:13 IST 2012	Chips to send by proposer: { chips  'CTRed':0 'CTPurple':0 'CTGreen':1 'grey78':0 }
Sat Dec 08 04:19:13 IST 2012	Chips to send by responder: { chips  'CTRed':0 'CTPurple':0 'CTGreen':0 'grey78':1 }
Sat Dec 08 04:20:13 IST 2012	Received communication message 
Sat Dec 08 04:20:13 IST 2012	From player: 337
Sat Dec 08 04:20:13 IST 2012	To player: 210
Sat Dec 08 04:20:13 IST 2012	Message type: basicproposaldiscussion
Sat Dec 08 04:20:13 IST 2012	Player 337 accepted offer
Sat Dec 08 04:20:13 IST 2012	Prop accepted, set counter offers count to: 0
Sat Dec 08 04:20:13 IST 2012	Prop accepted, get counter offers returned: 0
Sat Dec 08 04:20:13 IST 2012	A Phase Ended: Communication Phase
Sat Dec 08 04:20:13 IST 2012	Protocol: A New Phase Began: Exchange Phase
Sat Dec 08 04:20:13 IST 2012	Protocol: Exchange phase, Round: 3
Sat Dec 08 04:20:13 IST 2012	In begin exch.phase, get counter offers returned: 0
Sat Dec 08 04:20:42 IST 2012	A Phase Ended: Exchange Phase
Sat Dec 08 04:20:42 IST 2012	Proposer 210 sent: { chips  'CTRed':0 'CTPurple':0 'CTGreen':1 'grey78':0 }
Sat Dec 08 04:20:42 IST 2012	Responder 337 sent: { chips  'CTRed':0 'CTPurple':0 'CTGreen':0 'grey78':0 }
Sat Dec 08 04:20:42 IST 2012	Protocol: A New Phase Began: Movement Phase
Sat Dec 08 04:20:42 IST 2012	Protocol: Movement phase, Round: 3
Sat Dec 08 04:21:02 IST 2012	A Phase Ended: Movement Phase
Sat Dec 08 04:21:02 IST 2012	Swaping roles:
Sat Dec 08 04:21:02 IST 2012	Proposer is: 337
Sat Dec 08 04:21:02 IST 2012	Responder is: 210
Sat Dec 08 04:21:02 IST 2012	Protocol: A New Phase Began: Feedback Phase
Sat Dec 08 04:21:02 IST 2012	Protocol: Feedback phase, Round: 3
Sat Dec 08 04:21:02 IST 2012	Number of consecutive no movements for player 337 is 1
Sat Dec 08 04:21:02 IST 2012	Number of consecutive no movements for player 210 is 1
Sat Dec 08 04:21:07 IST 2012	A Phase Ended: Feedback Phase
Sat Dec 08 04:21:07 IST 2012	Protocol: A New Phase Began: Communication Phase
Sat Dec 08 04:21:07 IST 2012	Protocol: Communication phase, Round: 4
Sat Dec 08 04:22:07 IST 2012	Received communication message 
Sat Dec 08 04:22:07 IST 2012	From player: 337
Sat Dec 08 04:22:07 IST 2012	To player: 210
Sat Dec 08 04:22:07 IST 2012	Message type: basicproposal
Sat Dec 08 04:22:07 IST 2012	Chips to send by proposer: { chips  'grey78':2 }
Sat Dec 08 04:22:07 IST 2012	Chips to send by responder: { chips  'CTGreen':1 }
Sat Dec 08 04:22:19 IST 2012	Received communication message 
Sat Dec 08 04:22:19 IST 2012	From player: 210
Sat Dec 08 04:22:19 IST 2012	To player: 337
Sat Dec 08 04:22:19 IST 2012	Message type: basicproposaldiscussion
Sat Dec 08 04:22:19 IST 2012	Player 210 accepted offer
Sat Dec 08 04:22:19 IST 2012	Prop accepted, set counter offers count to: 0
Sat Dec 08 04:22:19 IST 2012	Prop accepted, get counter offers returned: 0
Sat Dec 08 04:22:19 IST 2012	A Phase Ended: Communication Phase
Sat Dec 08 04:22:19 IST 2012	Protocol: A New Phase Began: Exchange Phase
Sat Dec 08 04:22:19 IST 2012	Protocol: Exchange phase, Round: 4
Sat Dec 08 04:22:19 IST 2012	In begin exch.phase, get counter offers returned: 0
Sat Dec 08 04:22:48 IST 2012	A Phase Ended: Exchange Phase
Sat Dec 08 04:22:48 IST 2012	Proposer 337 sent: { chips  'CTRed':0 'CTPurple':0 'CTGreen':0 'grey78':0 }
Sat Dec 08 04:22:48 IST 2012	Responder 210 sent: { chips  }
Sat Dec 08 04:22:48 IST 2012	Protocol: A New Phase Began: Movement Phase
Sat Dec 08 04:22:48 IST 2012	Protocol: Movement phase, Round: 4
Sat Dec 08 04:23:08 IST 2012	A Phase Ended: Movement Phase
Sat Dec 08 04:23:08 IST 2012	Swaping roles:
Sat Dec 08 04:23:08 IST 2012	Proposer is: 210
Sat Dec 08 04:23:08 IST 2012	Responder is: 337
Sat Dec 08 04:23:08 IST 2012	Protocol: A New Phase Began: Feedback Phase
Sat Dec 08 04:23:08 IST 2012	Protocol: Feedback phase, Round: 4
Sat Dec 08 04:23:08 IST 2012	Number of consecutive no movements for player 337 is 2
Sat Dec 08 04:23:08 IST 2012	Number of consecutive no movements for player 210 is 2
Sat Dec 08 04:23:13 IST 2012	A Phase Ended: Feedback Phase
Sat Dec 08 04:23:13 IST 2012	Protocol: A New Phase Began: Communication Phase
Sat Dec 08 04:23:13 IST 2012	Protocol: Communication phase, Round: 5
Sat Dec 08 04:23:27 IST 2012	Received communication message 
Sat Dec 08 04:23:27 IST 2012	From player: 210
Sat Dec 08 04:23:27 IST 2012	To player: 337
Sat Dec 08 04:23:27 IST 2012	Message type: basicproposal
Sat Dec 08 04:23:27 IST 2012	Chips to send by proposer: { chips  'CTRed':0 'CTPurple':0 'CTGreen':1 'grey78':0 }
Sat Dec 08 04:23:27 IST 2012	Chips to send by responder: { chips  'CTRed':0 'CTPurple':0 'CTGreen':0 'grey78':1 }
Sat Dec 08 04:24:16 IST 2012	Received communication message 
Sat Dec 08 04:24:16 IST 2012	From player: 337
Sat Dec 08 04:24:16 IST 2012	To player: 210
Sat Dec 08 04:24:16 IST 2012	Message type: basicproposaldiscussion
Sat Dec 08 04:24:16 IST 2012	Player 337 accepted offer
Sat Dec 08 04:24:16 IST 2012	Prop accepted, set counter offers count to: 0
Sat Dec 08 04:24:16 IST 2012	Prop accepted, get counter offers returned: 0
Sat Dec 08 04:24:16 IST 2012	A Phase Ended: Communication Phase
Sat Dec 08 04:24:16 IST 2012	Protocol: A New Phase Began: Exchange Phase
Sat Dec 08 04:24:16 IST 2012	Protocol: Exchange phase, Round: 5
Sat Dec 08 04:24:16 IST 2012	In begin exch.phase, get counter offers returned: 0
Sat Dec 08 04:24:45 IST 2012	A Phase Ended: Exchange Phase
Sat Dec 08 04:24:45 IST 2012	Proposer 210 sent: { chips  'CTRed':0 'CTPurple':0 'CTGreen':1 'grey78':0 }
Sat Dec 08 04:24:45 IST 2012	Responder 337 sent: { chips  'CTRed':0 'CTPurple':0 'CTGreen':0 'grey78':1 }
Sat Dec 08 04:24:45 IST 2012	Protocol: A New Phase Began: Movement Phase
Sat Dec 08 04:24:45 IST 2012	Protocol: Movement phase, Round: 5
Sat Dec 08 04:24:45 IST 2012	Player 210 moved to (R:5,C:1)
Sat Dec 08 04:24:45 IST 2012	Player 337 moved to (R:5,C:3)
Sat Dec 08 04:25:04 IST 2012	A Phase Ended: Movement Phase
Sat Dec 08 04:25:04 IST 2012	Swaping roles:
Sat Dec 08 04:25:04 IST 2012	Proposer is: 337
Sat Dec 08 04:25:04 IST 2012	Responder is: 210
Sat Dec 08 04:25:04 IST 2012	Protocol: A New Phase Began: Feedback Phase
Sat Dec 08 04:25:04 IST 2012	Protocol: Feedback phase, Round: 5
Sat Dec 08 04:25:04 IST 2012	Number of consecutive no movements for player 337 is 0
Sat Dec 08 04:25:04 IST 2012	Number of consecutive no movements for player 210 is 0
Sat Dec 08 04:25:10 IST 2012	A Phase Ended: Feedback Phase
Sat Dec 08 04:25:10 IST 2012	Protocol: A New Phase Began: Communication Phase
Sat Dec 08 04:25:10 IST 2012	Protocol: Communication phase, Round: 6
Sat Dec 08 04:25:40 IST 2012	Received communication message 
Sat Dec 08 04:25:40 IST 2012	From player: 337
Sat Dec 08 04:25:40 IST 2012	To player: 210
Sat Dec 08 04:25:40 IST 2012	Message type: basicproposal
Sat Dec 08 04:25:40 IST 2012	Chips to send by proposer: { chips  'grey78':1 }
Sat Dec 08 04:25:40 IST 2012	Chips to send by responder: { chips  'CTGreen':3 }
Sat Dec 08 04:25:52 IST 2012	Received communication message 
Sat Dec 08 04:25:52 IST 2012	From player: 210
Sat Dec 08 04:25:52 IST 2012	To player: 337
Sat Dec 08 04:25:52 IST 2012	Message type: basicproposaldiscussion
Sat Dec 08 04:25:52 IST 2012	Player 210 rejected offer
Sat Dec 08 04:25:52 IST 2012	Swaping roles:
Sat Dec 08 04:25:52 IST 2012	Proposer is: 210
Sat Dec 08 04:25:52 IST 2012	Responder is: 337
Sat Dec 08 04:25:52 IST 2012	Prop rejected, set counter offers count to: 1
Sat Dec 08 04:25:52 IST 2012	Prop rejected, get counter offers returned: 1
Sat Dec 08 04:25:56 IST 2012	Slept 4 seconds
Sat Dec 08 04:25:56 IST 2012	Sent role changed msgs
Sat Dec 08 04:26:10 IST 2012	Received communication message 
Sat Dec 08 04:26:10 IST 2012	From player: 210
Sat Dec 08 04:26:10 IST 2012	To player: 337
Sat Dec 08 04:26:10 IST 2012	Message type: basicproposal
Sat Dec 08 04:26:10 IST 2012	Chips to send by proposer: { chips  'CTRed':0 'CTPurple':0 'CTGreen':1 'grey78':0 }
Sat Dec 08 04:26:10 IST 2012	Chips to send by responder: { chips  'CTRed':0 'CTPurple':0 'CTGreen':0 'grey78':1 }
Sat Dec 08 04:26:19 IST 2012	Received communication message 
Sat Dec 08 04:26:19 IST 2012	From player: 337
Sat Dec 08 04:26:19 IST 2012	To player: 210
Sat Dec 08 04:26:19 IST 2012	Message type: basicproposaldiscussion
Sat Dec 08 04:26:19 IST 2012	Player 337 accepted offer
Sat Dec 08 04:26:19 IST 2012	Prop accepted, set counter offers count to: 0
Sat Dec 08 04:26:19 IST 2012	Prop accepted, get counter offers returned: 0
Sat Dec 08 04:26:19 IST 2012	A Phase Ended: Communication Phase
Sat Dec 08 04:26:19 IST 2012	Protocol: A New Phase Began: Exchange Phase
Sat Dec 08 04:26:19 IST 2012	Protocol: Exchange phase, Round: 6
Sat Dec 08 04:26:19 IST 2012	In begin exch.phase, get counter offers returned: 0
Sat Dec 08 04:26:48 IST 2012	A Phase Ended: Exchange Phase
Sat Dec 08 04:26:48 IST 2012	Proposer 210 sent: { chips  }
Sat Dec 08 04:26:48 IST 2012	Responder 337 sent: { chips  'CTRed':0 'CTPurple':0 'CTGreen':0 'grey78':0 }
Sat Dec 08 04:26:48 IST 2012	Protocol: A New Phase Began: Movement Phase
Sat Dec 08 04:26:48 IST 2012	Protocol: Movement phase, Round: 6
Sat Dec 08 04:27:08 IST 2012	A Phase Ended: Movement Phase
Sat Dec 08 04:27:08 IST 2012	Protocol: A New Phase Began: Feedback Phase
Sat Dec 08 04:27:08 IST 2012	Protocol: Feedback phase, Round: 6
Sat Dec 08 04:27:08 IST 2012	Number of consecutive no movements for player 337 is 1
Sat Dec 08 04:27:08 IST 2012	Number of consecutive no movements for player 210 is 1
Sat Dec 08 04:27:13 IST 2012	A Phase Ended: Feedback Phase
Sat Dec 08 04:27:13 IST 2012	Protocol: A New Phase Began: Communication Phase
Sat Dec 08 04:27:13 IST 2012	Protocol: Communication phase, Round: 7
Sat Dec 08 04:27:30 IST 2012	Received communication message 
Sat Dec 08 04:27:30 IST 2012	From player: 210
Sat Dec 08 04:27:30 IST 2012	To player: 337
Sat Dec 08 04:27:30 IST 2012	Message type: basicproposal
Sat Dec 08 04:27:30 IST 2012	Chips to send by proposer: { chips  'CTRed':0 'CTPurple':0 'CTGreen':2 'grey78':0 }
Sat Dec 08 04:27:30 IST 2012	Chips to send by responder: { chips  'CTRed':0 'CTPurple':0 'CTGreen':0 'grey78':1 }
Sat Dec 08 04:28:30 IST 2012	Received communication message 
Sat Dec 08 04:28:30 IST 2012	From player: 337
Sat Dec 08 04:28:30 IST 2012	To player: 210
Sat Dec 08 04:28:30 IST 2012	Message type: basicproposaldiscussion
Sat Dec 08 04:28:30 IST 2012	Player 337 rejected offer
Sat Dec 08 04:28:30 IST 2012	Swaping roles:
Sat Dec 08 04:28:30 IST 2012	Proposer is: 337
Sat Dec 08 04:28:30 IST 2012	Responder is: 210
Sat Dec 08 04:28:30 IST 2012	Prop rejected, set counter offers count to: 1
Sat Dec 08 04:28:30 IST 2012	Prop rejected, get counter offers returned: 1
Sat Dec 08 04:28:34 IST 2012	Slept 4 seconds
Sat Dec 08 04:28:34 IST 2012	Sent role changed msgs
Sat Dec 08 04:29:34 IST 2012	Received communication message 
Sat Dec 08 04:29:34 IST 2012	From player: 337
Sat Dec 08 04:29:34 IST 2012	To player: 210
Sat Dec 08 04:29:34 IST 2012	Message type: basicproposal
Sat Dec 08 04:29:34 IST 2012	Chips to send by proposer: { chips  'CTRed':0 'CTPurple':0 'CTGreen':0 'grey78':1 }
Sat Dec 08 04:29:34 IST 2012	Chips to send by responder: { chips  'CTRed':0 'CTPurple':0 'CTGreen':2 'grey78':0 }
Sat Dec 08 04:29:45 IST 2012	Received communication message 
Sat Dec 08 04:29:45 IST 2012	From player: 210
Sat Dec 08 04:29:45 IST 2012	To player: 337
Sat Dec 08 04:29:45 IST 2012	Message type: basicproposaldiscussion
Sat Dec 08 04:29:45 IST 2012	Player 210 accepted offer
Sat Dec 08 04:29:45 IST 2012	Prop accepted, set counter offers count to: 0
Sat Dec 08 04:29:45 IST 2012	Prop accepted, get counter offers returned: 0
Sat Dec 08 04:29:45 IST 2012	A Phase Ended: Communication Phase
Sat Dec 08 04:29:45 IST 2012	Protocol: A New Phase Began: Exchange Phase
Sat Dec 08 04:29:45 IST 2012	Protocol: Exchange phase, Round: 7
Sat Dec 08 04:29:45 IST 2012	In begin exch.phase, get counter offers returned: 0
Sat Dec 08 04:30:14 IST 2012	A Phase Ended: Exchange Phase
Sat Dec 08 04:30:14 IST 2012	Proposer 337 sent: { chips  'CTRed':0 'CTPurple':0 'CTGreen':0 'grey78':0 }
Sat Dec 08 04:30:14 IST 2012	Responder 210 sent: { chips  'CTRed':0 'CTPurple':0 'CTGreen':2 'grey78':0 }
Sat Dec 08 04:30:14 IST 2012	Protocol: A New Phase Began: Movement Phase
Sat Dec 08 04:30:14 IST 2012	Protocol: Movement phase, Round: 7
Sat Dec 08 04:30:34 IST 2012	A Phase Ended: Movement Phase
Sat Dec 08 04:30:34 IST 2012	Protocol: A New Phase Began: Feedback Phase
Sat Dec 08 04:30:34 IST 2012	Protocol: Feedback phase, Round: 7
Sat Dec 08 04:30:34 IST 2012	Number of consecutive no movements for player 337 is 2
Sat Dec 08 04:30:34 IST 2012	Number of consecutive no movements for player 210 is 2
Sat Dec 08 04:30:39 IST 2012	A Phase Ended: Feedback Phase
Sat Dec 08 04:30:39 IST 2012	Protocol: A New Phase Began: Communication Phase
Sat Dec 08 04:30:39 IST 2012	Protocol: Communication phase, Round: 8
Sat Dec 08 04:31:39 IST 2012	Received communication message 
Sat Dec 08 04:31:39 IST 2012	From player: 337
Sat Dec 08 04:31:39 IST 2012	To player: 210
Sat Dec 08 04:31:39 IST 2012	Message type: basicproposal
Sat Dec 08 04:31:39 IST 2012	Chips to send by proposer: { chips  'grey78':1 }
Sat Dec 08 04:31:39 IST 2012	Chips to send by responder: { chips  'CTGreen':1 }
Sat Dec 08 04:31:48 IST 2012	Received communication message 
Sat Dec 08 04:31:48 IST 2012	From player: 210
Sat Dec 08 04:31:48 IST 2012	To player: 337
Sat Dec 08 04:31:48 IST 2012	Message type: basicproposaldiscussion
Sat Dec 08 04:31:48 IST 2012	Player 210 accepted offer
Sat Dec 08 04:31:48 IST 2012	Prop accepted, set counter offers count to: 0
Sat Dec 08 04:31:48 IST 2012	Prop accepted, get counter offers returned: 0
Sat Dec 08 04:31:48 IST 2012	A Phase Ended: Communication Phase
Sat Dec 08 04:31:48 IST 2012	Protocol: A New Phase Began: Exchange Phase
Sat Dec 08 04:31:48 IST 2012	Protocol: Exchange phase, Round: 8
Sat Dec 08 04:31:48 IST 2012	In begin exch.phase, get counter offers returned: 0
Sat Dec 08 04:32:17 IST 2012	A Phase Ended: Exchange Phase
Sat Dec 08 04:32:17 IST 2012	Proposer 337 sent: { chips  'CTRed':0 'CTPurple':0 'CTGreen':0 'grey78':0 }
Sat Dec 08 04:32:17 IST 2012	Responder 210 sent: { chips  'CTRed':0 'CTPurple':0 'CTGreen':1 'grey78':0 }
Sat Dec 08 04:32:17 IST 2012	Protocol: A New Phase Began: Movement Phase
Sat Dec 08 04:32:17 IST 2012	Protocol: Movement phase, Round: 8
Sat Dec 08 04:32:17 IST 2012	Player 337 moved to (R:4,C:3)
Sat Dec 08 04:32:17 IST 2012	Player 210 moved to (R:4,C:1)
Sat Dec 08 04:32:37 IST 2012	A Phase Ended: Movement Phase
Sat Dec 08 04:32:37 IST 2012	Swaping roles:
Sat Dec 08 04:32:37 IST 2012	Proposer is: 210
Sat Dec 08 04:32:37 IST 2012	Responder is: 337
Sat Dec 08 04:32:37 IST 2012	Protocol: A New Phase Began: Feedback Phase
Sat Dec 08 04:32:37 IST 2012	Protocol: Feedback phase, Round: 8
Sat Dec 08 04:32:37 IST 2012	Number of consecutive no movements for player 337 is 0
Sat Dec 08 04:32:37 IST 2012	Number of consecutive no movements for player 210 is 0
Sat Dec 08 04:32:42 IST 2012	A Phase Ended: Feedback Phase
Sat Dec 08 04:32:42 IST 2012	Protocol: A New Phase Began: Communication Phase
Sat Dec 08 04:32:42 IST 2012	Protocol: Communication phase, Round: 9
Sat Dec 08 04:32:55 IST 2012	Received communication message 
Sat Dec 08 04:32:55 IST 2012	From player: 210
Sat Dec 08 04:32:55 IST 2012	To player: 337
Sat Dec 08 04:32:55 IST 2012	Message type: basicproposal
Sat Dec 08 04:32:55 IST 2012	Chips to send by proposer: { chips  'CTRed':0 'CTPurple':0 'CTGreen':1 'grey78':0 }
Sat Dec 08 04:32:55 IST 2012	Chips to send by responder: { chips  'CTRed':0 'CTPurple':0 'CTGreen':0 'grey78':1 }
Sat Dec 08 04:33:55 IST 2012	Received communication message 
Sat Dec 08 04:33:55 IST 2012	From player: 337
Sat Dec 08 04:33:55 IST 2012	To player: 210
Sat Dec 08 04:33:55 IST 2012	Message type: basicproposaldiscussion
Sat Dec 08 04:33:55 IST 2012	Player 337 accepted offer
Sat Dec 08 04:33:55 IST 2012	Prop accepted, set counter offers count to: 0
Sat Dec 08 04:33:55 IST 2012	Prop accepted, get counter offers returned: 0
Sat Dec 08 04:33:55 IST 2012	A Phase Ended: Communication Phase
Sat Dec 08 04:33:55 IST 2012	Protocol: A New Phase Began: Exchange Phase
Sat Dec 08 04:33:55 IST 2012	Protocol: Exchange phase, Round: 9
Sat Dec 08 04:33:55 IST 2012	In begin exch.phase, get counter offers returned: 0
Sat Dec 08 04:34:24 IST 2012	A Phase Ended: Exchange Phase
Sat Dec 08 04:34:24 IST 2012	Proposer 210 sent: { chips  }
Sat Dec 08 04:34:24 IST 2012	Responder 337 sent: { chips  'CTRed':0 'CTPurple':0 'CTGreen':0 'grey78':0 }
Sat Dec 08 04:34:24 IST 2012	Protocol: A New Phase Began: Movement Phase
Sat Dec 08 04:34:24 IST 2012	Protocol: Movement phase, Round: 9
Sat Dec 08 04:34:43 IST 2012	A Phase Ended: Movement Phase
Sat Dec 08 04:34:43 IST 2012	Swaping roles:
Sat Dec 08 04:34:43 IST 2012	Proposer is: 337
Sat Dec 08 04:34:43 IST 2012	Responder is: 210
Sat Dec 08 04:34:43 IST 2012	Protocol: A New Phase Began: Feedback Phase
Sat Dec 08 04:34:43 IST 2012	Protocol: Feedback phase, Round: 9
Sat Dec 08 04:34:43 IST 2012	Number of consecutive no movements for player 337 is 1
Sat Dec 08 04:34:43 IST 2012	Number of consecutive no movements for player 210 is 1
Sat Dec 08 04:34:49 IST 2012	A Phase Ended: Feedback Phase
Sat Dec 08 04:34:49 IST 2012	Protocol: A New Phase Began: Communication Phase
Sat Dec 08 04:34:49 IST 2012	Protocol: Communication phase, Round: 10
Sat Dec 08 04:35:49 IST 2012	Received communication message 
Sat Dec 08 04:35:49 IST 2012	From player: 337
Sat Dec 08 04:35:49 IST 2012	To player: 210
Sat Dec 08 04:35:49 IST 2012	Message type: basicproposal
Sat Dec 08 04:35:49 IST 2012	Chips to send by proposer: { chips  'grey78':1 }
Sat Dec 08 04:35:49 IST 2012	Chips to send by responder: { chips  'CTGreen':1 }
Sat Dec 08 04:35:55 IST 2012	Received communication message 
Sat Dec 08 04:35:55 IST 2012	From player: 210
Sat Dec 08 04:35:55 IST 2012	To player: 337
Sat Dec 08 04:35:55 IST 2012	Message type: basicproposaldiscussion
Sat Dec 08 04:35:55 IST 2012	Player 210 accepted offer
Sat Dec 08 04:35:55 IST 2012	Prop accepted, set counter offers count to: 0
Sat Dec 08 04:35:55 IST 2012	Prop accepted, get counter offers returned: 0
Sat Dec 08 04:35:55 IST 2012	A Phase Ended: Communication Phase
Sat Dec 08 04:35:55 IST 2012	Protocol: A New Phase Began: Exchange Phase
Sat Dec 08 04:35:55 IST 2012	Protocol: Exchange phase, Round: 10
Sat Dec 08 04:35:55 IST 2012	In begin exch.phase, get counter offers returned: 0
Sat Dec 08 04:36:24 IST 2012	A Phase Ended: Exchange Phase
Sat Dec 08 04:36:24 IST 2012	Proposer 337 sent: { chips  'CTRed':0 'CTPurple':0 'CTGreen':0 'grey78':0 }
Sat Dec 08 04:36:24 IST 2012	Responder 210 sent: { chips  'CTRed':0 'CTPurple':0 'CTGreen':1 'grey78':0 }
Sat Dec 08 04:36:24 IST 2012	Protocol: A New Phase Began: Movement Phase
Sat Dec 08 04:36:24 IST 2012	Protocol: Movement phase, Round: 10
Sat Dec 08 04:36:43 IST 2012	A Phase Ended: Movement Phase
Sat Dec 08 04:36:43 IST 2012	Swaping roles:
Sat Dec 08 04:36:43 IST 2012	Proposer is: 210
Sat Dec 08 04:36:43 IST 2012	Responder is: 337
Sat Dec 08 04:36:43 IST 2012	Protocol: A New Phase Began: Feedback Phase
Sat Dec 08 04:36:43 IST 2012	Protocol: Feedback phase, Round: 10
Sat Dec 08 04:36:43 IST 2012	Number of consecutive no movements for player 337 is 2
Sat Dec 08 04:36:43 IST 2012	Number of consecutive no movements for player 210 is 2
Sat Dec 08 04:36:48 IST 2012	A Phase Ended: Feedback Phase
Sat Dec 08 04:36:48 IST 2012	Protocol: A New Phase Began: Communication Phase
Sat Dec 08 04:36:48 IST 2012	Protocol: Communication phase, Round: 11
Sat Dec 08 04:37:07 IST 2012	Received communication message 
Sat Dec 08 04:37:07 IST 2012	From player: 210
Sat Dec 08 04:37:07 IST 2012	To player: 337
Sat Dec 08 04:37:07 IST 2012	Message type: basicproposal
Sat Dec 08 04:37:07 IST 2012	Chips to send by proposer: { chips  'CTRed':0 'CTPurple':0 'CTGreen':1 'grey78':0 }
Sat Dec 08 04:37:07 IST 2012	Chips to send by responder: { chips  'CTRed':0 'CTPurple':0 'CTGreen':0 'grey78':1 }
Sat Dec 08 04:38:00 IST 2012	Received communication message 
Sat Dec 08 04:38:00 IST 2012	From player: 337
Sat Dec 08 04:38:00 IST 2012	To player: 210
Sat Dec 08 04:38:00 IST 2012	Message type: basicproposaldiscussion
Sat Dec 08 04:38:00 IST 2012	Player 337 rejected offer
Sat Dec 08 04:38:00 IST 2012	Swaping roles:
Sat Dec 08 04:38:00 IST 2012	Proposer is: 337
Sat Dec 08 04:38:00 IST 2012	Responder is: 210
Sat Dec 08 04:38:00 IST 2012	Prop rejected, set counter offers count to: 1
Sat Dec 08 04:38:00 IST 2012	Prop rejected, get counter offers returned: 1
Sat Dec 08 04:38:04 IST 2012	Slept 4 seconds
Sat Dec 08 04:38:04 IST 2012	Sent role changed msgs
Sat Dec 08 04:39:04 IST 2012	Received communication message 
Sat Dec 08 04:39:04 IST 2012	From player: 337
Sat Dec 08 04:39:04 IST 2012	To player: 210
Sat Dec 08 04:39:04 IST 2012	Message type: basicproposal
Sat Dec 08 04:39:04 IST 2012	Chips to send by proposer: { chips  'CTRed':0 'CTPurple':0 'CTGreen':0 'grey78':1 }
Sat Dec 08 04:39:04 IST 2012	Chips to send by responder: { chips  'CTRed':0 'CTPurple':0 'CTGreen':1 'grey78':0 }
Sat Dec 08 04:39:10 IST 2012	Received communication message 
Sat Dec 08 04:39:10 IST 2012	From player: 210
Sat Dec 08 04:39:10 IST 2012	To player: 337
Sat Dec 08 04:39:10 IST 2012	Message type: basicproposaldiscussion
Sat Dec 08 04:39:10 IST 2012	Player 210 accepted offer
Sat Dec 08 04:39:10 IST 2012	Prop accepted, set counter offers count to: 0
Sat Dec 08 04:39:10 IST 2012	Prop accepted, get counter offers returned: 0
Sat Dec 08 04:39:10 IST 2012	A Phase Ended: Communication Phase
Sat Dec 08 04:39:10 IST 2012	Protocol: A New Phase Began: Exchange Phase
Sat Dec 08 04:39:10 IST 2012	Protocol: Exchange phase, Round: 11
Sat Dec 08 04:39:10 IST 2012	In begin exch.phase, get counter offers returned: 0
Sat Dec 08 04:39:39 IST 2012	A Phase Ended: Exchange Phase
Sat Dec 08 04:39:39 IST 2012	Proposer 337 sent: { chips  'CTRed':0 'CTPurple':0 'CTGreen':0 'grey78':0 }
Sat Dec 08 04:39:39 IST 2012	Responder 210 sent: { chips  'CTRed':0 'CTPurple':0 'CTGreen':1 'grey78':0 }
Sat Dec 08 04:39:39 IST 2012	Protocol: A New Phase Began: Movement Phase
Sat Dec 08 04:39:39 IST 2012	Protocol: Movement phase, Round: 11
Sat Dec 08 04:39:39 IST 2012	Player 210 moved to (R:3,C:1)
Sat Dec 08 04:39:39 IST 2012	Player 337 moved to (R:3,C:3)
Sat Dec 08 04:39:59 IST 2012	A Phase Ended: Movement Phase
Sat Dec 08 04:39:59 IST 2012	Protocol: A New Phase Began: Feedback Phase
Sat Dec 08 04:39:59 IST 2012	Protocol: Feedback phase, Round: 11
Sat Dec 08 04:39:59 IST 2012	Number of consecutive no movements for player 337 is 0
Sat Dec 08 04:39:59 IST 2012	Number of consecutive no movements for player 210 is 0
Sat Dec 08 04:40:04 IST 2012	A Phase Ended: Feedback Phase
Sat Dec 08 04:40:04 IST 2012	Protocol: A New Phase Began: Communication Phase
Sat Dec 08 04:40:04 IST 2012	Protocol: Communication phase, Round: 12
Sat Dec 08 04:41:04 IST 2012	Received communication message 
Sat Dec 08 04:41:04 IST 2012	From player: 337
Sat Dec 08 04:41:04 IST 2012	To player: 210
Sat Dec 08 04:41:04 IST 2012	Message type: basicproposal
Sat Dec 08 04:41:04 IST 2012	Chips to send by proposer: { chips  'grey78':1 }
Sat Dec 08 04:41:04 IST 2012	Chips to send by responder: { chips  'CTGreen':1 }
Sat Dec 08 04:41:11 IST 2012	Received communication message 
Sat Dec 08 04:41:11 IST 2012	From player: 210
Sat Dec 08 04:41:11 IST 2012	To player: 337
Sat Dec 08 04:41:11 IST 2012	Message type: basicproposaldiscussion
Sat Dec 08 04:41:11 IST 2012	Player 210 rejected offer
Sat Dec 08 04:41:11 IST 2012	Swaping roles:
Sat Dec 08 04:41:11 IST 2012	Proposer is: 210
Sat Dec 08 04:41:11 IST 2012	Responder is: 337
Sat Dec 08 04:41:11 IST 2012	Prop rejected, set counter offers count to: 1
Sat Dec 08 04:41:11 IST 2012	Prop rejected, get counter offers returned: 1
Sat Dec 08 04:41:15 IST 2012	Slept 4 seconds
Sat Dec 08 04:41:15 IST 2012	Sent role changed msgs
Sat Dec 08 04:41:33 IST 2012	Received communication message 
Sat Dec 08 04:41:33 IST 2012	From player: 210
Sat Dec 08 04:41:33 IST 2012	To player: 337
Sat Dec 08 04:41:33 IST 2012	Message type: basicproposal
Sat Dec 08 04:41:33 IST 2012	Chips to send by proposer: { chips  'CTRed':0 'CTPurple':0 'CTGreen':1 'grey78':0 }
Sat Dec 08 04:41:33 IST 2012	Chips to send by responder: { chips  'CTRed':0 'CTPurple':0 'CTGreen':0 'grey78':1 }
Sat Dec 08 04:42:15 IST 2012	Received communication message 
Sat Dec 08 04:42:15 IST 2012	From player: 337
Sat Dec 08 04:42:15 IST 2012	To player: 210
Sat Dec 08 04:42:15 IST 2012	Message type: basicproposaldiscussion
Sat Dec 08 04:42:15 IST 2012	Player 337 accepted offer
Sat Dec 08 04:42:15 IST 2012	Prop accepted, set counter offers count to: 0
Sat Dec 08 04:42:15 IST 2012	Prop accepted, get counter offers returned: 0
Sat Dec 08 04:42:15 IST 2012	A Phase Ended: Communication Phase
Sat Dec 08 04:42:15 IST 2012	Protocol: A New Phase Began: Exchange Phase
Sat Dec 08 04:42:15 IST 2012	Protocol: Exchange phase, Round: 12
Sat Dec 08 04:42:15 IST 2012	In begin exch.phase, get counter offers returned: 0
Sat Dec 08 04:42:44 IST 2012	A Phase Ended: Exchange Phase
Sat Dec 08 04:42:44 IST 2012	Proposer 210 sent: { chips  }
Sat Dec 08 04:42:44 IST 2012	Responder 337 sent: { chips  'CTRed':0 'CTPurple':0 'CTGreen':0 'grey78':0 }
Sat Dec 08 04:42:44 IST 2012	Protocol: A New Phase Began: Movement Phase
Sat Dec 08 04:42:44 IST 2012	Protocol: Movement phase, Round: 12
Sat Dec 08 04:43:03 IST 2012	A Phase Ended: Movement Phase
Sat Dec 08 04:43:03 IST 2012	Protocol: A New Phase Began: Feedback Phase
Sat Dec 08 04:43:03 IST 2012	Protocol: Feedback phase, Round: 12
Sat Dec 08 04:43:03 IST 2012	Number of consecutive no movements for player 337 is 1
Sat Dec 08 04:43:03 IST 2012	Number of consecutive no movements for player 210 is 1
Sat Dec 08 04:43:08 IST 2012	A Phase Ended: Feedback Phase
Sat Dec 08 04:43:08 IST 2012	Protocol: A New Phase Began: Communication Phase
Sat Dec 08 04:43:08 IST 2012	Protocol: Communication phase, Round: 13
Sat Dec 08 04:43:25 IST 2012	Received communication message 
Sat Dec 08 04:43:25 IST 2012	From player: 210
Sat Dec 08 04:43:25 IST 2012	To player: 337
Sat Dec 08 04:43:25 IST 2012	Message type: basicproposal
Sat Dec 08 04:43:25 IST 2012	Chips to send by proposer: { chips  'CTRed':0 'CTPurple':0 'CTGreen':4 'grey78':0 }
Sat Dec 08 04:43:25 IST 2012	Chips to send by responder: { chips  'CTRed':0 'CTPurple':0 'CTGreen':0 'grey78':1 }
Sat Dec 08 04:44:01 IST 2012	Received communication message 
Sat Dec 08 04:44:01 IST 2012	From player: 337
Sat Dec 08 04:44:01 IST 2012	To player: 210
Sat Dec 08 04:44:01 IST 2012	Message type: basicproposaldiscussion
Sat Dec 08 04:44:01 IST 2012	Player 337 rejected offer
Sat Dec 08 04:44:01 IST 2012	Swaping roles:
Sat Dec 08 04:44:01 IST 2012	Proposer is: 337
Sat Dec 08 04:44:01 IST 2012	Responder is: 210
Sat Dec 08 04:44:01 IST 2012	Prop rejected, set counter offers count to: 1
Sat Dec 08 04:44:01 IST 2012	Prop rejected, get counter offers returned: 1
Sat Dec 08 04:44:05 IST 2012	Slept 4 seconds
Sat Dec 08 04:44:05 IST 2012	Sent role changed msgs
Sat Dec 08 04:45:05 IST 2012	Received communication message 
Sat Dec 08 04:45:05 IST 2012	From player: 337
Sat Dec 08 04:45:05 IST 2012	To player: 210
Sat Dec 08 04:45:05 IST 2012	Message type: basicproposal
Sat Dec 08 04:45:05 IST 2012	Chips to send by proposer: { chips  'CTRed':0 'CTPurple':0 'CTGreen':0 'grey78':1 }
Sat Dec 08 04:45:05 IST 2012	Chips to send by responder: { chips  'CTRed':0 'CTPurple':0 'CTGreen':1 'grey78':0 }
Sat Dec 08 04:45:15 IST 2012	Received communication message 
Sat Dec 08 04:45:15 IST 2012	From player: 210
Sat Dec 08 04:45:15 IST 2012	To player: 337
Sat Dec 08 04:45:15 IST 2012	Message type: basicproposaldiscussion
Sat Dec 08 04:45:15 IST 2012	Player 210 accepted offer
Sat Dec 08 04:45:15 IST 2012	Prop accepted, set counter offers count to: 0
Sat Dec 08 04:45:15 IST 2012	Prop accepted, get counter offers returned: 0
Sat Dec 08 04:45:15 IST 2012	A Phase Ended: Communication Phase
Sat Dec 08 04:45:15 IST 2012	Protocol: A New Phase Began: Exchange Phase
Sat Dec 08 04:45:15 IST 2012	Protocol: Exchange phase, Round: 13
Sat Dec 08 04:45:15 IST 2012	In begin exch.phase, get counter offers returned: 0
Sat Dec 08 04:45:39 IST 2012	A Phase Ended: Exchange Phase
Sat Dec 08 04:45:39 IST 2012	Proposer 337 sent: { chips  'CTRed':0 'CTPurple':0 'CTGreen':0 'grey78':0 }
Sat Dec 08 04:45:39 IST 2012	Responder 210 sent: { chips  'CTRed':0 'CTPurple':0 'CTGreen':1 'grey78':0 }
Sat Dec 08 04:45:39 IST 2012	Protocol: A New Phase Began: Movement Phase
Sat Dec 08 04:45:39 IST 2012	Protocol: Movement phase, Round: 13
Sat Dec 08 04:45:59 IST 2012	A Phase Ended: Movement Phase
Sat Dec 08 04:45:59 IST 2012	Protocol: A New Phase Began: Feedback Phase
Sat Dec 08 04:45:59 IST 2012	Protocol: Feedback phase, Round: 13
Sat Dec 08 04:45:59 IST 2012	Number of consecutive no movements for player 337 is 2
Sat Dec 08 04:45:59 IST 2012	Number of consecutive no movements for player 210 is 2
Sat Dec 08 04:46:04 IST 2012	A Phase Ended: Feedback Phase
Sat Dec 08 04:46:04 IST 2012	Protocol: A New Phase Began: Communication Phase
Sat Dec 08 04:46:04 IST 2012	Protocol: Communication phase, Round: 14
Sat Dec 08 04:47:04 IST 2012	Received communication message 
Sat Dec 08 04:47:04 IST 2012	From player: 337
Sat Dec 08 04:47:04 IST 2012	To player: 210
Sat Dec 08 04:47:04 IST 2012	Message type: basicproposal
Sat Dec 08 04:47:04 IST 2012	Chips to send by proposer: { chips  'grey78':1 }
Sat Dec 08 04:47:04 IST 2012	Chips to send by responder: { chips  'CTGreen':1 }
Sat Dec 08 04:47:10 IST 2012	Received communication message 
Sat Dec 08 04:47:10 IST 2012	From player: 210
Sat Dec 08 04:47:10 IST 2012	To player: 337
Sat Dec 08 04:47:10 IST 2012	Message type: basicproposaldiscussion
Sat Dec 08 04:47:10 IST 2012	Player 210 accepted offer
Sat Dec 08 04:47:10 IST 2012	Prop accepted, set counter offers count to: 0
Sat Dec 08 04:47:10 IST 2012	Prop accepted, get counter offers returned: 0
Sat Dec 08 04:47:10 IST 2012	A Phase Ended: Communication Phase
Sat Dec 08 04:47:10 IST 2012	Protocol: A New Phase Began: Exchange Phase
Sat Dec 08 04:47:10 IST 2012	Protocol: Exchange phase, Round: 14
Sat Dec 08 04:47:10 IST 2012	In begin exch.phase, get counter offers returned: 0
Sat Dec 08 04:47:29 IST 2012	A Phase Ended: Exchange Phase
Sat Dec 08 04:47:29 IST 2012	Proposer 337 sent: { chips  'CTRed':0 'CTPurple':0 'CTGreen':0 'grey78':0 }
Sat Dec 08 04:47:29 IST 2012	Responder 210 sent: { chips  'CTRed':0 'CTPurple':0 'CTGreen':1 'grey78':0 }
Sat Dec 08 04:47:29 IST 2012	Protocol: A New Phase Began: Movement Phase
Sat Dec 08 04:47:29 IST 2012	Protocol: Movement phase, Round: 14
Sat Dec 08 04:47:29 IST 2012	Player 210 moved to (R:2,C:1)
Sat Dec 08 04:47:29 IST 2012	Player 337 moved to (R:2,C:3)
Sat Dec 08 04:47:48 IST 2012	A Phase Ended: Movement Phase
Sat Dec 08 04:47:48 IST 2012	Swaping roles:
Sat Dec 08 04:47:48 IST 2012	Proposer is: 210
Sat Dec 08 04:47:48 IST 2012	Responder is: 337
Sat Dec 08 04:47:48 IST 2012	Protocol: A New Phase Began: Feedback Phase
Sat Dec 08 04:47:48 IST 2012	Protocol: Feedback phase, Round: 14
Sat Dec 08 04:47:48 IST 2012	Number of consecutive no movements for player 337 is 0
Sat Dec 08 04:47:48 IST 2012	Number of consecutive no movements for player 210 is 0
Sat Dec 08 04:47:53 IST 2012	A Phase Ended: Feedback Phase
Sat Dec 08 04:47:53 IST 2012	Protocol: A New Phase Began: Communication Phase
Sat Dec 08 04:47:53 IST 2012	Protocol: Communication phase, Round: 15
Sat Dec 08 04:48:13 IST 2012	Received communication message 
Sat Dec 08 04:48:13 IST 2012	From player: 210
Sat Dec 08 04:48:13 IST 2012	To player: 337
Sat Dec 08 04:48:13 IST 2012	Message type: basicproposal
Sat Dec 08 04:48:13 IST 2012	Chips to send by proposer: { chips  'CTRed':0 'CTPurple':0 'CTGreen':2 'grey78':0 }
Sat Dec 08 04:48:13 IST 2012	Chips to send by responder: { chips  'CTRed':0 'CTPurple':0 'CTGreen':0 'grey78':1 }
Sat Dec 08 04:48:34 IST 2012	Received communication message 
Sat Dec 08 04:48:34 IST 2012	From player: 337
Sat Dec 08 04:48:34 IST 2012	To player: 210
Sat Dec 08 04:48:34 IST 2012	Message type: basicproposaldiscussion
Sat Dec 08 04:48:34 IST 2012	Player 337 rejected offer
Sat Dec 08 04:48:34 IST 2012	Swaping roles:
Sat Dec 08 04:48:34 IST 2012	Proposer is: 337
Sat Dec 08 04:48:34 IST 2012	Responder is: 210
Sat Dec 08 04:48:34 IST 2012	Prop rejected, set counter offers count to: 1
Sat Dec 08 04:48:34 IST 2012	Prop rejected, get counter offers returned: 1
Sat Dec 08 04:48:38 IST 2012	Slept 4 seconds
Sat Dec 08 04:48:38 IST 2012	Sent role changed msgs
Sat Dec 08 04:49:35 IST 2012	Received communication message 
Sat Dec 08 04:49:35 IST 2012	From player: 337
Sat Dec 08 04:49:35 IST 2012	To player: 210
Sat Dec 08 04:49:35 IST 2012	Message type: basicproposal
Sat Dec 08 04:49:35 IST 2012	Chips to send by proposer: { chips  'CTRed':0 'CTPurple':0 'CTGreen':0 'grey78':1 }
Sat Dec 08 04:49:35 IST 2012	Chips to send by responder: { chips  'CTRed':0 'CTPurple':0 'CTGreen':1 'grey78':0 }
Sat Dec 08 04:49:46 IST 2012	Received communication message 
Sat Dec 08 04:49:46 IST 2012	From player: 210
Sat Dec 08 04:49:46 IST 2012	To player: 337
Sat Dec 08 04:49:46 IST 2012	Message type: basicproposaldiscussion
Sat Dec 08 04:49:46 IST 2012	Player 210 accepted offer
Sat Dec 08 04:49:46 IST 2012	Prop accepted, set counter offers count to: 0
Sat Dec 08 04:49:46 IST 2012	Prop accepted, get counter offers returned: 0
Sat Dec 08 04:49:46 IST 2012	A Phase Ended: Communication Phase
Sat Dec 08 04:49:46 IST 2012	Protocol: A New Phase Began: Exchange Phase
Sat Dec 08 04:49:46 IST 2012	Protocol: Exchange phase, Round: 15
Sat Dec 08 04:49:46 IST 2012	In begin exch.phase, get counter offers returned: 0
Sat Dec 08 04:50:01 IST 2012	A Phase Ended: Exchange Phase
Sat Dec 08 04:50:01 IST 2012	Proposer 337 sent: { chips  'CTRed':0 'CTPurple':0 'CTGreen':0 'grey78':0 }
Sat Dec 08 04:50:01 IST 2012	Responder 210 sent: { chips  'CTRed':0 'CTPurple':0 'CTGreen':1 'grey78':0 }
Sat Dec 08 04:50:01 IST 2012	Protocol: A New Phase Began: Movement Phase
Sat Dec 08 04:50:01 IST 2012	Protocol: Movement phase, Round: 15
Sat Dec 08 04:50:21 IST 2012	A Phase Ended: Movement Phase
Sat Dec 08 04:50:21 IST 2012	Protocol: A New Phase Began: Feedback Phase
Sat Dec 08 04:50:21 IST 2012	Protocol: Feedback phase, Round: 15
Sat Dec 08 04:50:21 IST 2012	Number of consecutive no movements for player 337 is 1
Sat Dec 08 04:50:21 IST 2012	Number of consecutive no movements for player 210 is 1
Sat Dec 08 04:50:27 IST 2012	A Phase Ended: Feedback Phase
Sat Dec 08 04:50:27 IST 2012	Protocol: A New Phase Began: Communication Phase
Sat Dec 08 04:50:27 IST 2012	Protocol: Communication phase, Round: 16
Sat Dec 08 04:51:13 IST 2012	Received communication message 
Sat Dec 08 04:51:13 IST 2012	From player: 337
Sat Dec 08 04:51:13 IST 2012	To player: 210
Sat Dec 08 04:51:13 IST 2012	Message type: basicproposal
Sat Dec 08 04:51:13 IST 2012	Chips to send by proposer: { chips  'grey78':1 }
Sat Dec 08 04:51:13 IST 2012	Chips to send by responder: { chips  'CTGreen':1 }
Sat Dec 08 04:51:22 IST 2012	Received communication message 
Sat Dec 08 04:51:22 IST 2012	From player: 210
Sat Dec 08 04:51:22 IST 2012	To player: 337
Sat Dec 08 04:51:22 IST 2012	Message type: basicproposaldiscussion
Sat Dec 08 04:51:22 IST 2012	Player 210 accepted offer
Sat Dec 08 04:51:22 IST 2012	Prop accepted, set counter offers count to: 0
Sat Dec 08 04:51:22 IST 2012	Prop accepted, get counter offers returned: 0
Sat Dec 08 04:51:22 IST 2012	A Phase Ended: Communication Phase
Sat Dec 08 04:51:22 IST 2012	Protocol: A New Phase Began: Exchange Phase
Sat Dec 08 04:51:22 IST 2012	Protocol: Exchange phase, Round: 16
Sat Dec 08 04:51:22 IST 2012	In begin exch.phase, get counter offers returned: 0
Sat Dec 08 04:51:32 IST 2012	A Phase Ended: Exchange Phase
Sat Dec 08 04:51:32 IST 2012	Proposer 337 sent: { chips  'CTRed':0 'CTPurple':0 'CTGreen':0 'grey78':0 }
Sat Dec 08 04:51:32 IST 2012	Responder 210 sent: { chips  'CTRed':0 'CTPurple':0 'CTGreen':1 'grey78':0 }
Sat Dec 08 04:51:32 IST 2012	Protocol: A New Phase Began: Movement Phase
Sat Dec 08 04:51:32 IST 2012	Protocol: Movement phase, Round: 16
Sat Dec 08 04:51:52 IST 2012	A Phase Ended: Movement Phase
Sat Dec 08 04:51:52 IST 2012	Swaping roles:
Sat Dec 08 04:51:52 IST 2012	Proposer is: 210
Sat Dec 08 04:51:52 IST 2012	Responder is: 337
Sat Dec 08 04:51:52 IST 2012	Protocol: A New Phase Began: Feedback Phase
Sat Dec 08 04:51:52 IST 2012	Protocol: Feedback phase, Round: 16
Sat Dec 08 04:51:52 IST 2012	Number of consecutive no movements for player 337 is 2
Sat Dec 08 04:51:52 IST 2012	Number of consecutive no movements for player 210 is 2
Sat Dec 08 04:51:57 IST 2012	A Phase Ended: Feedback Phase
Sat Dec 08 04:51:57 IST 2012	Protocol: A New Phase Began: Communication Phase
Sat Dec 08 04:51:57 IST 2012	Protocol: Communication phase, Round: 17
Sat Dec 08 04:52:11 IST 2012	Received communication message 
Sat Dec 08 04:52:11 IST 2012	From player: 210
Sat Dec 08 04:52:11 IST 2012	To player: 337
Sat Dec 08 04:52:11 IST 2012	Message type: basicproposal
Sat Dec 08 04:52:11 IST 2012	Chips to send by proposer: { chips  'CTRed':0 'CTPurple':0 'CTGreen':2 'grey78':0 }
Sat Dec 08 04:52:11 IST 2012	Chips to send by responder: { chips  'CTRed':0 'CTPurple':0 'CTGreen':0 'grey78':1 }
Sat Dec 08 04:52:18 IST 2012	Received communication message 
Sat Dec 08 04:52:18 IST 2012	From player: 337
Sat Dec 08 04:52:18 IST 2012	To player: 210
Sat Dec 08 04:52:18 IST 2012	Message type: basicproposaldiscussion
Sat Dec 08 04:52:18 IST 2012	Player 337 accepted offer
Sat Dec 08 04:52:18 IST 2012	Prop accepted, set counter offers count to: 0
Sat Dec 08 04:52:18 IST 2012	Prop accepted, get counter offers returned: 0
Sat Dec 08 04:52:18 IST 2012	A Phase Ended: Communication Phase
Sat Dec 08 04:52:18 IST 2012	Protocol: A New Phase Began: Exchange Phase
Sat Dec 08 04:52:18 IST 2012	Protocol: Exchange phase, Round: 17
Sat Dec 08 04:52:18 IST 2012	In begin exch.phase, get counter offers returned: 0
Sat Dec 08 04:52:23 IST 2012	A Phase Ended: Exchange Phase
Sat Dec 08 04:52:23 IST 2012	Proposer 210 sent: { chips  'CTRed':0 'CTPurple':0 'CTGreen':1 'grey78':0 }
Sat Dec 08 04:52:23 IST 2012	Responder 337 sent: { chips  'CTRed':0 'CTPurple':0 'CTGreen':0 'grey78':0 }
Sat Dec 08 04:52:23 IST 2012	Protocol: A New Phase Began: Movement Phase
Sat Dec 08 04:52:23 IST 2012	Protocol: Movement phase, Round: 17
Sat Dec 08 04:52:23 IST 2012	Player 337 moved to (R:1,C:3)
Sat Dec 08 04:52:43 IST 2012	A Phase Ended: Movement Phase
Sat Dec 08 04:52:43 IST 2012	Swaping roles:
Sat Dec 08 04:52:43 IST 2012	Proposer is: 337
Sat Dec 08 04:52:43 IST 2012	Responder is: 210
Sat Dec 08 04:52:43 IST 2012	Protocol: A New Phase Began: Feedback Phase
Sat Dec 08 04:52:43 IST 2012	Protocol: Feedback phase, Round: 17
Sat Dec 08 04:52:43 IST 2012	Number of consecutive no movements for player 337 is 0
Sat Dec 08 04:52:43 IST 2012	Number of consecutive no movements for player 210 is 3
Sat Dec 08 04:52:43 IST 2012	Ending game, all players move as much as they can towards goal
Sat Dec 08 04:52:43 IST 2012	Player: 210 ,role: Responder score is: 5
Sat Dec 08 04:52:43 IST 2012	Player: 337 ,role: Proposer score is: 240
