Sat Dec 08 10:03:49 IST 2012	This is the CT debug logger; svn version 638; sep 27 09
Sat Dec 08 10:03:49 IST 2012	Sat Dec 08 10:03:49 IST 2012
Sat Dec 08 10:03:49 IST 2012	A new Alternative Offers game has began
Sat Dec 08 10:03:49 IST 2012	ID Number: 49455
Sat Dec 08 10:03:49 IST 2012	Creating board
Sat Dec 08 10:03:49 IST 2012	<colors>
Sat Dec 08 10:03:49 IST 2012	{ GamePalette  'CTRed':0 'CTPurple':1 'CTGreen':2 'grey78':3 }
Sat Dec 08 10:03:49 IST 2012	<rows>
Sat Dec 08 10:03:49 IST 2012	7
Sat Dec 08 10:03:49 IST 2012	<columns>
Sat Dec 08 10:03:49 IST 2012	5
Sat Dec 08 10:03:49 IST 2012	<squaresColors>
Sat Dec 08 10:03:49 IST 2012	CTPurple CTRed CTRed CTGreen CTPurple 
Sat Dec 08 10:03:49 IST 2012	CTPurple grey78 CTPurple grey78 CTPurple 
Sat Dec 08 10:03:49 IST 2012	CTPurple CTRed CTPurple CTGreen CTPurple 
Sat Dec 08 10:03:49 IST 2012	CTPurple grey78 CTPurple grey78 CTPurple 
Sat Dec 08 10:03:49 IST 2012	CTPurple CTRed CTPurple CTGreen CTPurple 
Sat Dec 08 10:03:49 IST 2012	CTPurple grey78 CTPurple grey78 CTPurple 
Sat Dec 08 10:03:49 IST 2012	CTPurple CTRed CTPurple CTGreen CTPurple 
Sat Dec 08 10:03:49 IST 2012	</squareColors>
Sat Dec 08 10:03:49 IST 2012	<goalPosition>
Sat Dec 08 10:03:49 IST 2012	Goal position: (R:0,C:2)
Sat Dec 08 10:03:49 IST 2012	<numberOfPlayers>
Sat Dec 08 10:03:49 IST 2012	2
Sat Dec 08 10:03:49 IST 2012	<firstPlayerChips>
Sat Dec 08 10:03:49 IST 2012	Setting chips for player: 337 id:0
Sat Dec 08 10:03:49 IST 2012	{ chips  'CTRed':1 'CTGreen':13 'CTPurple':0 'grey78':10 }
Sat Dec 08 10:03:49 IST 2012	Player position: (R:6,C:4)
Sat Dec 08 10:03:49 IST 2012	Setting chips for player: 210 id:1
Sat Dec 08 10:03:49 IST 2012	{ chips  'CTRed':5 'CTGreen':19 'CTPurple':0 'grey78':0 }
Sat Dec 08 10:03:49 IST 2012	Player position: (R:6,C:0)
Sat Dec 08 10:03:49 IST 2012	Protocol: A New Phase Began: Strategy Prep Phase
Sat Dec 08 10:03:49 IST 2012	Protocol: Strategy Preparation phase, Round: 0
Sat Dec 08 10:03:49 IST 2012	Maximum number of rounds with no consecutive movement is 3
Sat Dec 08 10:03:49 IST 2012	In begin comm. phase, set counter offers count to: 0
Sat Dec 08 10:03:49 IST 2012	In begin comm. phase, get counter offers returned: 0
Sat Dec 08 10:04:09 IST 2012	A Phase Ended: Strategy Prep Phase
Sat Dec 08 10:04:09 IST 2012	Protocol: A New Phase Began: Communication Phase
Sat Dec 08 10:04:09 IST 2012	Protocol: Communication phase, Round: 0
Sat Dec 08 10:05:09 IST 2012	Received communication message 
Sat Dec 08 10:05:09 IST 2012	From player: 337
Sat Dec 08 10:05:09 IST 2012	To player: 210
Sat Dec 08 10:05:09 IST 2012	Message type: basicproposal
Sat Dec 08 10:05:09 IST 2012	Chips to send by proposer: { chips  'grey78':3 }
Sat Dec 08 10:05:09 IST 2012	Chips to send by responder: { chips  'CTGreen':2 }
Sat Dec 08 10:05:17 IST 2012	Received communication message 
Sat Dec 08 10:05:17 IST 2012	From player: 210
Sat Dec 08 10:05:17 IST 2012	To player: 337
Sat Dec 08 10:05:17 IST 2012	Message type: basicproposaldiscussion
Sat Dec 08 10:05:17 IST 2012	Player 210 accepted offer
Sat Dec 08 10:05:17 IST 2012	Prop accepted, set counter offers count to: 0
Sat Dec 08 10:05:17 IST 2012	Prop accepted, get counter offers returned: 0
Sat Dec 08 10:05:17 IST 2012	A Phase Ended: Communication Phase
Sat Dec 08 10:05:17 IST 2012	Protocol: A New Phase Began: Exchange Phase
Sat Dec 08 10:05:17 IST 2012	Protocol: Exchange phase, Round: 0
Sat Dec 08 10:05:17 IST 2012	In begin exch.phase, get counter offers returned: 0
Sat Dec 08 10:05:46 IST 2012	A Phase Ended: Exchange Phase
Sat Dec 08 10:05:46 IST 2012	Proposer 337 sent: { chips  'CTRed':0 'CTPurple':0 'CTGreen':0 'grey78':1 }
Sat Dec 08 10:05:46 IST 2012	Responder 210 sent: { chips  'CTRed':0 'CTPurple':0 'CTGreen':1 'grey78':0 }
Sat Dec 08 10:05:46 IST 2012	Protocol: A New Phase Began: Movement Phase
Sat Dec 08 10:05:46 IST 2012	Protocol: Movement phase, Round: 0
Sat Dec 08 10:06:06 IST 2012	A Phase Ended: Movement Phase
Sat Dec 08 10:06:06 IST 2012	Swaping roles:
Sat Dec 08 10:06:06 IST 2012	Proposer is: 210
Sat Dec 08 10:06:06 IST 2012	Responder is: 337
Sat Dec 08 10:06:06 IST 2012	Protocol: A New Phase Began: Feedback Phase
Sat Dec 08 10:06:06 IST 2012	Protocol: Feedback phase, Round: 0
Sat Dec 08 10:06:06 IST 2012	Number of consecutive no movements for player 337 is 1
Sat Dec 08 10:06:06 IST 2012	Number of consecutive no movements for player 210 is 1
Sat Dec 08 10:06:11 IST 2012	A Phase Ended: Feedback Phase
Sat Dec 08 10:06:11 IST 2012	Protocol: A New Phase Began: Communication Phase
Sat Dec 08 10:06:11 IST 2012	Protocol: Communication phase, Round: 1
Sat Dec 08 10:06:24 IST 2012	Received communication message 
Sat Dec 08 10:06:24 IST 2012	From player: 210
Sat Dec 08 10:06:24 IST 2012	To player: 337
Sat Dec 08 10:06:24 IST 2012	Message type: basicproposal
Sat Dec 08 10:06:24 IST 2012	Chips to send by proposer: { chips  'CTRed':0 'CTPurple':0 'CTGreen':1 'grey78':0 }
Sat Dec 08 10:06:24 IST 2012	Chips to send by responder: { chips  'CTRed':0 'CTPurple':0 'CTGreen':0 'grey78':1 }
Sat Dec 08 10:07:24 IST 2012	Received communication message 
Sat Dec 08 10:07:24 IST 2012	From player: 337
Sat Dec 08 10:07:24 IST 2012	To player: 210
Sat Dec 08 10:07:24 IST 2012	Message type: basicproposaldiscussion
Sat Dec 08 10:07:24 IST 2012	Player 337 rejected offer
Sat Dec 08 10:07:24 IST 2012	Swaping roles:
Sat Dec 08 10:07:24 IST 2012	Proposer is: 337
Sat Dec 08 10:07:24 IST 2012	Responder is: 210
Sat Dec 08 10:07:24 IST 2012	Prop rejected, set counter offers count to: 1
Sat Dec 08 10:07:24 IST 2012	Prop rejected, get counter offers returned: 1
Sat Dec 08 10:07:28 IST 2012	Slept 4 seconds
Sat Dec 08 10:07:28 IST 2012	Sent role changed msgs
Sat Dec 08 10:08:28 IST 2012	Received communication message 
Sat Dec 08 10:08:28 IST 2012	From player: 337
Sat Dec 08 10:08:28 IST 2012	To player: 210
Sat Dec 08 10:08:28 IST 2012	Message type: basicproposal
Sat Dec 08 10:08:28 IST 2012	Chips to send by proposer: { chips  'CTRed':0 'CTPurple':0 'CTGreen':0 'grey78':2 }
Sat Dec 08 10:08:28 IST 2012	Chips to send by responder: { chips  'CTRed':0 'CTPurple':0 'CTGreen':2 'grey78':0 }
Sat Dec 08 10:08:37 IST 2012	Received communication message 
Sat Dec 08 10:08:37 IST 2012	From player: 210
Sat Dec 08 10:08:37 IST 2012	To player: 337
Sat Dec 08 10:08:37 IST 2012	Message type: basicproposaldiscussion
Sat Dec 08 10:08:37 IST 2012	Player 210 rejected offer
Sat Dec 08 10:08:37 IST 2012	Set counter offers count to: 0
Sat Dec 08 10:08:37 IST 2012	A Phase Ended: Communication Phase
Sat Dec 08 10:08:37 IST 2012	Protocol: A New Phase Began: Exchange Phase
Sat Dec 08 10:08:37 IST 2012	Protocol: Exchange phase, Round: 1
Sat Dec 08 10:08:37 IST 2012	In begin exch.phase, get counter offers returned: 0
Sat Dec 08 10:09:17 IST 2012	A Phase Ended: Exchange Phase
Sat Dec 08 10:09:17 IST 2012	Proposer 337 sent: { chips  }
Sat Dec 08 10:09:17 IST 2012	Protocol: A New Phase Began: Movement Phase
Sat Dec 08 10:09:17 IST 2012	Protocol: Movement phase, Round: 1
Sat Dec 08 10:09:37 IST 2012	A Phase Ended: Movement Phase
Sat Dec 08 10:09:37 IST 2012	Protocol: A New Phase Began: Feedback Phase
Sat Dec 08 10:09:37 IST 2012	Protocol: Feedback phase, Round: 1
Sat Dec 08 10:09:37 IST 2012	Number of consecutive no movements for player 337 is 2
Sat Dec 08 10:09:37 IST 2012	Number of consecutive no movements for player 210 is 2
Sat Dec 08 10:09:42 IST 2012	A Phase Ended: Feedback Phase
Sat Dec 08 10:09:42 IST 2012	Protocol: A New Phase Began: Communication Phase
Sat Dec 08 10:09:42 IST 2012	Protocol: Communication phase, Round: 2
Sat Dec 08 10:10:42 IST 2012	Received communication message 
Sat Dec 08 10:10:42 IST 2012	From player: 337
Sat Dec 08 10:10:42 IST 2012	To player: 210
Sat Dec 08 10:10:42 IST 2012	Message type: basicproposal
Sat Dec 08 10:10:42 IST 2012	Chips to send by proposer: { chips  'grey78':2 }
Sat Dec 08 10:10:42 IST 2012	Chips to send by responder: { chips  'CTGreen':2 }
Sat Dec 08 10:10:49 IST 2012	Received communication message 
Sat Dec 08 10:10:49 IST 2012	From player: 210
Sat Dec 08 10:10:49 IST 2012	To player: 337
Sat Dec 08 10:10:49 IST 2012	Message type: basicproposaldiscussion
Sat Dec 08 10:10:49 IST 2012	Player 210 accepted offer
Sat Dec 08 10:10:49 IST 2012	Prop accepted, set counter offers count to: 0
Sat Dec 08 10:10:49 IST 2012	Prop accepted, get counter offers returned: 0
Sat Dec 08 10:10:49 IST 2012	A Phase Ended: Communication Phase
Sat Dec 08 10:10:49 IST 2012	Protocol: A New Phase Began: Exchange Phase
Sat Dec 08 10:10:49 IST 2012	Protocol: Exchange phase, Round: 2
Sat Dec 08 10:10:49 IST 2012	In begin exch.phase, get counter offers returned: 0
Sat Dec 08 10:11:18 IST 2012	A Phase Ended: Exchange Phase
Sat Dec 08 10:11:18 IST 2012	Proposer 337 sent: { chips  'CTRed':0 'CTPurple':0 'CTGreen':0 'grey78':0 }
Sat Dec 08 10:11:18 IST 2012	Responder 210 sent: { chips  'CTRed':0 'CTPurple':0 'CTGreen':1 'grey78':0 }
Sat Dec 08 10:11:18 IST 2012	Protocol: A New Phase Began: Movement Phase
Sat Dec 08 10:11:18 IST 2012	Protocol: Movement phase, Round: 2
Sat Dec 08 10:11:18 IST 2012	Player 337 moved to (R:6,C:3)
Sat Dec 08 10:11:18 IST 2012	Player 210 moved to (R:6,C:1)
Sat Dec 08 10:11:38 IST 2012	A Phase Ended: Movement Phase
Sat Dec 08 10:11:38 IST 2012	Swaping roles:
Sat Dec 08 10:11:38 IST 2012	Proposer is: 210
Sat Dec 08 10:11:38 IST 2012	Responder is: 337
Sat Dec 08 10:11:38 IST 2012	Protocol: A New Phase Began: Feedback Phase
Sat Dec 08 10:11:38 IST 2012	Protocol: Feedback phase, Round: 2
Sat Dec 08 10:11:38 IST 2012	Number of consecutive no movements for player 337 is 0
Sat Dec 08 10:11:38 IST 2012	Number of consecutive no movements for player 210 is 0
Sat Dec 08 10:11:43 IST 2012	A Phase Ended: Feedback Phase
Sat Dec 08 10:11:43 IST 2012	Protocol: A New Phase Began: Communication Phase
Sat Dec 08 10:11:43 IST 2012	Protocol: Communication phase, Round: 3
Sat Dec 08 10:11:56 IST 2012	Received communication message 
Sat Dec 08 10:11:56 IST 2012	From player: 210
Sat Dec 08 10:11:56 IST 2012	To player: 337
Sat Dec 08 10:11:56 IST 2012	Message type: basicproposal
Sat Dec 08 10:11:56 IST 2012	Chips to send by proposer: { chips  'CTRed':0 'CTPurple':0 'CTGreen':1 'grey78':0 }
Sat Dec 08 10:11:56 IST 2012	Chips to send by responder: { chips  'CTRed':0 'CTPurple':0 'CTGreen':0 'grey78':1 }
Sat Dec 08 10:12:55 IST 2012	Received communication message 
Sat Dec 08 10:12:55 IST 2012	From player: 337
Sat Dec 08 10:12:55 IST 2012	To player: 210
Sat Dec 08 10:12:55 IST 2012	Message type: basicproposaldiscussion
Sat Dec 08 10:12:55 IST 2012	Player 337 rejected offer
Sat Dec 08 10:12:55 IST 2012	Swaping roles:
Sat Dec 08 10:12:55 IST 2012	Proposer is: 337
Sat Dec 08 10:12:55 IST 2012	Responder is: 210
Sat Dec 08 10:12:55 IST 2012	Prop rejected, set counter offers count to: 1
Sat Dec 08 10:12:55 IST 2012	Prop rejected, get counter offers returned: 1
Sat Dec 08 10:12:59 IST 2012	Slept 4 seconds
Sat Dec 08 10:12:59 IST 2012	Sent role changed msgs
Sat Dec 08 10:13:59 IST 2012	Received communication message 
Sat Dec 08 10:13:59 IST 2012	From player: 337
Sat Dec 08 10:13:59 IST 2012	To player: 210
Sat Dec 08 10:13:59 IST 2012	Message type: basicproposal
Sat Dec 08 10:13:59 IST 2012	Chips to send by proposer: { chips  'CTRed':0 'CTPurple':0 'CTGreen':0 'grey78':2 }
Sat Dec 08 10:13:59 IST 2012	Chips to send by responder: { chips  'CTRed':0 'CTPurple':0 'CTGreen':1 'grey78':0 }
Sat Dec 08 10:14:05 IST 2012	Received communication message 
Sat Dec 08 10:14:05 IST 2012	From player: 210
Sat Dec 08 10:14:05 IST 2012	To player: 337
Sat Dec 08 10:14:05 IST 2012	Message type: basicproposaldiscussion
Sat Dec 08 10:14:05 IST 2012	Player 210 rejected offer
Sat Dec 08 10:14:05 IST 2012	Set counter offers count to: 0
Sat Dec 08 10:14:05 IST 2012	A Phase Ended: Communication Phase
Sat Dec 08 10:14:05 IST 2012	Protocol: A New Phase Began: Exchange Phase
Sat Dec 08 10:14:05 IST 2012	Protocol: Exchange phase, Round: 3
Sat Dec 08 10:14:05 IST 2012	In begin exch.phase, get counter offers returned: 0
Sat Dec 08 10:14:44 IST 2012	A Phase Ended: Exchange Phase
Sat Dec 08 10:14:44 IST 2012	Proposer 337 sent: { chips  }
Sat Dec 08 10:14:44 IST 2012	Protocol: A New Phase Began: Movement Phase
Sat Dec 08 10:14:44 IST 2012	Protocol: Movement phase, Round: 3
Sat Dec 08 10:15:04 IST 2012	A Phase Ended: Movement Phase
Sat Dec 08 10:15:04 IST 2012	Protocol: A New Phase Began: Feedback Phase
Sat Dec 08 10:15:04 IST 2012	Protocol: Feedback phase, Round: 3
Sat Dec 08 10:15:04 IST 2012	Number of consecutive no movements for player 337 is 1
Sat Dec 08 10:15:04 IST 2012	Number of consecutive no movements for player 210 is 1
Sat Dec 08 10:15:10 IST 2012	A Phase Ended: Feedback Phase
Sat Dec 08 10:15:10 IST 2012	Protocol: A New Phase Began: Communication Phase
Sat Dec 08 10:15:10 IST 2012	Protocol: Communication phase, Round: 4
Sat Dec 08 10:16:10 IST 2012	Received communication message 
Sat Dec 08 10:16:10 IST 2012	From player: 337
Sat Dec 08 10:16:10 IST 2012	To player: 210
Sat Dec 08 10:16:10 IST 2012	Message type: basicproposal
Sat Dec 08 10:16:10 IST 2012	Chips to send by proposer: { chips  'grey78':2 }
Sat Dec 08 10:16:10 IST 2012	Chips to send by responder: { chips  'CTGreen':1 }
Sat Dec 08 10:16:22 IST 2012	Received communication message 
Sat Dec 08 10:16:22 IST 2012	From player: 210
Sat Dec 08 10:16:22 IST 2012	To player: 337
Sat Dec 08 10:16:22 IST 2012	Message type: basicproposaldiscussion
Sat Dec 08 10:16:22 IST 2012	Player 210 rejected offer
Sat Dec 08 10:16:22 IST 2012	Swaping roles:
Sat Dec 08 10:16:22 IST 2012	Proposer is: 210
Sat Dec 08 10:16:22 IST 2012	Responder is: 337
Sat Dec 08 10:16:22 IST 2012	Prop rejected, set counter offers count to: 1
Sat Dec 08 10:16:22 IST 2012	Prop rejected, get counter offers returned: 1
Sat Dec 08 10:16:26 IST 2012	Slept 4 seconds
Sat Dec 08 10:16:26 IST 2012	Sent role changed msgs
Sat Dec 08 10:16:46 IST 2012	Received communication message 
Sat Dec 08 10:16:46 IST 2012	From player: 210
Sat Dec 08 10:16:46 IST 2012	To player: 337
Sat Dec 08 10:16:46 IST 2012	Message type: basicproposal
Sat Dec 08 10:16:46 IST 2012	Chips to send by proposer: { chips  'CTRed':0 'CTPurple':0 'CTGreen':1 'grey78':0 }
Sat Dec 08 10:16:46 IST 2012	Chips to send by responder: { chips  'CTRed':0 'CTPurple':0 'CTGreen':0 'grey78':1 }
Sat Dec 08 10:17:36 IST 2012	Received communication message 
Sat Dec 08 10:17:36 IST 2012	From player: 337
Sat Dec 08 10:17:36 IST 2012	To player: 210
Sat Dec 08 10:17:36 IST 2012	Message type: basicproposaldiscussion
Sat Dec 08 10:17:36 IST 2012	Player 337 rejected offer
Sat Dec 08 10:17:36 IST 2012	Set counter offers count to: 0
Sat Dec 08 10:17:36 IST 2012	A Phase Ended: Communication Phase
Sat Dec 08 10:17:36 IST 2012	Protocol: A New Phase Began: Exchange Phase
Sat Dec 08 10:17:36 IST 2012	Protocol: Exchange phase, Round: 4
Sat Dec 08 10:17:36 IST 2012	In begin exch.phase, get counter offers returned: 0
Sat Dec 08 10:18:16 IST 2012	A Phase Ended: Exchange Phase
Sat Dec 08 10:18:16 IST 2012	Responder 337 sent: { chips  }
Sat Dec 08 10:18:16 IST 2012	Protocol: A New Phase Began: Movement Phase
Sat Dec 08 10:18:16 IST 2012	Protocol: Movement phase, Round: 4
Sat Dec 08 10:18:36 IST 2012	A Phase Ended: Movement Phase
Sat Dec 08 10:18:36 IST 2012	Protocol: A New Phase Began: Feedback Phase
Sat Dec 08 10:18:36 IST 2012	Protocol: Feedback phase, Round: 4
Sat Dec 08 10:18:36 IST 2012	Number of consecutive no movements for player 337 is 2
Sat Dec 08 10:18:36 IST 2012	Number of consecutive no movements for player 210 is 2
Sat Dec 08 10:18:41 IST 2012	A Phase Ended: Feedback Phase
Sat Dec 08 10:18:41 IST 2012	Protocol: A New Phase Began: Communication Phase
Sat Dec 08 10:18:41 IST 2012	Protocol: Communication phase, Round: 5
Sat Dec 08 10:18:54 IST 2012	Received communication message 
Sat Dec 08 10:18:54 IST 2012	From player: 210
Sat Dec 08 10:18:54 IST 2012	To player: 337
Sat Dec 08 10:18:54 IST 2012	Message type: basicproposal
Sat Dec 08 10:18:54 IST 2012	Chips to send by proposer: { chips  'CTRed':0 'CTPurple':0 'CTGreen':1 'grey78':0 }
Sat Dec 08 10:18:54 IST 2012	Chips to send by responder: { chips  'CTRed':0 'CTPurple':0 'CTGreen':0 'grey78':1 }
Sat Dec 08 10:19:39 IST 2012	Received communication message 
Sat Dec 08 10:19:39 IST 2012	From player: 337
Sat Dec 08 10:19:39 IST 2012	To player: 210
Sat Dec 08 10:19:39 IST 2012	Message type: basicproposaldiscussion
Sat Dec 08 10:19:39 IST 2012	Player 337 rejected offer
Sat Dec 08 10:19:39 IST 2012	Swaping roles:
Sat Dec 08 10:19:39 IST 2012	Proposer is: 337
Sat Dec 08 10:19:39 IST 2012	Responder is: 210
Sat Dec 08 10:19:39 IST 2012	Prop rejected, set counter offers count to: 1
Sat Dec 08 10:19:39 IST 2012	Prop rejected, get counter offers returned: 1
Sat Dec 08 10:19:43 IST 2012	Slept 4 seconds
Sat Dec 08 10:19:43 IST 2012	Sent role changed msgs
Sat Dec 08 10:20:43 IST 2012	Received communication message 
Sat Dec 08 10:20:43 IST 2012	From player: 337
Sat Dec 08 10:20:43 IST 2012	To player: 210
Sat Dec 08 10:20:43 IST 2012	Message type: basicproposal
Sat Dec 08 10:20:43 IST 2012	Chips to send by proposer: { chips  'CTRed':0 'CTPurple':0 'CTGreen':0 'grey78':2 }
Sat Dec 08 10:20:43 IST 2012	Chips to send by responder: { chips  'CTRed':0 'CTPurple':0 'CTGreen':1 'grey78':0 }
Sat Dec 08 10:20:51 IST 2012	Received communication message 
Sat Dec 08 10:20:51 IST 2012	From player: 210
Sat Dec 08 10:20:51 IST 2012	To player: 337
Sat Dec 08 10:20:51 IST 2012	Message type: basicproposaldiscussion
Sat Dec 08 10:20:51 IST 2012	Player 210 rejected offer
Sat Dec 08 10:20:51 IST 2012	Set counter offers count to: 0
Sat Dec 08 10:20:51 IST 2012	A Phase Ended: Communication Phase
Sat Dec 08 10:20:51 IST 2012	Protocol: A New Phase Began: Exchange Phase
Sat Dec 08 10:20:51 IST 2012	Protocol: Exchange phase, Round: 5
Sat Dec 08 10:20:51 IST 2012	In begin exch.phase, get counter offers returned: 0
Sat Dec 08 10:21:32 IST 2012	A Phase Ended: Exchange Phase
Sat Dec 08 10:21:32 IST 2012	Proposer 337 sent: { chips  }
Sat Dec 08 10:21:32 IST 2012	Protocol: A New Phase Began: Movement Phase
Sat Dec 08 10:21:32 IST 2012	Protocol: Movement phase, Round: 5
Sat Dec 08 10:21:32 IST 2012	Player 337 moved to (R:5,C:3)
Sat Dec 08 10:21:32 IST 2012	Player 210 moved to (R:5,C:1)
Sat Dec 08 10:21:52 IST 2012	A Phase Ended: Movement Phase
Sat Dec 08 10:21:52 IST 2012	Protocol: A New Phase Began: Feedback Phase
Sat Dec 08 10:21:52 IST 2012	Protocol: Feedback phase, Round: 5
Sat Dec 08 10:21:52 IST 2012	Number of consecutive no movements for player 337 is 0
Sat Dec 08 10:21:52 IST 2012	Number of consecutive no movements for player 210 is 0
Sat Dec 08 10:21:57 IST 2012	A Phase Ended: Feedback Phase
Sat Dec 08 10:21:57 IST 2012	Protocol: A New Phase Began: Communication Phase
Sat Dec 08 10:21:57 IST 2012	Protocol: Communication phase, Round: 6
Sat Dec 08 10:22:57 IST 2012	Received communication message 
Sat Dec 08 10:22:57 IST 2012	From player: 337
Sat Dec 08 10:22:57 IST 2012	To player: 210
Sat Dec 08 10:22:57 IST 2012	Message type: basicproposal
Sat Dec 08 10:22:57 IST 2012	Chips to send by proposer: { chips  'grey78':2 }
Sat Dec 08 10:22:57 IST 2012	Chips to send by responder: { chips  'CTGreen':1 }
Sat Dec 08 10:23:05 IST 2012	Received communication message 
Sat Dec 08 10:23:05 IST 2012	From player: 210
Sat Dec 08 10:23:05 IST 2012	To player: 337
Sat Dec 08 10:23:05 IST 2012	Message type: basicproposaldiscussion
Sat Dec 08 10:23:05 IST 2012	Player 210 rejected offer
Sat Dec 08 10:23:05 IST 2012	Swaping roles:
Sat Dec 08 10:23:05 IST 2012	Proposer is: 210
Sat Dec 08 10:23:05 IST 2012	Responder is: 337
Sat Dec 08 10:23:05 IST 2012	Prop rejected, set counter offers count to: 1
Sat Dec 08 10:23:05 IST 2012	Prop rejected, get counter offers returned: 1
Sat Dec 08 10:23:09 IST 2012	Slept 4 seconds
Sat Dec 08 10:23:09 IST 2012	Sent role changed msgs
Sat Dec 08 10:23:27 IST 2012	Received communication message 
Sat Dec 08 10:23:27 IST 2012	From player: 210
Sat Dec 08 10:23:27 IST 2012	To player: 337
Sat Dec 08 10:23:27 IST 2012	Message type: basicproposal
Sat Dec 08 10:23:27 IST 2012	Chips to send by proposer: { chips  'CTRed':0 'CTPurple':0 'CTGreen':1 'grey78':0 }
Sat Dec 08 10:23:27 IST 2012	Chips to send by responder: { chips  'CTRed':0 'CTPurple':0 'CTGreen':0 'grey78':1 }
Sat Dec 08 10:24:03 IST 2012	Received communication message 
Sat Dec 08 10:24:03 IST 2012	From player: 337
Sat Dec 08 10:24:03 IST 2012	To player: 210
Sat Dec 08 10:24:03 IST 2012	Message type: basicproposaldiscussion
Sat Dec 08 10:24:03 IST 2012	Player 337 rejected offer
Sat Dec 08 10:24:03 IST 2012	Set counter offers count to: 0
Sat Dec 08 10:24:03 IST 2012	A Phase Ended: Communication Phase
Sat Dec 08 10:24:03 IST 2012	Protocol: A New Phase Began: Exchange Phase
Sat Dec 08 10:24:03 IST 2012	Protocol: Exchange phase, Round: 6
Sat Dec 08 10:24:03 IST 2012	In begin exch.phase, get counter offers returned: 0
Sat Dec 08 10:24:43 IST 2012	A Phase Ended: Exchange Phase
Sat Dec 08 10:24:43 IST 2012	Responder 337 sent: { chips  }
Sat Dec 08 10:24:43 IST 2012	Protocol: A New Phase Began: Movement Phase
Sat Dec 08 10:24:43 IST 2012	Protocol: Movement phase, Round: 6
Sat Dec 08 10:25:04 IST 2012	A Phase Ended: Movement Phase
Sat Dec 08 10:25:04 IST 2012	Protocol: A New Phase Began: Feedback Phase
Sat Dec 08 10:25:04 IST 2012	Protocol: Feedback phase, Round: 6
Sat Dec 08 10:25:04 IST 2012	Number of consecutive no movements for player 337 is 1
Sat Dec 08 10:25:04 IST 2012	Number of consecutive no movements for player 210 is 1
Sat Dec 08 10:25:09 IST 2012	A Phase Ended: Feedback Phase
Sat Dec 08 10:25:09 IST 2012	Protocol: A New Phase Began: Communication Phase
Sat Dec 08 10:25:09 IST 2012	Protocol: Communication phase, Round: 7
Sat Dec 08 10:25:28 IST 2012	Received communication message 
Sat Dec 08 10:25:28 IST 2012	From player: 210
Sat Dec 08 10:25:28 IST 2012	To player: 337
Sat Dec 08 10:25:28 IST 2012	Message type: basicproposal
Sat Dec 08 10:25:28 IST 2012	Chips to send by proposer: { chips  'CTRed':0 'CTPurple':0 'CTGreen':1 'grey78':0 }
Sat Dec 08 10:25:28 IST 2012	Chips to send by responder: { chips  'CTRed':0 'CTPurple':0 'CTGreen':0 'grey78':1 }
Sat Dec 08 10:26:01 IST 2012	Received communication message 
Sat Dec 08 10:26:01 IST 2012	From player: 337
Sat Dec 08 10:26:01 IST 2012	To player: 210
Sat Dec 08 10:26:01 IST 2012	Message type: basicproposaldiscussion
Sat Dec 08 10:26:01 IST 2012	Player 337 rejected offer
Sat Dec 08 10:26:01 IST 2012	Swaping roles:
Sat Dec 08 10:26:01 IST 2012	Proposer is: 337
Sat Dec 08 10:26:01 IST 2012	Responder is: 210
Sat Dec 08 10:26:01 IST 2012	Prop rejected, set counter offers count to: 1
Sat Dec 08 10:26:01 IST 2012	Prop rejected, get counter offers returned: 1
Sat Dec 08 10:26:05 IST 2012	Slept 4 seconds
Sat Dec 08 10:26:05 IST 2012	Sent role changed msgs
Sat Dec 08 10:27:05 IST 2012	Received communication message 
Sat Dec 08 10:27:05 IST 2012	From player: 337
Sat Dec 08 10:27:05 IST 2012	To player: 210
Sat Dec 08 10:27:05 IST 2012	Message type: basicproposal
Sat Dec 08 10:27:05 IST 2012	Chips to send by proposer: { chips  'CTRed':0 'CTPurple':0 'CTGreen':0 'grey78':2 }
Sat Dec 08 10:27:05 IST 2012	Chips to send by responder: { chips  'CTRed':0 'CTPurple':0 'CTGreen':1 'grey78':0 }
Sat Dec 08 10:27:12 IST 2012	Received communication message 
Sat Dec 08 10:27:12 IST 2012	From player: 210
Sat Dec 08 10:27:12 IST 2012	To player: 337
Sat Dec 08 10:27:12 IST 2012	Message type: basicproposaldiscussion
Sat Dec 08 10:27:12 IST 2012	Player 210 rejected offer
Sat Dec 08 10:27:12 IST 2012	Set counter offers count to: 0
Sat Dec 08 10:27:12 IST 2012	A Phase Ended: Communication Phase
Sat Dec 08 10:27:12 IST 2012	Protocol: A New Phase Began: Exchange Phase
Sat Dec 08 10:27:12 IST 2012	Protocol: Exchange phase, Round: 7
Sat Dec 08 10:27:12 IST 2012	In begin exch.phase, get counter offers returned: 0
Sat Dec 08 10:27:52 IST 2012	A Phase Ended: Exchange Phase
Sat Dec 08 10:27:52 IST 2012	Proposer 337 sent: { chips  }
Sat Dec 08 10:27:52 IST 2012	Protocol: A New Phase Began: Movement Phase
Sat Dec 08 10:27:52 IST 2012	Protocol: Movement phase, Round: 7
Sat Dec 08 10:28:12 IST 2012	A Phase Ended: Movement Phase
Sat Dec 08 10:28:12 IST 2012	Protocol: A New Phase Began: Feedback Phase
Sat Dec 08 10:28:12 IST 2012	Protocol: Feedback phase, Round: 7
Sat Dec 08 10:28:12 IST 2012	Number of consecutive no movements for player 337 is 2
Sat Dec 08 10:28:12 IST 2012	Number of consecutive no movements for player 210 is 2
Sat Dec 08 10:28:17 IST 2012	A Phase Ended: Feedback Phase
Sat Dec 08 10:28:17 IST 2012	Protocol: A New Phase Began: Communication Phase
Sat Dec 08 10:28:17 IST 2012	Protocol: Communication phase, Round: 8
Sat Dec 08 10:29:17 IST 2012	Received communication message 
Sat Dec 08 10:29:17 IST 2012	From player: 337
Sat Dec 08 10:29:17 IST 2012	To player: 210
Sat Dec 08 10:29:17 IST 2012	Message type: basicproposal
Sat Dec 08 10:29:17 IST 2012	Chips to send by proposer: { chips  'grey78':2 }
Sat Dec 08 10:29:17 IST 2012	Chips to send by responder: { chips  'CTGreen':1 }
Sat Dec 08 10:29:30 IST 2012	Received communication message 
Sat Dec 08 10:29:30 IST 2012	From player: 210
Sat Dec 08 10:29:30 IST 2012	To player: 337
Sat Dec 08 10:29:30 IST 2012	Message type: basicproposaldiscussion
Sat Dec 08 10:29:30 IST 2012	Player 210 rejected offer
Sat Dec 08 10:29:30 IST 2012	Swaping roles:
Sat Dec 08 10:29:30 IST 2012	Proposer is: 210
Sat Dec 08 10:29:30 IST 2012	Responder is: 337
Sat Dec 08 10:29:30 IST 2012	Prop rejected, set counter offers count to: 1
Sat Dec 08 10:29:30 IST 2012	Prop rejected, get counter offers returned: 1
Sat Dec 08 10:29:34 IST 2012	Slept 4 seconds
Sat Dec 08 10:29:34 IST 2012	Sent role changed msgs
Sat Dec 08 10:29:47 IST 2012	Received communication message 
Sat Dec 08 10:29:47 IST 2012	From player: 210
Sat Dec 08 10:29:47 IST 2012	To player: 337
Sat Dec 08 10:29:47 IST 2012	Message type: basicproposal
Sat Dec 08 10:29:47 IST 2012	Chips to send by proposer: { chips  'CTRed':0 'CTPurple':0 'CTGreen':1 'grey78':0 }
Sat Dec 08 10:29:47 IST 2012	Chips to send by responder: { chips  'CTRed':0 'CTPurple':0 'CTGreen':0 'grey78':1 }
Sat Dec 08 10:30:11 IST 2012	Received communication message 
Sat Dec 08 10:30:11 IST 2012	From player: 337
Sat Dec 08 10:30:11 IST 2012	To player: 210
Sat Dec 08 10:30:11 IST 2012	Message type: basicproposaldiscussion
Sat Dec 08 10:30:11 IST 2012	Player 337 rejected offer
Sat Dec 08 10:30:11 IST 2012	Set counter offers count to: 0
Sat Dec 08 10:30:11 IST 2012	A Phase Ended: Communication Phase
Sat Dec 08 10:30:11 IST 2012	Protocol: A New Phase Began: Exchange Phase
Sat Dec 08 10:30:11 IST 2012	Protocol: Exchange phase, Round: 8
Sat Dec 08 10:30:11 IST 2012	In begin exch.phase, get counter offers returned: 0
Sat Dec 08 10:30:52 IST 2012	A Phase Ended: Exchange Phase
Sat Dec 08 10:30:52 IST 2012	Responder 337 sent: { chips  }
Sat Dec 08 10:30:52 IST 2012	Protocol: A New Phase Began: Movement Phase
Sat Dec 08 10:30:52 IST 2012	Protocol: Movement phase, Round: 8
Sat Dec 08 10:30:52 IST 2012	Player 337 moved to (R:4,C:3)
Sat Dec 08 10:30:52 IST 2012	Player 210 moved to (R:4,C:1)
Sat Dec 08 10:31:12 IST 2012	A Phase Ended: Movement Phase
Sat Dec 08 10:31:12 IST 2012	Protocol: A New Phase Began: Feedback Phase
Sat Dec 08 10:31:12 IST 2012	Protocol: Feedback phase, Round: 8
Sat Dec 08 10:31:12 IST 2012	Number of consecutive no movements for player 337 is 0
Sat Dec 08 10:31:12 IST 2012	Number of consecutive no movements for player 210 is 0
Sat Dec 08 10:31:17 IST 2012	A Phase Ended: Feedback Phase
Sat Dec 08 10:31:17 IST 2012	Protocol: A New Phase Began: Communication Phase
Sat Dec 08 10:31:17 IST 2012	Protocol: Communication phase, Round: 9
Sat Dec 08 10:31:30 IST 2012	Received communication message 
Sat Dec 08 10:31:30 IST 2012	From player: 210
Sat Dec 08 10:31:30 IST 2012	To player: 337
Sat Dec 08 10:31:30 IST 2012	Message type: basicproposal
Sat Dec 08 10:31:30 IST 2012	Chips to send by proposer: { chips  'CTRed':0 'CTPurple':0 'CTGreen':1 'grey78':0 }
Sat Dec 08 10:31:30 IST 2012	Chips to send by responder: { chips  'CTRed':0 'CTPurple':0 'CTGreen':0 'grey78':1 }
Sat Dec 08 10:31:50 IST 2012	Received communication message 
Sat Dec 08 10:31:50 IST 2012	From player: 337
Sat Dec 08 10:31:50 IST 2012	To player: 210
Sat Dec 08 10:31:50 IST 2012	Message type: basicproposaldiscussion
Sat Dec 08 10:31:50 IST 2012	Player 337 rejected offer
Sat Dec 08 10:31:50 IST 2012	Swaping roles:
Sat Dec 08 10:31:50 IST 2012	Proposer is: 337
Sat Dec 08 10:31:50 IST 2012	Responder is: 210
Sat Dec 08 10:31:50 IST 2012	Prop rejected, set counter offers count to: 1
Sat Dec 08 10:31:50 IST 2012	Prop rejected, get counter offers returned: 1
Sat Dec 08 10:31:54 IST 2012	Slept 4 seconds
Sat Dec 08 10:31:54 IST 2012	Sent role changed msgs
Sat Dec 08 10:32:51 IST 2012	Received communication message 
Sat Dec 08 10:32:51 IST 2012	From player: 337
Sat Dec 08 10:32:51 IST 2012	To player: 210
Sat Dec 08 10:32:51 IST 2012	Message type: basicproposal
Sat Dec 08 10:32:51 IST 2012	Chips to send by proposer: { chips  'CTRed':0 'CTPurple':0 'CTGreen':0 'grey78':2 }
Sat Dec 08 10:32:51 IST 2012	Chips to send by responder: { chips  'CTRed':0 'CTPurple':0 'CTGreen':1 'grey78':0 }
Sat Dec 08 10:32:57 IST 2012	Received communication message 
Sat Dec 08 10:32:57 IST 2012	From player: 210
Sat Dec 08 10:32:57 IST 2012	To player: 337
Sat Dec 08 10:32:57 IST 2012	Message type: basicproposaldiscussion
Sat Dec 08 10:32:57 IST 2012	Player 210 rejected offer
Sat Dec 08 10:32:57 IST 2012	Set counter offers count to: 0
Sat Dec 08 10:32:57 IST 2012	A Phase Ended: Communication Phase
Sat Dec 08 10:32:57 IST 2012	Protocol: A New Phase Began: Exchange Phase
Sat Dec 08 10:32:57 IST 2012	Protocol: Exchange phase, Round: 9
Sat Dec 08 10:32:57 IST 2012	In begin exch.phase, get counter offers returned: 0
Sat Dec 08 10:33:37 IST 2012	A Phase Ended: Exchange Phase
Sat Dec 08 10:33:37 IST 2012	Proposer 337 sent: { chips  }
Sat Dec 08 10:33:37 IST 2012	Protocol: A New Phase Began: Movement Phase
Sat Dec 08 10:33:37 IST 2012	Protocol: Movement phase, Round: 9
Sat Dec 08 10:33:57 IST 2012	A Phase Ended: Movement Phase
Sat Dec 08 10:33:57 IST 2012	Protocol: A New Phase Began: Feedback Phase
Sat Dec 08 10:33:57 IST 2012	Protocol: Feedback phase, Round: 9
Sat Dec 08 10:33:57 IST 2012	Number of consecutive no movements for player 337 is 1
Sat Dec 08 10:33:57 IST 2012	Number of consecutive no movements for player 210 is 1
Sat Dec 08 10:34:02 IST 2012	A Phase Ended: Feedback Phase
Sat Dec 08 10:34:02 IST 2012	Protocol: A New Phase Began: Communication Phase
Sat Dec 08 10:34:02 IST 2012	Protocol: Communication phase, Round: 10
Sat Dec 08 10:34:47 IST 2012	Received communication message 
Sat Dec 08 10:34:47 IST 2012	From player: 337
Sat Dec 08 10:34:47 IST 2012	To player: 210
Sat Dec 08 10:34:47 IST 2012	Message type: basicproposal
Sat Dec 08 10:34:47 IST 2012	Chips to send by proposer: { chips  'grey78':2 }
Sat Dec 08 10:34:47 IST 2012	Chips to send by responder: { chips  'CTGreen':1 }
Sat Dec 08 10:34:53 IST 2012	Received communication message 
Sat Dec 08 10:34:53 IST 2012	From player: 210
Sat Dec 08 10:34:53 IST 2012	To player: 337
Sat Dec 08 10:34:53 IST 2012	Message type: basicproposaldiscussion
Sat Dec 08 10:34:53 IST 2012	Player 210 rejected offer
Sat Dec 08 10:34:53 IST 2012	Swaping roles:
Sat Dec 08 10:34:53 IST 2012	Proposer is: 210
Sat Dec 08 10:34:53 IST 2012	Responder is: 337
Sat Dec 08 10:34:53 IST 2012	Prop rejected, set counter offers count to: 1
Sat Dec 08 10:34:53 IST 2012	Prop rejected, get counter offers returned: 1
Sat Dec 08 10:34:57 IST 2012	Slept 4 seconds
Sat Dec 08 10:34:57 IST 2012	Sent role changed msgs
Sat Dec 08 10:35:15 IST 2012	Received communication message 
Sat Dec 08 10:35:15 IST 2012	From player: 210
Sat Dec 08 10:35:15 IST 2012	To player: 337
Sat Dec 08 10:35:15 IST 2012	Message type: basicproposal
Sat Dec 08 10:35:15 IST 2012	Chips to send by proposer: { chips  'CTRed':0 'CTPurple':0 'CTGreen':1 'grey78':0 }
Sat Dec 08 10:35:15 IST 2012	Chips to send by responder: { chips  'CTRed':0 'CTPurple':0 'CTGreen':0 'grey78':1 }
Sat Dec 08 10:35:26 IST 2012	Received communication message 
Sat Dec 08 10:35:26 IST 2012	From player: 337
Sat Dec 08 10:35:26 IST 2012	To player: 210
Sat Dec 08 10:35:26 IST 2012	Message type: basicproposaldiscussion
Sat Dec 08 10:35:26 IST 2012	Player 337 rejected offer
Sat Dec 08 10:35:26 IST 2012	Set counter offers count to: 0
Sat Dec 08 10:35:26 IST 2012	A Phase Ended: Communication Phase
Sat Dec 08 10:35:26 IST 2012	Protocol: A New Phase Began: Exchange Phase
Sat Dec 08 10:35:26 IST 2012	Protocol: Exchange phase, Round: 10
Sat Dec 08 10:35:26 IST 2012	In begin exch.phase, get counter offers returned: 0
Sat Dec 08 10:36:06 IST 2012	A Phase Ended: Exchange Phase
Sat Dec 08 10:36:06 IST 2012	Responder 337 sent: { chips  }
Sat Dec 08 10:36:06 IST 2012	Protocol: A New Phase Began: Movement Phase
Sat Dec 08 10:36:06 IST 2012	Protocol: Movement phase, Round: 10
Sat Dec 08 10:36:26 IST 2012	A Phase Ended: Movement Phase
Sat Dec 08 10:36:26 IST 2012	Protocol: A New Phase Began: Feedback Phase
Sat Dec 08 10:36:26 IST 2012	Protocol: Feedback phase, Round: 10
Sat Dec 08 10:36:26 IST 2012	Number of consecutive no movements for player 337 is 2
Sat Dec 08 10:36:26 IST 2012	Number of consecutive no movements for player 210 is 2
Sat Dec 08 10:36:31 IST 2012	A Phase Ended: Feedback Phase
Sat Dec 08 10:36:31 IST 2012	Protocol: A New Phase Began: Communication Phase
Sat Dec 08 10:36:31 IST 2012	Protocol: Communication phase, Round: 11
Sat Dec 08 10:36:52 IST 2012	Received communication message 
Sat Dec 08 10:36:52 IST 2012	From player: 210
Sat Dec 08 10:36:52 IST 2012	To player: 337
Sat Dec 08 10:36:52 IST 2012	Message type: basicproposal
Sat Dec 08 10:36:52 IST 2012	Chips to send by proposer: { chips  'CTRed':0 'CTPurple':0 'CTGreen':1 'grey78':0 }
Sat Dec 08 10:36:52 IST 2012	Chips to send by responder: { chips  'CTRed':0 'CTPurple':0 'CTGreen':0 'grey78':1 }
Sat Dec 08 10:36:58 IST 2012	Received communication message 
Sat Dec 08 10:36:58 IST 2012	From player: 337
Sat Dec 08 10:36:58 IST 2012	To player: 210
Sat Dec 08 10:36:58 IST 2012	Message type: basicproposaldiscussion
Sat Dec 08 10:36:58 IST 2012	Player 337 rejected offer
Sat Dec 08 10:36:58 IST 2012	Swaping roles:
Sat Dec 08 10:36:58 IST 2012	Proposer is: 337
Sat Dec 08 10:36:58 IST 2012	Responder is: 210
Sat Dec 08 10:36:58 IST 2012	Prop rejected, set counter offers count to: 1
Sat Dec 08 10:36:58 IST 2012	Prop rejected, get counter offers returned: 1
Sat Dec 08 10:37:02 IST 2012	Slept 4 seconds
Sat Dec 08 10:37:02 IST 2012	Sent role changed msgs
Sat Dec 08 10:37:20 IST 2012	Received communication message 
Sat Dec 08 10:37:20 IST 2012	From player: 337
Sat Dec 08 10:37:20 IST 2012	To player: 210
Sat Dec 08 10:37:20 IST 2012	Message type: basicproposal
Sat Dec 08 10:37:20 IST 2012	Chips to send by proposer: { chips  'CTRed':0 'CTPurple':0 'CTGreen':0 'grey78':2 }
Sat Dec 08 10:37:20 IST 2012	Chips to send by responder: { chips  'CTRed':0 'CTPurple':0 'CTGreen':1 'grey78':0 }
Sat Dec 08 10:37:30 IST 2012	Received communication message 
Sat Dec 08 10:37:30 IST 2012	From player: 210
Sat Dec 08 10:37:30 IST 2012	To player: 337
Sat Dec 08 10:37:30 IST 2012	Message type: basicproposaldiscussion
Sat Dec 08 10:37:30 IST 2012	Player 210 rejected offer
Sat Dec 08 10:37:30 IST 2012	Set counter offers count to: 0
Sat Dec 08 10:37:30 IST 2012	A Phase Ended: Communication Phase
Sat Dec 08 10:37:30 IST 2012	Protocol: A New Phase Began: Exchange Phase
Sat Dec 08 10:37:30 IST 2012	Protocol: Exchange phase, Round: 11
Sat Dec 08 10:37:30 IST 2012	In begin exch.phase, get counter offers returned: 0
Sat Dec 08 10:38:11 IST 2012	A Phase Ended: Exchange Phase
Sat Dec 08 10:38:11 IST 2012	Proposer 337 sent: { chips  }
Sat Dec 08 10:38:11 IST 2012	Protocol: A New Phase Began: Movement Phase
Sat Dec 08 10:38:11 IST 2012	Protocol: Movement phase, Round: 11
Sat Dec 08 10:38:11 IST 2012	Player 337 moved to (R:3,C:3)
Sat Dec 08 10:38:31 IST 2012	A Phase Ended: Movement Phase
Sat Dec 08 10:38:31 IST 2012	Protocol: A New Phase Began: Feedback Phase
Sat Dec 08 10:38:31 IST 2012	Protocol: Feedback phase, Round: 11
Sat Dec 08 10:38:31 IST 2012	Number of consecutive no movements for player 337 is 0
Sat Dec 08 10:38:31 IST 2012	Number of consecutive no movements for player 210 is 3
Sat Dec 08 10:38:31 IST 2012	Ending game, all players move as much as they can towards goal
Sat Dec 08 10:38:31 IST 2012	Player: 337 ,role: Proposer score is: 185
Sat Dec 08 10:38:31 IST 2012	Player: 210 ,role: Responder score is: 50
