Thu Dec 06 13:35:22 IST 2012	This is the CT debug logger; svn version 638; sep 27 09
Thu Dec 06 13:35:22 IST 2012	Thu Dec 06 13:35:22 IST 2012
Thu Dec 06 13:35:22 IST 2012	A new Alternative Offers game has began
Thu Dec 06 13:35:22 IST 2012	ID Number: 42685
Thu Dec 06 13:35:22 IST 2012	Creating board
Thu Dec 06 13:35:22 IST 2012	<colors>
Thu Dec 06 13:35:22 IST 2012	{ GamePalette  'CTRed':0 'CTPurple':1 'CTGreen':2 'grey78':3 }
Thu Dec 06 13:35:22 IST 2012	<rows>
Thu Dec 06 13:35:22 IST 2012	7
Thu Dec 06 13:35:22 IST 2012	<columns>
Thu Dec 06 13:35:22 IST 2012	5
Thu Dec 06 13:35:22 IST 2012	<squaresColors>
Thu Dec 06 13:35:22 IST 2012	CTPurple CTRed CTRed CTGreen CTPurple 
Thu Dec 06 13:35:22 IST 2012	CTPurple grey78 CTPurple grey78 CTPurple 
Thu Dec 06 13:35:22 IST 2012	CTPurple CTRed CTPurple CTGreen CTPurple 
Thu Dec 06 13:35:22 IST 2012	CTPurple grey78 CTPurple grey78 CTPurple 
Thu Dec 06 13:35:22 IST 2012	CTPurple CTRed CTPurple CTGreen CTPurple 
Thu Dec 06 13:35:22 IST 2012	CTPurple grey78 CTPurple grey78 CTPurple 
Thu Dec 06 13:35:22 IST 2012	CTPurple CTRed CTPurple CTGreen CTPurple 
Thu Dec 06 13:35:22 IST 2012	</squareColors>
Thu Dec 06 13:35:22 IST 2012	<goalPosition>
Thu Dec 06 13:35:22 IST 2012	Goal position: (R:0,C:2)
Thu Dec 06 13:35:22 IST 2012	<numberOfPlayers>
Thu Dec 06 13:35:22 IST 2012	2
Thu Dec 06 13:35:22 IST 2012	<firstPlayerChips>
Thu Dec 06 13:35:22 IST 2012	Setting chips for player: 337 id:0
Thu Dec 06 13:35:22 IST 2012	{ chips  'CTRed':1 'CTGreen':13 'CTPurple':0 'grey78':10 }
Thu Dec 06 13:35:22 IST 2012	Player position: (R:6,C:4)
Thu Dec 06 13:35:22 IST 2012	Setting chips for player: 210 id:1
Thu Dec 06 13:35:22 IST 2012	{ chips  'CTRed':5 'CTGreen':19 'CTPurple':0 'grey78':0 }
Thu Dec 06 13:35:22 IST 2012	Player position: (R:6,C:0)
Thu Dec 06 13:35:22 IST 2012	Protocol: A New Phase Began: Strategy Prep Phase
Thu Dec 06 13:35:22 IST 2012	Protocol: Strategy Preparation phase, Round: 0
Thu Dec 06 13:35:22 IST 2012	Maximum number of rounds with no consecutive movement is 3
Thu Dec 06 13:35:22 IST 2012	In begin comm. phase, set counter offers count to: 0
Thu Dec 06 13:35:22 IST 2012	In begin comm. phase, get counter offers returned: 0
Thu Dec 06 13:35:43 IST 2012	A Phase Ended: Strategy Prep Phase
Thu Dec 06 13:35:43 IST 2012	Protocol: A New Phase Began: Communication Phase
Thu Dec 06 13:35:43 IST 2012	Protocol: Communication phase, Round: 0
Thu Dec 06 13:36:43 IST 2012	Received communication message 
Thu Dec 06 13:36:43 IST 2012	From player: 337
Thu Dec 06 13:36:43 IST 2012	To player: 210
Thu Dec 06 13:36:43 IST 2012	Message type: basicproposal
Thu Dec 06 13:36:43 IST 2012	Chips to send by proposer: { chips  'grey78':3 }
Thu Dec 06 13:36:43 IST 2012	Chips to send by responder: { chips  'CTGreen':2 }
Thu Dec 06 13:36:56 IST 2012	Received communication message 
Thu Dec 06 13:36:56 IST 2012	From player: 210
Thu Dec 06 13:36:56 IST 2012	To player: 337
Thu Dec 06 13:36:56 IST 2012	Message type: basicproposaldiscussion
Thu Dec 06 13:36:56 IST 2012	Player 210 accepted offer
Thu Dec 06 13:36:56 IST 2012	Prop accepted, set counter offers count to: 0
Thu Dec 06 13:36:56 IST 2012	Prop accepted, get counter offers returned: 0
Thu Dec 06 13:36:56 IST 2012	A Phase Ended: Communication Phase
Thu Dec 06 13:36:56 IST 2012	Protocol: A New Phase Began: Exchange Phase
Thu Dec 06 13:36:56 IST 2012	Protocol: Exchange phase, Round: 0
Thu Dec 06 13:36:56 IST 2012	In begin exch.phase, get counter offers returned: 0
Thu Dec 06 13:37:25 IST 2012	A Phase Ended: Exchange Phase
Thu Dec 06 13:37:25 IST 2012	Proposer 337 sent: { chips  'CTRed':0 'CTPurple':0 'CTGreen':0 'grey78':1 }
Thu Dec 06 13:37:25 IST 2012	Responder 210 sent: { chips  'CTRed':0 'CTPurple':0 'CTGreen':1 'grey78':0 }
Thu Dec 06 13:37:25 IST 2012	Protocol: A New Phase Began: Movement Phase
Thu Dec 06 13:37:25 IST 2012	Protocol: Movement phase, Round: 0
Thu Dec 06 13:37:45 IST 2012	A Phase Ended: Movement Phase
Thu Dec 06 13:37:45 IST 2012	Swaping roles:
Thu Dec 06 13:37:45 IST 2012	Proposer is: 210
Thu Dec 06 13:37:45 IST 2012	Responder is: 337
Thu Dec 06 13:37:45 IST 2012	Protocol: A New Phase Began: Feedback Phase
Thu Dec 06 13:37:45 IST 2012	Protocol: Feedback phase, Round: 0
Thu Dec 06 13:37:45 IST 2012	Number of consecutive no movements for player 337 is 1
Thu Dec 06 13:37:45 IST 2012	Number of consecutive no movements for player 210 is 1
Thu Dec 06 13:37:50 IST 2012	A Phase Ended: Feedback Phase
Thu Dec 06 13:37:50 IST 2012	Protocol: A New Phase Began: Communication Phase
Thu Dec 06 13:37:50 IST 2012	Protocol: Communication phase, Round: 1
Thu Dec 06 13:38:07 IST 2012	Received communication message 
Thu Dec 06 13:38:07 IST 2012	From player: 210
Thu Dec 06 13:38:07 IST 2012	To player: 337
Thu Dec 06 13:38:07 IST 2012	Message type: basicproposal
Thu Dec 06 13:38:07 IST 2012	Chips to send by proposer: { chips  'CTRed':0 'CTPurple':0 'CTGreen':1 'grey78':0 }
Thu Dec 06 13:38:07 IST 2012	Chips to send by responder: { chips  'CTRed':0 'CTPurple':0 'CTGreen':0 'grey78':1 }
Thu Dec 06 13:39:07 IST 2012	Received communication message 
Thu Dec 06 13:39:07 IST 2012	From player: 337
Thu Dec 06 13:39:07 IST 2012	To player: 210
Thu Dec 06 13:39:07 IST 2012	Message type: basicproposaldiscussion
Thu Dec 06 13:39:07 IST 2012	Player 337 rejected offer
Thu Dec 06 13:39:07 IST 2012	Swaping roles:
Thu Dec 06 13:39:07 IST 2012	Proposer is: 337
Thu Dec 06 13:39:07 IST 2012	Responder is: 210
Thu Dec 06 13:39:07 IST 2012	Prop rejected, set counter offers count to: 1
Thu Dec 06 13:39:07 IST 2012	Prop rejected, get counter offers returned: 1
Thu Dec 06 13:39:11 IST 2012	Slept 4 seconds
Thu Dec 06 13:39:11 IST 2012	Sent role changed msgs
Thu Dec 06 13:40:11 IST 2012	Received communication message 
Thu Dec 06 13:40:11 IST 2012	From player: 337
Thu Dec 06 13:40:11 IST 2012	To player: 210
Thu Dec 06 13:40:11 IST 2012	Message type: basicproposal
Thu Dec 06 13:40:11 IST 2012	Chips to send by proposer: { chips  'CTRed':0 'CTPurple':0 'CTGreen':0 'grey78':2 }
Thu Dec 06 13:40:11 IST 2012	Chips to send by responder: { chips  'CTRed':0 'CTPurple':0 'CTGreen':1 'grey78':0 }
Thu Dec 06 13:40:25 IST 2012	Received communication message 
Thu Dec 06 13:40:25 IST 2012	From player: 210
Thu Dec 06 13:40:25 IST 2012	To player: 337
Thu Dec 06 13:40:25 IST 2012	Message type: basicproposaldiscussion
Thu Dec 06 13:40:25 IST 2012	Player 210 rejected offer
Thu Dec 06 13:40:25 IST 2012	Set counter offers count to: 0
Thu Dec 06 13:40:25 IST 2012	A Phase Ended: Communication Phase
Thu Dec 06 13:40:25 IST 2012	Protocol: A New Phase Began: Exchange Phase
Thu Dec 06 13:40:25 IST 2012	Protocol: Exchange phase, Round: 1
Thu Dec 06 13:40:25 IST 2012	In begin exch.phase, get counter offers returned: 0
Thu Dec 06 13:41:05 IST 2012	A Phase Ended: Exchange Phase
Thu Dec 06 13:41:05 IST 2012	Proposer 337 sent: { chips  }
Thu Dec 06 13:41:05 IST 2012	Protocol: A New Phase Began: Movement Phase
Thu Dec 06 13:41:05 IST 2012	Protocol: Movement phase, Round: 1
Thu Dec 06 13:41:25 IST 2012	A Phase Ended: Movement Phase
Thu Dec 06 13:41:25 IST 2012	Protocol: A New Phase Began: Feedback Phase
Thu Dec 06 13:41:25 IST 2012	Protocol: Feedback phase, Round: 1
Thu Dec 06 13:41:25 IST 2012	Number of consecutive no movements for player 337 is 2
Thu Dec 06 13:41:25 IST 2012	Number of consecutive no movements for player 210 is 2
Thu Dec 06 13:41:30 IST 2012	A Phase Ended: Feedback Phase
Thu Dec 06 13:41:30 IST 2012	Protocol: A New Phase Began: Communication Phase
Thu Dec 06 13:41:30 IST 2012	Protocol: Communication phase, Round: 2
Thu Dec 06 13:42:30 IST 2012	Received communication message 
Thu Dec 06 13:42:30 IST 2012	From player: 337
Thu Dec 06 13:42:30 IST 2012	To player: 210
Thu Dec 06 13:42:30 IST 2012	Message type: basicproposal
Thu Dec 06 13:42:30 IST 2012	Chips to send by proposer: { chips  'grey78':2 }
Thu Dec 06 13:42:30 IST 2012	Chips to send by responder: { chips  'CTGreen':1 }
Thu Dec 06 13:42:43 IST 2012	Received communication message 
Thu Dec 06 13:42:43 IST 2012	From player: 210
Thu Dec 06 13:42:43 IST 2012	To player: 337
Thu Dec 06 13:42:43 IST 2012	Message type: basicproposaldiscussion
Thu Dec 06 13:42:43 IST 2012	Player 210 rejected offer
Thu Dec 06 13:42:43 IST 2012	Swaping roles:
Thu Dec 06 13:42:43 IST 2012	Proposer is: 210
Thu Dec 06 13:42:43 IST 2012	Responder is: 337
Thu Dec 06 13:42:43 IST 2012	Prop rejected, set counter offers count to: 1
Thu Dec 06 13:42:43 IST 2012	Prop rejected, get counter offers returned: 1
Thu Dec 06 13:42:47 IST 2012	Slept 4 seconds
Thu Dec 06 13:42:47 IST 2012	Sent role changed msgs
Thu Dec 06 13:43:05 IST 2012	Received communication message 
Thu Dec 06 13:43:05 IST 2012	From player: 210
Thu Dec 06 13:43:05 IST 2012	To player: 337
Thu Dec 06 13:43:05 IST 2012	Message type: basicproposal
Thu Dec 06 13:43:05 IST 2012	Chips to send by proposer: { chips  'CTRed':0 'CTPurple':0 'CTGreen':1 'grey78':0 }
Thu Dec 06 13:43:05 IST 2012	Chips to send by responder: { chips  'CTRed':0 'CTPurple':0 'CTGreen':0 'grey78':1 }
Thu Dec 06 13:44:05 IST 2012	Received communication message 
Thu Dec 06 13:44:05 IST 2012	From player: 337
Thu Dec 06 13:44:05 IST 2012	To player: 210
Thu Dec 06 13:44:05 IST 2012	Message type: basicproposaldiscussion
Thu Dec 06 13:44:05 IST 2012	Player 337 rejected offer
Thu Dec 06 13:44:05 IST 2012	Set counter offers count to: 0
Thu Dec 06 13:44:05 IST 2012	A Phase Ended: Communication Phase
Thu Dec 06 13:44:05 IST 2012	Protocol: A New Phase Began: Exchange Phase
Thu Dec 06 13:44:05 IST 2012	Protocol: Exchange phase, Round: 2
Thu Dec 06 13:44:05 IST 2012	In begin exch.phase, get counter offers returned: 0
Thu Dec 06 13:44:45 IST 2012	A Phase Ended: Exchange Phase
Thu Dec 06 13:44:45 IST 2012	Responder 337 sent: { chips  }
Thu Dec 06 13:44:45 IST 2012	Protocol: A New Phase Began: Movement Phase
Thu Dec 06 13:44:45 IST 2012	Protocol: Movement phase, Round: 2
Thu Dec 06 13:44:45 IST 2012	Player 337 moved to (R:6,C:3)
Thu Dec 06 13:44:45 IST 2012	Player 210 moved to (R:6,C:1)
Thu Dec 06 13:45:05 IST 2012	A Phase Ended: Movement Phase
Thu Dec 06 13:45:05 IST 2012	Protocol: A New Phase Began: Feedback Phase
Thu Dec 06 13:45:05 IST 2012	Protocol: Feedback phase, Round: 2
Thu Dec 06 13:45:05 IST 2012	Number of consecutive no movements for player 337 is 0
Thu Dec 06 13:45:05 IST 2012	Number of consecutive no movements for player 210 is 0
Thu Dec 06 13:45:10 IST 2012	A Phase Ended: Feedback Phase
Thu Dec 06 13:45:10 IST 2012	Protocol: A New Phase Began: Communication Phase
Thu Dec 06 13:45:10 IST 2012	Protocol: Communication phase, Round: 3
Thu Dec 06 13:45:24 IST 2012	Received communication message 
Thu Dec 06 13:45:24 IST 2012	From player: 210
Thu Dec 06 13:45:24 IST 2012	To player: 337
Thu Dec 06 13:45:24 IST 2012	Message type: basicproposal
Thu Dec 06 13:45:24 IST 2012	Chips to send by proposer: { chips  'CTRed':0 'CTPurple':0 'CTGreen':1 'grey78':0 }
Thu Dec 06 13:45:24 IST 2012	Chips to send by responder: { chips  'CTRed':0 'CTPurple':0 'CTGreen':0 'grey78':1 }
Thu Dec 06 13:46:22 IST 2012	Received communication message 
Thu Dec 06 13:46:22 IST 2012	From player: 337
Thu Dec 06 13:46:22 IST 2012	To player: 210
Thu Dec 06 13:46:22 IST 2012	Message type: basicproposaldiscussion
Thu Dec 06 13:46:22 IST 2012	Player 337 rejected offer
Thu Dec 06 13:46:22 IST 2012	Swaping roles:
Thu Dec 06 13:46:22 IST 2012	Proposer is: 337
Thu Dec 06 13:46:22 IST 2012	Responder is: 210
Thu Dec 06 13:46:22 IST 2012	Prop rejected, set counter offers count to: 1
Thu Dec 06 13:46:22 IST 2012	Prop rejected, get counter offers returned: 1
Thu Dec 06 13:46:26 IST 2012	Slept 4 seconds
Thu Dec 06 13:46:26 IST 2012	Sent role changed msgs
Thu Dec 06 13:47:26 IST 2012	Received communication message 
Thu Dec 06 13:47:26 IST 2012	From player: 337
Thu Dec 06 13:47:26 IST 2012	To player: 210
Thu Dec 06 13:47:26 IST 2012	Message type: basicproposal
Thu Dec 06 13:47:26 IST 2012	Chips to send by proposer: { chips  'CTRed':0 'CTPurple':0 'CTGreen':0 'grey78':2 }
Thu Dec 06 13:47:26 IST 2012	Chips to send by responder: { chips  'CTRed':0 'CTPurple':0 'CTGreen':1 'grey78':0 }
Thu Dec 06 13:47:36 IST 2012	Received communication message 
Thu Dec 06 13:47:36 IST 2012	From player: 210
Thu Dec 06 13:47:36 IST 2012	To player: 337
Thu Dec 06 13:47:36 IST 2012	Message type: basicproposaldiscussion
Thu Dec 06 13:47:36 IST 2012	Player 210 rejected offer
Thu Dec 06 13:47:36 IST 2012	Set counter offers count to: 0
Thu Dec 06 13:47:36 IST 2012	A Phase Ended: Communication Phase
Thu Dec 06 13:47:36 IST 2012	Protocol: A New Phase Began: Exchange Phase
Thu Dec 06 13:47:36 IST 2012	Protocol: Exchange phase, Round: 3
Thu Dec 06 13:47:36 IST 2012	In begin exch.phase, get counter offers returned: 0
Thu Dec 06 13:48:16 IST 2012	A Phase Ended: Exchange Phase
Thu Dec 06 13:48:16 IST 2012	Proposer 337 sent: { chips  }
Thu Dec 06 13:48:16 IST 2012	Protocol: A New Phase Began: Movement Phase
Thu Dec 06 13:48:16 IST 2012	Protocol: Movement phase, Round: 3
Thu Dec 06 13:48:36 IST 2012	A Phase Ended: Movement Phase
Thu Dec 06 13:48:36 IST 2012	Protocol: A New Phase Began: Feedback Phase
Thu Dec 06 13:48:36 IST 2012	Protocol: Feedback phase, Round: 3
Thu Dec 06 13:48:36 IST 2012	Number of consecutive no movements for player 337 is 1
Thu Dec 06 13:48:36 IST 2012	Number of consecutive no movements for player 210 is 1
Thu Dec 06 13:48:41 IST 2012	A Phase Ended: Feedback Phase
Thu Dec 06 13:48:41 IST 2012	Protocol: A New Phase Began: Communication Phase
Thu Dec 06 13:48:41 IST 2012	Protocol: Communication phase, Round: 4
Thu Dec 06 13:49:41 IST 2012	Received communication message 
Thu Dec 06 13:49:41 IST 2012	From player: 337
Thu Dec 06 13:49:41 IST 2012	To player: 210
Thu Dec 06 13:49:41 IST 2012	Message type: basicproposal
Thu Dec 06 13:49:41 IST 2012	Chips to send by proposer: { chips  'grey78':2 }
Thu Dec 06 13:49:41 IST 2012	Chips to send by responder: { chips  'CTGreen':1 }
Thu Dec 06 13:49:53 IST 2012	Received communication message 
Thu Dec 06 13:49:53 IST 2012	From player: 210
Thu Dec 06 13:49:53 IST 2012	To player: 337
Thu Dec 06 13:49:53 IST 2012	Message type: basicproposaldiscussion
Thu Dec 06 13:49:53 IST 2012	Player 210 rejected offer
Thu Dec 06 13:49:53 IST 2012	Swaping roles:
Thu Dec 06 13:49:53 IST 2012	Proposer is: 210
Thu Dec 06 13:49:53 IST 2012	Responder is: 337
Thu Dec 06 13:49:53 IST 2012	Prop rejected, set counter offers count to: 1
Thu Dec 06 13:49:53 IST 2012	Prop rejected, get counter offers returned: 1
Thu Dec 06 13:49:57 IST 2012	Slept 4 seconds
Thu Dec 06 13:49:57 IST 2012	Sent role changed msgs
Thu Dec 06 13:50:14 IST 2012	Received communication message 
Thu Dec 06 13:50:14 IST 2012	From player: 210
Thu Dec 06 13:50:14 IST 2012	To player: 337
Thu Dec 06 13:50:14 IST 2012	Message type: basicproposal
Thu Dec 06 13:50:14 IST 2012	Chips to send by proposer: { chips  'CTRed':0 'CTPurple':0 'CTGreen':1 'grey78':0 }
Thu Dec 06 13:50:14 IST 2012	Chips to send by responder: { chips  'CTRed':0 'CTPurple':0 'CTGreen':0 'grey78':1 }
Thu Dec 06 13:51:04 IST 2012	Received communication message 
Thu Dec 06 13:51:04 IST 2012	From player: 337
Thu Dec 06 13:51:04 IST 2012	To player: 210
Thu Dec 06 13:51:04 IST 2012	Message type: basicproposaldiscussion
Thu Dec 06 13:51:04 IST 2012	Player 337 rejected offer
Thu Dec 06 13:51:04 IST 2012	Set counter offers count to: 0
Thu Dec 06 13:51:04 IST 2012	A Phase Ended: Communication Phase
Thu Dec 06 13:51:04 IST 2012	Protocol: A New Phase Began: Exchange Phase
Thu Dec 06 13:51:04 IST 2012	Protocol: Exchange phase, Round: 4
Thu Dec 06 13:51:04 IST 2012	In begin exch.phase, get counter offers returned: 0
Thu Dec 06 13:51:44 IST 2012	A Phase Ended: Exchange Phase
Thu Dec 06 13:51:44 IST 2012	Responder 337 sent: { chips  }
Thu Dec 06 13:51:44 IST 2012	Protocol: A New Phase Began: Movement Phase
Thu Dec 06 13:51:44 IST 2012	Protocol: Movement phase, Round: 4
Thu Dec 06 13:52:04 IST 2012	A Phase Ended: Movement Phase
Thu Dec 06 13:52:04 IST 2012	Protocol: A New Phase Began: Feedback Phase
Thu Dec 06 13:52:04 IST 2012	Protocol: Feedback phase, Round: 4
Thu Dec 06 13:52:04 IST 2012	Number of consecutive no movements for player 337 is 2
Thu Dec 06 13:52:04 IST 2012	Number of consecutive no movements for player 210 is 2
Thu Dec 06 13:52:09 IST 2012	A Phase Ended: Feedback Phase
Thu Dec 06 13:52:09 IST 2012	Protocol: A New Phase Began: Communication Phase
Thu Dec 06 13:52:09 IST 2012	Protocol: Communication phase, Round: 5
Thu Dec 06 13:52:25 IST 2012	Received communication message 
Thu Dec 06 13:52:25 IST 2012	From player: 210
Thu Dec 06 13:52:25 IST 2012	To player: 337
Thu Dec 06 13:52:25 IST 2012	Message type: basicproposal
Thu Dec 06 13:52:25 IST 2012	Chips to send by proposer: { chips  'CTRed':0 'CTPurple':0 'CTGreen':1 'grey78':0 }
Thu Dec 06 13:52:25 IST 2012	Chips to send by responder: { chips  'CTRed':0 'CTPurple':0 'CTGreen':0 'grey78':1 }
Thu Dec 06 13:53:10 IST 2012	Received communication message 
Thu Dec 06 13:53:10 IST 2012	From player: 337
Thu Dec 06 13:53:10 IST 2012	To player: 210
Thu Dec 06 13:53:10 IST 2012	Message type: basicproposaldiscussion
Thu Dec 06 13:53:10 IST 2012	Player 337 rejected offer
Thu Dec 06 13:53:10 IST 2012	Swaping roles:
Thu Dec 06 13:53:10 IST 2012	Proposer is: 337
Thu Dec 06 13:53:10 IST 2012	Responder is: 210
Thu Dec 06 13:53:10 IST 2012	Prop rejected, set counter offers count to: 1
Thu Dec 06 13:53:10 IST 2012	Prop rejected, get counter offers returned: 1
Thu Dec 06 13:53:14 IST 2012	Slept 4 seconds
Thu Dec 06 13:53:14 IST 2012	Sent role changed msgs
Thu Dec 06 13:54:14 IST 2012	Received communication message 
Thu Dec 06 13:54:14 IST 2012	From player: 337
Thu Dec 06 13:54:14 IST 2012	To player: 210
Thu Dec 06 13:54:14 IST 2012	Message type: basicproposal
Thu Dec 06 13:54:14 IST 2012	Chips to send by proposer: { chips  'CTRed':0 'CTPurple':0 'CTGreen':0 'grey78':2 }
Thu Dec 06 13:54:14 IST 2012	Chips to send by responder: { chips  'CTRed':0 'CTPurple':0 'CTGreen':1 'grey78':0 }
Thu Dec 06 13:54:21 IST 2012	Received communication message 
Thu Dec 06 13:54:21 IST 2012	From player: 210
Thu Dec 06 13:54:21 IST 2012	To player: 337
Thu Dec 06 13:54:21 IST 2012	Message type: basicproposaldiscussion
Thu Dec 06 13:54:21 IST 2012	Player 210 rejected offer
Thu Dec 06 13:54:21 IST 2012	Set counter offers count to: 0
Thu Dec 06 13:54:21 IST 2012	A Phase Ended: Communication Phase
Thu Dec 06 13:54:21 IST 2012	Protocol: A New Phase Began: Exchange Phase
Thu Dec 06 13:54:21 IST 2012	Protocol: Exchange phase, Round: 5
Thu Dec 06 13:54:21 IST 2012	In begin exch.phase, get counter offers returned: 0
Thu Dec 06 13:55:02 IST 2012	A Phase Ended: Exchange Phase
Thu Dec 06 13:55:02 IST 2012	Proposer 337 sent: { chips  }
Thu Dec 06 13:55:02 IST 2012	Protocol: A New Phase Began: Movement Phase
Thu Dec 06 13:55:02 IST 2012	Protocol: Movement phase, Round: 5
Thu Dec 06 13:55:02 IST 2012	Player 337 moved to (R:5,C:3)
Thu Dec 06 13:55:02 IST 2012	Player 210 moved to (R:5,C:1)
Thu Dec 06 13:55:22 IST 2012	A Phase Ended: Movement Phase
Thu Dec 06 13:55:22 IST 2012	Protocol: A New Phase Began: Feedback Phase
Thu Dec 06 13:55:22 IST 2012	Protocol: Feedback phase, Round: 5
Thu Dec 06 13:55:22 IST 2012	Number of consecutive no movements for player 337 is 0
Thu Dec 06 13:55:22 IST 2012	Number of consecutive no movements for player 210 is 0
Thu Dec 06 13:55:27 IST 2012	A Phase Ended: Feedback Phase
Thu Dec 06 13:55:27 IST 2012	Protocol: A New Phase Began: Communication Phase
Thu Dec 06 13:55:27 IST 2012	Protocol: Communication phase, Round: 6
Thu Dec 06 13:56:27 IST 2012	Received communication message 
Thu Dec 06 13:56:27 IST 2012	From player: 337
Thu Dec 06 13:56:27 IST 2012	To player: 210
Thu Dec 06 13:56:27 IST 2012	Message type: basicproposal
Thu Dec 06 13:56:27 IST 2012	Chips to send by proposer: { chips  'grey78':2 }
Thu Dec 06 13:56:27 IST 2012	Chips to send by responder: { chips  'CTGreen':1 }
Thu Dec 06 13:56:40 IST 2012	Received communication message 
Thu Dec 06 13:56:40 IST 2012	From player: 210
Thu Dec 06 13:56:40 IST 2012	To player: 337
Thu Dec 06 13:56:40 IST 2012	Message type: basicproposaldiscussion
Thu Dec 06 13:56:40 IST 2012	Player 210 rejected offer
Thu Dec 06 13:56:40 IST 2012	Swaping roles:
Thu Dec 06 13:56:40 IST 2012	Proposer is: 210
Thu Dec 06 13:56:40 IST 2012	Responder is: 337
Thu Dec 06 13:56:40 IST 2012	Prop rejected, set counter offers count to: 1
Thu Dec 06 13:56:40 IST 2012	Prop rejected, get counter offers returned: 1
Thu Dec 06 13:56:44 IST 2012	Slept 4 seconds
Thu Dec 06 13:56:44 IST 2012	Sent role changed msgs
Thu Dec 06 13:57:03 IST 2012	Received communication message 
Thu Dec 06 13:57:03 IST 2012	From player: 210
Thu Dec 06 13:57:03 IST 2012	To player: 337
Thu Dec 06 13:57:03 IST 2012	Message type: basicproposal
Thu Dec 06 13:57:03 IST 2012	Chips to send by proposer: { chips  'CTRed':0 'CTPurple':0 'CTGreen':1 'grey78':0 }
Thu Dec 06 13:57:03 IST 2012	Chips to send by responder: { chips  'CTRed':0 'CTPurple':0 'CTGreen':0 'grey78':1 }
Thu Dec 06 13:57:40 IST 2012	Received communication message 
Thu Dec 06 13:57:40 IST 2012	From player: 337
Thu Dec 06 13:57:40 IST 2012	To player: 210
Thu Dec 06 13:57:40 IST 2012	Message type: basicproposaldiscussion
Thu Dec 06 13:57:40 IST 2012	Player 337 rejected offer
Thu Dec 06 13:57:40 IST 2012	Set counter offers count to: 0
Thu Dec 06 13:57:40 IST 2012	A Phase Ended: Communication Phase
Thu Dec 06 13:57:40 IST 2012	Protocol: A New Phase Began: Exchange Phase
Thu Dec 06 13:57:40 IST 2012	Protocol: Exchange phase, Round: 6
Thu Dec 06 13:57:40 IST 2012	In begin exch.phase, get counter offers returned: 0
Thu Dec 06 13:58:19 IST 2012	A Phase Ended: Exchange Phase
Thu Dec 06 13:58:19 IST 2012	Responder 337 sent: { chips  }
Thu Dec 06 13:58:19 IST 2012	Protocol: A New Phase Began: Movement Phase
Thu Dec 06 13:58:19 IST 2012	Protocol: Movement phase, Round: 6
Thu Dec 06 13:58:40 IST 2012	A Phase Ended: Movement Phase
Thu Dec 06 13:58:40 IST 2012	Protocol: A New Phase Began: Feedback Phase
Thu Dec 06 13:58:40 IST 2012	Protocol: Feedback phase, Round: 6
Thu Dec 06 13:58:40 IST 2012	Number of consecutive no movements for player 337 is 1
Thu Dec 06 13:58:40 IST 2012	Number of consecutive no movements for player 210 is 1
Thu Dec 06 13:58:45 IST 2012	A Phase Ended: Feedback Phase
Thu Dec 06 13:58:45 IST 2012	Protocol: A New Phase Began: Communication Phase
Thu Dec 06 13:58:45 IST 2012	Protocol: Communication phase, Round: 7
Thu Dec 06 13:58:59 IST 2012	Received communication message 
Thu Dec 06 13:58:59 IST 2012	From player: 210
Thu Dec 06 13:58:59 IST 2012	To player: 337
Thu Dec 06 13:58:59 IST 2012	Message type: basicproposal
Thu Dec 06 13:58:59 IST 2012	Chips to send by proposer: { chips  'CTRed':0 'CTPurple':0 'CTGreen':1 'grey78':0 }
Thu Dec 06 13:58:59 IST 2012	Chips to send by responder: { chips  'CTRed':0 'CTPurple':0 'CTGreen':0 'grey78':1 }
Thu Dec 06 13:59:32 IST 2012	Received communication message 
Thu Dec 06 13:59:32 IST 2012	From player: 337
Thu Dec 06 13:59:32 IST 2012	To player: 210
Thu Dec 06 13:59:32 IST 2012	Message type: basicproposaldiscussion
Thu Dec 06 13:59:32 IST 2012	Player 337 rejected offer
Thu Dec 06 13:59:32 IST 2012	Swaping roles:
Thu Dec 06 13:59:32 IST 2012	Proposer is: 337
Thu Dec 06 13:59:32 IST 2012	Responder is: 210
Thu Dec 06 13:59:32 IST 2012	Prop rejected, set counter offers count to: 1
Thu Dec 06 13:59:32 IST 2012	Prop rejected, get counter offers returned: 1
Thu Dec 06 13:59:36 IST 2012	Slept 4 seconds
Thu Dec 06 13:59:36 IST 2012	Sent role changed msgs
Thu Dec 06 14:00:36 IST 2012	Received communication message 
Thu Dec 06 14:00:36 IST 2012	From player: 337
Thu Dec 06 14:00:36 IST 2012	To player: 210
Thu Dec 06 14:00:36 IST 2012	Message type: basicproposal
Thu Dec 06 14:00:36 IST 2012	Chips to send by proposer: { chips  'CTRed':0 'CTPurple':0 'CTGreen':0 'grey78':2 }
Thu Dec 06 14:00:36 IST 2012	Chips to send by responder: { chips  'CTRed':0 'CTPurple':0 'CTGreen':1 'grey78':0 }
Thu Dec 06 14:00:46 IST 2012	Received communication message 
Thu Dec 06 14:00:46 IST 2012	From player: 210
Thu Dec 06 14:00:46 IST 2012	To player: 337
Thu Dec 06 14:00:46 IST 2012	Message type: basicproposaldiscussion
Thu Dec 06 14:00:46 IST 2012	Player 210 rejected offer
Thu Dec 06 14:00:46 IST 2012	Set counter offers count to: 0
Thu Dec 06 14:00:46 IST 2012	A Phase Ended: Communication Phase
Thu Dec 06 14:00:46 IST 2012	Protocol: A New Phase Began: Exchange Phase
Thu Dec 06 14:00:46 IST 2012	Protocol: Exchange phase, Round: 7
Thu Dec 06 14:00:46 IST 2012	In begin exch.phase, get counter offers returned: 0
Thu Dec 06 14:01:26 IST 2012	A Phase Ended: Exchange Phase
Thu Dec 06 14:01:26 IST 2012	Proposer 337 sent: { chips  }
Thu Dec 06 14:01:26 IST 2012	Protocol: A New Phase Began: Movement Phase
Thu Dec 06 14:01:26 IST 2012	Protocol: Movement phase, Round: 7
Thu Dec 06 14:01:46 IST 2012	A Phase Ended: Movement Phase
Thu Dec 06 14:01:46 IST 2012	Protocol: A New Phase Began: Feedback Phase
Thu Dec 06 14:01:46 IST 2012	Protocol: Feedback phase, Round: 7
Thu Dec 06 14:01:46 IST 2012	Number of consecutive no movements for player 337 is 2
Thu Dec 06 14:01:46 IST 2012	Number of consecutive no movements for player 210 is 2
Thu Dec 06 14:01:51 IST 2012	A Phase Ended: Feedback Phase
Thu Dec 06 14:01:51 IST 2012	Protocol: A New Phase Began: Communication Phase
Thu Dec 06 14:01:51 IST 2012	Protocol: Communication phase, Round: 8
Thu Dec 06 14:02:51 IST 2012	Received communication message 
Thu Dec 06 14:02:51 IST 2012	From player: 337
Thu Dec 06 14:02:51 IST 2012	To player: 210
Thu Dec 06 14:02:51 IST 2012	Message type: basicproposal
Thu Dec 06 14:02:51 IST 2012	Chips to send by proposer: { chips  'grey78':2 }
Thu Dec 06 14:02:51 IST 2012	Chips to send by responder: { chips  'CTGreen':1 }
Thu Dec 06 14:03:01 IST 2012	Received communication message 
Thu Dec 06 14:03:01 IST 2012	From player: 210
Thu Dec 06 14:03:01 IST 2012	To player: 337
Thu Dec 06 14:03:01 IST 2012	Message type: basicproposaldiscussion
Thu Dec 06 14:03:01 IST 2012	Player 210 rejected offer
Thu Dec 06 14:03:01 IST 2012	Swaping roles:
Thu Dec 06 14:03:01 IST 2012	Proposer is: 210
Thu Dec 06 14:03:01 IST 2012	Responder is: 337
Thu Dec 06 14:03:01 IST 2012	Prop rejected, set counter offers count to: 1
Thu Dec 06 14:03:01 IST 2012	Prop rejected, get counter offers returned: 1
Thu Dec 06 14:03:05 IST 2012	Slept 4 seconds
Thu Dec 06 14:03:05 IST 2012	Sent role changed msgs
Thu Dec 06 14:03:25 IST 2012	Received communication message 
Thu Dec 06 14:03:25 IST 2012	From player: 210
Thu Dec 06 14:03:25 IST 2012	To player: 337
Thu Dec 06 14:03:25 IST 2012	Message type: basicproposal
Thu Dec 06 14:03:25 IST 2012	Chips to send by proposer: { chips  'CTRed':0 'CTPurple':0 'CTGreen':1 'grey78':0 }
Thu Dec 06 14:03:25 IST 2012	Chips to send by responder: { chips  'CTRed':0 'CTPurple':0 'CTGreen':0 'grey78':1 }
Thu Dec 06 14:03:49 IST 2012	Received communication message 
Thu Dec 06 14:03:49 IST 2012	From player: 337
Thu Dec 06 14:03:49 IST 2012	To player: 210
Thu Dec 06 14:03:49 IST 2012	Message type: basicproposaldiscussion
Thu Dec 06 14:03:49 IST 2012	Player 337 rejected offer
Thu Dec 06 14:03:49 IST 2012	Set counter offers count to: 0
Thu Dec 06 14:03:49 IST 2012	A Phase Ended: Communication Phase
Thu Dec 06 14:03:49 IST 2012	Protocol: A New Phase Began: Exchange Phase
Thu Dec 06 14:03:49 IST 2012	Protocol: Exchange phase, Round: 8
Thu Dec 06 14:03:49 IST 2012	In begin exch.phase, get counter offers returned: 0
Thu Dec 06 14:04:28 IST 2012	A Phase Ended: Exchange Phase
Thu Dec 06 14:04:28 IST 2012	Responder 337 sent: { chips  }
Thu Dec 06 14:04:28 IST 2012	Player 210 moved to (R:4,C:1)
Thu Dec 06 14:04:28 IST 2012	Protocol: A New Phase Began: Movement Phase
Thu Dec 06 14:04:28 IST 2012	Protocol: Movement phase, Round: 8
Thu Dec 06 14:04:28 IST 2012	Player 337 moved to (R:4,C:3)
Thu Dec 06 14:04:49 IST 2012	A Phase Ended: Movement Phase
Thu Dec 06 14:04:49 IST 2012	Protocol: A New Phase Began: Feedback Phase
Thu Dec 06 14:04:49 IST 2012	Protocol: Feedback phase, Round: 8
Thu Dec 06 14:04:49 IST 2012	Number of consecutive no movements for player 337 is 0
Thu Dec 06 14:04:49 IST 2012	Number of consecutive no movements for player 210 is 0
Thu Dec 06 14:04:54 IST 2012	A Phase Ended: Feedback Phase
Thu Dec 06 14:04:54 IST 2012	Protocol: A New Phase Began: Communication Phase
Thu Dec 06 14:04:54 IST 2012	Protocol: Communication phase, Round: 9
Thu Dec 06 14:05:08 IST 2012	Received communication message 
Thu Dec 06 14:05:08 IST 2012	From player: 210
Thu Dec 06 14:05:08 IST 2012	To player: 337
Thu Dec 06 14:05:08 IST 2012	Message type: basicproposal
Thu Dec 06 14:05:08 IST 2012	Chips to send by proposer: { chips  'CTRed':0 'CTPurple':0 'CTGreen':1 'grey78':0 }
Thu Dec 06 14:05:08 IST 2012	Chips to send by responder: { chips  'CTRed':0 'CTPurple':0 'CTGreen':0 'grey78':1 }
Thu Dec 06 14:05:28 IST 2012	Received communication message 
Thu Dec 06 14:05:28 IST 2012	From player: 337
Thu Dec 06 14:05:28 IST 2012	To player: 210
Thu Dec 06 14:05:28 IST 2012	Message type: basicproposaldiscussion
Thu Dec 06 14:05:28 IST 2012	Player 337 rejected offer
Thu Dec 06 14:05:28 IST 2012	Swaping roles:
Thu Dec 06 14:05:28 IST 2012	Proposer is: 337
Thu Dec 06 14:05:28 IST 2012	Responder is: 210
Thu Dec 06 14:05:28 IST 2012	Prop rejected, set counter offers count to: 1
Thu Dec 06 14:05:28 IST 2012	Prop rejected, get counter offers returned: 1
Thu Dec 06 14:05:32 IST 2012	Slept 4 seconds
Thu Dec 06 14:05:32 IST 2012	Sent role changed msgs
Thu Dec 06 14:06:30 IST 2012	Received communication message 
Thu Dec 06 14:06:30 IST 2012	From player: 337
Thu Dec 06 14:06:30 IST 2012	To player: 210
Thu Dec 06 14:06:30 IST 2012	Message type: basicproposal
Thu Dec 06 14:06:30 IST 2012	Chips to send by proposer: { chips  'CTRed':0 'CTPurple':0 'CTGreen':0 'grey78':2 }
Thu Dec 06 14:06:30 IST 2012	Chips to send by responder: { chips  'CTRed':0 'CTPurple':0 'CTGreen':1 'grey78':0 }
Thu Dec 06 14:06:44 IST 2012	Received communication message 
Thu Dec 06 14:06:44 IST 2012	From player: 210
Thu Dec 06 14:06:44 IST 2012	To player: 337
Thu Dec 06 14:06:44 IST 2012	Message type: basicproposaldiscussion
Thu Dec 06 14:06:44 IST 2012	Player 210 rejected offer
Thu Dec 06 14:06:44 IST 2012	Set counter offers count to: 0
Thu Dec 06 14:06:44 IST 2012	A Phase Ended: Communication Phase
Thu Dec 06 14:06:44 IST 2012	Protocol: A New Phase Began: Exchange Phase
Thu Dec 06 14:06:44 IST 2012	Protocol: Exchange phase, Round: 9
Thu Dec 06 14:06:44 IST 2012	In begin exch.phase, get counter offers returned: 0
Thu Dec 06 14:07:24 IST 2012	A Phase Ended: Exchange Phase
Thu Dec 06 14:07:24 IST 2012	Proposer 337 sent: { chips  }
Thu Dec 06 14:07:24 IST 2012	Protocol: A New Phase Began: Movement Phase
Thu Dec 06 14:07:24 IST 2012	Protocol: Movement phase, Round: 9
Thu Dec 06 14:07:44 IST 2012	A Phase Ended: Movement Phase
Thu Dec 06 14:07:44 IST 2012	Protocol: A New Phase Began: Feedback Phase
Thu Dec 06 14:07:44 IST 2012	Protocol: Feedback phase, Round: 9
Thu Dec 06 14:07:44 IST 2012	Number of consecutive no movements for player 337 is 1
Thu Dec 06 14:07:44 IST 2012	Number of consecutive no movements for player 210 is 1
Thu Dec 06 14:07:49 IST 2012	A Phase Ended: Feedback Phase
Thu Dec 06 14:07:49 IST 2012	Protocol: A New Phase Began: Communication Phase
Thu Dec 06 14:07:49 IST 2012	Protocol: Communication phase, Round: 10
Thu Dec 06 14:08:35 IST 2012	Received communication message 
Thu Dec 06 14:08:35 IST 2012	From player: 337
Thu Dec 06 14:08:35 IST 2012	To player: 210
Thu Dec 06 14:08:35 IST 2012	Message type: basicproposal
Thu Dec 06 14:08:35 IST 2012	Chips to send by proposer: { chips  'grey78':2 }
Thu Dec 06 14:08:35 IST 2012	Chips to send by responder: { chips  'CTGreen':1 }
Thu Dec 06 14:08:48 IST 2012	Received communication message 
Thu Dec 06 14:08:48 IST 2012	From player: 210
Thu Dec 06 14:08:48 IST 2012	To player: 337
Thu Dec 06 14:08:48 IST 2012	Message type: basicproposaldiscussion
Thu Dec 06 14:08:48 IST 2012	Player 210 rejected offer
Thu Dec 06 14:08:48 IST 2012	Swaping roles:
Thu Dec 06 14:08:48 IST 2012	Proposer is: 210
Thu Dec 06 14:08:48 IST 2012	Responder is: 337
Thu Dec 06 14:08:48 IST 2012	Prop rejected, set counter offers count to: 1
Thu Dec 06 14:08:48 IST 2012	Prop rejected, get counter offers returned: 1
Thu Dec 06 14:08:52 IST 2012	Slept 4 seconds
Thu Dec 06 14:08:52 IST 2012	Sent role changed msgs
Thu Dec 06 14:09:04 IST 2012	Received communication message 
Thu Dec 06 14:09:04 IST 2012	From player: 210
Thu Dec 06 14:09:04 IST 2012	To player: 337
Thu Dec 06 14:09:04 IST 2012	Message type: basicproposal
Thu Dec 06 14:09:04 IST 2012	Chips to send by proposer: { chips  'CTRed':0 'CTPurple':0 'CTGreen':1 'grey78':0 }
Thu Dec 06 14:09:04 IST 2012	Chips to send by responder: { chips  'CTRed':0 'CTPurple':0 'CTGreen':0 'grey78':1 }
Thu Dec 06 14:09:15 IST 2012	Received communication message 
Thu Dec 06 14:09:15 IST 2012	From player: 337
Thu Dec 06 14:09:15 IST 2012	To player: 210
Thu Dec 06 14:09:15 IST 2012	Message type: basicproposaldiscussion
Thu Dec 06 14:09:15 IST 2012	Player 337 accepted offer
Thu Dec 06 14:09:15 IST 2012	Prop accepted, set counter offers count to: 0
Thu Dec 06 14:09:15 IST 2012	Prop accepted, get counter offers returned: 0
Thu Dec 06 14:09:15 IST 2012	A Phase Ended: Communication Phase
Thu Dec 06 14:09:15 IST 2012	Protocol: A New Phase Began: Exchange Phase
Thu Dec 06 14:09:15 IST 2012	Protocol: Exchange phase, Round: 10
Thu Dec 06 14:09:15 IST 2012	In begin exch.phase, get counter offers returned: 0
Thu Dec 06 14:09:44 IST 2012	A Phase Ended: Exchange Phase
Thu Dec 06 14:09:44 IST 2012	Proposer 210 sent: { chips  'CTRed':0 'CTPurple':0 'CTGreen':1 'grey78':0 }
Thu Dec 06 14:09:44 IST 2012	Responder 337 sent: { chips  'CTRed':0 'CTPurple':0 'CTGreen':0 'grey78':1 }
Thu Dec 06 14:09:44 IST 2012	Protocol: A New Phase Began: Movement Phase
Thu Dec 06 14:09:44 IST 2012	Protocol: Movement phase, Round: 10
Thu Dec 06 14:10:04 IST 2012	A Phase Ended: Movement Phase
Thu Dec 06 14:10:04 IST 2012	Protocol: A New Phase Began: Feedback Phase
Thu Dec 06 14:10:04 IST 2012	Protocol: Feedback phase, Round: 10
Thu Dec 06 14:10:04 IST 2012	Number of consecutive no movements for player 337 is 2
Thu Dec 06 14:10:04 IST 2012	Number of consecutive no movements for player 210 is 2
Thu Dec 06 14:10:09 IST 2012	A Phase Ended: Feedback Phase
Thu Dec 06 14:10:09 IST 2012	Protocol: A New Phase Began: Communication Phase
Thu Dec 06 14:10:09 IST 2012	Protocol: Communication phase, Round: 11
Thu Dec 06 14:10:23 IST 2012	Received communication message 
Thu Dec 06 14:10:23 IST 2012	From player: 210
Thu Dec 06 14:10:23 IST 2012	To player: 337
Thu Dec 06 14:10:23 IST 2012	Message type: basicproposal
Thu Dec 06 14:10:23 IST 2012	Chips to send by proposer: { chips  'CTRed':0 'CTPurple':0 'CTGreen':1 'grey78':0 }
Thu Dec 06 14:10:23 IST 2012	Chips to send by responder: { chips  'CTRed':0 'CTPurple':0 'CTGreen':0 'grey78':1 }
Thu Dec 06 14:10:54 IST 2012	Received communication message 
Thu Dec 06 14:10:54 IST 2012	From player: 337
Thu Dec 06 14:10:54 IST 2012	To player: 210
Thu Dec 06 14:10:54 IST 2012	Message type: basicproposaldiscussion
Thu Dec 06 14:10:54 IST 2012	Player 337 accepted offer
Thu Dec 06 14:10:54 IST 2012	Prop accepted, set counter offers count to: 0
Thu Dec 06 14:10:54 IST 2012	Prop accepted, get counter offers returned: 0
Thu Dec 06 14:10:54 IST 2012	A Phase Ended: Communication Phase
Thu Dec 06 14:10:54 IST 2012	Protocol: A New Phase Began: Exchange Phase
Thu Dec 06 14:10:54 IST 2012	Protocol: Exchange phase, Round: 11
Thu Dec 06 14:10:54 IST 2012	In begin exch.phase, get counter offers returned: 0
Thu Dec 06 14:11:22 IST 2012	A Phase Ended: Exchange Phase
Thu Dec 06 14:11:22 IST 2012	Proposer 210 sent: { chips  }
Thu Dec 06 14:11:22 IST 2012	Responder 337 sent: { chips  'CTRed':0 'CTPurple':0 'CTGreen':0 'grey78':0 }
Thu Dec 06 14:11:22 IST 2012	Protocol: A New Phase Began: Movement Phase
Thu Dec 06 14:11:22 IST 2012	Protocol: Movement phase, Round: 11
Thu Dec 06 14:11:22 IST 2012	Player 210 moved to (R:3,C:1)
Thu Dec 06 14:11:22 IST 2012	Player 337 moved to (R:3,C:3)
Thu Dec 06 14:11:42 IST 2012	A Phase Ended: Movement Phase
Thu Dec 06 14:11:42 IST 2012	Swaping roles:
Thu Dec 06 14:11:42 IST 2012	Proposer is: 337
Thu Dec 06 14:11:42 IST 2012	Responder is: 210
Thu Dec 06 14:11:42 IST 2012	Protocol: A New Phase Began: Feedback Phase
Thu Dec 06 14:11:42 IST 2012	Protocol: Feedback phase, Round: 11
Thu Dec 06 14:11:42 IST 2012	Number of consecutive no movements for player 337 is 0
Thu Dec 06 14:11:42 IST 2012	Number of consecutive no movements for player 210 is 0
Thu Dec 06 14:11:48 IST 2012	A Phase Ended: Feedback Phase
Thu Dec 06 14:11:48 IST 2012	Protocol: A New Phase Began: Communication Phase
Thu Dec 06 14:11:48 IST 2012	Protocol: Communication phase, Round: 12
Thu Dec 06 14:12:48 IST 2012	Received communication message 
Thu Dec 06 14:12:48 IST 2012	From player: 337
Thu Dec 06 14:12:48 IST 2012	To player: 210
Thu Dec 06 14:12:48 IST 2012	Message type: basicproposal
Thu Dec 06 14:12:48 IST 2012	Chips to send by proposer: { chips  'grey78':1 }
Thu Dec 06 14:12:48 IST 2012	Chips to send by responder: { chips  'CTGreen':2 }
Thu Dec 06 14:12:57 IST 2012	Received communication message 
Thu Dec 06 14:12:57 IST 2012	From player: 210
Thu Dec 06 14:12:57 IST 2012	To player: 337
Thu Dec 06 14:12:57 IST 2012	Message type: basicproposaldiscussion
Thu Dec 06 14:12:57 IST 2012	Player 210 accepted offer
Thu Dec 06 14:12:57 IST 2012	Prop accepted, set counter offers count to: 0
Thu Dec 06 14:12:57 IST 2012	Prop accepted, get counter offers returned: 0
Thu Dec 06 14:12:57 IST 2012	A Phase Ended: Communication Phase
Thu Dec 06 14:12:57 IST 2012	Protocol: A New Phase Began: Exchange Phase
Thu Dec 06 14:12:57 IST 2012	Protocol: Exchange phase, Round: 12
Thu Dec 06 14:12:57 IST 2012	In begin exch.phase, get counter offers returned: 0
Thu Dec 06 14:13:24 IST 2012	A Phase Ended: Exchange Phase
Thu Dec 06 14:13:24 IST 2012	Proposer 337 sent: { chips  'CTRed':0 'CTPurple':0 'CTGreen':0 'grey78':0 }
Thu Dec 06 14:13:24 IST 2012	Responder 210 sent: { chips  'CTRed':0 'CTPurple':0 'CTGreen':2 'grey78':0 }
Thu Dec 06 14:13:24 IST 2012	Protocol: A New Phase Began: Movement Phase
Thu Dec 06 14:13:24 IST 2012	Protocol: Movement phase, Round: 12
Thu Dec 06 14:13:43 IST 2012	A Phase Ended: Movement Phase
Thu Dec 06 14:13:43 IST 2012	Swaping roles:
Thu Dec 06 14:13:43 IST 2012	Proposer is: 210
Thu Dec 06 14:13:43 IST 2012	Responder is: 337
Thu Dec 06 14:13:43 IST 2012	Protocol: A New Phase Began: Feedback Phase
Thu Dec 06 14:13:43 IST 2012	Protocol: Feedback phase, Round: 12
Thu Dec 06 14:13:43 IST 2012	Number of consecutive no movements for player 337 is 1
Thu Dec 06 14:13:43 IST 2012	Number of consecutive no movements for player 210 is 1
Thu Dec 06 14:13:48 IST 2012	A Phase Ended: Feedback Phase
Thu Dec 06 14:13:48 IST 2012	Protocol: A New Phase Began: Communication Phase
Thu Dec 06 14:13:48 IST 2012	Protocol: Communication phase, Round: 13
Thu Dec 06 14:14:06 IST 2012	Received communication message 
Thu Dec 06 14:14:06 IST 2012	From player: 210
Thu Dec 06 14:14:06 IST 2012	To player: 337
Thu Dec 06 14:14:06 IST 2012	Message type: basicproposal
Thu Dec 06 14:14:06 IST 2012	Chips to send by proposer: { chips  'CTRed':0 'CTPurple':0 'CTGreen':1 'grey78':0 }
Thu Dec 06 14:14:06 IST 2012	Chips to send by responder: { chips  'CTRed':0 'CTPurple':0 'CTGreen':0 'grey78':1 }
Thu Dec 06 14:14:39 IST 2012	Received communication message 
Thu Dec 06 14:14:39 IST 2012	From player: 337
Thu Dec 06 14:14:39 IST 2012	To player: 210
Thu Dec 06 14:14:39 IST 2012	Message type: basicproposaldiscussion
Thu Dec 06 14:14:39 IST 2012	Player 337 accepted offer
Thu Dec 06 14:14:39 IST 2012	Prop accepted, set counter offers count to: 0
Thu Dec 06 14:14:39 IST 2012	Prop accepted, get counter offers returned: 0
Thu Dec 06 14:14:39 IST 2012	A Phase Ended: Communication Phase
Thu Dec 06 14:14:39 IST 2012	Protocol: A New Phase Began: Exchange Phase
Thu Dec 06 14:14:39 IST 2012	Protocol: Exchange phase, Round: 13
Thu Dec 06 14:14:39 IST 2012	In begin exch.phase, get counter offers returned: 0
Thu Dec 06 14:15:02 IST 2012	A Phase Ended: Exchange Phase
Thu Dec 06 14:15:02 IST 2012	Proposer 210 sent: { chips  }
Thu Dec 06 14:15:02 IST 2012	Responder 337 sent: { chips  'CTRed':0 'CTPurple':0 'CTGreen':0 'grey78':0 }
Thu Dec 06 14:15:02 IST 2012	Protocol: A New Phase Began: Movement Phase
Thu Dec 06 14:15:02 IST 2012	Protocol: Movement phase, Round: 13
Thu Dec 06 14:15:21 IST 2012	A Phase Ended: Movement Phase
Thu Dec 06 14:15:21 IST 2012	Swaping roles:
Thu Dec 06 14:15:21 IST 2012	Proposer is: 337
Thu Dec 06 14:15:21 IST 2012	Responder is: 210
Thu Dec 06 14:15:21 IST 2012	Protocol: A New Phase Began: Feedback Phase
Thu Dec 06 14:15:21 IST 2012	Protocol: Feedback phase, Round: 13
Thu Dec 06 14:15:21 IST 2012	Number of consecutive no movements for player 337 is 2
Thu Dec 06 14:15:21 IST 2012	Number of consecutive no movements for player 210 is 2
Thu Dec 06 14:15:27 IST 2012	A Phase Ended: Feedback Phase
Thu Dec 06 14:15:27 IST 2012	Protocol: A New Phase Began: Communication Phase
Thu Dec 06 14:15:27 IST 2012	Protocol: Communication phase, Round: 14
Thu Dec 06 14:16:27 IST 2012	Received communication message 
Thu Dec 06 14:16:27 IST 2012	From player: 337
Thu Dec 06 14:16:27 IST 2012	To player: 210
Thu Dec 06 14:16:27 IST 2012	Message type: basicproposal
Thu Dec 06 14:16:27 IST 2012	Chips to send by proposer: { chips  'grey78':1 }
Thu Dec 06 14:16:27 IST 2012	Chips to send by responder: { chips  'CTGreen':1 }
Thu Dec 06 14:16:40 IST 2012	Received communication message 
Thu Dec 06 14:16:40 IST 2012	From player: 210
Thu Dec 06 14:16:40 IST 2012	To player: 337
Thu Dec 06 14:16:40 IST 2012	Message type: basicproposaldiscussion
Thu Dec 06 14:16:40 IST 2012	Player 210 accepted offer
Thu Dec 06 14:16:40 IST 2012	Prop accepted, set counter offers count to: 0
Thu Dec 06 14:16:40 IST 2012	Prop accepted, get counter offers returned: 0
Thu Dec 06 14:16:40 IST 2012	A Phase Ended: Communication Phase
Thu Dec 06 14:16:40 IST 2012	Protocol: A New Phase Began: Exchange Phase
Thu Dec 06 14:16:40 IST 2012	Protocol: Exchange phase, Round: 14
Thu Dec 06 14:16:40 IST 2012	In begin exch.phase, get counter offers returned: 0
Thu Dec 06 14:16:57 IST 2012	A Phase Ended: Exchange Phase
Thu Dec 06 14:16:57 IST 2012	Proposer 337 sent: { chips  'CTRed':0 'CTPurple':0 'CTGreen':0 'grey78':0 }
Thu Dec 06 14:16:57 IST 2012	Responder 210 sent: { chips  'CTRed':0 'CTPurple':0 'CTGreen':1 'grey78':0 }
Thu Dec 06 14:16:57 IST 2012	Protocol: A New Phase Began: Movement Phase
Thu Dec 06 14:16:57 IST 2012	Protocol: Movement phase, Round: 14
Thu Dec 06 14:16:57 IST 2012	Player 210 moved to (R:2,C:1)
Thu Dec 06 14:16:57 IST 2012	Player 337 moved to (R:2,C:3)
Thu Dec 06 14:17:17 IST 2012	A Phase Ended: Movement Phase
Thu Dec 06 14:17:17 IST 2012	Swaping roles:
Thu Dec 06 14:17:17 IST 2012	Proposer is: 210
Thu Dec 06 14:17:17 IST 2012	Responder is: 337
Thu Dec 06 14:17:17 IST 2012	Protocol: A New Phase Began: Feedback Phase
Thu Dec 06 14:17:17 IST 2012	Protocol: Feedback phase, Round: 14
Thu Dec 06 14:17:17 IST 2012	Number of consecutive no movements for player 337 is 0
Thu Dec 06 14:17:17 IST 2012	Number of consecutive no movements for player 210 is 0
Thu Dec 06 14:17:22 IST 2012	A Phase Ended: Feedback Phase
Thu Dec 06 14:17:22 IST 2012	Protocol: A New Phase Began: Communication Phase
Thu Dec 06 14:17:22 IST 2012	Protocol: Communication phase, Round: 15
Thu Dec 06 14:17:34 IST 2012	Received communication message 
Thu Dec 06 14:17:34 IST 2012	From player: 210
Thu Dec 06 14:17:34 IST 2012	To player: 337
Thu Dec 06 14:17:34 IST 2012	Message type: basicproposal
Thu Dec 06 14:17:34 IST 2012	Chips to send by proposer: { chips  'CTRed':0 'CTPurple':0 'CTGreen':1 'grey78':0 }
Thu Dec 06 14:17:34 IST 2012	Chips to send by responder: { chips  'CTRed':0 'CTPurple':0 'CTGreen':0 'grey78':1 }
Thu Dec 06 14:17:53 IST 2012	Received communication message 
Thu Dec 06 14:17:53 IST 2012	From player: 337
Thu Dec 06 14:17:53 IST 2012	To player: 210
Thu Dec 06 14:17:53 IST 2012	Message type: basicproposaldiscussion
Thu Dec 06 14:17:53 IST 2012	Player 337 accepted offer
Thu Dec 06 14:17:53 IST 2012	Prop accepted, set counter offers count to: 0
Thu Dec 06 14:17:53 IST 2012	Prop accepted, get counter offers returned: 0
Thu Dec 06 14:17:53 IST 2012	A Phase Ended: Communication Phase
Thu Dec 06 14:17:53 IST 2012	Protocol: A New Phase Began: Exchange Phase
Thu Dec 06 14:17:53 IST 2012	Protocol: Exchange phase, Round: 15
Thu Dec 06 14:17:53 IST 2012	In begin exch.phase, get counter offers returned: 0
Thu Dec 06 14:18:06 IST 2012	A Phase Ended: Exchange Phase
Thu Dec 06 14:18:06 IST 2012	Proposer 210 sent: { chips  }
Thu Dec 06 14:18:06 IST 2012	Responder 337 sent: { chips  'CTRed':0 'CTPurple':0 'CTGreen':0 'grey78':0 }
Thu Dec 06 14:18:06 IST 2012	Protocol: A New Phase Began: Movement Phase
Thu Dec 06 14:18:06 IST 2012	Protocol: Movement phase, Round: 15
Thu Dec 06 14:18:26 IST 2012	A Phase Ended: Movement Phase
Thu Dec 06 14:18:26 IST 2012	Swaping roles:
Thu Dec 06 14:18:26 IST 2012	Proposer is: 337
Thu Dec 06 14:18:26 IST 2012	Responder is: 210
Thu Dec 06 14:18:26 IST 2012	Protocol: A New Phase Began: Feedback Phase
Thu Dec 06 14:18:26 IST 2012	Protocol: Feedback phase, Round: 15
Thu Dec 06 14:18:26 IST 2012	Number of consecutive no movements for player 337 is 1
Thu Dec 06 14:18:26 IST 2012	Number of consecutive no movements for player 210 is 1
Thu Dec 06 14:18:31 IST 2012	A Phase Ended: Feedback Phase
Thu Dec 06 14:18:31 IST 2012	Protocol: A New Phase Began: Communication Phase
Thu Dec 06 14:18:31 IST 2012	Protocol: Communication phase, Round: 16
Thu Dec 06 14:19:14 IST 2012	Received communication message 
Thu Dec 06 14:19:14 IST 2012	From player: 337
Thu Dec 06 14:19:14 IST 2012	To player: 210
Thu Dec 06 14:19:14 IST 2012	Message type: basicproposal
Thu Dec 06 14:19:14 IST 2012	Chips to send by proposer: { chips  'grey78':1 }
Thu Dec 06 14:19:14 IST 2012	Chips to send by responder: { chips  'CTGreen':1 }
Thu Dec 06 14:19:22 IST 2012	Received communication message 
Thu Dec 06 14:19:22 IST 2012	From player: 210
Thu Dec 06 14:19:22 IST 2012	To player: 337
Thu Dec 06 14:19:22 IST 2012	Message type: basicproposaldiscussion
Thu Dec 06 14:19:22 IST 2012	Player 210 accepted offer
Thu Dec 06 14:19:22 IST 2012	Prop accepted, set counter offers count to: 0
Thu Dec 06 14:19:22 IST 2012	Prop accepted, get counter offers returned: 0
Thu Dec 06 14:19:22 IST 2012	A Phase Ended: Communication Phase
Thu Dec 06 14:19:22 IST 2012	Protocol: A New Phase Began: Exchange Phase
Thu Dec 06 14:19:22 IST 2012	Protocol: Exchange phase, Round: 16
Thu Dec 06 14:19:22 IST 2012	In begin exch.phase, get counter offers returned: 0
Thu Dec 06 14:19:31 IST 2012	A Phase Ended: Exchange Phase
Thu Dec 06 14:19:31 IST 2012	Proposer 337 sent: { chips  'CTRed':0 'CTPurple':0 'CTGreen':0 'grey78':0 }
Thu Dec 06 14:19:31 IST 2012	Responder 210 sent: { chips  'CTRed':0 'CTPurple':0 'CTGreen':1 'grey78':0 }
Thu Dec 06 14:19:31 IST 2012	Protocol: A New Phase Began: Movement Phase
Thu Dec 06 14:19:31 IST 2012	Protocol: Movement phase, Round: 16
Thu Dec 06 14:19:51 IST 2012	A Phase Ended: Movement Phase
Thu Dec 06 14:19:51 IST 2012	Swaping roles:
Thu Dec 06 14:19:51 IST 2012	Proposer is: 210
Thu Dec 06 14:19:51 IST 2012	Responder is: 337
Thu Dec 06 14:19:51 IST 2012	Protocol: A New Phase Began: Feedback Phase
Thu Dec 06 14:19:51 IST 2012	Protocol: Feedback phase, Round: 16
Thu Dec 06 14:19:51 IST 2012	Number of consecutive no movements for player 337 is 2
Thu Dec 06 14:19:51 IST 2012	Number of consecutive no movements for player 210 is 2
Thu Dec 06 14:19:56 IST 2012	A Phase Ended: Feedback Phase
Thu Dec 06 14:19:56 IST 2012	Protocol: A New Phase Began: Communication Phase
Thu Dec 06 14:19:56 IST 2012	Protocol: Communication phase, Round: 17
Thu Dec 06 14:20:09 IST 2012	Received communication message 
Thu Dec 06 14:20:09 IST 2012	From player: 210
Thu Dec 06 14:20:09 IST 2012	To player: 337
Thu Dec 06 14:20:09 IST 2012	Message type: basicproposal
Thu Dec 06 14:20:09 IST 2012	Chips to send by proposer: { chips  'CTRed':0 'CTPurple':0 'CTGreen':1 'grey78':0 }
Thu Dec 06 14:20:09 IST 2012	Chips to send by responder: { chips  'CTRed':0 'CTPurple':0 'CTGreen':0 'grey78':1 }
Thu Dec 06 14:20:16 IST 2012	Received communication message 
Thu Dec 06 14:20:16 IST 2012	From player: 337
Thu Dec 06 14:20:16 IST 2012	To player: 210
Thu Dec 06 14:20:16 IST 2012	Message type: basicproposaldiscussion
Thu Dec 06 14:20:16 IST 2012	Player 337 accepted offer
Thu Dec 06 14:20:16 IST 2012	Prop accepted, set counter offers count to: 0
Thu Dec 06 14:20:16 IST 2012	Prop accepted, get counter offers returned: 0
Thu Dec 06 14:20:16 IST 2012	A Phase Ended: Communication Phase
Thu Dec 06 14:20:16 IST 2012	Protocol: A New Phase Began: Exchange Phase
Thu Dec 06 14:20:16 IST 2012	Protocol: Exchange phase, Round: 17
Thu Dec 06 14:20:16 IST 2012	In begin exch.phase, get counter offers returned: 0
Thu Dec 06 14:20:21 IST 2012	A Phase Ended: Exchange Phase
Thu Dec 06 14:20:21 IST 2012	Proposer 210 sent: { chips  'CTRed':0 'CTPurple':0 'CTGreen':1 'grey78':0 }
Thu Dec 06 14:20:21 IST 2012	Responder 337 sent: { chips  'CTRed':0 'CTPurple':0 'CTGreen':0 'grey78':0 }
Thu Dec 06 14:20:21 IST 2012	Protocol: A New Phase Began: Movement Phase
Thu Dec 06 14:20:21 IST 2012	Protocol: Movement phase, Round: 17
Thu Dec 06 14:20:21 IST 2012	Player 337 moved to (R:1,C:3)
Thu Dec 06 14:20:41 IST 2012	A Phase Ended: Movement Phase
Thu Dec 06 14:20:41 IST 2012	Swaping roles:
Thu Dec 06 14:20:41 IST 2012	Proposer is: 337
Thu Dec 06 14:20:41 IST 2012	Responder is: 210
Thu Dec 06 14:20:41 IST 2012	Protocol: A New Phase Began: Feedback Phase
Thu Dec 06 14:20:41 IST 2012	Protocol: Feedback phase, Round: 17
Thu Dec 06 14:20:41 IST 2012	Number of consecutive no movements for player 337 is 0
Thu Dec 06 14:20:41 IST 2012	Number of consecutive no movements for player 210 is 3
Thu Dec 06 14:20:41 IST 2012	Ending game, all players move as much as they can towards goal
Thu Dec 06 14:20:41 IST 2012	Player: 337 ,role: Proposer score is: 205
Thu Dec 06 14:20:41 IST 2012	Player: 210 ,role: Responder score is: 40
