Fri Dec 07 12:08:59 IST 2012	This is the CT debug logger; svn version 638; sep 27 09
Fri Dec 07 12:08:59 IST 2012	Fri Dec 07 12:08:59 IST 2012
Fri Dec 07 12:08:59 IST 2012	A new Alternative Offers game has began
Fri Dec 07 12:09:00 IST 2012	ID Number: 40007
Fri Dec 07 12:09:00 IST 2012	Creating board
Fri Dec 07 12:09:00 IST 2012	<colors>
Fri Dec 07 12:09:00 IST 2012	{ GamePalette  'CTRed':0 'CTPurple':1 'CTGreen':2 'grey78':3 }
Fri Dec 07 12:09:00 IST 2012	<rows>
Fri Dec 07 12:09:00 IST 2012	7
Fri Dec 07 12:09:00 IST 2012	<columns>
Fri Dec 07 12:09:00 IST 2012	5
Fri Dec 07 12:09:00 IST 2012	<squaresColors>
Fri Dec 07 12:09:00 IST 2012	CTPurple CTRed CTRed CTGreen CTPurple 
Fri Dec 07 12:09:00 IST 2012	CTPurple grey78 CTPurple grey78 CTPurple 
Fri Dec 07 12:09:00 IST 2012	CTPurple CTRed CTPurple CTGreen CTPurple 
Fri Dec 07 12:09:00 IST 2012	CTPurple grey78 CTPurple grey78 CTPurple 
Fri Dec 07 12:09:00 IST 2012	CTPurple CTRed CTPurple CTGreen CTPurple 
Fri Dec 07 12:09:00 IST 2012	CTPurple grey78 CTPurple grey78 CTPurple 
Fri Dec 07 12:09:00 IST 2012	CTPurple CTRed CTPurple CTGreen CTPurple 
Fri Dec 07 12:09:00 IST 2012	</squareColors>
Fri Dec 07 12:09:00 IST 2012	<goalPosition>
Fri Dec 07 12:09:00 IST 2012	Goal position: (R:0,C:2)
Fri Dec 07 12:09:00 IST 2012	<numberOfPlayers>
Fri Dec 07 12:09:00 IST 2012	2
Fri Dec 07 12:09:00 IST 2012	<firstPlayerChips>
Fri Dec 07 12:09:00 IST 2012	Setting chips for player: 337 id:0
Fri Dec 07 12:09:00 IST 2012	{ chips  'CTRed':1 'CTGreen':13 'CTPurple':0 'grey78':10 }
Fri Dec 07 12:09:00 IST 2012	Player position: (R:6,C:4)
Fri Dec 07 12:09:00 IST 2012	Setting chips for player: 210 id:1
Fri Dec 07 12:09:00 IST 2012	{ chips  'CTRed':5 'CTGreen':19 'CTPurple':0 'grey78':0 }
Fri Dec 07 12:09:00 IST 2012	Player position: (R:6,C:0)
Fri Dec 07 12:09:00 IST 2012	Protocol: A New Phase Began: Strategy Prep Phase
Fri Dec 07 12:09:00 IST 2012	Protocol: Strategy Preparation phase, Round: 0
Fri Dec 07 12:09:00 IST 2012	Maximum number of rounds with no consecutive movement is 3
Fri Dec 07 12:09:00 IST 2012	In begin comm. phase, set counter offers count to: 0
Fri Dec 07 12:09:00 IST 2012	In begin comm. phase, get counter offers returned: 0
Fri Dec 07 12:09:20 IST 2012	A Phase Ended: Strategy Prep Phase
Fri Dec 07 12:09:20 IST 2012	Protocol: A New Phase Began: Communication Phase
Fri Dec 07 12:09:20 IST 2012	Protocol: Communication phase, Round: 0
Fri Dec 07 12:10:20 IST 2012	Received communication message 
Fri Dec 07 12:10:20 IST 2012	From player: 337
Fri Dec 07 12:10:20 IST 2012	To player: 210
Fri Dec 07 12:10:20 IST 2012	Message type: basicproposal
Fri Dec 07 12:10:20 IST 2012	Chips to send by proposer: { chips  'grey78':3 }
Fri Dec 07 12:10:20 IST 2012	Chips to send by responder: { chips  'CTGreen':2 }
Fri Dec 07 12:10:35 IST 2012	Received communication message 
Fri Dec 07 12:10:35 IST 2012	From player: 210
Fri Dec 07 12:10:35 IST 2012	To player: 337
Fri Dec 07 12:10:35 IST 2012	Message type: basicproposaldiscussion
Fri Dec 07 12:10:35 IST 2012	Player 210 accepted offer
Fri Dec 07 12:10:35 IST 2012	Prop accepted, set counter offers count to: 0
Fri Dec 07 12:10:35 IST 2012	Prop accepted, get counter offers returned: 0
Fri Dec 07 12:10:35 IST 2012	A Phase Ended: Communication Phase
Fri Dec 07 12:10:35 IST 2012	Protocol: A New Phase Began: Exchange Phase
Fri Dec 07 12:10:35 IST 2012	Protocol: Exchange phase, Round: 0
Fri Dec 07 12:10:35 IST 2012	In begin exch.phase, get counter offers returned: 0
Fri Dec 07 12:11:04 IST 2012	A Phase Ended: Exchange Phase
Fri Dec 07 12:11:04 IST 2012	Proposer 337 sent: { chips  'CTRed':0 'CTPurple':0 'CTGreen':0 'grey78':1 }
Fri Dec 07 12:11:04 IST 2012	Responder 210 sent: { chips  'CTRed':0 'CTPurple':0 'CTGreen':1 'grey78':0 }
Fri Dec 07 12:11:04 IST 2012	Protocol: A New Phase Began: Movement Phase
Fri Dec 07 12:11:04 IST 2012	Protocol: Movement phase, Round: 0
Fri Dec 07 12:11:24 IST 2012	A Phase Ended: Movement Phase
Fri Dec 07 12:11:24 IST 2012	Swaping roles:
Fri Dec 07 12:11:24 IST 2012	Proposer is: 210
Fri Dec 07 12:11:24 IST 2012	Responder is: 337
Fri Dec 07 12:11:24 IST 2012	Protocol: A New Phase Began: Feedback Phase
Fri Dec 07 12:11:24 IST 2012	Protocol: Feedback phase, Round: 0
Fri Dec 07 12:11:24 IST 2012	Number of consecutive no movements for player 337 is 1
Fri Dec 07 12:11:24 IST 2012	Number of consecutive no movements for player 210 is 1
Fri Dec 07 12:11:29 IST 2012	A Phase Ended: Feedback Phase
Fri Dec 07 12:11:29 IST 2012	Protocol: A New Phase Began: Communication Phase
Fri Dec 07 12:11:29 IST 2012	Protocol: Communication phase, Round: 1
Fri Dec 07 12:11:45 IST 2012	Received communication message 
Fri Dec 07 12:11:45 IST 2012	From player: 210
Fri Dec 07 12:11:45 IST 2012	To player: 337
Fri Dec 07 12:11:45 IST 2012	Message type: basicproposal
Fri Dec 07 12:11:45 IST 2012	Chips to send by proposer: { chips  'CTRed':0 'CTPurple':0 'CTGreen':1 'grey78':0 }
Fri Dec 07 12:11:45 IST 2012	Chips to send by responder: { chips  'CTRed':0 'CTPurple':0 'CTGreen':0 'grey78':1 }
Fri Dec 07 12:12:45 IST 2012	Received communication message 
Fri Dec 07 12:12:45 IST 2012	From player: 337
Fri Dec 07 12:12:45 IST 2012	To player: 210
Fri Dec 07 12:12:45 IST 2012	Message type: basicproposaldiscussion
Fri Dec 07 12:12:45 IST 2012	Player 337 rejected offer
Fri Dec 07 12:12:45 IST 2012	Swaping roles:
Fri Dec 07 12:12:45 IST 2012	Proposer is: 337
Fri Dec 07 12:12:45 IST 2012	Responder is: 210
Fri Dec 07 12:12:45 IST 2012	Prop rejected, set counter offers count to: 1
Fri Dec 07 12:12:45 IST 2012	Prop rejected, get counter offers returned: 1
Fri Dec 07 12:12:49 IST 2012	Slept 4 seconds
Fri Dec 07 12:12:49 IST 2012	Sent role changed msgs
Fri Dec 07 12:13:49 IST 2012	Received communication message 
Fri Dec 07 12:13:49 IST 2012	From player: 337
Fri Dec 07 12:13:49 IST 2012	To player: 210
Fri Dec 07 12:13:49 IST 2012	Message type: basicproposal
Fri Dec 07 12:13:49 IST 2012	Chips to send by proposer: { chips  'CTRed':0 'CTPurple':0 'CTGreen':0 'grey78':2 }
Fri Dec 07 12:13:49 IST 2012	Chips to send by responder: { chips  'CTRed':0 'CTPurple':0 'CTGreen':1 'grey78':0 }
Fri Dec 07 12:14:01 IST 2012	Received communication message 
Fri Dec 07 12:14:01 IST 2012	From player: 210
Fri Dec 07 12:14:01 IST 2012	To player: 337
Fri Dec 07 12:14:01 IST 2012	Message type: basicproposaldiscussion
Fri Dec 07 12:14:01 IST 2012	Player 210 rejected offer
Fri Dec 07 12:14:01 IST 2012	Set counter offers count to: 0
Fri Dec 07 12:14:01 IST 2012	A Phase Ended: Communication Phase
Fri Dec 07 12:14:01 IST 2012	Protocol: A New Phase Began: Exchange Phase
Fri Dec 07 12:14:01 IST 2012	Protocol: Exchange phase, Round: 1
Fri Dec 07 12:14:01 IST 2012	In begin exch.phase, get counter offers returned: 0
Fri Dec 07 12:14:40 IST 2012	A Phase Ended: Exchange Phase
Fri Dec 07 12:14:40 IST 2012	Proposer 337 sent: { chips  }
Fri Dec 07 12:14:40 IST 2012	Protocol: A New Phase Began: Movement Phase
Fri Dec 07 12:14:40 IST 2012	Protocol: Movement phase, Round: 1
Fri Dec 07 12:15:01 IST 2012	A Phase Ended: Movement Phase
Fri Dec 07 12:15:01 IST 2012	Protocol: A New Phase Began: Feedback Phase
Fri Dec 07 12:15:01 IST 2012	Protocol: Feedback phase, Round: 1
Fri Dec 07 12:15:01 IST 2012	Number of consecutive no movements for player 337 is 2
Fri Dec 07 12:15:01 IST 2012	Number of consecutive no movements for player 210 is 2
Fri Dec 07 12:15:06 IST 2012	A Phase Ended: Feedback Phase
Fri Dec 07 12:15:06 IST 2012	Protocol: A New Phase Began: Communication Phase
Fri Dec 07 12:15:06 IST 2012	Protocol: Communication phase, Round: 2
Fri Dec 07 12:16:06 IST 2012	Received communication message 
Fri Dec 07 12:16:06 IST 2012	From player: 337
Fri Dec 07 12:16:06 IST 2012	To player: 210
Fri Dec 07 12:16:06 IST 2012	Message type: basicproposal
Fri Dec 07 12:16:06 IST 2012	Chips to send by proposer: { chips  'grey78':2 }
Fri Dec 07 12:16:06 IST 2012	Chips to send by responder: { chips  'CTGreen':1 }
Fri Dec 07 12:16:13 IST 2012	Received communication message 
Fri Dec 07 12:16:13 IST 2012	From player: 210
Fri Dec 07 12:16:13 IST 2012	To player: 337
Fri Dec 07 12:16:13 IST 2012	Message type: basicproposaldiscussion
Fri Dec 07 12:16:13 IST 2012	Player 210 rejected offer
Fri Dec 07 12:16:13 IST 2012	Swaping roles:
Fri Dec 07 12:16:13 IST 2012	Proposer is: 210
Fri Dec 07 12:16:13 IST 2012	Responder is: 337
Fri Dec 07 12:16:13 IST 2012	Prop rejected, set counter offers count to: 1
Fri Dec 07 12:16:13 IST 2012	Prop rejected, get counter offers returned: 1
Fri Dec 07 12:16:17 IST 2012	Slept 4 seconds
Fri Dec 07 12:16:17 IST 2012	Sent role changed msgs
Fri Dec 07 12:16:32 IST 2012	Received communication message 
Fri Dec 07 12:16:32 IST 2012	From player: 210
Fri Dec 07 12:16:32 IST 2012	To player: 337
Fri Dec 07 12:16:32 IST 2012	Message type: basicproposal
Fri Dec 07 12:16:32 IST 2012	Chips to send by proposer: { chips  'CTRed':0 'CTPurple':0 'CTGreen':1 'grey78':0 }
Fri Dec 07 12:16:32 IST 2012	Chips to send by responder: { chips  'CTRed':0 'CTPurple':0 'CTGreen':0 'grey78':1 }
Fri Dec 07 12:17:32 IST 2012	Received communication message 
Fri Dec 07 12:17:32 IST 2012	From player: 337
Fri Dec 07 12:17:32 IST 2012	To player: 210
Fri Dec 07 12:17:32 IST 2012	Message type: basicproposaldiscussion
Fri Dec 07 12:17:32 IST 2012	Player 337 rejected offer
Fri Dec 07 12:17:32 IST 2012	Set counter offers count to: 0
Fri Dec 07 12:17:32 IST 2012	A Phase Ended: Communication Phase
Fri Dec 07 12:17:32 IST 2012	Protocol: A New Phase Began: Exchange Phase
Fri Dec 07 12:17:32 IST 2012	Protocol: Exchange phase, Round: 2
Fri Dec 07 12:17:32 IST 2012	In begin exch.phase, get counter offers returned: 0
Fri Dec 07 12:18:12 IST 2012	A Phase Ended: Exchange Phase
Fri Dec 07 12:18:12 IST 2012	Responder 337 sent: { chips  }
Fri Dec 07 12:18:12 IST 2012	Protocol: A New Phase Began: Movement Phase
Fri Dec 07 12:18:12 IST 2012	Protocol: Movement phase, Round: 2
Fri Dec 07 12:18:12 IST 2012	Player 210 moved to (R:6,C:1)
Fri Dec 07 12:18:12 IST 2012	Player 337 moved to (R:6,C:3)
Fri Dec 07 12:18:33 IST 2012	A Phase Ended: Movement Phase
Fri Dec 07 12:18:33 IST 2012	Protocol: A New Phase Began: Feedback Phase
Fri Dec 07 12:18:33 IST 2012	Protocol: Feedback phase, Round: 2
Fri Dec 07 12:18:33 IST 2012	Number of consecutive no movements for player 337 is 0
Fri Dec 07 12:18:33 IST 2012	Number of consecutive no movements for player 210 is 0
Fri Dec 07 12:18:38 IST 2012	A Phase Ended: Feedback Phase
Fri Dec 07 12:18:38 IST 2012	Protocol: A New Phase Began: Communication Phase
Fri Dec 07 12:18:38 IST 2012	Protocol: Communication phase, Round: 3
Fri Dec 07 12:18:57 IST 2012	Received communication message 
Fri Dec 07 12:18:57 IST 2012	From player: 210
Fri Dec 07 12:18:57 IST 2012	To player: 337
Fri Dec 07 12:18:57 IST 2012	Message type: basicproposal
Fri Dec 07 12:18:57 IST 2012	Chips to send by proposer: { chips  'CTRed':0 'CTPurple':0 'CTGreen':1 'grey78':0 }
Fri Dec 07 12:18:57 IST 2012	Chips to send by responder: { chips  'CTRed':0 'CTPurple':0 'CTGreen':0 'grey78':1 }
Fri Dec 07 12:19:56 IST 2012	Received communication message 
Fri Dec 07 12:19:56 IST 2012	From player: 337
Fri Dec 07 12:19:56 IST 2012	To player: 210
Fri Dec 07 12:19:56 IST 2012	Message type: basicproposaldiscussion
Fri Dec 07 12:19:56 IST 2012	Player 337 rejected offer
Fri Dec 07 12:19:56 IST 2012	Swaping roles:
Fri Dec 07 12:19:56 IST 2012	Proposer is: 337
Fri Dec 07 12:19:56 IST 2012	Responder is: 210
Fri Dec 07 12:19:56 IST 2012	Prop rejected, set counter offers count to: 1
Fri Dec 07 12:19:56 IST 2012	Prop rejected, get counter offers returned: 1
Fri Dec 07 12:20:00 IST 2012	Slept 4 seconds
Fri Dec 07 12:20:00 IST 2012	Sent role changed msgs
Fri Dec 07 12:21:00 IST 2012	Received communication message 
Fri Dec 07 12:21:00 IST 2012	From player: 337
Fri Dec 07 12:21:00 IST 2012	To player: 210
Fri Dec 07 12:21:00 IST 2012	Message type: basicproposal
Fri Dec 07 12:21:00 IST 2012	Chips to send by proposer: { chips  'CTRed':0 'CTPurple':0 'CTGreen':0 'grey78':2 }
Fri Dec 07 12:21:00 IST 2012	Chips to send by responder: { chips  'CTRed':0 'CTPurple':0 'CTGreen':1 'grey78':0 }
Fri Dec 07 12:21:08 IST 2012	Received communication message 
Fri Dec 07 12:21:08 IST 2012	From player: 210
Fri Dec 07 12:21:08 IST 2012	To player: 337
Fri Dec 07 12:21:08 IST 2012	Message type: basicproposaldiscussion
Fri Dec 07 12:21:08 IST 2012	Player 210 rejected offer
Fri Dec 07 12:21:08 IST 2012	Set counter offers count to: 0
Fri Dec 07 12:21:08 IST 2012	A Phase Ended: Communication Phase
Fri Dec 07 12:21:08 IST 2012	Protocol: A New Phase Began: Exchange Phase
Fri Dec 07 12:21:08 IST 2012	Protocol: Exchange phase, Round: 3
Fri Dec 07 12:21:08 IST 2012	In begin exch.phase, get counter offers returned: 0
Fri Dec 07 12:21:48 IST 2012	A Phase Ended: Exchange Phase
Fri Dec 07 12:21:48 IST 2012	Proposer 337 sent: { chips  }
Fri Dec 07 12:21:48 IST 2012	Protocol: A New Phase Began: Movement Phase
Fri Dec 07 12:21:48 IST 2012	Protocol: Movement phase, Round: 3
Fri Dec 07 12:22:09 IST 2012	A Phase Ended: Movement Phase
Fri Dec 07 12:22:09 IST 2012	Protocol: A New Phase Began: Feedback Phase
Fri Dec 07 12:22:09 IST 2012	Protocol: Feedback phase, Round: 3
Fri Dec 07 12:22:09 IST 2012	Number of consecutive no movements for player 337 is 1
Fri Dec 07 12:22:09 IST 2012	Number of consecutive no movements for player 210 is 1
Fri Dec 07 12:22:14 IST 2012	A Phase Ended: Feedback Phase
Fri Dec 07 12:22:14 IST 2012	Protocol: A New Phase Began: Communication Phase
Fri Dec 07 12:22:14 IST 2012	Protocol: Communication phase, Round: 4
Fri Dec 07 12:23:14 IST 2012	Received communication message 
Fri Dec 07 12:23:14 IST 2012	From player: 337
Fri Dec 07 12:23:14 IST 2012	To player: 210
Fri Dec 07 12:23:14 IST 2012	Message type: basicproposal
Fri Dec 07 12:23:14 IST 2012	Chips to send by proposer: { chips  'grey78':2 }
Fri Dec 07 12:23:14 IST 2012	Chips to send by responder: { chips  'CTGreen':1 }
Fri Dec 07 12:23:25 IST 2012	Received communication message 
Fri Dec 07 12:23:25 IST 2012	From player: 210
Fri Dec 07 12:23:25 IST 2012	To player: 337
Fri Dec 07 12:23:25 IST 2012	Message type: basicproposaldiscussion
Fri Dec 07 12:23:25 IST 2012	Player 210 rejected offer
Fri Dec 07 12:23:25 IST 2012	Swaping roles:
Fri Dec 07 12:23:25 IST 2012	Proposer is: 210
Fri Dec 07 12:23:25 IST 2012	Responder is: 337
Fri Dec 07 12:23:25 IST 2012	Prop rejected, set counter offers count to: 1
Fri Dec 07 12:23:25 IST 2012	Prop rejected, get counter offers returned: 1
Fri Dec 07 12:23:29 IST 2012	Slept 4 seconds
Fri Dec 07 12:23:29 IST 2012	Sent role changed msgs
Fri Dec 07 12:23:44 IST 2012	Received communication message 
Fri Dec 07 12:23:44 IST 2012	From player: 210
Fri Dec 07 12:23:44 IST 2012	To player: 337
Fri Dec 07 12:23:44 IST 2012	Message type: basicproposal
Fri Dec 07 12:23:44 IST 2012	Chips to send by proposer: { chips  'CTRed':0 'CTPurple':0 'CTGreen':1 'grey78':0 }
Fri Dec 07 12:23:44 IST 2012	Chips to send by responder: { chips  'CTRed':0 'CTPurple':0 'CTGreen':0 'grey78':1 }
Fri Dec 07 12:24:34 IST 2012	Received communication message 
Fri Dec 07 12:24:34 IST 2012	From player: 337
Fri Dec 07 12:24:34 IST 2012	To player: 210
Fri Dec 07 12:24:34 IST 2012	Message type: basicproposaldiscussion
Fri Dec 07 12:24:34 IST 2012	Player 337 rejected offer
Fri Dec 07 12:24:34 IST 2012	Set counter offers count to: 0
Fri Dec 07 12:24:34 IST 2012	A Phase Ended: Communication Phase
Fri Dec 07 12:24:34 IST 2012	Protocol: A New Phase Began: Exchange Phase
Fri Dec 07 12:24:34 IST 2012	Protocol: Exchange phase, Round: 4
Fri Dec 07 12:24:34 IST 2012	In begin exch.phase, get counter offers returned: 0
Fri Dec 07 12:25:14 IST 2012	A Phase Ended: Exchange Phase
Fri Dec 07 12:25:14 IST 2012	Responder 337 sent: { chips  }
Fri Dec 07 12:25:14 IST 2012	Protocol: A New Phase Began: Movement Phase
Fri Dec 07 12:25:14 IST 2012	Protocol: Movement phase, Round: 4
Fri Dec 07 12:25:34 IST 2012	A Phase Ended: Movement Phase
Fri Dec 07 12:25:34 IST 2012	Protocol: A New Phase Began: Feedback Phase
Fri Dec 07 12:25:34 IST 2012	Protocol: Feedback phase, Round: 4
Fri Dec 07 12:25:34 IST 2012	Number of consecutive no movements for player 337 is 2
Fri Dec 07 12:25:34 IST 2012	Number of consecutive no movements for player 210 is 2
Fri Dec 07 12:25:39 IST 2012	A Phase Ended: Feedback Phase
Fri Dec 07 12:25:39 IST 2012	Protocol: A New Phase Began: Communication Phase
Fri Dec 07 12:25:39 IST 2012	Protocol: Communication phase, Round: 5
Fri Dec 07 12:25:55 IST 2012	Received communication message 
Fri Dec 07 12:25:55 IST 2012	From player: 210
Fri Dec 07 12:25:55 IST 2012	To player: 337
Fri Dec 07 12:25:55 IST 2012	Message type: basicproposal
Fri Dec 07 12:25:55 IST 2012	Chips to send by proposer: { chips  'CTRed':0 'CTPurple':0 'CTGreen':1 'grey78':0 }
Fri Dec 07 12:25:55 IST 2012	Chips to send by responder: { chips  'CTRed':0 'CTPurple':0 'CTGreen':0 'grey78':1 }
Fri Dec 07 12:26:41 IST 2012	Received communication message 
Fri Dec 07 12:26:41 IST 2012	From player: 337
Fri Dec 07 12:26:41 IST 2012	To player: 210
Fri Dec 07 12:26:41 IST 2012	Message type: basicproposaldiscussion
Fri Dec 07 12:26:41 IST 2012	Player 337 rejected offer
Fri Dec 07 12:26:41 IST 2012	Swaping roles:
Fri Dec 07 12:26:41 IST 2012	Proposer is: 337
Fri Dec 07 12:26:41 IST 2012	Responder is: 210
Fri Dec 07 12:26:41 IST 2012	Prop rejected, set counter offers count to: 1
Fri Dec 07 12:26:41 IST 2012	Prop rejected, get counter offers returned: 1
Fri Dec 07 12:26:45 IST 2012	Slept 4 seconds
Fri Dec 07 12:26:45 IST 2012	Sent role changed msgs
Fri Dec 07 12:27:45 IST 2012	Received communication message 
Fri Dec 07 12:27:45 IST 2012	From player: 337
Fri Dec 07 12:27:45 IST 2012	To player: 210
Fri Dec 07 12:27:45 IST 2012	Message type: basicproposal
Fri Dec 07 12:27:45 IST 2012	Chips to send by proposer: { chips  'CTRed':0 'CTPurple':0 'CTGreen':0 'grey78':2 }
Fri Dec 07 12:27:45 IST 2012	Chips to send by responder: { chips  'CTRed':0 'CTPurple':0 'CTGreen':1 'grey78':0 }
Fri Dec 07 12:27:54 IST 2012	Received communication message 
Fri Dec 07 12:27:54 IST 2012	From player: 210
Fri Dec 07 12:27:54 IST 2012	To player: 337
Fri Dec 07 12:27:54 IST 2012	Message type: basicproposaldiscussion
Fri Dec 07 12:27:54 IST 2012	Player 210 rejected offer
Fri Dec 07 12:27:54 IST 2012	Set counter offers count to: 0
Fri Dec 07 12:27:54 IST 2012	A Phase Ended: Communication Phase
Fri Dec 07 12:27:54 IST 2012	Protocol: A New Phase Began: Exchange Phase
Fri Dec 07 12:27:54 IST 2012	Protocol: Exchange phase, Round: 5
Fri Dec 07 12:27:54 IST 2012	In begin exch.phase, get counter offers returned: 0
Fri Dec 07 12:28:34 IST 2012	A Phase Ended: Exchange Phase
Fri Dec 07 12:28:34 IST 2012	Proposer 337 sent: { chips  }
Fri Dec 07 12:28:34 IST 2012	Protocol: A New Phase Began: Movement Phase
Fri Dec 07 12:28:34 IST 2012	Protocol: Movement phase, Round: 5
Fri Dec 07 12:28:34 IST 2012	Player 337 moved to (R:5,C:3)
Fri Dec 07 12:28:34 IST 2012	Player 210 moved to (R:5,C:1)
Fri Dec 07 12:28:54 IST 2012	A Phase Ended: Movement Phase
Fri Dec 07 12:28:54 IST 2012	Protocol: A New Phase Began: Feedback Phase
Fri Dec 07 12:28:54 IST 2012	Protocol: Feedback phase, Round: 5
Fri Dec 07 12:28:54 IST 2012	Number of consecutive no movements for player 337 is 0
Fri Dec 07 12:28:54 IST 2012	Number of consecutive no movements for player 210 is 0
Fri Dec 07 12:28:59 IST 2012	A Phase Ended: Feedback Phase
Fri Dec 07 12:28:59 IST 2012	Protocol: A New Phase Began: Communication Phase
Fri Dec 07 12:28:59 IST 2012	Protocol: Communication phase, Round: 6
Fri Dec 07 12:29:59 IST 2012	Received communication message 
Fri Dec 07 12:29:59 IST 2012	From player: 337
Fri Dec 07 12:29:59 IST 2012	To player: 210
Fri Dec 07 12:29:59 IST 2012	Message type: basicproposal
Fri Dec 07 12:29:59 IST 2012	Chips to send by proposer: { chips  'grey78':2 }
Fri Dec 07 12:29:59 IST 2012	Chips to send by responder: { chips  'CTGreen':1 }
Fri Dec 07 12:30:09 IST 2012	Received communication message 
Fri Dec 07 12:30:09 IST 2012	From player: 210
Fri Dec 07 12:30:09 IST 2012	To player: 337
Fri Dec 07 12:30:09 IST 2012	Message type: basicproposaldiscussion
Fri Dec 07 12:30:09 IST 2012	Player 210 rejected offer
Fri Dec 07 12:30:09 IST 2012	Swaping roles:
Fri Dec 07 12:30:09 IST 2012	Proposer is: 210
Fri Dec 07 12:30:09 IST 2012	Responder is: 337
Fri Dec 07 12:30:09 IST 2012	Prop rejected, set counter offers count to: 1
Fri Dec 07 12:30:09 IST 2012	Prop rejected, get counter offers returned: 1
Fri Dec 07 12:30:13 IST 2012	Slept 4 seconds
Fri Dec 07 12:30:13 IST 2012	Sent role changed msgs
Fri Dec 07 12:30:30 IST 2012	Received communication message 
Fri Dec 07 12:30:30 IST 2012	From player: 210
Fri Dec 07 12:30:30 IST 2012	To player: 337
Fri Dec 07 12:30:30 IST 2012	Message type: basicproposal
Fri Dec 07 12:30:30 IST 2012	Chips to send by proposer: { chips  'CTRed':0 'CTPurple':0 'CTGreen':1 'grey78':0 }
Fri Dec 07 12:30:30 IST 2012	Chips to send by responder: { chips  'CTRed':0 'CTPurple':0 'CTGreen':0 'grey78':1 }
Fri Dec 07 12:31:07 IST 2012	Received communication message 
Fri Dec 07 12:31:07 IST 2012	From player: 337
Fri Dec 07 12:31:07 IST 2012	To player: 210
Fri Dec 07 12:31:07 IST 2012	Message type: basicproposaldiscussion
Fri Dec 07 12:31:07 IST 2012	Player 337 rejected offer
Fri Dec 07 12:31:07 IST 2012	Set counter offers count to: 0
Fri Dec 07 12:31:07 IST 2012	A Phase Ended: Communication Phase
Fri Dec 07 12:31:07 IST 2012	Protocol: A New Phase Began: Exchange Phase
Fri Dec 07 12:31:07 IST 2012	Protocol: Exchange phase, Round: 6
Fri Dec 07 12:31:07 IST 2012	In begin exch.phase, get counter offers returned: 0
Fri Dec 07 12:31:48 IST 2012	A Phase Ended: Exchange Phase
Fri Dec 07 12:31:48 IST 2012	Responder 337 sent: { chips  }
Fri Dec 07 12:31:48 IST 2012	Protocol: A New Phase Began: Movement Phase
Fri Dec 07 12:31:48 IST 2012	Protocol: Movement phase, Round: 6
Fri Dec 07 12:32:08 IST 2012	A Phase Ended: Movement Phase
Fri Dec 07 12:32:08 IST 2012	Protocol: A New Phase Began: Feedback Phase
Fri Dec 07 12:32:08 IST 2012	Protocol: Feedback phase, Round: 6
Fri Dec 07 12:32:08 IST 2012	Number of consecutive no movements for player 337 is 1
Fri Dec 07 12:32:08 IST 2012	Number of consecutive no movements for player 210 is 1
Fri Dec 07 12:32:13 IST 2012	A Phase Ended: Feedback Phase
Fri Dec 07 12:32:13 IST 2012	Protocol: A New Phase Began: Communication Phase
Fri Dec 07 12:32:13 IST 2012	Protocol: Communication phase, Round: 7
Fri Dec 07 12:32:32 IST 2012	Received communication message 
Fri Dec 07 12:32:32 IST 2012	From player: 210
Fri Dec 07 12:32:32 IST 2012	To player: 337
Fri Dec 07 12:32:32 IST 2012	Message type: basicproposal
Fri Dec 07 12:32:32 IST 2012	Chips to send by proposer: { chips  'CTRed':0 'CTPurple':0 'CTGreen':1 'grey78':0 }
Fri Dec 07 12:32:32 IST 2012	Chips to send by responder: { chips  'CTRed':0 'CTPurple':0 'CTGreen':0 'grey78':1 }
Fri Dec 07 12:33:05 IST 2012	Received communication message 
Fri Dec 07 12:33:05 IST 2012	From player: 337
Fri Dec 07 12:33:05 IST 2012	To player: 210
Fri Dec 07 12:33:05 IST 2012	Message type: basicproposaldiscussion
Fri Dec 07 12:33:05 IST 2012	Player 337 rejected offer
Fri Dec 07 12:33:05 IST 2012	Swaping roles:
Fri Dec 07 12:33:05 IST 2012	Proposer is: 337
Fri Dec 07 12:33:05 IST 2012	Responder is: 210
Fri Dec 07 12:33:05 IST 2012	Prop rejected, set counter offers count to: 1
Fri Dec 07 12:33:05 IST 2012	Prop rejected, get counter offers returned: 1
Fri Dec 07 12:33:09 IST 2012	Slept 4 seconds
Fri Dec 07 12:33:09 IST 2012	Sent role changed msgs
Fri Dec 07 12:34:09 IST 2012	Received communication message 
Fri Dec 07 12:34:09 IST 2012	From player: 337
Fri Dec 07 12:34:09 IST 2012	To player: 210
Fri Dec 07 12:34:09 IST 2012	Message type: basicproposal
Fri Dec 07 12:34:09 IST 2012	Chips to send by proposer: { chips  'CTRed':0 'CTPurple':0 'CTGreen':0 'grey78':2 }
Fri Dec 07 12:34:09 IST 2012	Chips to send by responder: { chips  'CTRed':0 'CTPurple':0 'CTGreen':1 'grey78':0 }
Fri Dec 07 12:34:16 IST 2012	Received communication message 
Fri Dec 07 12:34:16 IST 2012	From player: 210
Fri Dec 07 12:34:16 IST 2012	To player: 337
Fri Dec 07 12:34:16 IST 2012	Message type: basicproposaldiscussion
Fri Dec 07 12:34:16 IST 2012	Player 210 rejected offer
Fri Dec 07 12:34:16 IST 2012	Set counter offers count to: 0
Fri Dec 07 12:34:16 IST 2012	A Phase Ended: Communication Phase
Fri Dec 07 12:34:16 IST 2012	Protocol: A New Phase Began: Exchange Phase
Fri Dec 07 12:34:16 IST 2012	Protocol: Exchange phase, Round: 7
Fri Dec 07 12:34:16 IST 2012	In begin exch.phase, get counter offers returned: 0
Fri Dec 07 12:34:56 IST 2012	A Phase Ended: Exchange Phase
Fri Dec 07 12:34:56 IST 2012	Proposer 337 sent: { chips  }
Fri Dec 07 12:34:56 IST 2012	Protocol: A New Phase Began: Movement Phase
Fri Dec 07 12:34:56 IST 2012	Protocol: Movement phase, Round: 7
Fri Dec 07 12:35:16 IST 2012	A Phase Ended: Movement Phase
Fri Dec 07 12:35:16 IST 2012	Protocol: A New Phase Began: Feedback Phase
Fri Dec 07 12:35:16 IST 2012	Protocol: Feedback phase, Round: 7
Fri Dec 07 12:35:16 IST 2012	Number of consecutive no movements for player 337 is 2
Fri Dec 07 12:35:16 IST 2012	Number of consecutive no movements for player 210 is 2
Fri Dec 07 12:35:22 IST 2012	A Phase Ended: Feedback Phase
Fri Dec 07 12:35:22 IST 2012	Protocol: A New Phase Began: Communication Phase
Fri Dec 07 12:35:22 IST 2012	Protocol: Communication phase, Round: 8
Fri Dec 07 12:36:22 IST 2012	Received communication message 
Fri Dec 07 12:36:22 IST 2012	From player: 337
Fri Dec 07 12:36:22 IST 2012	To player: 210
Fri Dec 07 12:36:22 IST 2012	Message type: basicproposal
Fri Dec 07 12:36:22 IST 2012	Chips to send by proposer: { chips  'grey78':2 }
Fri Dec 07 12:36:22 IST 2012	Chips to send by responder: { chips  'CTGreen':1 }
Fri Dec 07 12:36:35 IST 2012	Received communication message 
Fri Dec 07 12:36:35 IST 2012	From player: 210
Fri Dec 07 12:36:35 IST 2012	To player: 337
Fri Dec 07 12:36:35 IST 2012	Message type: basicproposaldiscussion
Fri Dec 07 12:36:35 IST 2012	Player 210 rejected offer
Fri Dec 07 12:36:35 IST 2012	Swaping roles:
Fri Dec 07 12:36:35 IST 2012	Proposer is: 210
Fri Dec 07 12:36:35 IST 2012	Responder is: 337
Fri Dec 07 12:36:35 IST 2012	Prop rejected, set counter offers count to: 1
Fri Dec 07 12:36:35 IST 2012	Prop rejected, get counter offers returned: 1
Fri Dec 07 12:36:39 IST 2012	Slept 4 seconds
Fri Dec 07 12:36:39 IST 2012	Sent role changed msgs
Fri Dec 07 12:36:54 IST 2012	Received communication message 
Fri Dec 07 12:36:54 IST 2012	From player: 210
Fri Dec 07 12:36:54 IST 2012	To player: 337
Fri Dec 07 12:36:54 IST 2012	Message type: basicproposal
Fri Dec 07 12:36:54 IST 2012	Chips to send by proposer: { chips  'CTRed':0 'CTPurple':0 'CTGreen':1 'grey78':0 }
Fri Dec 07 12:36:54 IST 2012	Chips to send by responder: { chips  'CTRed':0 'CTPurple':0 'CTGreen':0 'grey78':1 }
Fri Dec 07 12:37:18 IST 2012	Received communication message 
Fri Dec 07 12:37:18 IST 2012	From player: 337
Fri Dec 07 12:37:18 IST 2012	To player: 210
Fri Dec 07 12:37:18 IST 2012	Message type: basicproposaldiscussion
Fri Dec 07 12:37:18 IST 2012	Player 337 accepted offer
Fri Dec 07 12:37:18 IST 2012	Prop accepted, set counter offers count to: 0
Fri Dec 07 12:37:18 IST 2012	Prop accepted, get counter offers returned: 0
Fri Dec 07 12:37:18 IST 2012	A Phase Ended: Communication Phase
Fri Dec 07 12:37:18 IST 2012	Protocol: A New Phase Began: Exchange Phase
Fri Dec 07 12:37:18 IST 2012	Protocol: Exchange phase, Round: 8
Fri Dec 07 12:37:18 IST 2012	In begin exch.phase, get counter offers returned: 0
Fri Dec 07 12:37:47 IST 2012	A Phase Ended: Exchange Phase
Fri Dec 07 12:37:47 IST 2012	Proposer 210 sent: { chips  'CTRed':0 'CTPurple':0 'CTGreen':1 'grey78':0 }
Fri Dec 07 12:37:47 IST 2012	Responder 337 sent: { chips  'CTRed':0 'CTPurple':0 'CTGreen':0 'grey78':1 }
Fri Dec 07 12:37:47 IST 2012	Protocol: A New Phase Began: Movement Phase
Fri Dec 07 12:37:47 IST 2012	Protocol: Movement phase, Round: 8
Fri Dec 07 12:37:47 IST 2012	Player 210 moved to (R:4,C:1)
Fri Dec 07 12:37:47 IST 2012	Player 337 moved to (R:4,C:3)
Fri Dec 07 12:38:07 IST 2012	A Phase Ended: Movement Phase
Fri Dec 07 12:38:07 IST 2012	Protocol: A New Phase Began: Feedback Phase
Fri Dec 07 12:38:07 IST 2012	Protocol: Feedback phase, Round: 8
Fri Dec 07 12:38:07 IST 2012	Number of consecutive no movements for player 337 is 0
Fri Dec 07 12:38:07 IST 2012	Number of consecutive no movements for player 210 is 0
Fri Dec 07 12:38:12 IST 2012	A Phase Ended: Feedback Phase
Fri Dec 07 12:38:12 IST 2012	Protocol: A New Phase Began: Communication Phase
Fri Dec 07 12:38:12 IST 2012	Protocol: Communication phase, Round: 9
Fri Dec 07 12:38:24 IST 2012	Received communication message 
Fri Dec 07 12:38:24 IST 2012	From player: 210
Fri Dec 07 12:38:24 IST 2012	To player: 337
Fri Dec 07 12:38:24 IST 2012	Message type: basicproposal
Fri Dec 07 12:38:24 IST 2012	Chips to send by proposer: { chips  'CTRed':0 'CTPurple':0 'CTGreen':1 'grey78':0 }
Fri Dec 07 12:38:24 IST 2012	Chips to send by responder: { chips  'CTRed':0 'CTPurple':0 'CTGreen':0 'grey78':1 }
Fri Dec 07 12:38:56 IST 2012	Received communication message 
Fri Dec 07 12:38:56 IST 2012	From player: 337
Fri Dec 07 12:38:56 IST 2012	To player: 210
Fri Dec 07 12:38:56 IST 2012	Message type: basicproposaldiscussion
Fri Dec 07 12:38:56 IST 2012	Player 337 accepted offer
Fri Dec 07 12:38:56 IST 2012	Prop accepted, set counter offers count to: 0
Fri Dec 07 12:38:56 IST 2012	Prop accepted, get counter offers returned: 0
Fri Dec 07 12:38:56 IST 2012	A Phase Ended: Communication Phase
Fri Dec 07 12:38:56 IST 2012	Protocol: A New Phase Began: Exchange Phase
Fri Dec 07 12:38:56 IST 2012	Protocol: Exchange phase, Round: 9
Fri Dec 07 12:38:56 IST 2012	In begin exch.phase, get counter offers returned: 0
Fri Dec 07 12:39:25 IST 2012	A Phase Ended: Exchange Phase
Fri Dec 07 12:39:25 IST 2012	Proposer 210 sent: { chips  }
Fri Dec 07 12:39:25 IST 2012	Responder 337 sent: { chips  'CTRed':0 'CTPurple':0 'CTGreen':0 'grey78':0 }
Fri Dec 07 12:39:25 IST 2012	Protocol: A New Phase Began: Movement Phase
Fri Dec 07 12:39:25 IST 2012	Protocol: Movement phase, Round: 9
Fri Dec 07 12:39:44 IST 2012	A Phase Ended: Movement Phase
Fri Dec 07 12:39:44 IST 2012	Swaping roles:
Fri Dec 07 12:39:44 IST 2012	Proposer is: 337
Fri Dec 07 12:39:44 IST 2012	Responder is: 210
Fri Dec 07 12:39:44 IST 2012	Protocol: A New Phase Began: Feedback Phase
Fri Dec 07 12:39:44 IST 2012	Protocol: Feedback phase, Round: 9
Fri Dec 07 12:39:44 IST 2012	Number of consecutive no movements for player 337 is 1
Fri Dec 07 12:39:44 IST 2012	Number of consecutive no movements for player 210 is 1
Fri Dec 07 12:39:49 IST 2012	A Phase Ended: Feedback Phase
Fri Dec 07 12:39:49 IST 2012	Protocol: A New Phase Began: Communication Phase
Fri Dec 07 12:39:49 IST 2012	Protocol: Communication phase, Round: 10
Fri Dec 07 12:40:49 IST 2012	Received communication message 
Fri Dec 07 12:40:49 IST 2012	From player: 337
Fri Dec 07 12:40:49 IST 2012	To player: 210
Fri Dec 07 12:40:49 IST 2012	Message type: basicproposal
Fri Dec 07 12:40:49 IST 2012	Chips to send by proposer: { chips  'grey78':1 }
Fri Dec 07 12:40:49 IST 2012	Chips to send by responder: { chips  'CTGreen':1 }
Fri Dec 07 12:40:58 IST 2012	Received communication message 
Fri Dec 07 12:40:58 IST 2012	From player: 210
Fri Dec 07 12:40:58 IST 2012	To player: 337
Fri Dec 07 12:40:58 IST 2012	Message type: basicproposaldiscussion
Fri Dec 07 12:40:58 IST 2012	Player 210 accepted offer
Fri Dec 07 12:40:58 IST 2012	Prop accepted, set counter offers count to: 0
Fri Dec 07 12:40:58 IST 2012	Prop accepted, get counter offers returned: 0
Fri Dec 07 12:40:58 IST 2012	A Phase Ended: Communication Phase
Fri Dec 07 12:40:58 IST 2012	Protocol: A New Phase Began: Exchange Phase
Fri Dec 07 12:40:58 IST 2012	Protocol: Exchange phase, Round: 10
Fri Dec 07 12:40:58 IST 2012	In begin exch.phase, get counter offers returned: 0
Fri Dec 07 12:41:27 IST 2012	A Phase Ended: Exchange Phase
Fri Dec 07 12:41:27 IST 2012	Proposer 337 sent: { chips  'CTRed':0 'CTPurple':0 'CTGreen':0 'grey78':0 }
Fri Dec 07 12:41:27 IST 2012	Responder 210 sent: { chips  'CTRed':0 'CTPurple':0 'CTGreen':1 'grey78':0 }
Fri Dec 07 12:41:27 IST 2012	Protocol: A New Phase Began: Movement Phase
Fri Dec 07 12:41:27 IST 2012	Protocol: Movement phase, Round: 10
Fri Dec 07 12:41:47 IST 2012	A Phase Ended: Movement Phase
Fri Dec 07 12:41:47 IST 2012	Swaping roles:
Fri Dec 07 12:41:47 IST 2012	Proposer is: 210
Fri Dec 07 12:41:47 IST 2012	Responder is: 337
Fri Dec 07 12:41:47 IST 2012	Protocol: A New Phase Began: Feedback Phase
Fri Dec 07 12:41:47 IST 2012	Protocol: Feedback phase, Round: 10
Fri Dec 07 12:41:47 IST 2012	Number of consecutive no movements for player 337 is 2
Fri Dec 07 12:41:47 IST 2012	Number of consecutive no movements for player 210 is 2
Fri Dec 07 12:41:52 IST 2012	A Phase Ended: Feedback Phase
Fri Dec 07 12:41:52 IST 2012	Protocol: A New Phase Began: Communication Phase
Fri Dec 07 12:41:52 IST 2012	Protocol: Communication phase, Round: 11
Fri Dec 07 12:42:04 IST 2012	Received communication message 
Fri Dec 07 12:42:04 IST 2012	From player: 210
Fri Dec 07 12:42:04 IST 2012	To player: 337
Fri Dec 07 12:42:04 IST 2012	Message type: basicproposal
Fri Dec 07 12:42:04 IST 2012	Chips to send by proposer: { chips  'CTRed':0 'CTPurple':0 'CTGreen':1 'grey78':0 }
Fri Dec 07 12:42:04 IST 2012	Chips to send by responder: { chips  'CTRed':0 'CTPurple':0 'CTGreen':0 'grey78':1 }
Fri Dec 07 12:42:49 IST 2012	Received communication message 
Fri Dec 07 12:42:49 IST 2012	From player: 337
Fri Dec 07 12:42:49 IST 2012	To player: 210
Fri Dec 07 12:42:49 IST 2012	Message type: basicproposaldiscussion
Fri Dec 07 12:42:49 IST 2012	Player 337 accepted offer
Fri Dec 07 12:42:49 IST 2012	Prop accepted, set counter offers count to: 0
Fri Dec 07 12:42:49 IST 2012	Prop accepted, get counter offers returned: 0
Fri Dec 07 12:42:49 IST 2012	A Phase Ended: Communication Phase
Fri Dec 07 12:42:49 IST 2012	Protocol: A New Phase Began: Exchange Phase
Fri Dec 07 12:42:49 IST 2012	Protocol: Exchange phase, Round: 11
Fri Dec 07 12:42:49 IST 2012	In begin exch.phase, get counter offers returned: 0
Fri Dec 07 12:43:18 IST 2012	A Phase Ended: Exchange Phase
Fri Dec 07 12:43:18 IST 2012	Proposer 210 sent: { chips  }
Fri Dec 07 12:43:18 IST 2012	Responder 337 sent: { chips  'CTRed':0 'CTPurple':0 'CTGreen':0 'grey78':0 }
Fri Dec 07 12:43:18 IST 2012	Protocol: A New Phase Began: Movement Phase
Fri Dec 07 12:43:18 IST 2012	Protocol: Movement phase, Round: 11
Fri Dec 07 12:43:18 IST 2012	Player 210 moved to (R:3,C:1)
Fri Dec 07 12:43:18 IST 2012	Player 337 moved to (R:3,C:3)
Fri Dec 07 12:43:37 IST 2012	A Phase Ended: Movement Phase
Fri Dec 07 12:43:37 IST 2012	Swaping roles:
Fri Dec 07 12:43:37 IST 2012	Proposer is: 337
Fri Dec 07 12:43:37 IST 2012	Responder is: 210
Fri Dec 07 12:43:37 IST 2012	Protocol: A New Phase Began: Feedback Phase
Fri Dec 07 12:43:37 IST 2012	Protocol: Feedback phase, Round: 11
Fri Dec 07 12:43:37 IST 2012	Number of consecutive no movements for player 337 is 0
Fri Dec 07 12:43:37 IST 2012	Number of consecutive no movements for player 210 is 0
Fri Dec 07 12:43:42 IST 2012	A Phase Ended: Feedback Phase
Fri Dec 07 12:43:42 IST 2012	Protocol: A New Phase Began: Communication Phase
Fri Dec 07 12:43:42 IST 2012	Protocol: Communication phase, Round: 12
Fri Dec 07 12:44:42 IST 2012	Received communication message 
Fri Dec 07 12:44:42 IST 2012	From player: 337
Fri Dec 07 12:44:42 IST 2012	To player: 210
Fri Dec 07 12:44:42 IST 2012	Message type: basicproposal
Fri Dec 07 12:44:42 IST 2012	Chips to send by proposer: { chips  'grey78':1 }
Fri Dec 07 12:44:42 IST 2012	Chips to send by responder: { chips  'CTGreen':1 }
Fri Dec 07 12:44:53 IST 2012	Received communication message 
Fri Dec 07 12:44:53 IST 2012	From player: 210
Fri Dec 07 12:44:53 IST 2012	To player: 337
Fri Dec 07 12:44:53 IST 2012	Message type: basicproposaldiscussion
Fri Dec 07 12:44:53 IST 2012	Player 210 accepted offer
Fri Dec 07 12:44:53 IST 2012	Prop accepted, set counter offers count to: 0
Fri Dec 07 12:44:53 IST 2012	Prop accepted, get counter offers returned: 0
Fri Dec 07 12:44:53 IST 2012	A Phase Ended: Communication Phase
Fri Dec 07 12:44:53 IST 2012	Protocol: A New Phase Began: Exchange Phase
Fri Dec 07 12:44:53 IST 2012	Protocol: Exchange phase, Round: 12
Fri Dec 07 12:44:53 IST 2012	In begin exch.phase, get counter offers returned: 0
Fri Dec 07 12:45:19 IST 2012	A Phase Ended: Exchange Phase
Fri Dec 07 12:45:19 IST 2012	Proposer 337 sent: { chips  'CTRed':0 'CTPurple':0 'CTGreen':0 'grey78':0 }
Fri Dec 07 12:45:19 IST 2012	Responder 210 sent: { chips  'CTRed':0 'CTPurple':0 'CTGreen':1 'grey78':0 }
Fri Dec 07 12:45:19 IST 2012	Protocol: A New Phase Began: Movement Phase
Fri Dec 07 12:45:19 IST 2012	Protocol: Movement phase, Round: 12
Fri Dec 07 12:45:39 IST 2012	A Phase Ended: Movement Phase
Fri Dec 07 12:45:39 IST 2012	Swaping roles:
Fri Dec 07 12:45:39 IST 2012	Proposer is: 210
Fri Dec 07 12:45:39 IST 2012	Responder is: 337
Fri Dec 07 12:45:39 IST 2012	Protocol: A New Phase Began: Feedback Phase
Fri Dec 07 12:45:39 IST 2012	Protocol: Feedback phase, Round: 12
Fri Dec 07 12:45:39 IST 2012	Number of consecutive no movements for player 337 is 1
Fri Dec 07 12:45:39 IST 2012	Number of consecutive no movements for player 210 is 1
Fri Dec 07 12:45:44 IST 2012	A Phase Ended: Feedback Phase
Fri Dec 07 12:45:44 IST 2012	Protocol: A New Phase Began: Communication Phase
Fri Dec 07 12:45:44 IST 2012	Protocol: Communication phase, Round: 13
Fri Dec 07 12:45:57 IST 2012	Received communication message 
Fri Dec 07 12:45:57 IST 2012	From player: 210
Fri Dec 07 12:45:57 IST 2012	To player: 337
Fri Dec 07 12:45:57 IST 2012	Message type: basicproposal
Fri Dec 07 12:45:57 IST 2012	Chips to send by proposer: { chips  'CTRed':0 'CTPurple':0 'CTGreen':1 'grey78':0 }
Fri Dec 07 12:45:57 IST 2012	Chips to send by responder: { chips  'CTRed':0 'CTPurple':0 'CTGreen':0 'grey78':1 }
Fri Dec 07 12:46:31 IST 2012	Received communication message 
Fri Dec 07 12:46:31 IST 2012	From player: 337
Fri Dec 07 12:46:31 IST 2012	To player: 210
Fri Dec 07 12:46:31 IST 2012	Message type: basicproposaldiscussion
Fri Dec 07 12:46:31 IST 2012	Player 337 accepted offer
Fri Dec 07 12:46:31 IST 2012	Prop accepted, set counter offers count to: 0
Fri Dec 07 12:46:31 IST 2012	Prop accepted, get counter offers returned: 0
Fri Dec 07 12:46:31 IST 2012	A Phase Ended: Communication Phase
Fri Dec 07 12:46:31 IST 2012	Protocol: A New Phase Began: Exchange Phase
Fri Dec 07 12:46:31 IST 2012	Protocol: Exchange phase, Round: 13
Fri Dec 07 12:46:31 IST 2012	In begin exch.phase, get counter offers returned: 0
Fri Dec 07 12:46:52 IST 2012	A Phase Ended: Exchange Phase
Fri Dec 07 12:46:52 IST 2012	Proposer 210 sent: { chips  'CTRed':0 'CTPurple':0 'CTGreen':1 'grey78':0 }
Fri Dec 07 12:46:52 IST 2012	Responder 337 sent: { chips  'CTRed':0 'CTPurple':0 'CTGreen':0 'grey78':0 }
Fri Dec 07 12:46:52 IST 2012	Protocol: A New Phase Began: Movement Phase
Fri Dec 07 12:46:52 IST 2012	Protocol: Movement phase, Round: 13
Fri Dec 07 12:47:12 IST 2012	A Phase Ended: Movement Phase
Fri Dec 07 12:47:12 IST 2012	Swaping roles:
Fri Dec 07 12:47:12 IST 2012	Proposer is: 337
Fri Dec 07 12:47:12 IST 2012	Responder is: 210
Fri Dec 07 12:47:12 IST 2012	Protocol: A New Phase Began: Feedback Phase
Fri Dec 07 12:47:12 IST 2012	Protocol: Feedback phase, Round: 13
Fri Dec 07 12:47:12 IST 2012	Number of consecutive no movements for player 337 is 2
Fri Dec 07 12:47:12 IST 2012	Number of consecutive no movements for player 210 is 2
Fri Dec 07 12:47:17 IST 2012	A Phase Ended: Feedback Phase
Fri Dec 07 12:47:17 IST 2012	Protocol: A New Phase Began: Communication Phase
Fri Dec 07 12:47:17 IST 2012	Protocol: Communication phase, Round: 14
Fri Dec 07 12:48:17 IST 2012	Received communication message 
Fri Dec 07 12:48:17 IST 2012	From player: 337
Fri Dec 07 12:48:17 IST 2012	To player: 210
Fri Dec 07 12:48:17 IST 2012	Message type: basicproposal
Fri Dec 07 12:48:17 IST 2012	Chips to send by proposer: { chips  'grey78':1 }
Fri Dec 07 12:48:17 IST 2012	Chips to send by responder: { chips  'CTGreen':1 }
Fri Dec 07 12:48:28 IST 2012	Received communication message 
Fri Dec 07 12:48:28 IST 2012	From player: 210
Fri Dec 07 12:48:28 IST 2012	To player: 337
Fri Dec 07 12:48:28 IST 2012	Message type: basicproposaldiscussion
Fri Dec 07 12:48:28 IST 2012	Player 210 accepted offer
Fri Dec 07 12:48:28 IST 2012	Prop accepted, set counter offers count to: 0
Fri Dec 07 12:48:28 IST 2012	Prop accepted, get counter offers returned: 0
Fri Dec 07 12:48:28 IST 2012	A Phase Ended: Communication Phase
Fri Dec 07 12:48:28 IST 2012	Protocol: A New Phase Began: Exchange Phase
Fri Dec 07 12:48:28 IST 2012	Protocol: Exchange phase, Round: 14
Fri Dec 07 12:48:28 IST 2012	In begin exch.phase, get counter offers returned: 0
Fri Dec 07 12:48:46 IST 2012	A Phase Ended: Exchange Phase
Fri Dec 07 12:48:46 IST 2012	Proposer 337 sent: { chips  'CTRed':0 'CTPurple':0 'CTGreen':0 'grey78':0 }
Fri Dec 07 12:48:46 IST 2012	Responder 210 sent: { chips  }
Fri Dec 07 12:48:46 IST 2012	Protocol: A New Phase Began: Movement Phase
Fri Dec 07 12:48:46 IST 2012	Protocol: Movement phase, Round: 14
Fri Dec 07 12:48:46 IST 2012	Player 337 moved to (R:2,C:3)
Fri Dec 07 12:48:46 IST 2012	Player 210 moved to (R:2,C:1)
Fri Dec 07 12:49:05 IST 2012	A Phase Ended: Movement Phase
Fri Dec 07 12:49:05 IST 2012	Swaping roles:
Fri Dec 07 12:49:05 IST 2012	Proposer is: 210
Fri Dec 07 12:49:05 IST 2012	Responder is: 337
Fri Dec 07 12:49:05 IST 2012	Protocol: A New Phase Began: Feedback Phase
Fri Dec 07 12:49:05 IST 2012	Protocol: Feedback phase, Round: 14
Fri Dec 07 12:49:05 IST 2012	Number of consecutive no movements for player 337 is 0
Fri Dec 07 12:49:05 IST 2012	Number of consecutive no movements for player 210 is 0
Fri Dec 07 12:49:10 IST 2012	A Phase Ended: Feedback Phase
Fri Dec 07 12:49:10 IST 2012	Protocol: A New Phase Began: Communication Phase
Fri Dec 07 12:49:10 IST 2012	Protocol: Communication phase, Round: 15
Fri Dec 07 12:49:28 IST 2012	Received communication message 
Fri Dec 07 12:49:28 IST 2012	From player: 210
Fri Dec 07 12:49:28 IST 2012	To player: 337
Fri Dec 07 12:49:28 IST 2012	Message type: basicproposal
Fri Dec 07 12:49:28 IST 2012	Chips to send by proposer: { chips  'CTRed':0 'CTPurple':0 'CTGreen':4 'grey78':0 }
Fri Dec 07 12:49:28 IST 2012	Chips to send by responder: { chips  'CTRed':0 'CTPurple':0 'CTGreen':0 'grey78':1 }
Fri Dec 07 12:49:42 IST 2012	Received communication message 
Fri Dec 07 12:49:42 IST 2012	From player: 337
Fri Dec 07 12:49:42 IST 2012	To player: 210
Fri Dec 07 12:49:42 IST 2012	Message type: basicproposaldiscussion
Fri Dec 07 12:49:42 IST 2012	Player 337 rejected offer
Fri Dec 07 12:49:42 IST 2012	Swaping roles:
Fri Dec 07 12:49:42 IST 2012	Proposer is: 337
Fri Dec 07 12:49:42 IST 2012	Responder is: 210
Fri Dec 07 12:49:42 IST 2012	Prop rejected, set counter offers count to: 1
Fri Dec 07 12:49:42 IST 2012	Prop rejected, get counter offers returned: 1
Fri Dec 07 12:49:46 IST 2012	Slept 4 seconds
Fri Dec 07 12:49:46 IST 2012	Sent role changed msgs
Fri Dec 07 12:50:41 IST 2012	Received communication message 
Fri Dec 07 12:50:41 IST 2012	From player: 337
Fri Dec 07 12:50:41 IST 2012	To player: 210
Fri Dec 07 12:50:41 IST 2012	Message type: basicproposal
Fri Dec 07 12:50:41 IST 2012	Chips to send by proposer: { chips  'CTRed':0 'CTPurple':0 'CTGreen':0 'grey78':1 }
Fri Dec 07 12:50:41 IST 2012	Chips to send by responder: { chips  'CTRed':0 'CTPurple':0 'CTGreen':1 'grey78':0 }
Fri Dec 07 12:50:52 IST 2012	Received communication message 
Fri Dec 07 12:50:52 IST 2012	From player: 210
Fri Dec 07 12:50:52 IST 2012	To player: 337
Fri Dec 07 12:50:52 IST 2012	Message type: basicproposaldiscussion
Fri Dec 07 12:50:52 IST 2012	Player 210 accepted offer
Fri Dec 07 12:50:52 IST 2012	Prop accepted, set counter offers count to: 0
Fri Dec 07 12:50:52 IST 2012	Prop accepted, get counter offers returned: 0
Fri Dec 07 12:50:52 IST 2012	A Phase Ended: Communication Phase
Fri Dec 07 12:50:52 IST 2012	Protocol: A New Phase Began: Exchange Phase
Fri Dec 07 12:50:52 IST 2012	Protocol: Exchange phase, Round: 15
Fri Dec 07 12:50:52 IST 2012	In begin exch.phase, get counter offers returned: 0
Fri Dec 07 12:51:06 IST 2012	A Phase Ended: Exchange Phase
Fri Dec 07 12:51:06 IST 2012	Proposer 337 sent: { chips  'CTRed':0 'CTPurple':0 'CTGreen':0 'grey78':0 }
Fri Dec 07 12:51:06 IST 2012	Responder 210 sent: { chips  'CTRed':0 'CTPurple':0 'CTGreen':1 'grey78':0 }
Fri Dec 07 12:51:06 IST 2012	Protocol: A New Phase Began: Movement Phase
Fri Dec 07 12:51:06 IST 2012	Protocol: Movement phase, Round: 15
Fri Dec 07 12:51:26 IST 2012	A Phase Ended: Movement Phase
Fri Dec 07 12:51:26 IST 2012	Protocol: A New Phase Began: Feedback Phase
Fri Dec 07 12:51:26 IST 2012	Protocol: Feedback phase, Round: 15
Fri Dec 07 12:51:26 IST 2012	Number of consecutive no movements for player 337 is 1
Fri Dec 07 12:51:26 IST 2012	Number of consecutive no movements for player 210 is 1
Fri Dec 07 12:51:31 IST 2012	A Phase Ended: Feedback Phase
Fri Dec 07 12:51:31 IST 2012	Protocol: A New Phase Began: Communication Phase
Fri Dec 07 12:51:31 IST 2012	Protocol: Communication phase, Round: 16
Fri Dec 07 12:52:14 IST 2012	Received communication message 
Fri Dec 07 12:52:14 IST 2012	From player: 337
Fri Dec 07 12:52:14 IST 2012	To player: 210
Fri Dec 07 12:52:14 IST 2012	Message type: basicproposal
Fri Dec 07 12:52:14 IST 2012	Chips to send by proposer: { chips  'grey78':1 }
Fri Dec 07 12:52:14 IST 2012	Chips to send by responder: { chips  'CTGreen':1 }
Fri Dec 07 12:52:27 IST 2012	Received communication message 
Fri Dec 07 12:52:27 IST 2012	From player: 210
Fri Dec 07 12:52:27 IST 2012	To player: 337
Fri Dec 07 12:52:27 IST 2012	Message type: basicproposaldiscussion
Fri Dec 07 12:52:27 IST 2012	Player 210 accepted offer
Fri Dec 07 12:52:27 IST 2012	Prop accepted, set counter offers count to: 0
Fri Dec 07 12:52:27 IST 2012	Prop accepted, get counter offers returned: 0
Fri Dec 07 12:52:27 IST 2012	A Phase Ended: Communication Phase
Fri Dec 07 12:52:27 IST 2012	Protocol: A New Phase Began: Exchange Phase
Fri Dec 07 12:52:27 IST 2012	Protocol: Exchange phase, Round: 16
Fri Dec 07 12:52:27 IST 2012	In begin exch.phase, get counter offers returned: 0
Fri Dec 07 12:52:35 IST 2012	A Phase Ended: Exchange Phase
Fri Dec 07 12:52:35 IST 2012	Proposer 337 sent: { chips  'CTRed':0 'CTPurple':0 'CTGreen':0 'grey78':0 }
Fri Dec 07 12:52:35 IST 2012	Responder 210 sent: { chips  'CTRed':0 'CTPurple':0 'CTGreen':1 'grey78':0 }
Fri Dec 07 12:52:35 IST 2012	Protocol: A New Phase Began: Movement Phase
Fri Dec 07 12:52:35 IST 2012	Protocol: Movement phase, Round: 16
Fri Dec 07 12:52:55 IST 2012	A Phase Ended: Movement Phase
Fri Dec 07 12:52:55 IST 2012	Swaping roles:
Fri Dec 07 12:52:55 IST 2012	Proposer is: 210
Fri Dec 07 12:52:55 IST 2012	Responder is: 337
Fri Dec 07 12:52:55 IST 2012	Protocol: A New Phase Began: Feedback Phase
Fri Dec 07 12:52:55 IST 2012	Protocol: Feedback phase, Round: 16
Fri Dec 07 12:52:55 IST 2012	Number of consecutive no movements for player 337 is 2
Fri Dec 07 12:52:55 IST 2012	Number of consecutive no movements for player 210 is 2
Fri Dec 07 12:53:00 IST 2012	A Phase Ended: Feedback Phase
Fri Dec 07 12:53:00 IST 2012	Protocol: A New Phase Began: Communication Phase
Fri Dec 07 12:53:00 IST 2012	Protocol: Communication phase, Round: 17
Fri Dec 07 12:53:16 IST 2012	Received communication message 
Fri Dec 07 12:53:16 IST 2012	From player: 210
Fri Dec 07 12:53:16 IST 2012	To player: 337
Fri Dec 07 12:53:16 IST 2012	Message type: basicproposal
Fri Dec 07 12:53:16 IST 2012	Chips to send by proposer: { chips  'CTRed':0 'CTPurple':0 'CTGreen':2 'grey78':0 }
Fri Dec 07 12:53:16 IST 2012	Chips to send by responder: { chips  'CTRed':0 'CTPurple':0 'CTGreen':0 'grey78':1 }
Fri Dec 07 12:53:22 IST 2012	Received communication message 
Fri Dec 07 12:53:22 IST 2012	From player: 337
Fri Dec 07 12:53:22 IST 2012	To player: 210
Fri Dec 07 12:53:22 IST 2012	Message type: basicproposaldiscussion
Fri Dec 07 12:53:22 IST 2012	Player 337 rejected offer
Fri Dec 07 12:53:22 IST 2012	Swaping roles:
Fri Dec 07 12:53:22 IST 2012	Proposer is: 337
Fri Dec 07 12:53:22 IST 2012	Responder is: 210
Fri Dec 07 12:53:22 IST 2012	Prop rejected, set counter offers count to: 1
Fri Dec 07 12:53:22 IST 2012	Prop rejected, get counter offers returned: 1
Fri Dec 07 12:53:27 IST 2012	Slept 4 seconds
Fri Dec 07 12:53:27 IST 2012	Sent role changed msgs
Fri Dec 07 12:53:44 IST 2012	Received communication message 
Fri Dec 07 12:53:44 IST 2012	From player: 337
Fri Dec 07 12:53:44 IST 2012	To player: 210
Fri Dec 07 12:53:44 IST 2012	Message type: basicproposal
Fri Dec 07 12:53:44 IST 2012	Chips to send by proposer: { chips  'CTRed':0 'CTPurple':0 'CTGreen':0 'grey78':1 }
Fri Dec 07 12:53:44 IST 2012	Chips to send by responder: { chips  'CTRed':0 'CTPurple':0 'CTGreen':1 'grey78':0 }
Fri Dec 07 12:53:50 IST 2012	Received communication message 
Fri Dec 07 12:53:50 IST 2012	From player: 210
Fri Dec 07 12:53:50 IST 2012	To player: 337
Fri Dec 07 12:53:50 IST 2012	Message type: basicproposaldiscussion
Fri Dec 07 12:53:50 IST 2012	Player 210 accepted offer
Fri Dec 07 12:53:50 IST 2012	Prop accepted, set counter offers count to: 0
Fri Dec 07 12:53:50 IST 2012	Prop accepted, get counter offers returned: 0
Fri Dec 07 12:53:50 IST 2012	A Phase Ended: Communication Phase
Fri Dec 07 12:53:50 IST 2012	Protocol: A New Phase Began: Exchange Phase
Fri Dec 07 12:53:50 IST 2012	Protocol: Exchange phase, Round: 17
Fri Dec 07 12:53:50 IST 2012	In begin exch.phase, get counter offers returned: 0
Fri Dec 07 12:53:55 IST 2012	A Phase Ended: Exchange Phase
Fri Dec 07 12:53:55 IST 2012	Proposer 337 sent: { chips  'CTRed':0 'CTPurple':0 'CTGreen':0 'grey78':0 }
Fri Dec 07 12:53:55 IST 2012	Responder 210 sent: { chips  }
Fri Dec 07 12:53:55 IST 2012	Protocol: A New Phase Began: Movement Phase
Fri Dec 07 12:53:55 IST 2012	Protocol: Movement phase, Round: 17
Fri Dec 07 12:53:55 IST 2012	Player 337 moved to (R:1,C:3)
Fri Dec 07 12:54:15 IST 2012	A Phase Ended: Movement Phase
Fri Dec 07 12:54:15 IST 2012	Protocol: A New Phase Began: Feedback Phase
Fri Dec 07 12:54:15 IST 2012	Protocol: Feedback phase, Round: 17
Fri Dec 07 12:54:15 IST 2012	Number of consecutive no movements for player 337 is 0
Fri Dec 07 12:54:15 IST 2012	Number of consecutive no movements for player 210 is 3
Fri Dec 07 12:54:15 IST 2012	Ending game, all players move as much as they can towards goal
Fri Dec 07 12:54:15 IST 2012	Player: 210 ,role: Responder score is: 40
Fri Dec 07 12:54:15 IST 2012	Player: 337 ,role: Proposer score is: 205
