Sat Dec 08 02:31:57 IST 2012	This is the CT debug logger; svn version 638; sep 27 09
Sat Dec 08 02:31:57 IST 2012	Sat Dec 08 02:31:57 IST 2012
Sat Dec 08 02:31:57 IST 2012	A new Alternative Offers game has began
Sat Dec 08 02:31:57 IST 2012	ID Number: 47673
Sat Dec 08 02:31:57 IST 2012	Creating board
Sat Dec 08 02:31:57 IST 2012	<colors>
Sat Dec 08 02:31:57 IST 2012	{ GamePalette  'CTRed':0 'CTPurple':1 'CTGreen':2 'grey78':3 }
Sat Dec 08 02:31:57 IST 2012	<rows>
Sat Dec 08 02:31:57 IST 2012	7
Sat Dec 08 02:31:57 IST 2012	<columns>
Sat Dec 08 02:31:57 IST 2012	5
Sat Dec 08 02:31:57 IST 2012	<squaresColors>
Sat Dec 08 02:31:57 IST 2012	CTPurple CTRed CTRed CTGreen CTPurple 
Sat Dec 08 02:31:57 IST 2012	CTPurple grey78 CTPurple grey78 CTPurple 
Sat Dec 08 02:31:57 IST 2012	CTPurple CTRed CTPurple CTGreen CTPurple 
Sat Dec 08 02:31:57 IST 2012	CTPurple grey78 CTPurple grey78 CTPurple 
Sat Dec 08 02:31:57 IST 2012	CTPurple CTRed CTPurple CTGreen CTPurple 
Sat Dec 08 02:31:57 IST 2012	CTPurple grey78 CTPurple grey78 CTPurple 
Sat Dec 08 02:31:57 IST 2012	CTPurple CTRed CTPurple CTGreen CTPurple 
Sat Dec 08 02:31:57 IST 2012	</squareColors>
Sat Dec 08 02:31:57 IST 2012	<goalPosition>
Sat Dec 08 02:31:57 IST 2012	Goal position: (R:0,C:2)
Sat Dec 08 02:31:57 IST 2012	<numberOfPlayers>
Sat Dec 08 02:31:57 IST 2012	2
Sat Dec 08 02:31:57 IST 2012	<firstPlayerChips>
Sat Dec 08 02:31:57 IST 2012	Setting chips for player: 337 id:0
Sat Dec 08 02:31:57 IST 2012	{ chips  'CTRed':1 'CTGreen':13 'CTPurple':0 'grey78':10 }
Sat Dec 08 02:31:57 IST 2012	Player position: (R:6,C:4)
Sat Dec 08 02:31:57 IST 2012	Setting chips for player: 210 id:1
Sat Dec 08 02:31:57 IST 2012	{ chips  'CTRed':5 'CTGreen':19 'CTPurple':0 'grey78':0 }
Sat Dec 08 02:31:57 IST 2012	Player position: (R:6,C:0)
Sat Dec 08 02:31:57 IST 2012	Protocol: A New Phase Began: Strategy Prep Phase
Sat Dec 08 02:31:57 IST 2012	Protocol: Strategy Preparation phase, Round: 0
Sat Dec 08 02:31:57 IST 2012	Maximum number of rounds with no consecutive movement is 3
Sat Dec 08 02:31:57 IST 2012	In begin comm. phase, set counter offers count to: 0
Sat Dec 08 02:31:57 IST 2012	In begin comm. phase, get counter offers returned: 0
Sat Dec 08 02:32:18 IST 2012	A Phase Ended: Strategy Prep Phase
Sat Dec 08 02:32:18 IST 2012	Protocol: A New Phase Began: Communication Phase
Sat Dec 08 02:32:18 IST 2012	Protocol: Communication phase, Round: 0
Sat Dec 08 02:33:18 IST 2012	Received communication message 
Sat Dec 08 02:33:18 IST 2012	From player: 337
Sat Dec 08 02:33:18 IST 2012	To player: 210
Sat Dec 08 02:33:18 IST 2012	Message type: basicproposal
Sat Dec 08 02:33:18 IST 2012	Chips to send by proposer: { chips  'grey78':3 }
Sat Dec 08 02:33:18 IST 2012	Chips to send by responder: { chips  'CTGreen':2 }
Sat Dec 08 02:33:26 IST 2012	Received communication message 
Sat Dec 08 02:33:26 IST 2012	From player: 210
Sat Dec 08 02:33:26 IST 2012	To player: 337
Sat Dec 08 02:33:26 IST 2012	Message type: basicproposaldiscussion
Sat Dec 08 02:33:26 IST 2012	Player 210 accepted offer
Sat Dec 08 02:33:26 IST 2012	Prop accepted, set counter offers count to: 0
Sat Dec 08 02:33:26 IST 2012	Prop accepted, get counter offers returned: 0
Sat Dec 08 02:33:26 IST 2012	A Phase Ended: Communication Phase
Sat Dec 08 02:33:26 IST 2012	Protocol: A New Phase Began: Exchange Phase
Sat Dec 08 02:33:26 IST 2012	Protocol: Exchange phase, Round: 0
Sat Dec 08 02:33:26 IST 2012	In begin exch.phase, get counter offers returned: 0
Sat Dec 08 02:33:55 IST 2012	A Phase Ended: Exchange Phase
Sat Dec 08 02:33:55 IST 2012	Proposer 337 sent: { chips  'CTRed':0 'CTPurple':0 'CTGreen':0 'grey78':1 }
Sat Dec 08 02:33:55 IST 2012	Responder 210 sent: { chips  'CTRed':0 'CTPurple':0 'CTGreen':1 'grey78':0 }
Sat Dec 08 02:33:55 IST 2012	Protocol: A New Phase Began: Movement Phase
Sat Dec 08 02:33:55 IST 2012	Protocol: Movement phase, Round: 0
Sat Dec 08 02:34:15 IST 2012	A Phase Ended: Movement Phase
Sat Dec 08 02:34:15 IST 2012	Swaping roles:
Sat Dec 08 02:34:15 IST 2012	Proposer is: 210
Sat Dec 08 02:34:15 IST 2012	Responder is: 337
Sat Dec 08 02:34:15 IST 2012	Protocol: A New Phase Began: Feedback Phase
Sat Dec 08 02:34:15 IST 2012	Protocol: Feedback phase, Round: 0
Sat Dec 08 02:34:15 IST 2012	Number of consecutive no movements for player 337 is 1
Sat Dec 08 02:34:15 IST 2012	Number of consecutive no movements for player 210 is 1
Sat Dec 08 02:34:20 IST 2012	A Phase Ended: Feedback Phase
Sat Dec 08 02:34:20 IST 2012	Protocol: A New Phase Began: Communication Phase
Sat Dec 08 02:34:20 IST 2012	Protocol: Communication phase, Round: 1
Sat Dec 08 02:34:39 IST 2012	Received communication message 
Sat Dec 08 02:34:39 IST 2012	From player: 210
Sat Dec 08 02:34:39 IST 2012	To player: 337
Sat Dec 08 02:34:39 IST 2012	Message type: basicproposal
Sat Dec 08 02:34:39 IST 2012	Chips to send by proposer: { chips  'CTRed':0 'CTPurple':0 'CTGreen':1 'grey78':0 }
Sat Dec 08 02:34:39 IST 2012	Chips to send by responder: { chips  'CTRed':0 'CTPurple':0 'CTGreen':0 'grey78':1 }
Sat Dec 08 02:35:39 IST 2012	Received communication message 
Sat Dec 08 02:35:39 IST 2012	From player: 337
Sat Dec 08 02:35:39 IST 2012	To player: 210
Sat Dec 08 02:35:39 IST 2012	Message type: basicproposaldiscussion
Sat Dec 08 02:35:39 IST 2012	Player 337 rejected offer
Sat Dec 08 02:35:39 IST 2012	Swaping roles:
Sat Dec 08 02:35:39 IST 2012	Proposer is: 337
Sat Dec 08 02:35:39 IST 2012	Responder is: 210
Sat Dec 08 02:35:39 IST 2012	Prop rejected, set counter offers count to: 1
Sat Dec 08 02:35:39 IST 2012	Prop rejected, get counter offers returned: 1
Sat Dec 08 02:35:43 IST 2012	Slept 4 seconds
Sat Dec 08 02:35:43 IST 2012	Sent role changed msgs
Sat Dec 08 02:36:43 IST 2012	Received communication message 
Sat Dec 08 02:36:43 IST 2012	From player: 337
Sat Dec 08 02:36:43 IST 2012	To player: 210
Sat Dec 08 02:36:43 IST 2012	Message type: basicproposal
Sat Dec 08 02:36:43 IST 2012	Chips to send by proposer: { chips  'CTRed':0 'CTPurple':0 'CTGreen':0 'grey78':2 }
Sat Dec 08 02:36:43 IST 2012	Chips to send by responder: { chips  'CTRed':0 'CTPurple':0 'CTGreen':1 'grey78':0 }
Sat Dec 08 02:36:50 IST 2012	Received communication message 
Sat Dec 08 02:36:50 IST 2012	From player: 210
Sat Dec 08 02:36:50 IST 2012	To player: 337
Sat Dec 08 02:36:50 IST 2012	Message type: basicproposaldiscussion
Sat Dec 08 02:36:50 IST 2012	Player 210 rejected offer
Sat Dec 08 02:36:50 IST 2012	Set counter offers count to: 0
Sat Dec 08 02:36:50 IST 2012	A Phase Ended: Communication Phase
Sat Dec 08 02:36:50 IST 2012	Protocol: A New Phase Began: Exchange Phase
Sat Dec 08 02:36:50 IST 2012	Protocol: Exchange phase, Round: 1
Sat Dec 08 02:36:50 IST 2012	In begin exch.phase, get counter offers returned: 0
Sat Dec 08 02:37:30 IST 2012	A Phase Ended: Exchange Phase
Sat Dec 08 02:37:30 IST 2012	Proposer 337 sent: { chips  }
Sat Dec 08 02:37:30 IST 2012	Protocol: A New Phase Began: Movement Phase
Sat Dec 08 02:37:30 IST 2012	Protocol: Movement phase, Round: 1
Sat Dec 08 02:37:50 IST 2012	A Phase Ended: Movement Phase
Sat Dec 08 02:37:50 IST 2012	Protocol: A New Phase Began: Feedback Phase
Sat Dec 08 02:37:50 IST 2012	Protocol: Feedback phase, Round: 1
Sat Dec 08 02:37:50 IST 2012	Number of consecutive no movements for player 337 is 2
Sat Dec 08 02:37:50 IST 2012	Number of consecutive no movements for player 210 is 2
Sat Dec 08 02:37:55 IST 2012	A Phase Ended: Feedback Phase
Sat Dec 08 02:37:55 IST 2012	Protocol: A New Phase Began: Communication Phase
Sat Dec 08 02:37:55 IST 2012	Protocol: Communication phase, Round: 2
Sat Dec 08 02:38:55 IST 2012	Received communication message 
Sat Dec 08 02:38:55 IST 2012	From player: 337
Sat Dec 08 02:38:55 IST 2012	To player: 210
Sat Dec 08 02:38:55 IST 2012	Message type: basicproposal
Sat Dec 08 02:38:55 IST 2012	Chips to send by proposer: { chips  'grey78':2 }
Sat Dec 08 02:38:55 IST 2012	Chips to send by responder: { chips  'CTGreen':1 }
Sat Dec 08 02:39:02 IST 2012	Received communication message 
Sat Dec 08 02:39:02 IST 2012	From player: 210
Sat Dec 08 02:39:02 IST 2012	To player: 337
Sat Dec 08 02:39:02 IST 2012	Message type: basicproposaldiscussion
Sat Dec 08 02:39:02 IST 2012	Player 210 rejected offer
Sat Dec 08 02:39:02 IST 2012	Swaping roles:
Sat Dec 08 02:39:02 IST 2012	Proposer is: 210
Sat Dec 08 02:39:02 IST 2012	Responder is: 337
Sat Dec 08 02:39:02 IST 2012	Prop rejected, set counter offers count to: 1
Sat Dec 08 02:39:02 IST 2012	Prop rejected, get counter offers returned: 1
Sat Dec 08 02:39:06 IST 2012	Slept 4 seconds
Sat Dec 08 02:39:06 IST 2012	Sent role changed msgs
Sat Dec 08 02:39:19 IST 2012	Received communication message 
Sat Dec 08 02:39:19 IST 2012	From player: 210
Sat Dec 08 02:39:19 IST 2012	To player: 337
Sat Dec 08 02:39:19 IST 2012	Message type: basicproposal
Sat Dec 08 02:39:19 IST 2012	Chips to send by proposer: { chips  'CTRed':0 'CTPurple':0 'CTGreen':1 'grey78':0 }
Sat Dec 08 02:39:19 IST 2012	Chips to send by responder: { chips  'CTRed':0 'CTPurple':0 'CTGreen':0 'grey78':1 }
Sat Dec 08 02:40:19 IST 2012	Received communication message 
Sat Dec 08 02:40:19 IST 2012	From player: 337
Sat Dec 08 02:40:19 IST 2012	To player: 210
Sat Dec 08 02:40:19 IST 2012	Message type: basicproposaldiscussion
Sat Dec 08 02:40:19 IST 2012	Player 337 rejected offer
Sat Dec 08 02:40:19 IST 2012	Set counter offers count to: 0
Sat Dec 08 02:40:19 IST 2012	A Phase Ended: Communication Phase
Sat Dec 08 02:40:19 IST 2012	Protocol: A New Phase Began: Exchange Phase
Sat Dec 08 02:40:19 IST 2012	Protocol: Exchange phase, Round: 2
Sat Dec 08 02:40:19 IST 2012	In begin exch.phase, get counter offers returned: 0
Sat Dec 08 02:40:59 IST 2012	A Phase Ended: Exchange Phase
Sat Dec 08 02:40:59 IST 2012	Responder 337 sent: { chips  }
Sat Dec 08 02:40:59 IST 2012	Protocol: A New Phase Began: Movement Phase
Sat Dec 08 02:40:59 IST 2012	Protocol: Movement phase, Round: 2
Sat Dec 08 02:40:59 IST 2012	Player 337 moved to (R:6,C:3)
Sat Dec 08 02:40:59 IST 2012	Player 210 moved to (R:6,C:1)
Sat Dec 08 02:41:19 IST 2012	A Phase Ended: Movement Phase
Sat Dec 08 02:41:19 IST 2012	Protocol: A New Phase Began: Feedback Phase
Sat Dec 08 02:41:19 IST 2012	Protocol: Feedback phase, Round: 2
Sat Dec 08 02:41:19 IST 2012	Number of consecutive no movements for player 337 is 0
Sat Dec 08 02:41:19 IST 2012	Number of consecutive no movements for player 210 is 0
Sat Dec 08 02:41:24 IST 2012	A Phase Ended: Feedback Phase
Sat Dec 08 02:41:24 IST 2012	Protocol: A New Phase Began: Communication Phase
Sat Dec 08 02:41:24 IST 2012	Protocol: Communication phase, Round: 3
Sat Dec 08 02:41:41 IST 2012	Received communication message 
Sat Dec 08 02:41:41 IST 2012	From player: 210
Sat Dec 08 02:41:41 IST 2012	To player: 337
Sat Dec 08 02:41:41 IST 2012	Message type: basicproposal
Sat Dec 08 02:41:41 IST 2012	Chips to send by proposer: { chips  'CTRed':0 'CTPurple':0 'CTGreen':1 'grey78':0 }
Sat Dec 08 02:41:41 IST 2012	Chips to send by responder: { chips  'CTRed':0 'CTPurple':0 'CTGreen':0 'grey78':1 }
Sat Dec 08 02:42:39 IST 2012	Received communication message 
Sat Dec 08 02:42:39 IST 2012	From player: 337
Sat Dec 08 02:42:39 IST 2012	To player: 210
Sat Dec 08 02:42:39 IST 2012	Message type: basicproposaldiscussion
Sat Dec 08 02:42:39 IST 2012	Player 337 rejected offer
Sat Dec 08 02:42:39 IST 2012	Swaping roles:
Sat Dec 08 02:42:39 IST 2012	Proposer is: 337
Sat Dec 08 02:42:39 IST 2012	Responder is: 210
Sat Dec 08 02:42:39 IST 2012	Prop rejected, set counter offers count to: 1
Sat Dec 08 02:42:39 IST 2012	Prop rejected, get counter offers returned: 1
Sat Dec 08 02:42:43 IST 2012	Slept 4 seconds
Sat Dec 08 02:42:43 IST 2012	Sent role changed msgs
Sat Dec 08 02:43:43 IST 2012	Received communication message 
Sat Dec 08 02:43:43 IST 2012	From player: 337
Sat Dec 08 02:43:43 IST 2012	To player: 210
Sat Dec 08 02:43:43 IST 2012	Message type: basicproposal
Sat Dec 08 02:43:43 IST 2012	Chips to send by proposer: { chips  'CTRed':0 'CTPurple':0 'CTGreen':0 'grey78':2 }
Sat Dec 08 02:43:43 IST 2012	Chips to send by responder: { chips  'CTRed':0 'CTPurple':0 'CTGreen':1 'grey78':0 }
Sat Dec 08 02:43:52 IST 2012	Received communication message 
Sat Dec 08 02:43:52 IST 2012	From player: 210
Sat Dec 08 02:43:52 IST 2012	To player: 337
Sat Dec 08 02:43:52 IST 2012	Message type: basicproposaldiscussion
Sat Dec 08 02:43:52 IST 2012	Player 210 rejected offer
Sat Dec 08 02:43:52 IST 2012	Set counter offers count to: 0
Sat Dec 08 02:43:52 IST 2012	A Phase Ended: Communication Phase
Sat Dec 08 02:43:52 IST 2012	Protocol: A New Phase Began: Exchange Phase
Sat Dec 08 02:43:52 IST 2012	Protocol: Exchange phase, Round: 3
Sat Dec 08 02:43:52 IST 2012	In begin exch.phase, get counter offers returned: 0
Sat Dec 08 02:44:32 IST 2012	A Phase Ended: Exchange Phase
Sat Dec 08 02:44:32 IST 2012	Proposer 337 sent: { chips  }
Sat Dec 08 02:44:32 IST 2012	Protocol: A New Phase Began: Movement Phase
Sat Dec 08 02:44:32 IST 2012	Protocol: Movement phase, Round: 3
Sat Dec 08 02:44:52 IST 2012	A Phase Ended: Movement Phase
Sat Dec 08 02:44:52 IST 2012	Protocol: A New Phase Began: Feedback Phase
Sat Dec 08 02:44:52 IST 2012	Protocol: Feedback phase, Round: 3
Sat Dec 08 02:44:52 IST 2012	Number of consecutive no movements for player 337 is 1
Sat Dec 08 02:44:52 IST 2012	Number of consecutive no movements for player 210 is 1
Sat Dec 08 02:44:57 IST 2012	A Phase Ended: Feedback Phase
Sat Dec 08 02:44:57 IST 2012	Protocol: A New Phase Began: Communication Phase
Sat Dec 08 02:44:57 IST 2012	Protocol: Communication phase, Round: 4
Sat Dec 08 02:45:57 IST 2012	Received communication message 
Sat Dec 08 02:45:57 IST 2012	From player: 337
Sat Dec 08 02:45:57 IST 2012	To player: 210
Sat Dec 08 02:45:57 IST 2012	Message type: basicproposal
Sat Dec 08 02:45:57 IST 2012	Chips to send by proposer: { chips  'grey78':2 }
Sat Dec 08 02:45:57 IST 2012	Chips to send by responder: { chips  'CTGreen':1 }
Sat Dec 08 02:46:10 IST 2012	Received communication message 
Sat Dec 08 02:46:10 IST 2012	From player: 210
Sat Dec 08 02:46:10 IST 2012	To player: 337
Sat Dec 08 02:46:10 IST 2012	Message type: basicproposaldiscussion
Sat Dec 08 02:46:10 IST 2012	Player 210 rejected offer
Sat Dec 08 02:46:10 IST 2012	Swaping roles:
Sat Dec 08 02:46:10 IST 2012	Proposer is: 210
Sat Dec 08 02:46:10 IST 2012	Responder is: 337
Sat Dec 08 02:46:10 IST 2012	Prop rejected, set counter offers count to: 1
Sat Dec 08 02:46:10 IST 2012	Prop rejected, get counter offers returned: 1
Sat Dec 08 02:46:14 IST 2012	Slept 4 seconds
Sat Dec 08 02:46:14 IST 2012	Sent role changed msgs
Sat Dec 08 02:46:27 IST 2012	Received communication message 
Sat Dec 08 02:46:27 IST 2012	From player: 210
Sat Dec 08 02:46:27 IST 2012	To player: 337
Sat Dec 08 02:46:27 IST 2012	Message type: basicproposal
Sat Dec 08 02:46:27 IST 2012	Chips to send by proposer: { chips  'CTRed':0 'CTPurple':0 'CTGreen':1 'grey78':0 }
Sat Dec 08 02:46:27 IST 2012	Chips to send by responder: { chips  'CTRed':0 'CTPurple':0 'CTGreen':0 'grey78':1 }
Sat Dec 08 02:47:17 IST 2012	Received communication message 
Sat Dec 08 02:47:17 IST 2012	From player: 337
Sat Dec 08 02:47:17 IST 2012	To player: 210
Sat Dec 08 02:47:17 IST 2012	Message type: basicproposaldiscussion
Sat Dec 08 02:47:17 IST 2012	Player 337 rejected offer
Sat Dec 08 02:47:17 IST 2012	Set counter offers count to: 0
Sat Dec 08 02:47:17 IST 2012	A Phase Ended: Communication Phase
Sat Dec 08 02:47:17 IST 2012	Protocol: A New Phase Began: Exchange Phase
Sat Dec 08 02:47:17 IST 2012	Protocol: Exchange phase, Round: 4
Sat Dec 08 02:47:17 IST 2012	In begin exch.phase, get counter offers returned: 0
Sat Dec 08 02:47:57 IST 2012	A Phase Ended: Exchange Phase
Sat Dec 08 02:47:57 IST 2012	Responder 337 sent: { chips  }
Sat Dec 08 02:47:57 IST 2012	Protocol: A New Phase Began: Movement Phase
Sat Dec 08 02:47:57 IST 2012	Protocol: Movement phase, Round: 4
Sat Dec 08 02:48:17 IST 2012	A Phase Ended: Movement Phase
Sat Dec 08 02:48:17 IST 2012	Protocol: A New Phase Began: Feedback Phase
Sat Dec 08 02:48:17 IST 2012	Protocol: Feedback phase, Round: 4
Sat Dec 08 02:48:17 IST 2012	Number of consecutive no movements for player 337 is 2
Sat Dec 08 02:48:17 IST 2012	Number of consecutive no movements for player 210 is 2
Sat Dec 08 02:48:22 IST 2012	A Phase Ended: Feedback Phase
Sat Dec 08 02:48:22 IST 2012	Protocol: A New Phase Began: Communication Phase
Sat Dec 08 02:48:22 IST 2012	Protocol: Communication phase, Round: 5
Sat Dec 08 02:48:37 IST 2012	Received communication message 
Sat Dec 08 02:48:37 IST 2012	From player: 210
Sat Dec 08 02:48:37 IST 2012	To player: 337
Sat Dec 08 02:48:37 IST 2012	Message type: basicproposal
Sat Dec 08 02:48:37 IST 2012	Chips to send by proposer: { chips  'CTRed':0 'CTPurple':0 'CTGreen':1 'grey78':0 }
Sat Dec 08 02:48:37 IST 2012	Chips to send by responder: { chips  'CTRed':0 'CTPurple':0 'CTGreen':0 'grey78':1 }
Sat Dec 08 02:49:23 IST 2012	Received communication message 
Sat Dec 08 02:49:23 IST 2012	From player: 337
Sat Dec 08 02:49:23 IST 2012	To player: 210
Sat Dec 08 02:49:23 IST 2012	Message type: basicproposaldiscussion
Sat Dec 08 02:49:23 IST 2012	Player 337 rejected offer
Sat Dec 08 02:49:23 IST 2012	Swaping roles:
Sat Dec 08 02:49:23 IST 2012	Proposer is: 337
Sat Dec 08 02:49:23 IST 2012	Responder is: 210
Sat Dec 08 02:49:23 IST 2012	Prop rejected, set counter offers count to: 1
Sat Dec 08 02:49:23 IST 2012	Prop rejected, get counter offers returned: 1
Sat Dec 08 02:49:27 IST 2012	Slept 4 seconds
Sat Dec 08 02:49:27 IST 2012	Sent role changed msgs
Sat Dec 08 02:50:27 IST 2012	Received communication message 
Sat Dec 08 02:50:27 IST 2012	From player: 337
Sat Dec 08 02:50:27 IST 2012	To player: 210
Sat Dec 08 02:50:27 IST 2012	Message type: basicproposal
Sat Dec 08 02:50:27 IST 2012	Chips to send by proposer: { chips  'CTRed':0 'CTPurple':0 'CTGreen':0 'grey78':2 }
Sat Dec 08 02:50:27 IST 2012	Chips to send by responder: { chips  'CTRed':0 'CTPurple':0 'CTGreen':1 'grey78':0 }
Sat Dec 08 02:50:38 IST 2012	Received communication message 
Sat Dec 08 02:50:38 IST 2012	From player: 210
Sat Dec 08 02:50:38 IST 2012	To player: 337
Sat Dec 08 02:50:38 IST 2012	Message type: basicproposaldiscussion
Sat Dec 08 02:50:38 IST 2012	Player 210 rejected offer
Sat Dec 08 02:50:38 IST 2012	Set counter offers count to: 0
Sat Dec 08 02:50:38 IST 2012	A Phase Ended: Communication Phase
Sat Dec 08 02:50:38 IST 2012	Protocol: A New Phase Began: Exchange Phase
Sat Dec 08 02:50:38 IST 2012	Protocol: Exchange phase, Round: 5
Sat Dec 08 02:50:38 IST 2012	In begin exch.phase, get counter offers returned: 0
Sat Dec 08 02:51:17 IST 2012	A Phase Ended: Exchange Phase
Sat Dec 08 02:51:17 IST 2012	Proposer 337 sent: { chips  }
Sat Dec 08 02:51:17 IST 2012	Protocol: A New Phase Began: Movement Phase
Sat Dec 08 02:51:17 IST 2012	Protocol: Movement phase, Round: 5
Sat Dec 08 02:51:17 IST 2012	Player 337 moved to (R:5,C:3)
Sat Dec 08 02:51:17 IST 2012	Player 210 moved to (R:5,C:1)
Sat Dec 08 02:51:38 IST 2012	A Phase Ended: Movement Phase
Sat Dec 08 02:51:38 IST 2012	Protocol: A New Phase Began: Feedback Phase
Sat Dec 08 02:51:38 IST 2012	Protocol: Feedback phase, Round: 5
Sat Dec 08 02:51:38 IST 2012	Number of consecutive no movements for player 337 is 0
Sat Dec 08 02:51:38 IST 2012	Number of consecutive no movements for player 210 is 0
Sat Dec 08 02:51:43 IST 2012	A Phase Ended: Feedback Phase
Sat Dec 08 02:51:43 IST 2012	Protocol: A New Phase Began: Communication Phase
Sat Dec 08 02:51:43 IST 2012	Protocol: Communication phase, Round: 6
Sat Dec 08 02:52:43 IST 2012	Received communication message 
Sat Dec 08 02:52:43 IST 2012	From player: 337
Sat Dec 08 02:52:43 IST 2012	To player: 210
Sat Dec 08 02:52:43 IST 2012	Message type: basicproposal
Sat Dec 08 02:52:43 IST 2012	Chips to send by proposer: { chips  'grey78':2 }
Sat Dec 08 02:52:43 IST 2012	Chips to send by responder: { chips  'CTGreen':1 }
Sat Dec 08 02:52:55 IST 2012	Received communication message 
Sat Dec 08 02:52:55 IST 2012	From player: 210
Sat Dec 08 02:52:55 IST 2012	To player: 337
Sat Dec 08 02:52:55 IST 2012	Message type: basicproposaldiscussion
Sat Dec 08 02:52:55 IST 2012	Player 210 rejected offer
Sat Dec 08 02:52:55 IST 2012	Swaping roles:
Sat Dec 08 02:52:55 IST 2012	Proposer is: 210
Sat Dec 08 02:52:55 IST 2012	Responder is: 337
Sat Dec 08 02:52:55 IST 2012	Prop rejected, set counter offers count to: 1
Sat Dec 08 02:52:55 IST 2012	Prop rejected, get counter offers returned: 1
Sat Dec 08 02:52:59 IST 2012	Slept 4 seconds
Sat Dec 08 02:52:59 IST 2012	Sent role changed msgs
Sat Dec 08 02:53:14 IST 2012	Received communication message 
Sat Dec 08 02:53:14 IST 2012	From player: 210
Sat Dec 08 02:53:14 IST 2012	To player: 337
Sat Dec 08 02:53:14 IST 2012	Message type: basicproposal
Sat Dec 08 02:53:14 IST 2012	Chips to send by proposer: { chips  'CTRed':0 'CTPurple':0 'CTGreen':1 'grey78':0 }
Sat Dec 08 02:53:14 IST 2012	Chips to send by responder: { chips  'CTRed':0 'CTPurple':0 'CTGreen':0 'grey78':1 }
Sat Dec 08 02:53:51 IST 2012	Received communication message 
Sat Dec 08 02:53:51 IST 2012	From player: 337
Sat Dec 08 02:53:51 IST 2012	To player: 210
Sat Dec 08 02:53:51 IST 2012	Message type: basicproposaldiscussion
Sat Dec 08 02:53:51 IST 2012	Player 337 rejected offer
Sat Dec 08 02:53:51 IST 2012	Set counter offers count to: 0
Sat Dec 08 02:53:51 IST 2012	A Phase Ended: Communication Phase
Sat Dec 08 02:53:51 IST 2012	Protocol: A New Phase Began: Exchange Phase
Sat Dec 08 02:53:51 IST 2012	Protocol: Exchange phase, Round: 6
Sat Dec 08 02:53:51 IST 2012	In begin exch.phase, get counter offers returned: 0
Sat Dec 08 02:54:31 IST 2012	A Phase Ended: Exchange Phase
Sat Dec 08 02:54:31 IST 2012	Responder 337 sent: { chips  }
Sat Dec 08 02:54:31 IST 2012	Protocol: A New Phase Began: Movement Phase
Sat Dec 08 02:54:31 IST 2012	Protocol: Movement phase, Round: 6
Sat Dec 08 02:54:51 IST 2012	A Phase Ended: Movement Phase
Sat Dec 08 02:54:51 IST 2012	Protocol: A New Phase Began: Feedback Phase
Sat Dec 08 02:54:51 IST 2012	Protocol: Feedback phase, Round: 6
Sat Dec 08 02:54:51 IST 2012	Number of consecutive no movements for player 337 is 1
Sat Dec 08 02:54:51 IST 2012	Number of consecutive no movements for player 210 is 1
Sat Dec 08 02:54:56 IST 2012	A Phase Ended: Feedback Phase
Sat Dec 08 02:54:56 IST 2012	Protocol: A New Phase Began: Communication Phase
Sat Dec 08 02:54:56 IST 2012	Protocol: Communication phase, Round: 7
Sat Dec 08 02:55:17 IST 2012	Received communication message 
Sat Dec 08 02:55:17 IST 2012	From player: 210
Sat Dec 08 02:55:17 IST 2012	To player: 337
Sat Dec 08 02:55:17 IST 2012	Message type: basicproposal
Sat Dec 08 02:55:17 IST 2012	Chips to send by proposer: { chips  'CTRed':0 'CTPurple':0 'CTGreen':1 'grey78':0 }
Sat Dec 08 02:55:17 IST 2012	Chips to send by responder: { chips  'CTRed':0 'CTPurple':0 'CTGreen':0 'grey78':1 }
Sat Dec 08 02:55:50 IST 2012	Received communication message 
Sat Dec 08 02:55:50 IST 2012	From player: 337
Sat Dec 08 02:55:50 IST 2012	To player: 210
Sat Dec 08 02:55:50 IST 2012	Message type: basicproposaldiscussion
Sat Dec 08 02:55:50 IST 2012	Player 337 rejected offer
Sat Dec 08 02:55:50 IST 2012	Swaping roles:
Sat Dec 08 02:55:50 IST 2012	Proposer is: 337
Sat Dec 08 02:55:50 IST 2012	Responder is: 210
Sat Dec 08 02:55:50 IST 2012	Prop rejected, set counter offers count to: 1
Sat Dec 08 02:55:50 IST 2012	Prop rejected, get counter offers returned: 1
Sat Dec 08 02:55:54 IST 2012	Slept 4 seconds
Sat Dec 08 02:55:54 IST 2012	Sent role changed msgs
Sat Dec 08 02:56:54 IST 2012	Received communication message 
Sat Dec 08 02:56:54 IST 2012	From player: 337
Sat Dec 08 02:56:54 IST 2012	To player: 210
Sat Dec 08 02:56:54 IST 2012	Message type: basicproposal
Sat Dec 08 02:56:54 IST 2012	Chips to send by proposer: { chips  'CTRed':0 'CTPurple':0 'CTGreen':0 'grey78':2 }
Sat Dec 08 02:56:54 IST 2012	Chips to send by responder: { chips  'CTRed':0 'CTPurple':0 'CTGreen':1 'grey78':0 }
Sat Dec 08 02:57:05 IST 2012	Received communication message 
Sat Dec 08 02:57:05 IST 2012	From player: 210
Sat Dec 08 02:57:05 IST 2012	To player: 337
Sat Dec 08 02:57:05 IST 2012	Message type: basicproposaldiscussion
Sat Dec 08 02:57:05 IST 2012	Player 210 rejected offer
Sat Dec 08 02:57:05 IST 2012	Set counter offers count to: 0
Sat Dec 08 02:57:05 IST 2012	A Phase Ended: Communication Phase
Sat Dec 08 02:57:05 IST 2012	Protocol: A New Phase Began: Exchange Phase
Sat Dec 08 02:57:05 IST 2012	Protocol: Exchange phase, Round: 7
Sat Dec 08 02:57:05 IST 2012	In begin exch.phase, get counter offers returned: 0
Sat Dec 08 02:57:45 IST 2012	A Phase Ended: Exchange Phase
Sat Dec 08 02:57:45 IST 2012	Proposer 337 sent: { chips  }
Sat Dec 08 02:57:45 IST 2012	Protocol: A New Phase Began: Movement Phase
Sat Dec 08 02:57:45 IST 2012	Protocol: Movement phase, Round: 7
Sat Dec 08 02:58:05 IST 2012	A Phase Ended: Movement Phase
Sat Dec 08 02:58:05 IST 2012	Protocol: A New Phase Began: Feedback Phase
Sat Dec 08 02:58:05 IST 2012	Protocol: Feedback phase, Round: 7
Sat Dec 08 02:58:05 IST 2012	Number of consecutive no movements for player 337 is 2
Sat Dec 08 02:58:05 IST 2012	Number of consecutive no movements for player 210 is 2
Sat Dec 08 02:58:10 IST 2012	A Phase Ended: Feedback Phase
Sat Dec 08 02:58:10 IST 2012	Protocol: A New Phase Began: Communication Phase
Sat Dec 08 02:58:10 IST 2012	Protocol: Communication phase, Round: 8
Sat Dec 08 02:59:10 IST 2012	Received communication message 
Sat Dec 08 02:59:10 IST 2012	From player: 337
Sat Dec 08 02:59:10 IST 2012	To player: 210
Sat Dec 08 02:59:10 IST 2012	Message type: basicproposal
Sat Dec 08 02:59:10 IST 2012	Chips to send by proposer: { chips  'grey78':2 }
Sat Dec 08 02:59:10 IST 2012	Chips to send by responder: { chips  'CTGreen':1 }
Sat Dec 08 02:59:24 IST 2012	Received communication message 
Sat Dec 08 02:59:24 IST 2012	From player: 210
Sat Dec 08 02:59:24 IST 2012	To player: 337
Sat Dec 08 02:59:24 IST 2012	Message type: basicproposaldiscussion
Sat Dec 08 02:59:24 IST 2012	Player 210 rejected offer
Sat Dec 08 02:59:24 IST 2012	Swaping roles:
Sat Dec 08 02:59:24 IST 2012	Proposer is: 210
Sat Dec 08 02:59:24 IST 2012	Responder is: 337
Sat Dec 08 02:59:24 IST 2012	Prop rejected, set counter offers count to: 1
Sat Dec 08 02:59:24 IST 2012	Prop rejected, get counter offers returned: 1
Sat Dec 08 02:59:28 IST 2012	Slept 4 seconds
Sat Dec 08 02:59:28 IST 2012	Sent role changed msgs
Sat Dec 08 02:59:42 IST 2012	Received communication message 
Sat Dec 08 02:59:42 IST 2012	From player: 210
Sat Dec 08 02:59:42 IST 2012	To player: 337
Sat Dec 08 02:59:42 IST 2012	Message type: basicproposal
Sat Dec 08 02:59:42 IST 2012	Chips to send by proposer: { chips  'CTRed':0 'CTPurple':0 'CTGreen':1 'grey78':0 }
Sat Dec 08 02:59:42 IST 2012	Chips to send by responder: { chips  'CTRed':0 'CTPurple':0 'CTGreen':0 'grey78':1 }
Sat Dec 08 03:00:06 IST 2012	Received communication message 
Sat Dec 08 03:00:06 IST 2012	From player: 337
Sat Dec 08 03:00:06 IST 2012	To player: 210
Sat Dec 08 03:00:06 IST 2012	Message type: basicproposaldiscussion
Sat Dec 08 03:00:06 IST 2012	Player 337 rejected offer
Sat Dec 08 03:00:06 IST 2012	Set counter offers count to: 0
Sat Dec 08 03:00:06 IST 2012	A Phase Ended: Communication Phase
Sat Dec 08 03:00:06 IST 2012	Protocol: A New Phase Began: Exchange Phase
Sat Dec 08 03:00:06 IST 2012	Protocol: Exchange phase, Round: 8
Sat Dec 08 03:00:06 IST 2012	In begin exch.phase, get counter offers returned: 0
Sat Dec 08 03:00:45 IST 2012	A Phase Ended: Exchange Phase
Sat Dec 08 03:00:45 IST 2012	Responder 337 sent: { chips  }
Sat Dec 08 03:00:45 IST 2012	Protocol: A New Phase Began: Movement Phase
Sat Dec 08 03:00:45 IST 2012	Protocol: Movement phase, Round: 8
Sat Dec 08 03:00:45 IST 2012	Player 337 moved to (R:4,C:3)
Sat Dec 08 03:00:45 IST 2012	Player 210 moved to (R:4,C:1)
Sat Dec 08 03:01:06 IST 2012	A Phase Ended: Movement Phase
Sat Dec 08 03:01:06 IST 2012	Protocol: A New Phase Began: Feedback Phase
Sat Dec 08 03:01:06 IST 2012	Protocol: Feedback phase, Round: 8
Sat Dec 08 03:01:06 IST 2012	Number of consecutive no movements for player 337 is 0
Sat Dec 08 03:01:06 IST 2012	Number of consecutive no movements for player 210 is 0
Sat Dec 08 03:01:11 IST 2012	A Phase Ended: Feedback Phase
Sat Dec 08 03:01:11 IST 2012	Protocol: A New Phase Began: Communication Phase
Sat Dec 08 03:01:11 IST 2012	Protocol: Communication phase, Round: 9
Sat Dec 08 03:01:28 IST 2012	Received communication message 
Sat Dec 08 03:01:28 IST 2012	From player: 210
Sat Dec 08 03:01:28 IST 2012	To player: 337
Sat Dec 08 03:01:28 IST 2012	Message type: basicproposal
Sat Dec 08 03:01:28 IST 2012	Chips to send by proposer: { chips  'CTRed':0 'CTPurple':0 'CTGreen':1 'grey78':0 }
Sat Dec 08 03:01:28 IST 2012	Chips to send by responder: { chips  'CTRed':0 'CTPurple':0 'CTGreen':0 'grey78':1 }
Sat Dec 08 03:01:48 IST 2012	Received communication message 
Sat Dec 08 03:01:48 IST 2012	From player: 337
Sat Dec 08 03:01:48 IST 2012	To player: 210
Sat Dec 08 03:01:48 IST 2012	Message type: basicproposaldiscussion
Sat Dec 08 03:01:48 IST 2012	Player 337 rejected offer
Sat Dec 08 03:01:48 IST 2012	Swaping roles:
Sat Dec 08 03:01:48 IST 2012	Proposer is: 337
Sat Dec 08 03:01:48 IST 2012	Responder is: 210
Sat Dec 08 03:01:48 IST 2012	Prop rejected, set counter offers count to: 1
Sat Dec 08 03:01:48 IST 2012	Prop rejected, get counter offers returned: 1
Sat Dec 08 03:01:52 IST 2012	Slept 4 seconds
Sat Dec 08 03:01:52 IST 2012	Sent role changed msgs
Sat Dec 08 03:02:49 IST 2012	Received communication message 
Sat Dec 08 03:02:49 IST 2012	From player: 337
Sat Dec 08 03:02:49 IST 2012	To player: 210
Sat Dec 08 03:02:49 IST 2012	Message type: basicproposal
Sat Dec 08 03:02:49 IST 2012	Chips to send by proposer: { chips  'CTRed':0 'CTPurple':0 'CTGreen':0 'grey78':2 }
Sat Dec 08 03:02:49 IST 2012	Chips to send by responder: { chips  'CTRed':0 'CTPurple':0 'CTGreen':1 'grey78':0 }
Sat Dec 08 03:02:58 IST 2012	Received communication message 
Sat Dec 08 03:02:58 IST 2012	From player: 210
Sat Dec 08 03:02:58 IST 2012	To player: 337
Sat Dec 08 03:02:58 IST 2012	Message type: basicproposaldiscussion
Sat Dec 08 03:02:58 IST 2012	Player 210 rejected offer
Sat Dec 08 03:02:58 IST 2012	Set counter offers count to: 0
Sat Dec 08 03:02:58 IST 2012	A Phase Ended: Communication Phase
Sat Dec 08 03:02:58 IST 2012	Protocol: A New Phase Began: Exchange Phase
Sat Dec 08 03:02:58 IST 2012	Protocol: Exchange phase, Round: 9
Sat Dec 08 03:02:58 IST 2012	In begin exch.phase, get counter offers returned: 0
Sat Dec 08 03:03:39 IST 2012	A Phase Ended: Exchange Phase
Sat Dec 08 03:03:39 IST 2012	Proposer 337 sent: { chips  }
Sat Dec 08 03:03:39 IST 2012	Protocol: A New Phase Began: Movement Phase
Sat Dec 08 03:03:39 IST 2012	Protocol: Movement phase, Round: 9
Sat Dec 08 03:03:59 IST 2012	A Phase Ended: Movement Phase
Sat Dec 08 03:03:59 IST 2012	Protocol: A New Phase Began: Feedback Phase
Sat Dec 08 03:03:59 IST 2012	Protocol: Feedback phase, Round: 9
Sat Dec 08 03:03:59 IST 2012	Number of consecutive no movements for player 337 is 1
Sat Dec 08 03:03:59 IST 2012	Number of consecutive no movements for player 210 is 1
Sat Dec 08 03:04:04 IST 2012	A Phase Ended: Feedback Phase
Sat Dec 08 03:04:04 IST 2012	Protocol: A New Phase Began: Communication Phase
Sat Dec 08 03:04:04 IST 2012	Protocol: Communication phase, Round: 10
Sat Dec 08 03:04:49 IST 2012	Received communication message 
Sat Dec 08 03:04:49 IST 2012	From player: 337
Sat Dec 08 03:04:49 IST 2012	To player: 210
Sat Dec 08 03:04:49 IST 2012	Message type: basicproposal
Sat Dec 08 03:04:49 IST 2012	Chips to send by proposer: { chips  'grey78':2 }
Sat Dec 08 03:04:49 IST 2012	Chips to send by responder: { chips  'CTGreen':1 }
Sat Dec 08 03:05:02 IST 2012	Received communication message 
Sat Dec 08 03:05:02 IST 2012	From player: 210
Sat Dec 08 03:05:02 IST 2012	To player: 337
Sat Dec 08 03:05:02 IST 2012	Message type: basicproposaldiscussion
Sat Dec 08 03:05:02 IST 2012	Player 210 rejected offer
Sat Dec 08 03:05:02 IST 2012	Swaping roles:
Sat Dec 08 03:05:02 IST 2012	Proposer is: 210
Sat Dec 08 03:05:02 IST 2012	Responder is: 337
Sat Dec 08 03:05:02 IST 2012	Prop rejected, set counter offers count to: 1
Sat Dec 08 03:05:02 IST 2012	Prop rejected, get counter offers returned: 1
Sat Dec 08 03:05:06 IST 2012	Slept 4 seconds
Sat Dec 08 03:05:06 IST 2012	Sent role changed msgs
Sat Dec 08 03:05:25 IST 2012	Received communication message 
Sat Dec 08 03:05:25 IST 2012	From player: 210
Sat Dec 08 03:05:25 IST 2012	To player: 337
Sat Dec 08 03:05:25 IST 2012	Message type: basicproposal
Sat Dec 08 03:05:25 IST 2012	Chips to send by proposer: { chips  'CTRed':0 'CTPurple':0 'CTGreen':1 'grey78':0 }
Sat Dec 08 03:05:25 IST 2012	Chips to send by responder: { chips  'CTRed':0 'CTPurple':0 'CTGreen':0 'grey78':1 }
Sat Dec 08 03:05:36 IST 2012	Received communication message 
Sat Dec 08 03:05:36 IST 2012	From player: 337
Sat Dec 08 03:05:36 IST 2012	To player: 210
Sat Dec 08 03:05:36 IST 2012	Message type: basicproposaldiscussion
Sat Dec 08 03:05:36 IST 2012	Player 337 accepted offer
Sat Dec 08 03:05:36 IST 2012	Prop accepted, set counter offers count to: 0
Sat Dec 08 03:05:36 IST 2012	Prop accepted, get counter offers returned: 0
Sat Dec 08 03:05:36 IST 2012	A Phase Ended: Communication Phase
Sat Dec 08 03:05:36 IST 2012	Protocol: A New Phase Began: Exchange Phase
Sat Dec 08 03:05:36 IST 2012	Protocol: Exchange phase, Round: 10
Sat Dec 08 03:05:36 IST 2012	In begin exch.phase, get counter offers returned: 0
Sat Dec 08 03:06:01 IST 2012	A Phase Ended: Exchange Phase
Sat Dec 08 03:06:01 IST 2012	Proposer 210 sent: { chips  'CTRed':0 'CTPurple':0 'CTGreen':1 'grey78':0 }
Sat Dec 08 03:06:01 IST 2012	Responder 337 sent: { chips  'CTRed':0 'CTPurple':0 'CTGreen':0 'grey78':1 }
Sat Dec 08 03:06:01 IST 2012	Protocol: A New Phase Began: Movement Phase
Sat Dec 08 03:06:01 IST 2012	Protocol: Movement phase, Round: 10
Sat Dec 08 03:06:20 IST 2012	A Phase Ended: Movement Phase
Sat Dec 08 03:06:20 IST 2012	Protocol: A New Phase Began: Feedback Phase
Sat Dec 08 03:06:20 IST 2012	Protocol: Feedback phase, Round: 10
Sat Dec 08 03:06:20 IST 2012	Number of consecutive no movements for player 337 is 2
Sat Dec 08 03:06:20 IST 2012	Number of consecutive no movements for player 210 is 2
Sat Dec 08 03:06:25 IST 2012	A Phase Ended: Feedback Phase
Sat Dec 08 03:06:25 IST 2012	Protocol: A New Phase Began: Communication Phase
Sat Dec 08 03:06:25 IST 2012	Protocol: Communication phase, Round: 11
Sat Dec 08 03:06:41 IST 2012	Received communication message 
Sat Dec 08 03:06:41 IST 2012	From player: 210
Sat Dec 08 03:06:41 IST 2012	To player: 337
Sat Dec 08 03:06:41 IST 2012	Message type: basicproposal
Sat Dec 08 03:06:41 IST 2012	Chips to send by proposer: { chips  'CTRed':0 'CTPurple':0 'CTGreen':1 'grey78':0 }
Sat Dec 08 03:06:41 IST 2012	Chips to send by responder: { chips  'CTRed':0 'CTPurple':0 'CTGreen':0 'grey78':1 }
Sat Dec 08 03:06:56 IST 2012	Received communication message 
Sat Dec 08 03:06:56 IST 2012	From player: 337
Sat Dec 08 03:06:56 IST 2012	To player: 210
Sat Dec 08 03:06:56 IST 2012	Message type: basicproposaldiscussion
Sat Dec 08 03:06:56 IST 2012	Player 337 rejected offer
Sat Dec 08 03:06:56 IST 2012	Swaping roles:
Sat Dec 08 03:06:56 IST 2012	Proposer is: 337
Sat Dec 08 03:06:56 IST 2012	Responder is: 210
Sat Dec 08 03:06:56 IST 2012	Prop rejected, set counter offers count to: 1
Sat Dec 08 03:06:56 IST 2012	Prop rejected, get counter offers returned: 1
Sat Dec 08 03:07:00 IST 2012	Slept 4 seconds
Sat Dec 08 03:07:00 IST 2012	Sent role changed msgs
Sat Dec 08 03:07:40 IST 2012	Received communication message 
Sat Dec 08 03:07:40 IST 2012	From player: 337
Sat Dec 08 03:07:40 IST 2012	To player: 210
Sat Dec 08 03:07:40 IST 2012	Message type: basicproposal
Sat Dec 08 03:07:40 IST 2012	Chips to send by proposer: { chips  'CTRed':0 'CTPurple':0 'CTGreen':0 'grey78':1 }
Sat Dec 08 03:07:40 IST 2012	Chips to send by responder: { chips  'CTRed':0 'CTPurple':0 'CTGreen':3 'grey78':0 }
Sat Dec 08 03:07:50 IST 2012	Received communication message 
Sat Dec 08 03:07:50 IST 2012	From player: 210
Sat Dec 08 03:07:50 IST 2012	To player: 337
Sat Dec 08 03:07:50 IST 2012	Message type: basicproposaldiscussion
Sat Dec 08 03:07:50 IST 2012	Player 210 rejected offer
Sat Dec 08 03:07:50 IST 2012	Set counter offers count to: 0
Sat Dec 08 03:07:50 IST 2012	A Phase Ended: Communication Phase
Sat Dec 08 03:07:50 IST 2012	Protocol: A New Phase Began: Exchange Phase
Sat Dec 08 03:07:50 IST 2012	Protocol: Exchange phase, Round: 11
Sat Dec 08 03:07:50 IST 2012	In begin exch.phase, get counter offers returned: 0
Sat Dec 08 03:08:31 IST 2012	A Phase Ended: Exchange Phase
Sat Dec 08 03:08:31 IST 2012	Proposer 337 sent: { chips  }
Sat Dec 08 03:08:31 IST 2012	Protocol: A New Phase Began: Movement Phase
Sat Dec 08 03:08:31 IST 2012	Protocol: Movement phase, Round: 11
Sat Dec 08 03:08:31 IST 2012	Player 337 moved to (R:3,C:3)
Sat Dec 08 03:08:31 IST 2012	Player 210 moved to (R:3,C:1)
Sat Dec 08 03:08:51 IST 2012	A Phase Ended: Movement Phase
Sat Dec 08 03:08:51 IST 2012	Protocol: A New Phase Began: Feedback Phase
Sat Dec 08 03:08:51 IST 2012	Protocol: Feedback phase, Round: 11
Sat Dec 08 03:08:51 IST 2012	Number of consecutive no movements for player 337 is 0
Sat Dec 08 03:08:51 IST 2012	Number of consecutive no movements for player 210 is 0
Sat Dec 08 03:08:56 IST 2012	A Phase Ended: Feedback Phase
Sat Dec 08 03:08:56 IST 2012	Protocol: A New Phase Began: Communication Phase
Sat Dec 08 03:08:56 IST 2012	Protocol: Communication phase, Round: 12
Sat Dec 08 03:09:35 IST 2012	Received communication message 
Sat Dec 08 03:09:35 IST 2012	From player: 337
Sat Dec 08 03:09:35 IST 2012	To player: 210
Sat Dec 08 03:09:35 IST 2012	Message type: basicproposal
Sat Dec 08 03:09:35 IST 2012	Chips to send by proposer: { chips  'grey78':1 }
Sat Dec 08 03:09:35 IST 2012	Chips to send by responder: { chips  'CTGreen':3 }
Sat Dec 08 03:09:46 IST 2012	Received communication message 
Sat Dec 08 03:09:46 IST 2012	From player: 210
Sat Dec 08 03:09:46 IST 2012	To player: 337
Sat Dec 08 03:09:46 IST 2012	Message type: basicproposaldiscussion
Sat Dec 08 03:09:46 IST 2012	Player 210 accepted offer
Sat Dec 08 03:09:46 IST 2012	Prop accepted, set counter offers count to: 0
Sat Dec 08 03:09:46 IST 2012	Prop accepted, get counter offers returned: 0
Sat Dec 08 03:09:46 IST 2012	A Phase Ended: Communication Phase
Sat Dec 08 03:09:46 IST 2012	Protocol: A New Phase Began: Exchange Phase
Sat Dec 08 03:09:46 IST 2012	Protocol: Exchange phase, Round: 12
Sat Dec 08 03:09:46 IST 2012	In begin exch.phase, get counter offers returned: 0
Sat Dec 08 03:10:06 IST 2012	A Phase Ended: Exchange Phase
Sat Dec 08 03:10:06 IST 2012	Proposer 337 sent: { chips  'CTRed':0 'CTPurple':0 'CTGreen':0 'grey78':0 }
Sat Dec 08 03:10:06 IST 2012	Responder 210 sent: { chips  }
Sat Dec 08 03:10:06 IST 2012	Protocol: A New Phase Began: Movement Phase
Sat Dec 08 03:10:06 IST 2012	Protocol: Movement phase, Round: 12
Sat Dec 08 03:10:25 IST 2012	A Phase Ended: Movement Phase
Sat Dec 08 03:10:25 IST 2012	Swaping roles:
Sat Dec 08 03:10:25 IST 2012	Proposer is: 210
Sat Dec 08 03:10:25 IST 2012	Responder is: 337
Sat Dec 08 03:10:25 IST 2012	Protocol: A New Phase Began: Feedback Phase
Sat Dec 08 03:10:25 IST 2012	Protocol: Feedback phase, Round: 12
Sat Dec 08 03:10:25 IST 2012	Number of consecutive no movements for player 337 is 1
Sat Dec 08 03:10:25 IST 2012	Number of consecutive no movements for player 210 is 1
Sat Dec 08 03:10:30 IST 2012	A Phase Ended: Feedback Phase
Sat Dec 08 03:10:30 IST 2012	Protocol: A New Phase Began: Communication Phase
Sat Dec 08 03:10:30 IST 2012	Protocol: Communication phase, Round: 13
Sat Dec 08 03:10:43 IST 2012	Received communication message 
Sat Dec 08 03:10:43 IST 2012	From player: 210
Sat Dec 08 03:10:43 IST 2012	To player: 337
Sat Dec 08 03:10:43 IST 2012	Message type: basicproposal
Sat Dec 08 03:10:43 IST 2012	Chips to send by proposer: { chips  'CTRed':0 'CTPurple':0 'CTGreen':1 'grey78':0 }
Sat Dec 08 03:10:43 IST 2012	Chips to send by responder: { chips  'CTRed':0 'CTPurple':0 'CTGreen':0 'grey78':1 }
Sat Dec 08 03:11:14 IST 2012	Received communication message 
Sat Dec 08 03:11:14 IST 2012	From player: 337
Sat Dec 08 03:11:14 IST 2012	To player: 210
Sat Dec 08 03:11:14 IST 2012	Message type: basicproposaldiscussion
Sat Dec 08 03:11:14 IST 2012	Player 337 accepted offer
Sat Dec 08 03:11:14 IST 2012	Prop accepted, set counter offers count to: 0
Sat Dec 08 03:11:14 IST 2012	Prop accepted, get counter offers returned: 0
Sat Dec 08 03:11:14 IST 2012	A Phase Ended: Communication Phase
Sat Dec 08 03:11:14 IST 2012	Protocol: A New Phase Began: Exchange Phase
Sat Dec 08 03:11:14 IST 2012	Protocol: Exchange phase, Round: 13
Sat Dec 08 03:11:14 IST 2012	In begin exch.phase, get counter offers returned: 0
Sat Dec 08 03:11:30 IST 2012	A Phase Ended: Exchange Phase
Sat Dec 08 03:11:30 IST 2012	Proposer 210 sent: { chips  'CTRed':0 'CTPurple':0 'CTGreen':1 'grey78':0 }
Sat Dec 08 03:11:30 IST 2012	Responder 337 sent: { chips  'CTRed':0 'CTPurple':0 'CTGreen':0 'grey78':1 }
Sat Dec 08 03:11:30 IST 2012	Protocol: A New Phase Began: Movement Phase
Sat Dec 08 03:11:30 IST 2012	Protocol: Movement phase, Round: 13
Sat Dec 08 03:11:30 IST 2012	Player 210 moved to (R:2,C:1)
Sat Dec 08 03:11:49 IST 2012	A Phase Ended: Movement Phase
Sat Dec 08 03:11:49 IST 2012	Swaping roles:
Sat Dec 08 03:11:49 IST 2012	Proposer is: 337
Sat Dec 08 03:11:49 IST 2012	Responder is: 210
Sat Dec 08 03:11:49 IST 2012	Protocol: A New Phase Began: Feedback Phase
Sat Dec 08 03:11:49 IST 2012	Protocol: Feedback phase, Round: 13
Sat Dec 08 03:11:49 IST 2012	Number of consecutive no movements for player 337 is 2
Sat Dec 08 03:11:49 IST 2012	Number of consecutive no movements for player 210 is 0
Sat Dec 08 03:11:49 IST 2012	All players have all needed chips to get to goal, end the game
Sat Dec 08 03:11:49 IST 2012	Player: 210 ,role: Responder score is: 180
Sat Dec 08 03:11:49 IST 2012	Player: 337 ,role: Proposer score is: 180
