Sat Dec 08 09:53:11 IST 2012	This is the CT debug logger; svn version 638; sep 27 09
Sat Dec 08 09:53:11 IST 2012	Sat Dec 08 09:53:11 IST 2012
Sat Dec 08 09:53:11 IST 2012	A new Alternative Offers game has began
Sat Dec 08 09:53:11 IST 2012	ID Number: 41352
Sat Dec 08 09:53:11 IST 2012	Creating board
Sat Dec 08 09:53:11 IST 2012	<colors>
Sat Dec 08 09:53:11 IST 2012	{ GamePalette  'CTRed':0 'CTPurple':1 'CTGreen':2 'grey78':3 }
Sat Dec 08 09:53:11 IST 2012	<rows>
Sat Dec 08 09:53:11 IST 2012	7
Sat Dec 08 09:53:11 IST 2012	<columns>
Sat Dec 08 09:53:11 IST 2012	5
Sat Dec 08 09:53:11 IST 2012	<squaresColors>
Sat Dec 08 09:53:11 IST 2012	CTPurple CTRed CTRed CTGreen CTPurple 
Sat Dec 08 09:53:11 IST 2012	CTPurple grey78 CTPurple grey78 CTPurple 
Sat Dec 08 09:53:11 IST 2012	CTPurple CTRed CTPurple CTGreen CTPurple 
Sat Dec 08 09:53:11 IST 2012	CTPurple grey78 CTPurple grey78 CTPurple 
Sat Dec 08 09:53:11 IST 2012	CTPurple CTRed CTPurple CTGreen CTPurple 
Sat Dec 08 09:53:11 IST 2012	CTPurple grey78 CTPurple grey78 CTPurple 
Sat Dec 08 09:53:11 IST 2012	CTPurple CTRed CTPurple CTGreen CTPurple 
Sat Dec 08 09:53:11 IST 2012	</squareColors>
Sat Dec 08 09:53:11 IST 2012	<goalPosition>
Sat Dec 08 09:53:11 IST 2012	Goal position: (R:0,C:2)
Sat Dec 08 09:53:11 IST 2012	<numberOfPlayers>
Sat Dec 08 09:53:11 IST 2012	2
Sat Dec 08 09:53:11 IST 2012	<firstPlayerChips>
Sat Dec 08 09:53:11 IST 2012	Setting chips for player: 337 id:0
Sat Dec 08 09:53:11 IST 2012	{ chips  'CTRed':1 'CTGreen':13 'CTPurple':0 'grey78':10 }
Sat Dec 08 09:53:11 IST 2012	Player position: (R:6,C:4)
Sat Dec 08 09:53:11 IST 2012	Setting chips for player: 210 id:1
Sat Dec 08 09:53:11 IST 2012	{ chips  'CTRed':5 'CTGreen':19 'CTPurple':0 'grey78':0 }
Sat Dec 08 09:53:11 IST 2012	Player position: (R:6,C:0)
Sat Dec 08 09:53:11 IST 2012	Protocol: A New Phase Began: Strategy Prep Phase
Sat Dec 08 09:53:11 IST 2012	Protocol: Strategy Preparation phase, Round: 0
Sat Dec 08 09:53:11 IST 2012	Maximum number of rounds with no consecutive movement is 3
Sat Dec 08 09:53:11 IST 2012	In begin comm. phase, set counter offers count to: 0
Sat Dec 08 09:53:11 IST 2012	In begin comm. phase, get counter offers returned: 0
Sat Dec 08 09:53:31 IST 2012	A Phase Ended: Strategy Prep Phase
Sat Dec 08 09:53:31 IST 2012	Protocol: A New Phase Began: Communication Phase
Sat Dec 08 09:53:31 IST 2012	Protocol: Communication phase, Round: 0
Sat Dec 08 09:54:31 IST 2012	Received communication message 
Sat Dec 08 09:54:31 IST 2012	From player: 337
Sat Dec 08 09:54:31 IST 2012	To player: 210
Sat Dec 08 09:54:31 IST 2012	Message type: basicproposal
Sat Dec 08 09:54:31 IST 2012	Chips to send by proposer: { chips  'grey78':3 }
Sat Dec 08 09:54:31 IST 2012	Chips to send by responder: { chips  'CTGreen':3 }
Sat Dec 08 09:54:42 IST 2012	Received communication message 
Sat Dec 08 09:54:42 IST 2012	From player: 210
Sat Dec 08 09:54:42 IST 2012	To player: 337
Sat Dec 08 09:54:42 IST 2012	Message type: basicproposaldiscussion
Sat Dec 08 09:54:42 IST 2012	Player 210 rejected offer
Sat Dec 08 09:54:42 IST 2012	Swaping roles:
Sat Dec 08 09:54:42 IST 2012	Proposer is: 210
Sat Dec 08 09:54:42 IST 2012	Responder is: 337
Sat Dec 08 09:54:42 IST 2012	Prop rejected, set counter offers count to: 1
Sat Dec 08 09:54:42 IST 2012	Prop rejected, get counter offers returned: 1
Sat Dec 08 09:54:46 IST 2012	Slept 4 seconds
Sat Dec 08 09:54:46 IST 2012	Sent role changed msgs
Sat Dec 08 09:55:02 IST 2012	Received communication message 
Sat Dec 08 09:55:02 IST 2012	From player: 210
Sat Dec 08 09:55:02 IST 2012	To player: 337
Sat Dec 08 09:55:02 IST 2012	Message type: basicproposal
Sat Dec 08 09:55:02 IST 2012	Chips to send by proposer: { chips  'CTRed':0 'CTPurple':0 'CTGreen':3 'grey78':0 }
Sat Dec 08 09:55:02 IST 2012	Chips to send by responder: { chips  'CTRed':0 'CTPurple':0 'CTGreen':0 'grey78':2 }
Sat Dec 08 09:55:36 IST 2012	Received communication message 
Sat Dec 08 09:55:36 IST 2012	From player: 337
Sat Dec 08 09:55:36 IST 2012	To player: 210
Sat Dec 08 09:55:36 IST 2012	Message type: basicproposaldiscussion
Sat Dec 08 09:55:36 IST 2012	Player 337 accepted offer
Sat Dec 08 09:55:36 IST 2012	Prop accepted, set counter offers count to: 0
Sat Dec 08 09:55:36 IST 2012	Prop accepted, get counter offers returned: 0
Sat Dec 08 09:55:36 IST 2012	A Phase Ended: Communication Phase
Sat Dec 08 09:55:36 IST 2012	Protocol: A New Phase Began: Exchange Phase
Sat Dec 08 09:55:36 IST 2012	Protocol: Exchange phase, Round: 0
Sat Dec 08 09:55:36 IST 2012	In begin exch.phase, get counter offers returned: 0
Sat Dec 08 09:56:05 IST 2012	A Phase Ended: Exchange Phase
Sat Dec 08 09:56:05 IST 2012	Proposer 210 sent: { chips  'CTRed':0 'CTPurple':0 'CTGreen':3 'grey78':0 }
Sat Dec 08 09:56:05 IST 2012	Responder 337 sent: { chips  'CTRed':0 'CTPurple':0 'CTGreen':0 'grey78':2 }
Sat Dec 08 09:56:05 IST 2012	Protocol: A New Phase Began: Movement Phase
Sat Dec 08 09:56:05 IST 2012	Protocol: Movement phase, Round: 0
Sat Dec 08 09:56:25 IST 2012	A Phase Ended: Movement Phase
Sat Dec 08 09:56:25 IST 2012	Protocol: A New Phase Began: Feedback Phase
Sat Dec 08 09:56:25 IST 2012	Protocol: Feedback phase, Round: 0
Sat Dec 08 09:56:25 IST 2012	Number of consecutive no movements for player 337 is 1
Sat Dec 08 09:56:25 IST 2012	Number of consecutive no movements for player 210 is 1
Sat Dec 08 09:56:30 IST 2012	A Phase Ended: Feedback Phase
Sat Dec 08 09:56:30 IST 2012	Protocol: A New Phase Began: Communication Phase
Sat Dec 08 09:56:30 IST 2012	Protocol: Communication phase, Round: 1
Sat Dec 08 09:56:44 IST 2012	Received communication message 
Sat Dec 08 09:56:44 IST 2012	From player: 210
Sat Dec 08 09:56:44 IST 2012	To player: 337
Sat Dec 08 09:56:44 IST 2012	Message type: basicproposal
Sat Dec 08 09:56:44 IST 2012	Chips to send by proposer: { chips  'CTRed':0 'CTPurple':0 'CTGreen':1 'grey78':0 }
Sat Dec 08 09:56:44 IST 2012	Chips to send by responder: { chips  'CTRed':0 'CTPurple':0 'CTGreen':0 'grey78':1 }
Sat Dec 08 09:56:53 IST 2012	Received communication message 
Sat Dec 08 09:56:53 IST 2012	From player: 337
Sat Dec 08 09:56:53 IST 2012	To player: 210
Sat Dec 08 09:56:53 IST 2012	Message type: basicproposaldiscussion
Sat Dec 08 09:56:53 IST 2012	Player 337 rejected offer
Sat Dec 08 09:56:53 IST 2012	Swaping roles:
Sat Dec 08 09:56:53 IST 2012	Proposer is: 337
Sat Dec 08 09:56:53 IST 2012	Responder is: 210
Sat Dec 08 09:56:53 IST 2012	Prop rejected, set counter offers count to: 1
Sat Dec 08 09:56:53 IST 2012	Prop rejected, get counter offers returned: 1
Sat Dec 08 09:56:57 IST 2012	Slept 4 seconds
Sat Dec 08 09:56:57 IST 2012	Sent role changed msgs
Sat Dec 08 09:57:31 IST 2012	Received communication message 
Sat Dec 08 09:57:31 IST 2012	From player: 337
Sat Dec 08 09:57:31 IST 2012	To player: 210
Sat Dec 08 09:57:31 IST 2012	Message type: basicproposal
Sat Dec 08 09:57:31 IST 2012	Chips to send by proposer: { chips  'CTRed':0 'CTPurple':0 'CTGreen':0 'grey78':1 }
Sat Dec 08 09:57:31 IST 2012	Chips to send by responder: { chips  'CTRed':0 'CTPurple':0 'CTGreen':3 'grey78':0 }
Sat Dec 08 09:57:37 IST 2012	Received communication message 
Sat Dec 08 09:57:37 IST 2012	From player: 210
Sat Dec 08 09:57:37 IST 2012	To player: 337
Sat Dec 08 09:57:37 IST 2012	Message type: basicproposaldiscussion
Sat Dec 08 09:57:37 IST 2012	Player 210 rejected offer
Sat Dec 08 09:57:37 IST 2012	Set counter offers count to: 0
Sat Dec 08 09:57:37 IST 2012	A Phase Ended: Communication Phase
Sat Dec 08 09:57:37 IST 2012	Protocol: A New Phase Began: Exchange Phase
Sat Dec 08 09:57:37 IST 2012	Protocol: Exchange phase, Round: 1
Sat Dec 08 09:57:37 IST 2012	In begin exch.phase, get counter offers returned: 0
Sat Dec 08 09:58:16 IST 2012	A Phase Ended: Exchange Phase
Sat Dec 08 09:58:16 IST 2012	Proposer 337 sent: { chips  }
Sat Dec 08 09:58:16 IST 2012	Protocol: A New Phase Began: Movement Phase
Sat Dec 08 09:58:16 IST 2012	Protocol: Movement phase, Round: 1
Sat Dec 08 09:58:36 IST 2012	A Phase Ended: Movement Phase
Sat Dec 08 09:58:36 IST 2012	Protocol: A New Phase Began: Feedback Phase
Sat Dec 08 09:58:36 IST 2012	Protocol: Feedback phase, Round: 1
Sat Dec 08 09:58:36 IST 2012	Number of consecutive no movements for player 337 is 2
Sat Dec 08 09:58:36 IST 2012	Number of consecutive no movements for player 210 is 2
Sat Dec 08 09:58:42 IST 2012	A Phase Ended: Feedback Phase
Sat Dec 08 09:58:42 IST 2012	Protocol: A New Phase Began: Communication Phase
Sat Dec 08 09:58:42 IST 2012	Protocol: Communication phase, Round: 2
Sat Dec 08 09:59:14 IST 2012	Received communication message 
Sat Dec 08 09:59:14 IST 2012	From player: 337
Sat Dec 08 09:59:14 IST 2012	To player: 210
Sat Dec 08 09:59:14 IST 2012	Message type: basicproposal
Sat Dec 08 09:59:14 IST 2012	Chips to send by proposer: { chips  'grey78':1 }
Sat Dec 08 09:59:14 IST 2012	Chips to send by responder: { chips  'CTGreen':3 }
Sat Dec 08 09:59:24 IST 2012	Received communication message 
Sat Dec 08 09:59:24 IST 2012	From player: 210
Sat Dec 08 09:59:24 IST 2012	To player: 337
Sat Dec 08 09:59:24 IST 2012	Message type: basicproposaldiscussion
Sat Dec 08 09:59:24 IST 2012	Player 210 accepted offer
Sat Dec 08 09:59:24 IST 2012	Prop accepted, set counter offers count to: 0
Sat Dec 08 09:59:24 IST 2012	Prop accepted, get counter offers returned: 0
Sat Dec 08 09:59:24 IST 2012	A Phase Ended: Communication Phase
Sat Dec 08 09:59:24 IST 2012	Protocol: A New Phase Began: Exchange Phase
Sat Dec 08 09:59:24 IST 2012	Protocol: Exchange phase, Round: 2
Sat Dec 08 09:59:24 IST 2012	In begin exch.phase, get counter offers returned: 0
Sat Dec 08 09:59:44 IST 2012	A Phase Ended: Exchange Phase
Sat Dec 08 09:59:45 IST 2012	Proposer 337 sent: { chips  'CTRed':0 'CTPurple':0 'CTGreen':0 'grey78':0 }
Sat Dec 08 09:59:45 IST 2012	Responder 210 sent: { chips  }
Sat Dec 08 09:59:45 IST 2012	Protocol: A New Phase Began: Movement Phase
Sat Dec 08 09:59:45 IST 2012	Protocol: Movement phase, Round: 2
Sat Dec 08 09:59:45 IST 2012	Player 210 moved to (R:6,C:1)
Sat Dec 08 09:59:45 IST 2012	Player 337 moved to (R:6,C:3)
Sat Dec 08 10:00:05 IST 2012	A Phase Ended: Movement Phase
Sat Dec 08 10:00:05 IST 2012	Swaping roles:
Sat Dec 08 10:00:05 IST 2012	Proposer is: 210
Sat Dec 08 10:00:05 IST 2012	Responder is: 337
Sat Dec 08 10:00:05 IST 2012	Protocol: A New Phase Began: Feedback Phase
Sat Dec 08 10:00:05 IST 2012	Protocol: Feedback phase, Round: 2
Sat Dec 08 10:00:05 IST 2012	Number of consecutive no movements for player 337 is 0
Sat Dec 08 10:00:05 IST 2012	Number of consecutive no movements for player 210 is 0
Sat Dec 08 10:00:10 IST 2012	A Phase Ended: Feedback Phase
Sat Dec 08 10:00:10 IST 2012	Protocol: A New Phase Began: Communication Phase
Sat Dec 08 10:00:10 IST 2012	Protocol: Communication phase, Round: 3
Sat Dec 08 10:00:22 IST 2012	Received communication message 
Sat Dec 08 10:00:22 IST 2012	From player: 210
Sat Dec 08 10:00:22 IST 2012	To player: 337
Sat Dec 08 10:00:22 IST 2012	Message type: basicproposal
Sat Dec 08 10:00:22 IST 2012	Chips to send by proposer: { chips  'CTRed':0 'CTPurple':0 'CTGreen':1 'grey78':0 }
Sat Dec 08 10:00:22 IST 2012	Chips to send by responder: { chips  'CTRed':0 'CTPurple':0 'CTGreen':0 'grey78':1 }
Sat Dec 08 10:01:22 IST 2012	Received communication message 
Sat Dec 08 10:01:22 IST 2012	From player: 337
Sat Dec 08 10:01:22 IST 2012	To player: 210
Sat Dec 08 10:01:22 IST 2012	Message type: basicproposaldiscussion
Sat Dec 08 10:01:22 IST 2012	Player 337 rejected offer
Sat Dec 08 10:01:22 IST 2012	Swaping roles:
Sat Dec 08 10:01:22 IST 2012	Proposer is: 337
Sat Dec 08 10:01:22 IST 2012	Responder is: 210
Sat Dec 08 10:01:22 IST 2012	Prop rejected, set counter offers count to: 1
Sat Dec 08 10:01:22 IST 2012	Prop rejected, get counter offers returned: 1
Sat Dec 08 10:01:26 IST 2012	Slept 4 seconds
Sat Dec 08 10:01:26 IST 2012	Sent role changed msgs
Sat Dec 08 10:02:26 IST 2012	Received communication message 
Sat Dec 08 10:02:26 IST 2012	From player: 337
Sat Dec 08 10:02:26 IST 2012	To player: 210
Sat Dec 08 10:02:26 IST 2012	Message type: basicproposal
Sat Dec 08 10:02:26 IST 2012	Chips to send by proposer: { chips  'CTRed':0 'CTPurple':0 'CTGreen':0 'grey78':1 }
Sat Dec 08 10:02:26 IST 2012	Chips to send by responder: { chips  'CTRed':0 'CTPurple':0 'CTGreen':3 'grey78':0 }
Sat Dec 08 10:02:34 IST 2012	Received communication message 
Sat Dec 08 10:02:34 IST 2012	From player: 210
Sat Dec 08 10:02:34 IST 2012	To player: 337
Sat Dec 08 10:02:34 IST 2012	Message type: basicproposaldiscussion
Sat Dec 08 10:02:34 IST 2012	Player 210 accepted offer
Sat Dec 08 10:02:34 IST 2012	Prop accepted, set counter offers count to: 0
Sat Dec 08 10:02:34 IST 2012	Prop accepted, get counter offers returned: 0
Sat Dec 08 10:02:34 IST 2012	A Phase Ended: Communication Phase
Sat Dec 08 10:02:34 IST 2012	Protocol: A New Phase Began: Exchange Phase
Sat Dec 08 10:02:34 IST 2012	Protocol: Exchange phase, Round: 3
Sat Dec 08 10:02:34 IST 2012	In begin exch.phase, get counter offers returned: 0
Sat Dec 08 10:03:03 IST 2012	A Phase Ended: Exchange Phase
Sat Dec 08 10:03:03 IST 2012	Proposer 337 sent: { chips  'CTRed':0 'CTPurple':0 'CTGreen':0 'grey78':1 }
Sat Dec 08 10:03:03 IST 2012	Responder 210 sent: { chips  'CTRed':0 'CTPurple':0 'CTGreen':3 'grey78':0 }
Sat Dec 08 10:03:03 IST 2012	Protocol: A New Phase Began: Movement Phase
Sat Dec 08 10:03:03 IST 2012	Protocol: Movement phase, Round: 3
Sat Dec 08 10:03:03 IST 2012	Player 210 moved to (R:5,C:1)
Sat Dec 08 10:03:22 IST 2012	A Phase Ended: Movement Phase
Sat Dec 08 10:03:22 IST 2012	Protocol: A New Phase Began: Feedback Phase
Sat Dec 08 10:03:22 IST 2012	Protocol: Feedback phase, Round: 3
Sat Dec 08 10:03:22 IST 2012	Number of consecutive no movements for player 337 is 1
Sat Dec 08 10:03:22 IST 2012	Number of consecutive no movements for player 210 is 0
Sat Dec 08 10:03:22 IST 2012	All players have all needed chips to get to goal, end the game
Sat Dec 08 10:03:22 IST 2012	Player: 210 ,role: Responder score is: 165
Sat Dec 08 10:03:22 IST 2012	Player: 337 ,role: Proposer score is: 195
