Thu Dec 06 12:57:07 IST 2012	This is the CT debug logger; svn version 638; sep 27 09
Thu Dec 06 12:57:07 IST 2012	Thu Dec 06 12:57:07 IST 2012
Thu Dec 06 12:57:07 IST 2012	A new Alternative Offers game has began
Thu Dec 06 12:57:07 IST 2012	ID Number: 47764
Thu Dec 06 12:57:07 IST 2012	Creating board
Thu Dec 06 12:57:07 IST 2012	<colors>
Thu Dec 06 12:57:07 IST 2012	{ GamePalette  'CTRed':0 'CTPurple':1 'CTGreen':2 'grey78':3 }
Thu Dec 06 12:57:07 IST 2012	<rows>
Thu Dec 06 12:57:07 IST 2012	7
Thu Dec 06 12:57:07 IST 2012	<columns>
Thu Dec 06 12:57:07 IST 2012	5
Thu Dec 06 12:57:07 IST 2012	<squaresColors>
Thu Dec 06 12:57:07 IST 2012	CTPurple CTRed CTRed CTGreen CTPurple 
Thu Dec 06 12:57:07 IST 2012	CTPurple grey78 CTPurple grey78 CTPurple 
Thu Dec 06 12:57:07 IST 2012	CTPurple CTRed CTPurple CTGreen CTPurple 
Thu Dec 06 12:57:07 IST 2012	CTPurple grey78 CTPurple grey78 CTPurple 
Thu Dec 06 12:57:07 IST 2012	CTPurple CTRed CTPurple CTGreen CTPurple 
Thu Dec 06 12:57:07 IST 2012	CTPurple grey78 CTPurple grey78 CTPurple 
Thu Dec 06 12:57:07 IST 2012	CTPurple CTRed CTPurple CTGreen CTPurple 
Thu Dec 06 12:57:07 IST 2012	</squareColors>
Thu Dec 06 12:57:07 IST 2012	<goalPosition>
Thu Dec 06 12:57:07 IST 2012	Goal position: (R:0,C:2)
Thu Dec 06 12:57:07 IST 2012	<numberOfPlayers>
Thu Dec 06 12:57:07 IST 2012	2
Thu Dec 06 12:57:07 IST 2012	<firstPlayerChips>
Thu Dec 06 12:57:07 IST 2012	Setting chips for player: 337 id:0
Thu Dec 06 12:57:07 IST 2012	{ chips  'CTRed':1 'CTGreen':13 'CTPurple':0 'grey78':10 }
Thu Dec 06 12:57:07 IST 2012	Player position: (R:6,C:4)
Thu Dec 06 12:57:07 IST 2012	Setting chips for player: 210 id:1
Thu Dec 06 12:57:07 IST 2012	{ chips  'CTRed':5 'CTGreen':19 'CTPurple':0 'grey78':0 }
Thu Dec 06 12:57:07 IST 2012	Player position: (R:6,C:0)
Thu Dec 06 12:57:07 IST 2012	Protocol: A New Phase Began: Strategy Prep Phase
Thu Dec 06 12:57:07 IST 2012	Protocol: Strategy Preparation phase, Round: 0
Thu Dec 06 12:57:07 IST 2012	Maximum number of rounds with no consecutive movement is 3
Thu Dec 06 12:57:07 IST 2012	In begin comm. phase, set counter offers count to: 0
Thu Dec 06 12:57:07 IST 2012	In begin comm. phase, get counter offers returned: 0
Thu Dec 06 12:57:28 IST 2012	A Phase Ended: Strategy Prep Phase
Thu Dec 06 12:57:28 IST 2012	Protocol: A New Phase Began: Communication Phase
Thu Dec 06 12:57:28 IST 2012	Protocol: Communication phase, Round: 0
Thu Dec 06 12:58:28 IST 2012	Received communication message 
Thu Dec 06 12:58:28 IST 2012	From player: 337
Thu Dec 06 12:58:28 IST 2012	To player: 210
Thu Dec 06 12:58:28 IST 2012	Message type: basicproposal
Thu Dec 06 12:58:28 IST 2012	Chips to send by proposer: { chips  'grey78':3 }
Thu Dec 06 12:58:28 IST 2012	Chips to send by responder: { chips  'CTGreen':2 }
Thu Dec 06 12:58:37 IST 2012	Received communication message 
Thu Dec 06 12:58:37 IST 2012	From player: 210
Thu Dec 06 12:58:37 IST 2012	To player: 337
Thu Dec 06 12:58:37 IST 2012	Message type: basicproposaldiscussion
Thu Dec 06 12:58:37 IST 2012	Player 210 accepted offer
Thu Dec 06 12:58:37 IST 2012	Prop accepted, set counter offers count to: 0
Thu Dec 06 12:58:37 IST 2012	Prop accepted, get counter offers returned: 0
Thu Dec 06 12:58:37 IST 2012	A Phase Ended: Communication Phase
Thu Dec 06 12:58:37 IST 2012	Protocol: A New Phase Began: Exchange Phase
Thu Dec 06 12:58:37 IST 2012	Protocol: Exchange phase, Round: 0
Thu Dec 06 12:58:37 IST 2012	In begin exch.phase, get counter offers returned: 0
Thu Dec 06 12:59:06 IST 2012	A Phase Ended: Exchange Phase
Thu Dec 06 12:59:06 IST 2012	Proposer 337 sent: { chips  'CTRed':0 'CTPurple':0 'CTGreen':0 'grey78':1 }
Thu Dec 06 12:59:06 IST 2012	Responder 210 sent: { chips  'CTRed':0 'CTPurple':0 'CTGreen':1 'grey78':0 }
Thu Dec 06 12:59:06 IST 2012	Protocol: A New Phase Began: Movement Phase
Thu Dec 06 12:59:06 IST 2012	Protocol: Movement phase, Round: 0
Thu Dec 06 12:59:26 IST 2012	A Phase Ended: Movement Phase
Thu Dec 06 12:59:26 IST 2012	Swaping roles:
Thu Dec 06 12:59:26 IST 2012	Proposer is: 210
Thu Dec 06 12:59:26 IST 2012	Responder is: 337
Thu Dec 06 12:59:26 IST 2012	Protocol: A New Phase Began: Feedback Phase
Thu Dec 06 12:59:26 IST 2012	Protocol: Feedback phase, Round: 0
Thu Dec 06 12:59:26 IST 2012	Number of consecutive no movements for player 337 is 1
Thu Dec 06 12:59:26 IST 2012	Number of consecutive no movements for player 210 is 1
Thu Dec 06 12:59:31 IST 2012	A Phase Ended: Feedback Phase
Thu Dec 06 12:59:31 IST 2012	Protocol: A New Phase Began: Communication Phase
Thu Dec 06 12:59:31 IST 2012	Protocol: Communication phase, Round: 1
Thu Dec 06 12:59:47 IST 2012	Received communication message 
Thu Dec 06 12:59:47 IST 2012	From player: 210
Thu Dec 06 12:59:47 IST 2012	To player: 337
Thu Dec 06 12:59:47 IST 2012	Message type: basicproposal
Thu Dec 06 12:59:47 IST 2012	Chips to send by proposer: { chips  'CTRed':0 'CTPurple':0 'CTGreen':1 'grey78':0 }
Thu Dec 06 12:59:47 IST 2012	Chips to send by responder: { chips  'CTRed':0 'CTPurple':0 'CTGreen':0 'grey78':1 }
Thu Dec 06 13:00:47 IST 2012	Received communication message 
Thu Dec 06 13:00:47 IST 2012	From player: 337
Thu Dec 06 13:00:47 IST 2012	To player: 210
Thu Dec 06 13:00:47 IST 2012	Message type: basicproposaldiscussion
Thu Dec 06 13:00:47 IST 2012	Player 337 rejected offer
Thu Dec 06 13:00:47 IST 2012	Swaping roles:
Thu Dec 06 13:00:47 IST 2012	Proposer is: 337
Thu Dec 06 13:00:47 IST 2012	Responder is: 210
Thu Dec 06 13:00:47 IST 2012	Prop rejected, set counter offers count to: 1
Thu Dec 06 13:00:47 IST 2012	Prop rejected, get counter offers returned: 1
Thu Dec 06 13:00:51 IST 2012	Slept 4 seconds
Thu Dec 06 13:00:51 IST 2012	Sent role changed msgs
Thu Dec 06 13:01:51 IST 2012	Received communication message 
Thu Dec 06 13:01:51 IST 2012	From player: 337
Thu Dec 06 13:01:51 IST 2012	To player: 210
Thu Dec 06 13:01:51 IST 2012	Message type: basicproposal
Thu Dec 06 13:01:51 IST 2012	Chips to send by proposer: { chips  'CTRed':0 'CTPurple':0 'CTGreen':0 'grey78':2 }
Thu Dec 06 13:01:51 IST 2012	Chips to send by responder: { chips  'CTRed':0 'CTPurple':0 'CTGreen':1 'grey78':0 }
Thu Dec 06 13:02:01 IST 2012	Received communication message 
Thu Dec 06 13:02:01 IST 2012	From player: 210
Thu Dec 06 13:02:01 IST 2012	To player: 337
Thu Dec 06 13:02:01 IST 2012	Message type: basicproposaldiscussion
Thu Dec 06 13:02:01 IST 2012	Player 210 rejected offer
Thu Dec 06 13:02:01 IST 2012	Set counter offers count to: 0
Thu Dec 06 13:02:01 IST 2012	A Phase Ended: Communication Phase
Thu Dec 06 13:02:01 IST 2012	Protocol: A New Phase Began: Exchange Phase
Thu Dec 06 13:02:01 IST 2012	Protocol: Exchange phase, Round: 1
Thu Dec 06 13:02:01 IST 2012	In begin exch.phase, get counter offers returned: 0
Thu Dec 06 13:02:41 IST 2012	A Phase Ended: Exchange Phase
Thu Dec 06 13:02:41 IST 2012	Proposer 337 sent: { chips  }
Thu Dec 06 13:02:41 IST 2012	Protocol: A New Phase Began: Movement Phase
Thu Dec 06 13:02:41 IST 2012	Protocol: Movement phase, Round: 1
Thu Dec 06 13:03:01 IST 2012	A Phase Ended: Movement Phase
Thu Dec 06 13:03:01 IST 2012	Protocol: A New Phase Began: Feedback Phase
Thu Dec 06 13:03:01 IST 2012	Protocol: Feedback phase, Round: 1
Thu Dec 06 13:03:01 IST 2012	Number of consecutive no movements for player 337 is 2
Thu Dec 06 13:03:01 IST 2012	Number of consecutive no movements for player 210 is 2
Thu Dec 06 13:03:06 IST 2012	A Phase Ended: Feedback Phase
Thu Dec 06 13:03:06 IST 2012	Protocol: A New Phase Began: Communication Phase
Thu Dec 06 13:03:06 IST 2012	Protocol: Communication phase, Round: 2
Thu Dec 06 13:04:06 IST 2012	Received communication message 
Thu Dec 06 13:04:06 IST 2012	From player: 337
Thu Dec 06 13:04:06 IST 2012	To player: 210
Thu Dec 06 13:04:06 IST 2012	Message type: basicproposal
Thu Dec 06 13:04:06 IST 2012	Chips to send by proposer: { chips  'grey78':2 }
Thu Dec 06 13:04:06 IST 2012	Chips to send by responder: { chips  'CTGreen':1 }
Thu Dec 06 13:04:15 IST 2012	Received communication message 
Thu Dec 06 13:04:15 IST 2012	From player: 210
Thu Dec 06 13:04:15 IST 2012	To player: 337
Thu Dec 06 13:04:15 IST 2012	Message type: basicproposaldiscussion
Thu Dec 06 13:04:15 IST 2012	Player 210 rejected offer
Thu Dec 06 13:04:15 IST 2012	Swaping roles:
Thu Dec 06 13:04:15 IST 2012	Proposer is: 210
Thu Dec 06 13:04:15 IST 2012	Responder is: 337
Thu Dec 06 13:04:15 IST 2012	Prop rejected, set counter offers count to: 1
Thu Dec 06 13:04:15 IST 2012	Prop rejected, get counter offers returned: 1
Thu Dec 06 13:04:19 IST 2012	Slept 4 seconds
Thu Dec 06 13:04:19 IST 2012	Sent role changed msgs
Thu Dec 06 13:04:40 IST 2012	Received communication message 
Thu Dec 06 13:04:40 IST 2012	From player: 210
Thu Dec 06 13:04:40 IST 2012	To player: 337
Thu Dec 06 13:04:40 IST 2012	Message type: basicproposal
Thu Dec 06 13:04:40 IST 2012	Chips to send by proposer: { chips  'CTRed':0 'CTPurple':0 'CTGreen':1 'grey78':0 }
Thu Dec 06 13:04:40 IST 2012	Chips to send by responder: { chips  'CTRed':0 'CTPurple':0 'CTGreen':0 'grey78':1 }
Thu Dec 06 13:05:40 IST 2012	Received communication message 
Thu Dec 06 13:05:40 IST 2012	From player: 337
Thu Dec 06 13:05:40 IST 2012	To player: 210
Thu Dec 06 13:05:40 IST 2012	Message type: basicproposaldiscussion
Thu Dec 06 13:05:40 IST 2012	Player 337 rejected offer
Thu Dec 06 13:05:40 IST 2012	Set counter offers count to: 0
Thu Dec 06 13:05:40 IST 2012	A Phase Ended: Communication Phase
Thu Dec 06 13:05:40 IST 2012	Protocol: A New Phase Began: Exchange Phase
Thu Dec 06 13:05:40 IST 2012	Protocol: Exchange phase, Round: 2
Thu Dec 06 13:05:40 IST 2012	In begin exch.phase, get counter offers returned: 0
Thu Dec 06 13:06:20 IST 2012	A Phase Ended: Exchange Phase
Thu Dec 06 13:06:20 IST 2012	Responder 337 sent: { chips  }
Thu Dec 06 13:06:20 IST 2012	Protocol: A New Phase Began: Movement Phase
Thu Dec 06 13:06:20 IST 2012	Protocol: Movement phase, Round: 2
Thu Dec 06 13:06:20 IST 2012	Player 337 moved to (R:6,C:3)
Thu Dec 06 13:06:20 IST 2012	Player 210 moved to (R:6,C:1)
Thu Dec 06 13:06:40 IST 2012	A Phase Ended: Movement Phase
Thu Dec 06 13:06:40 IST 2012	Protocol: A New Phase Began: Feedback Phase
Thu Dec 06 13:06:40 IST 2012	Protocol: Feedback phase, Round: 2
Thu Dec 06 13:06:40 IST 2012	Number of consecutive no movements for player 337 is 0
Thu Dec 06 13:06:40 IST 2012	Number of consecutive no movements for player 210 is 0
Thu Dec 06 13:06:45 IST 2012	A Phase Ended: Feedback Phase
Thu Dec 06 13:06:45 IST 2012	Protocol: A New Phase Began: Communication Phase
Thu Dec 06 13:06:45 IST 2012	Protocol: Communication phase, Round: 3
Thu Dec 06 13:07:01 IST 2012	Received communication message 
Thu Dec 06 13:07:01 IST 2012	From player: 210
Thu Dec 06 13:07:01 IST 2012	To player: 337
Thu Dec 06 13:07:01 IST 2012	Message type: basicproposal
Thu Dec 06 13:07:01 IST 2012	Chips to send by proposer: { chips  'CTRed':0 'CTPurple':0 'CTGreen':1 'grey78':0 }
Thu Dec 06 13:07:01 IST 2012	Chips to send by responder: { chips  'CTRed':0 'CTPurple':0 'CTGreen':0 'grey78':1 }
Thu Dec 06 13:07:59 IST 2012	Received communication message 
Thu Dec 06 13:07:59 IST 2012	From player: 337
Thu Dec 06 13:07:59 IST 2012	To player: 210
Thu Dec 06 13:07:59 IST 2012	Message type: basicproposaldiscussion
Thu Dec 06 13:07:59 IST 2012	Player 337 rejected offer
Thu Dec 06 13:07:59 IST 2012	Swaping roles:
Thu Dec 06 13:07:59 IST 2012	Proposer is: 337
Thu Dec 06 13:07:59 IST 2012	Responder is: 210
Thu Dec 06 13:07:59 IST 2012	Prop rejected, set counter offers count to: 1
Thu Dec 06 13:07:59 IST 2012	Prop rejected, get counter offers returned: 1
Thu Dec 06 13:08:03 IST 2012	Slept 4 seconds
Thu Dec 06 13:08:03 IST 2012	Sent role changed msgs
Thu Dec 06 13:09:03 IST 2012	Received communication message 
Thu Dec 06 13:09:03 IST 2012	From player: 337
Thu Dec 06 13:09:03 IST 2012	To player: 210
Thu Dec 06 13:09:03 IST 2012	Message type: basicproposal
Thu Dec 06 13:09:03 IST 2012	Chips to send by proposer: { chips  'CTRed':0 'CTPurple':0 'CTGreen':0 'grey78':2 }
Thu Dec 06 13:09:03 IST 2012	Chips to send by responder: { chips  'CTRed':0 'CTPurple':0 'CTGreen':1 'grey78':0 }
Thu Dec 06 13:09:13 IST 2012	Received communication message 
Thu Dec 06 13:09:13 IST 2012	From player: 210
Thu Dec 06 13:09:13 IST 2012	To player: 337
Thu Dec 06 13:09:13 IST 2012	Message type: basicproposaldiscussion
Thu Dec 06 13:09:13 IST 2012	Player 210 rejected offer
Thu Dec 06 13:09:13 IST 2012	Set counter offers count to: 0
Thu Dec 06 13:09:13 IST 2012	A Phase Ended: Communication Phase
Thu Dec 06 13:09:13 IST 2012	Protocol: A New Phase Began: Exchange Phase
Thu Dec 06 13:09:13 IST 2012	Protocol: Exchange phase, Round: 3
Thu Dec 06 13:09:13 IST 2012	In begin exch.phase, get counter offers returned: 0
Thu Dec 06 13:09:53 IST 2012	A Phase Ended: Exchange Phase
Thu Dec 06 13:09:53 IST 2012	Proposer 337 sent: { chips  }
Thu Dec 06 13:09:53 IST 2012	Protocol: A New Phase Began: Movement Phase
Thu Dec 06 13:09:53 IST 2012	Protocol: Movement phase, Round: 3
Thu Dec 06 13:10:13 IST 2012	A Phase Ended: Movement Phase
Thu Dec 06 13:10:13 IST 2012	Protocol: A New Phase Began: Feedback Phase
Thu Dec 06 13:10:13 IST 2012	Protocol: Feedback phase, Round: 3
Thu Dec 06 13:10:13 IST 2012	Number of consecutive no movements for player 337 is 1
Thu Dec 06 13:10:13 IST 2012	Number of consecutive no movements for player 210 is 1
Thu Dec 06 13:10:18 IST 2012	A Phase Ended: Feedback Phase
Thu Dec 06 13:10:18 IST 2012	Protocol: A New Phase Began: Communication Phase
Thu Dec 06 13:10:18 IST 2012	Protocol: Communication phase, Round: 4
Thu Dec 06 13:11:18 IST 2012	Received communication message 
Thu Dec 06 13:11:18 IST 2012	From player: 337
Thu Dec 06 13:11:18 IST 2012	To player: 210
Thu Dec 06 13:11:18 IST 2012	Message type: basicproposal
Thu Dec 06 13:11:18 IST 2012	Chips to send by proposer: { chips  'grey78':2 }
Thu Dec 06 13:11:18 IST 2012	Chips to send by responder: { chips  'CTGreen':1 }
Thu Dec 06 13:11:25 IST 2012	Received communication message 
Thu Dec 06 13:11:25 IST 2012	From player: 210
Thu Dec 06 13:11:25 IST 2012	To player: 337
Thu Dec 06 13:11:25 IST 2012	Message type: basicproposaldiscussion
Thu Dec 06 13:11:25 IST 2012	Player 210 rejected offer
Thu Dec 06 13:11:25 IST 2012	Swaping roles:
Thu Dec 06 13:11:25 IST 2012	Proposer is: 210
Thu Dec 06 13:11:25 IST 2012	Responder is: 337
Thu Dec 06 13:11:25 IST 2012	Prop rejected, set counter offers count to: 1
Thu Dec 06 13:11:25 IST 2012	Prop rejected, get counter offers returned: 1
Thu Dec 06 13:11:29 IST 2012	Slept 4 seconds
Thu Dec 06 13:11:29 IST 2012	Sent role changed msgs
Thu Dec 06 13:11:43 IST 2012	Received communication message 
Thu Dec 06 13:11:43 IST 2012	From player: 210
Thu Dec 06 13:11:43 IST 2012	To player: 337
Thu Dec 06 13:11:43 IST 2012	Message type: basicproposal
Thu Dec 06 13:11:43 IST 2012	Chips to send by proposer: { chips  'CTRed':0 'CTPurple':0 'CTGreen':1 'grey78':0 }
Thu Dec 06 13:11:43 IST 2012	Chips to send by responder: { chips  'CTRed':0 'CTPurple':0 'CTGreen':0 'grey78':1 }
Thu Dec 06 13:12:33 IST 2012	Received communication message 
Thu Dec 06 13:12:33 IST 2012	From player: 337
Thu Dec 06 13:12:33 IST 2012	To player: 210
Thu Dec 06 13:12:33 IST 2012	Message type: basicproposaldiscussion
Thu Dec 06 13:12:33 IST 2012	Player 337 rejected offer
Thu Dec 06 13:12:33 IST 2012	Set counter offers count to: 0
Thu Dec 06 13:12:33 IST 2012	A Phase Ended: Communication Phase
Thu Dec 06 13:12:33 IST 2012	Protocol: A New Phase Began: Exchange Phase
Thu Dec 06 13:12:33 IST 2012	Protocol: Exchange phase, Round: 4
Thu Dec 06 13:12:33 IST 2012	In begin exch.phase, get counter offers returned: 0
Thu Dec 06 13:13:13 IST 2012	A Phase Ended: Exchange Phase
Thu Dec 06 13:13:13 IST 2012	Responder 337 sent: { chips  }
Thu Dec 06 13:13:13 IST 2012	Protocol: A New Phase Began: Movement Phase
Thu Dec 06 13:13:13 IST 2012	Protocol: Movement phase, Round: 4
Thu Dec 06 13:13:33 IST 2012	A Phase Ended: Movement Phase
Thu Dec 06 13:13:33 IST 2012	Protocol: A New Phase Began: Feedback Phase
Thu Dec 06 13:13:33 IST 2012	Protocol: Feedback phase, Round: 4
Thu Dec 06 13:13:33 IST 2012	Number of consecutive no movements for player 337 is 2
Thu Dec 06 13:13:33 IST 2012	Number of consecutive no movements for player 210 is 2
Thu Dec 06 13:13:38 IST 2012	A Phase Ended: Feedback Phase
Thu Dec 06 13:13:38 IST 2012	Protocol: A New Phase Began: Communication Phase
Thu Dec 06 13:13:38 IST 2012	Protocol: Communication phase, Round: 5
Thu Dec 06 13:13:55 IST 2012	Received communication message 
Thu Dec 06 13:13:55 IST 2012	From player: 210
Thu Dec 06 13:13:55 IST 2012	To player: 337
Thu Dec 06 13:13:55 IST 2012	Message type: basicproposal
Thu Dec 06 13:13:55 IST 2012	Chips to send by proposer: { chips  'CTRed':0 'CTPurple':0 'CTGreen':1 'grey78':0 }
Thu Dec 06 13:13:55 IST 2012	Chips to send by responder: { chips  'CTRed':0 'CTPurple':0 'CTGreen':0 'grey78':1 }
Thu Dec 06 13:14:40 IST 2012	Received communication message 
Thu Dec 06 13:14:40 IST 2012	From player: 337
Thu Dec 06 13:14:40 IST 2012	To player: 210
Thu Dec 06 13:14:40 IST 2012	Message type: basicproposaldiscussion
Thu Dec 06 13:14:40 IST 2012	Player 337 rejected offer
Thu Dec 06 13:14:40 IST 2012	Swaping roles:
Thu Dec 06 13:14:40 IST 2012	Proposer is: 337
Thu Dec 06 13:14:40 IST 2012	Responder is: 210
Thu Dec 06 13:14:40 IST 2012	Prop rejected, set counter offers count to: 1
Thu Dec 06 13:14:40 IST 2012	Prop rejected, get counter offers returned: 1
Thu Dec 06 13:14:44 IST 2012	Slept 4 seconds
Thu Dec 06 13:14:44 IST 2012	Sent role changed msgs
Thu Dec 06 13:15:44 IST 2012	Received communication message 
Thu Dec 06 13:15:44 IST 2012	From player: 337
Thu Dec 06 13:15:44 IST 2012	To player: 210
Thu Dec 06 13:15:44 IST 2012	Message type: basicproposal
Thu Dec 06 13:15:44 IST 2012	Chips to send by proposer: { chips  'CTRed':0 'CTPurple':0 'CTGreen':0 'grey78':2 }
Thu Dec 06 13:15:44 IST 2012	Chips to send by responder: { chips  'CTRed':0 'CTPurple':0 'CTGreen':1 'grey78':0 }
Thu Dec 06 13:15:57 IST 2012	Received communication message 
Thu Dec 06 13:15:57 IST 2012	From player: 210
Thu Dec 06 13:15:57 IST 2012	To player: 337
Thu Dec 06 13:15:57 IST 2012	Message type: basicproposaldiscussion
Thu Dec 06 13:15:57 IST 2012	Player 210 rejected offer
Thu Dec 06 13:15:57 IST 2012	Set counter offers count to: 0
Thu Dec 06 13:15:57 IST 2012	A Phase Ended: Communication Phase
Thu Dec 06 13:15:57 IST 2012	Protocol: A New Phase Began: Exchange Phase
Thu Dec 06 13:15:57 IST 2012	Protocol: Exchange phase, Round: 5
Thu Dec 06 13:15:57 IST 2012	In begin exch.phase, get counter offers returned: 0
Thu Dec 06 13:16:38 IST 2012	A Phase Ended: Exchange Phase
Thu Dec 06 13:16:38 IST 2012	Proposer 337 sent: { chips  }
Thu Dec 06 13:16:38 IST 2012	Protocol: A New Phase Began: Movement Phase
Thu Dec 06 13:16:38 IST 2012	Protocol: Movement phase, Round: 5
Thu Dec 06 13:16:38 IST 2012	Player 337 moved to (R:5,C:3)
Thu Dec 06 13:16:38 IST 2012	Player 210 moved to (R:5,C:1)
Thu Dec 06 13:16:58 IST 2012	A Phase Ended: Movement Phase
Thu Dec 06 13:16:58 IST 2012	Protocol: A New Phase Began: Feedback Phase
Thu Dec 06 13:16:58 IST 2012	Protocol: Feedback phase, Round: 5
Thu Dec 06 13:16:58 IST 2012	Number of consecutive no movements for player 337 is 0
Thu Dec 06 13:16:58 IST 2012	Number of consecutive no movements for player 210 is 0
Thu Dec 06 13:17:03 IST 2012	A Phase Ended: Feedback Phase
Thu Dec 06 13:17:03 IST 2012	Protocol: A New Phase Began: Communication Phase
Thu Dec 06 13:17:03 IST 2012	Protocol: Communication phase, Round: 6
Thu Dec 06 13:18:03 IST 2012	Received communication message 
Thu Dec 06 13:18:03 IST 2012	From player: 337
Thu Dec 06 13:18:03 IST 2012	To player: 210
Thu Dec 06 13:18:03 IST 2012	Message type: basicproposal
Thu Dec 06 13:18:03 IST 2012	Chips to send by proposer: { chips  'grey78':2 }
Thu Dec 06 13:18:03 IST 2012	Chips to send by responder: { chips  'CTGreen':1 }
Thu Dec 06 13:18:15 IST 2012	Received communication message 
Thu Dec 06 13:18:15 IST 2012	From player: 210
Thu Dec 06 13:18:15 IST 2012	To player: 337
Thu Dec 06 13:18:15 IST 2012	Message type: basicproposaldiscussion
Thu Dec 06 13:18:15 IST 2012	Player 210 rejected offer
Thu Dec 06 13:18:15 IST 2012	Swaping roles:
Thu Dec 06 13:18:15 IST 2012	Proposer is: 210
Thu Dec 06 13:18:15 IST 2012	Responder is: 337
Thu Dec 06 13:18:15 IST 2012	Prop rejected, set counter offers count to: 1
Thu Dec 06 13:18:15 IST 2012	Prop rejected, get counter offers returned: 1
Thu Dec 06 13:18:19 IST 2012	Slept 4 seconds
Thu Dec 06 13:18:19 IST 2012	Sent role changed msgs
Thu Dec 06 13:18:33 IST 2012	Received communication message 
Thu Dec 06 13:18:33 IST 2012	From player: 210
Thu Dec 06 13:18:33 IST 2012	To player: 337
Thu Dec 06 13:18:33 IST 2012	Message type: basicproposal
Thu Dec 06 13:18:33 IST 2012	Chips to send by proposer: { chips  'CTRed':0 'CTPurple':0 'CTGreen':1 'grey78':0 }
Thu Dec 06 13:18:33 IST 2012	Chips to send by responder: { chips  'CTRed':0 'CTPurple':0 'CTGreen':0 'grey78':1 }
Thu Dec 06 13:19:09 IST 2012	Received communication message 
Thu Dec 06 13:19:09 IST 2012	From player: 337
Thu Dec 06 13:19:09 IST 2012	To player: 210
Thu Dec 06 13:19:09 IST 2012	Message type: basicproposaldiscussion
Thu Dec 06 13:19:09 IST 2012	Player 337 rejected offer
Thu Dec 06 13:19:09 IST 2012	Set counter offers count to: 0
Thu Dec 06 13:19:09 IST 2012	A Phase Ended: Communication Phase
Thu Dec 06 13:19:09 IST 2012	Protocol: A New Phase Began: Exchange Phase
Thu Dec 06 13:19:09 IST 2012	Protocol: Exchange phase, Round: 6
Thu Dec 06 13:19:09 IST 2012	In begin exch.phase, get counter offers returned: 0
Thu Dec 06 13:19:49 IST 2012	A Phase Ended: Exchange Phase
Thu Dec 06 13:19:49 IST 2012	Responder 337 sent: { chips  }
Thu Dec 06 13:19:49 IST 2012	Protocol: A New Phase Began: Movement Phase
Thu Dec 06 13:19:49 IST 2012	Protocol: Movement phase, Round: 6
Thu Dec 06 13:20:09 IST 2012	A Phase Ended: Movement Phase
Thu Dec 06 13:20:09 IST 2012	Protocol: A New Phase Began: Feedback Phase
Thu Dec 06 13:20:09 IST 2012	Protocol: Feedback phase, Round: 6
Thu Dec 06 13:20:09 IST 2012	Number of consecutive no movements for player 337 is 1
Thu Dec 06 13:20:09 IST 2012	Number of consecutive no movements for player 210 is 1
Thu Dec 06 13:20:15 IST 2012	A Phase Ended: Feedback Phase
Thu Dec 06 13:20:15 IST 2012	Protocol: A New Phase Began: Communication Phase
Thu Dec 06 13:20:15 IST 2012	Protocol: Communication phase, Round: 7
Thu Dec 06 13:20:29 IST 2012	Received communication message 
Thu Dec 06 13:20:29 IST 2012	From player: 210
Thu Dec 06 13:20:29 IST 2012	To player: 337
Thu Dec 06 13:20:29 IST 2012	Message type: basicproposal
Thu Dec 06 13:20:29 IST 2012	Chips to send by proposer: { chips  'CTRed':0 'CTPurple':0 'CTGreen':1 'grey78':0 }
Thu Dec 06 13:20:29 IST 2012	Chips to send by responder: { chips  'CTRed':0 'CTPurple':0 'CTGreen':0 'grey78':1 }
Thu Dec 06 13:21:02 IST 2012	Received communication message 
Thu Dec 06 13:21:02 IST 2012	From player: 337
Thu Dec 06 13:21:02 IST 2012	To player: 210
Thu Dec 06 13:21:02 IST 2012	Message type: basicproposaldiscussion
Thu Dec 06 13:21:02 IST 2012	Player 337 rejected offer
Thu Dec 06 13:21:02 IST 2012	Swaping roles:
Thu Dec 06 13:21:02 IST 2012	Proposer is: 337
Thu Dec 06 13:21:02 IST 2012	Responder is: 210
Thu Dec 06 13:21:02 IST 2012	Prop rejected, set counter offers count to: 1
Thu Dec 06 13:21:02 IST 2012	Prop rejected, get counter offers returned: 1
Thu Dec 06 13:21:06 IST 2012	Slept 4 seconds
Thu Dec 06 13:21:06 IST 2012	Sent role changed msgs
Thu Dec 06 13:22:06 IST 2012	Received communication message 
Thu Dec 06 13:22:06 IST 2012	From player: 337
Thu Dec 06 13:22:06 IST 2012	To player: 210
Thu Dec 06 13:22:06 IST 2012	Message type: basicproposal
Thu Dec 06 13:22:06 IST 2012	Chips to send by proposer: { chips  'CTRed':0 'CTPurple':0 'CTGreen':0 'grey78':2 }
Thu Dec 06 13:22:06 IST 2012	Chips to send by responder: { chips  'CTRed':0 'CTPurple':0 'CTGreen':1 'grey78':0 }
Thu Dec 06 13:22:17 IST 2012	Received communication message 
Thu Dec 06 13:22:17 IST 2012	From player: 210
Thu Dec 06 13:22:17 IST 2012	To player: 337
Thu Dec 06 13:22:17 IST 2012	Message type: basicproposaldiscussion
Thu Dec 06 13:22:17 IST 2012	Player 210 rejected offer
Thu Dec 06 13:22:17 IST 2012	Set counter offers count to: 0
Thu Dec 06 13:22:17 IST 2012	A Phase Ended: Communication Phase
Thu Dec 06 13:22:17 IST 2012	Protocol: A New Phase Began: Exchange Phase
Thu Dec 06 13:22:17 IST 2012	Protocol: Exchange phase, Round: 7
Thu Dec 06 13:22:17 IST 2012	In begin exch.phase, get counter offers returned: 0
Thu Dec 06 13:22:57 IST 2012	A Phase Ended: Exchange Phase
Thu Dec 06 13:22:57 IST 2012	Proposer 337 sent: { chips  }
Thu Dec 06 13:22:57 IST 2012	Protocol: A New Phase Began: Movement Phase
Thu Dec 06 13:22:57 IST 2012	Protocol: Movement phase, Round: 7
Thu Dec 06 13:23:17 IST 2012	A Phase Ended: Movement Phase
Thu Dec 06 13:23:17 IST 2012	Protocol: A New Phase Began: Feedback Phase
Thu Dec 06 13:23:17 IST 2012	Protocol: Feedback phase, Round: 7
Thu Dec 06 13:23:17 IST 2012	Number of consecutive no movements for player 337 is 2
Thu Dec 06 13:23:17 IST 2012	Number of consecutive no movements for player 210 is 2
Thu Dec 06 13:23:22 IST 2012	A Phase Ended: Feedback Phase
Thu Dec 06 13:23:22 IST 2012	Protocol: A New Phase Began: Communication Phase
Thu Dec 06 13:23:22 IST 2012	Protocol: Communication phase, Round: 8
Thu Dec 06 13:24:22 IST 2012	Received communication message 
Thu Dec 06 13:24:22 IST 2012	From player: 337
Thu Dec 06 13:24:22 IST 2012	To player: 210
Thu Dec 06 13:24:22 IST 2012	Message type: basicproposal
Thu Dec 06 13:24:22 IST 2012	Chips to send by proposer: { chips  'grey78':2 }
Thu Dec 06 13:24:22 IST 2012	Chips to send by responder: { chips  'CTGreen':1 }
Thu Dec 06 13:24:28 IST 2012	Received communication message 
Thu Dec 06 13:24:28 IST 2012	From player: 210
Thu Dec 06 13:24:28 IST 2012	To player: 337
Thu Dec 06 13:24:28 IST 2012	Message type: basicproposaldiscussion
Thu Dec 06 13:24:28 IST 2012	Player 210 rejected offer
Thu Dec 06 13:24:28 IST 2012	Swaping roles:
Thu Dec 06 13:24:28 IST 2012	Proposer is: 210
Thu Dec 06 13:24:28 IST 2012	Responder is: 337
Thu Dec 06 13:24:28 IST 2012	Prop rejected, set counter offers count to: 1
Thu Dec 06 13:24:28 IST 2012	Prop rejected, get counter offers returned: 1
Thu Dec 06 13:24:32 IST 2012	Slept 4 seconds
Thu Dec 06 13:24:32 IST 2012	Sent role changed msgs
Thu Dec 06 13:24:51 IST 2012	Received communication message 
Thu Dec 06 13:24:51 IST 2012	From player: 210
Thu Dec 06 13:24:51 IST 2012	To player: 337
Thu Dec 06 13:24:51 IST 2012	Message type: basicproposal
Thu Dec 06 13:24:51 IST 2012	Chips to send by proposer: { chips  'CTRed':0 'CTPurple':0 'CTGreen':1 'grey78':0 }
Thu Dec 06 13:24:51 IST 2012	Chips to send by responder: { chips  'CTRed':0 'CTPurple':0 'CTGreen':0 'grey78':1 }
Thu Dec 06 13:25:15 IST 2012	Received communication message 
Thu Dec 06 13:25:15 IST 2012	From player: 337
Thu Dec 06 13:25:15 IST 2012	To player: 210
Thu Dec 06 13:25:15 IST 2012	Message type: basicproposaldiscussion
Thu Dec 06 13:25:15 IST 2012	Player 337 rejected offer
Thu Dec 06 13:25:15 IST 2012	Set counter offers count to: 0
Thu Dec 06 13:25:15 IST 2012	A Phase Ended: Communication Phase
Thu Dec 06 13:25:15 IST 2012	Protocol: A New Phase Began: Exchange Phase
Thu Dec 06 13:25:15 IST 2012	Protocol: Exchange phase, Round: 8
Thu Dec 06 13:25:15 IST 2012	In begin exch.phase, get counter offers returned: 0
Thu Dec 06 13:25:55 IST 2012	A Phase Ended: Exchange Phase
Thu Dec 06 13:25:55 IST 2012	Responder 337 sent: { chips  }
Thu Dec 06 13:25:55 IST 2012	Protocol: A New Phase Began: Movement Phase
Thu Dec 06 13:25:55 IST 2012	Protocol: Movement phase, Round: 8
Thu Dec 06 13:25:55 IST 2012	Player 337 moved to (R:4,C:3)
Thu Dec 06 13:25:55 IST 2012	Player 210 moved to (R:4,C:1)
Thu Dec 06 13:26:16 IST 2012	A Phase Ended: Movement Phase
Thu Dec 06 13:26:16 IST 2012	Protocol: A New Phase Began: Feedback Phase
Thu Dec 06 13:26:16 IST 2012	Protocol: Feedback phase, Round: 8
Thu Dec 06 13:26:16 IST 2012	Number of consecutive no movements for player 337 is 0
Thu Dec 06 13:26:16 IST 2012	Number of consecutive no movements for player 210 is 0
Thu Dec 06 13:26:21 IST 2012	A Phase Ended: Feedback Phase
Thu Dec 06 13:26:21 IST 2012	Protocol: A New Phase Began: Communication Phase
Thu Dec 06 13:26:21 IST 2012	Protocol: Communication phase, Round: 9
Thu Dec 06 13:26:36 IST 2012	Received communication message 
Thu Dec 06 13:26:36 IST 2012	From player: 210
Thu Dec 06 13:26:36 IST 2012	To player: 337
Thu Dec 06 13:26:36 IST 2012	Message type: basicproposal
Thu Dec 06 13:26:36 IST 2012	Chips to send by proposer: { chips  'CTRed':0 'CTPurple':0 'CTGreen':1 'grey78':0 }
Thu Dec 06 13:26:36 IST 2012	Chips to send by responder: { chips  'CTRed':0 'CTPurple':0 'CTGreen':0 'grey78':1 }
Thu Dec 06 13:26:56 IST 2012	Received communication message 
Thu Dec 06 13:26:56 IST 2012	From player: 337
Thu Dec 06 13:26:56 IST 2012	To player: 210
Thu Dec 06 13:26:56 IST 2012	Message type: basicproposaldiscussion
Thu Dec 06 13:26:56 IST 2012	Player 337 rejected offer
Thu Dec 06 13:26:56 IST 2012	Swaping roles:
Thu Dec 06 13:26:56 IST 2012	Proposer is: 337
Thu Dec 06 13:26:56 IST 2012	Responder is: 210
Thu Dec 06 13:26:56 IST 2012	Prop rejected, set counter offers count to: 1
Thu Dec 06 13:26:56 IST 2012	Prop rejected, get counter offers returned: 1
Thu Dec 06 13:27:00 IST 2012	Slept 4 seconds
Thu Dec 06 13:27:00 IST 2012	Sent role changed msgs
Thu Dec 06 13:27:57 IST 2012	Received communication message 
Thu Dec 06 13:27:57 IST 2012	From player: 337
Thu Dec 06 13:27:57 IST 2012	To player: 210
Thu Dec 06 13:27:57 IST 2012	Message type: basicproposal
Thu Dec 06 13:27:57 IST 2012	Chips to send by proposer: { chips  'CTRed':0 'CTPurple':0 'CTGreen':0 'grey78':2 }
Thu Dec 06 13:27:57 IST 2012	Chips to send by responder: { chips  'CTRed':0 'CTPurple':0 'CTGreen':1 'grey78':0 }
Thu Dec 06 13:28:11 IST 2012	Received communication message 
Thu Dec 06 13:28:11 IST 2012	From player: 210
Thu Dec 06 13:28:11 IST 2012	To player: 337
Thu Dec 06 13:28:11 IST 2012	Message type: basicproposaldiscussion
Thu Dec 06 13:28:11 IST 2012	Player 210 rejected offer
Thu Dec 06 13:28:11 IST 2012	Set counter offers count to: 0
Thu Dec 06 13:28:11 IST 2012	A Phase Ended: Communication Phase
Thu Dec 06 13:28:11 IST 2012	Protocol: A New Phase Began: Exchange Phase
Thu Dec 06 13:28:11 IST 2012	Protocol: Exchange phase, Round: 9
Thu Dec 06 13:28:11 IST 2012	In begin exch.phase, get counter offers returned: 0
Thu Dec 06 13:28:52 IST 2012	A Phase Ended: Exchange Phase
Thu Dec 06 13:28:52 IST 2012	Proposer 337 sent: { chips  }
Thu Dec 06 13:28:52 IST 2012	Protocol: A New Phase Began: Movement Phase
Thu Dec 06 13:28:52 IST 2012	Protocol: Movement phase, Round: 9
Thu Dec 06 13:29:12 IST 2012	A Phase Ended: Movement Phase
Thu Dec 06 13:29:12 IST 2012	Protocol: A New Phase Began: Feedback Phase
Thu Dec 06 13:29:12 IST 2012	Protocol: Feedback phase, Round: 9
Thu Dec 06 13:29:12 IST 2012	Number of consecutive no movements for player 337 is 1
Thu Dec 06 13:29:12 IST 2012	Number of consecutive no movements for player 210 is 1
Thu Dec 06 13:29:17 IST 2012	A Phase Ended: Feedback Phase
Thu Dec 06 13:29:17 IST 2012	Protocol: A New Phase Began: Communication Phase
Thu Dec 06 13:29:17 IST 2012	Protocol: Communication phase, Round: 10
Thu Dec 06 13:30:02 IST 2012	Received communication message 
Thu Dec 06 13:30:02 IST 2012	From player: 337
Thu Dec 06 13:30:02 IST 2012	To player: 210
Thu Dec 06 13:30:02 IST 2012	Message type: basicproposal
Thu Dec 06 13:30:02 IST 2012	Chips to send by proposer: { chips  'grey78':2 }
Thu Dec 06 13:30:02 IST 2012	Chips to send by responder: { chips  'CTGreen':1 }
Thu Dec 06 13:30:09 IST 2012	Received communication message 
Thu Dec 06 13:30:09 IST 2012	From player: 210
Thu Dec 06 13:30:09 IST 2012	To player: 337
Thu Dec 06 13:30:09 IST 2012	Message type: basicproposaldiscussion
Thu Dec 06 13:30:09 IST 2012	Player 210 rejected offer
Thu Dec 06 13:30:09 IST 2012	Swaping roles:
Thu Dec 06 13:30:09 IST 2012	Proposer is: 210
Thu Dec 06 13:30:09 IST 2012	Responder is: 337
Thu Dec 06 13:30:09 IST 2012	Prop rejected, set counter offers count to: 1
Thu Dec 06 13:30:09 IST 2012	Prop rejected, get counter offers returned: 1
Thu Dec 06 13:30:13 IST 2012	Slept 4 seconds
Thu Dec 06 13:30:13 IST 2012	Sent role changed msgs
Thu Dec 06 13:30:29 IST 2012	Received communication message 
Thu Dec 06 13:30:29 IST 2012	From player: 210
Thu Dec 06 13:30:29 IST 2012	To player: 337
Thu Dec 06 13:30:29 IST 2012	Message type: basicproposal
Thu Dec 06 13:30:29 IST 2012	Chips to send by proposer: { chips  'CTRed':0 'CTPurple':0 'CTGreen':1 'grey78':0 }
Thu Dec 06 13:30:29 IST 2012	Chips to send by responder: { chips  'CTRed':0 'CTPurple':0 'CTGreen':0 'grey78':1 }
Thu Dec 06 13:30:40 IST 2012	Received communication message 
Thu Dec 06 13:30:40 IST 2012	From player: 337
Thu Dec 06 13:30:40 IST 2012	To player: 210
Thu Dec 06 13:30:40 IST 2012	Message type: basicproposaldiscussion
Thu Dec 06 13:30:40 IST 2012	Player 337 accepted offer
Thu Dec 06 13:30:40 IST 2012	Prop accepted, set counter offers count to: 0
Thu Dec 06 13:30:40 IST 2012	Prop accepted, get counter offers returned: 0
Thu Dec 06 13:30:40 IST 2012	A Phase Ended: Communication Phase
Thu Dec 06 13:30:40 IST 2012	Protocol: A New Phase Began: Exchange Phase
Thu Dec 06 13:30:40 IST 2012	Protocol: Exchange phase, Round: 10
Thu Dec 06 13:30:40 IST 2012	In begin exch.phase, get counter offers returned: 0
Thu Dec 06 13:31:09 IST 2012	A Phase Ended: Exchange Phase
Thu Dec 06 13:31:09 IST 2012	Proposer 210 sent: { chips  'CTRed':0 'CTPurple':0 'CTGreen':1 'grey78':0 }
Thu Dec 06 13:31:09 IST 2012	Responder 337 sent: { chips  'CTRed':0 'CTPurple':0 'CTGreen':0 'grey78':1 }
Thu Dec 06 13:31:09 IST 2012	Protocol: A New Phase Began: Movement Phase
Thu Dec 06 13:31:09 IST 2012	Protocol: Movement phase, Round: 10
Thu Dec 06 13:31:29 IST 2012	A Phase Ended: Movement Phase
Thu Dec 06 13:31:29 IST 2012	Protocol: A New Phase Began: Feedback Phase
Thu Dec 06 13:31:29 IST 2012	Protocol: Feedback phase, Round: 10
Thu Dec 06 13:31:29 IST 2012	Number of consecutive no movements for player 337 is 2
Thu Dec 06 13:31:29 IST 2012	Number of consecutive no movements for player 210 is 2
Thu Dec 06 13:31:34 IST 2012	A Phase Ended: Feedback Phase
Thu Dec 06 13:31:34 IST 2012	Protocol: A New Phase Began: Communication Phase
Thu Dec 06 13:31:34 IST 2012	Protocol: Communication phase, Round: 11
Thu Dec 06 13:31:48 IST 2012	Received communication message 
Thu Dec 06 13:31:48 IST 2012	From player: 210
Thu Dec 06 13:31:48 IST 2012	To player: 337
Thu Dec 06 13:31:48 IST 2012	Message type: basicproposal
Thu Dec 06 13:31:48 IST 2012	Chips to send by proposer: { chips  'CTRed':0 'CTPurple':0 'CTGreen':1 'grey78':0 }
Thu Dec 06 13:31:48 IST 2012	Chips to send by responder: { chips  'CTRed':0 'CTPurple':0 'CTGreen':0 'grey78':1 }
Thu Dec 06 13:32:19 IST 2012	Received communication message 
Thu Dec 06 13:32:19 IST 2012	From player: 337
Thu Dec 06 13:32:19 IST 2012	To player: 210
Thu Dec 06 13:32:19 IST 2012	Message type: basicproposaldiscussion
Thu Dec 06 13:32:19 IST 2012	Player 337 accepted offer
Thu Dec 06 13:32:19 IST 2012	Prop accepted, set counter offers count to: 0
Thu Dec 06 13:32:19 IST 2012	Prop accepted, get counter offers returned: 0
Thu Dec 06 13:32:19 IST 2012	A Phase Ended: Communication Phase
Thu Dec 06 13:32:19 IST 2012	Protocol: A New Phase Began: Exchange Phase
Thu Dec 06 13:32:19 IST 2012	Protocol: Exchange phase, Round: 11
Thu Dec 06 13:32:19 IST 2012	In begin exch.phase, get counter offers returned: 0
Thu Dec 06 13:32:44 IST 2012	A Phase Ended: Exchange Phase
Thu Dec 06 13:32:44 IST 2012	Proposer 210 sent: { chips  }
Thu Dec 06 13:32:44 IST 2012	Responder 337 sent: { chips  'CTRed':0 'CTPurple':0 'CTGreen':0 'grey78':0 }
Thu Dec 06 13:32:44 IST 2012	Protocol: A New Phase Began: Movement Phase
Thu Dec 06 13:32:44 IST 2012	Protocol: Movement phase, Round: 11
Thu Dec 06 13:32:44 IST 2012	Player 210 moved to (R:3,C:1)
Thu Dec 06 13:32:44 IST 2012	Player 337 moved to (R:3,C:3)
Thu Dec 06 13:33:04 IST 2012	A Phase Ended: Movement Phase
Thu Dec 06 13:33:04 IST 2012	Swaping roles:
Thu Dec 06 13:33:04 IST 2012	Proposer is: 337
Thu Dec 06 13:33:04 IST 2012	Responder is: 210
Thu Dec 06 13:33:04 IST 2012	Protocol: A New Phase Began: Feedback Phase
Thu Dec 06 13:33:04 IST 2012	Protocol: Feedback phase, Round: 11
Thu Dec 06 13:33:04 IST 2012	Number of consecutive no movements for player 337 is 0
Thu Dec 06 13:33:04 IST 2012	Number of consecutive no movements for player 210 is 0
Thu Dec 06 13:33:09 IST 2012	A Phase Ended: Feedback Phase
Thu Dec 06 13:33:09 IST 2012	Protocol: A New Phase Began: Communication Phase
Thu Dec 06 13:33:09 IST 2012	Protocol: Communication phase, Round: 12
Thu Dec 06 13:34:09 IST 2012	Received communication message 
Thu Dec 06 13:34:09 IST 2012	From player: 337
Thu Dec 06 13:34:09 IST 2012	To player: 210
Thu Dec 06 13:34:09 IST 2012	Message type: basicproposal
Thu Dec 06 13:34:09 IST 2012	Chips to send by proposer: { chips  'grey78':1 }
Thu Dec 06 13:34:09 IST 2012	Chips to send by responder: { chips  'CTGreen':3 }
Thu Dec 06 13:34:15 IST 2012	Received communication message 
Thu Dec 06 13:34:15 IST 2012	From player: 210
Thu Dec 06 13:34:15 IST 2012	To player: 337
Thu Dec 06 13:34:15 IST 2012	Message type: basicproposaldiscussion
Thu Dec 06 13:34:15 IST 2012	Player 210 accepted offer
Thu Dec 06 13:34:15 IST 2012	Prop accepted, set counter offers count to: 0
Thu Dec 06 13:34:15 IST 2012	Prop accepted, get counter offers returned: 0
Thu Dec 06 13:34:15 IST 2012	A Phase Ended: Communication Phase
Thu Dec 06 13:34:15 IST 2012	Protocol: A New Phase Began: Exchange Phase
Thu Dec 06 13:34:15 IST 2012	Protocol: Exchange phase, Round: 12
Thu Dec 06 13:34:15 IST 2012	In begin exch.phase, get counter offers returned: 0
Thu Dec 06 13:34:35 IST 2012	A Phase Ended: Exchange Phase
Thu Dec 06 13:34:35 IST 2012	Proposer 337 sent: { chips  'CTRed':0 'CTPurple':0 'CTGreen':0 'grey78':1 }
Thu Dec 06 13:34:35 IST 2012	Responder 210 sent: { chips  }
Thu Dec 06 13:34:36 IST 2012	Protocol: A New Phase Began: Movement Phase
Thu Dec 06 13:34:36 IST 2012	Protocol: Movement phase, Round: 12
Thu Dec 06 13:34:36 IST 2012	Player 210 moved to (R:2,C:1)
Thu Dec 06 13:34:56 IST 2012	A Phase Ended: Movement Phase
Thu Dec 06 13:34:56 IST 2012	Swaping roles:
Thu Dec 06 13:34:56 IST 2012	Proposer is: 210
Thu Dec 06 13:34:56 IST 2012	Responder is: 337
Thu Dec 06 13:34:56 IST 2012	Protocol: A New Phase Began: Feedback Phase
Thu Dec 06 13:34:56 IST 2012	Protocol: Feedback phase, Round: 12
Thu Dec 06 13:34:56 IST 2012	Number of consecutive no movements for player 337 is 1
Thu Dec 06 13:34:56 IST 2012	Number of consecutive no movements for player 210 is 0
Thu Dec 06 13:34:56 IST 2012	All players have all needed chips to get to goal, end the game
Thu Dec 06 13:34:56 IST 2012	Player: 210 ,role: Proposer score is: 185
Thu Dec 06 13:34:56 IST 2012	Player: 337 ,role: Responder score is: 175
