Fri Dec 07 08:21:58 IST 2012	This is the CT debug logger; svn version 638; sep 27 09
Fri Dec 07 08:21:58 IST 2012	Fri Dec 07 08:21:58 IST 2012
Fri Dec 07 08:21:58 IST 2012	A new Alternative Offers game has began
Fri Dec 07 08:21:59 IST 2012	ID Number: 49014
Fri Dec 07 08:21:59 IST 2012	Creating board
Fri Dec 07 08:21:59 IST 2012	<colors>
Fri Dec 07 08:21:59 IST 2012	{ GamePalette  'CTRed':0 'CTPurple':1 'CTGreen':2 'grey78':3 }
Fri Dec 07 08:21:59 IST 2012	<rows>
Fri Dec 07 08:21:59 IST 2012	7
Fri Dec 07 08:21:59 IST 2012	<columns>
Fri Dec 07 08:21:59 IST 2012	5
Fri Dec 07 08:21:59 IST 2012	<squaresColors>
Fri Dec 07 08:21:59 IST 2012	CTPurple CTRed CTRed CTGreen CTPurple 
Fri Dec 07 08:21:59 IST 2012	CTPurple grey78 CTPurple grey78 CTPurple 
Fri Dec 07 08:21:59 IST 2012	CTPurple CTRed CTPurple CTGreen CTPurple 
Fri Dec 07 08:21:59 IST 2012	CTPurple grey78 CTPurple grey78 CTPurple 
Fri Dec 07 08:21:59 IST 2012	CTPurple CTRed CTPurple CTGreen CTPurple 
Fri Dec 07 08:21:59 IST 2012	CTPurple grey78 CTPurple grey78 CTPurple 
Fri Dec 07 08:21:59 IST 2012	CTPurple CTRed CTPurple CTGreen CTPurple 
Fri Dec 07 08:21:59 IST 2012	</squareColors>
Fri Dec 07 08:21:59 IST 2012	<goalPosition>
Fri Dec 07 08:21:59 IST 2012	Goal position: (R:0,C:2)
Fri Dec 07 08:21:59 IST 2012	<numberOfPlayers>
Fri Dec 07 08:21:59 IST 2012	2
Fri Dec 07 08:21:59 IST 2012	<firstPlayerChips>
Fri Dec 07 08:21:59 IST 2012	Setting chips for player: 337 id:0
Fri Dec 07 08:21:59 IST 2012	{ chips  'CTRed':1 'CTGreen':13 'CTPurple':0 'grey78':10 }
Fri Dec 07 08:21:59 IST 2012	Player position: (R:6,C:4)
Fri Dec 07 08:21:59 IST 2012	Setting chips for player: 210 id:1
Fri Dec 07 08:21:59 IST 2012	{ chips  'CTRed':5 'CTGreen':19 'CTPurple':0 'grey78':0 }
Fri Dec 07 08:21:59 IST 2012	Player position: (R:6,C:0)
Fri Dec 07 08:21:59 IST 2012	Protocol: A New Phase Began: Strategy Prep Phase
Fri Dec 07 08:21:59 IST 2012	Protocol: Strategy Preparation phase, Round: 0
Fri Dec 07 08:21:59 IST 2012	Maximum number of rounds with no consecutive movement is 3
Fri Dec 07 08:21:59 IST 2012	In begin comm. phase, set counter offers count to: 0
Fri Dec 07 08:21:59 IST 2012	In begin comm. phase, get counter offers returned: 0
Fri Dec 07 08:22:19 IST 2012	A Phase Ended: Strategy Prep Phase
Fri Dec 07 08:22:19 IST 2012	Protocol: A New Phase Began: Communication Phase
Fri Dec 07 08:22:19 IST 2012	Protocol: Communication phase, Round: 0
Fri Dec 07 08:23:19 IST 2012	Received communication message 
Fri Dec 07 08:23:19 IST 2012	From player: 337
Fri Dec 07 08:23:19 IST 2012	To player: 210
Fri Dec 07 08:23:19 IST 2012	Message type: basicproposal
Fri Dec 07 08:23:19 IST 2012	Chips to send by proposer: { chips  'grey78':3 }
Fri Dec 07 08:23:19 IST 2012	Chips to send by responder: { chips  'CTGreen':2 }
Fri Dec 07 08:23:28 IST 2012	Received communication message 
Fri Dec 07 08:23:28 IST 2012	From player: 210
Fri Dec 07 08:23:28 IST 2012	To player: 337
Fri Dec 07 08:23:28 IST 2012	Message type: basicproposaldiscussion
Fri Dec 07 08:23:28 IST 2012	Player 210 accepted offer
Fri Dec 07 08:23:28 IST 2012	Prop accepted, set counter offers count to: 0
Fri Dec 07 08:23:28 IST 2012	Prop accepted, get counter offers returned: 0
Fri Dec 07 08:23:28 IST 2012	A Phase Ended: Communication Phase
Fri Dec 07 08:23:28 IST 2012	Protocol: A New Phase Began: Exchange Phase
Fri Dec 07 08:23:28 IST 2012	Protocol: Exchange phase, Round: 0
Fri Dec 07 08:23:28 IST 2012	In begin exch.phase, get counter offers returned: 0
Fri Dec 07 08:23:57 IST 2012	A Phase Ended: Exchange Phase
Fri Dec 07 08:23:57 IST 2012	Proposer 337 sent: { chips  'CTRed':0 'CTPurple':0 'CTGreen':0 'grey78':2 }
Fri Dec 07 08:23:57 IST 2012	Responder 210 sent: { chips  'CTRed':0 'CTPurple':0 'CTGreen':1 'grey78':0 }
Fri Dec 07 08:23:57 IST 2012	Protocol: A New Phase Began: Movement Phase
Fri Dec 07 08:23:57 IST 2012	Protocol: Movement phase, Round: 0
Fri Dec 07 08:24:17 IST 2012	A Phase Ended: Movement Phase
Fri Dec 07 08:24:17 IST 2012	Swaping roles:
Fri Dec 07 08:24:17 IST 2012	Proposer is: 210
Fri Dec 07 08:24:17 IST 2012	Responder is: 337
Fri Dec 07 08:24:17 IST 2012	Protocol: A New Phase Began: Feedback Phase
Fri Dec 07 08:24:17 IST 2012	Protocol: Feedback phase, Round: 0
Fri Dec 07 08:24:17 IST 2012	Number of consecutive no movements for player 337 is 1
Fri Dec 07 08:24:17 IST 2012	Number of consecutive no movements for player 210 is 1
Fri Dec 07 08:24:22 IST 2012	A Phase Ended: Feedback Phase
Fri Dec 07 08:24:22 IST 2012	Protocol: A New Phase Began: Communication Phase
Fri Dec 07 08:24:22 IST 2012	Protocol: Communication phase, Round: 1
Fri Dec 07 08:24:35 IST 2012	Received communication message 
Fri Dec 07 08:24:35 IST 2012	From player: 210
Fri Dec 07 08:24:35 IST 2012	To player: 337
Fri Dec 07 08:24:35 IST 2012	Message type: basicproposal
Fri Dec 07 08:24:35 IST 2012	Chips to send by proposer: { chips  'CTRed':0 'CTPurple':0 'CTGreen':1 'grey78':0 }
Fri Dec 07 08:24:35 IST 2012	Chips to send by responder: { chips  'CTRed':0 'CTPurple':0 'CTGreen':0 'grey78':1 }
Fri Dec 07 08:25:35 IST 2012	Received communication message 
Fri Dec 07 08:25:35 IST 2012	From player: 337
Fri Dec 07 08:25:35 IST 2012	To player: 210
Fri Dec 07 08:25:35 IST 2012	Message type: basicproposaldiscussion
Fri Dec 07 08:25:35 IST 2012	Player 337 accepted offer
Fri Dec 07 08:25:35 IST 2012	Prop accepted, set counter offers count to: 0
Fri Dec 07 08:25:35 IST 2012	Prop accepted, get counter offers returned: 0
Fri Dec 07 08:25:35 IST 2012	A Phase Ended: Communication Phase
Fri Dec 07 08:25:35 IST 2012	Protocol: A New Phase Began: Exchange Phase
Fri Dec 07 08:25:35 IST 2012	Protocol: Exchange phase, Round: 1
Fri Dec 07 08:25:35 IST 2012	In begin exch.phase, get counter offers returned: 0
Fri Dec 07 08:26:04 IST 2012	A Phase Ended: Exchange Phase
Fri Dec 07 08:26:04 IST 2012	Proposer 210 sent: { chips  'CTRed':0 'CTPurple':0 'CTGreen':1 'grey78':0 }
Fri Dec 07 08:26:04 IST 2012	Responder 337 sent: { chips  'CTRed':0 'CTPurple':0 'CTGreen':0 'grey78':1 }
Fri Dec 07 08:26:04 IST 2012	Protocol: A New Phase Began: Movement Phase
Fri Dec 07 08:26:04 IST 2012	Protocol: Movement phase, Round: 1
Fri Dec 07 08:26:04 IST 2012	Player 210 moved to (R:6,C:1)
Fri Dec 07 08:26:24 IST 2012	A Phase Ended: Movement Phase
Fri Dec 07 08:26:24 IST 2012	Swaping roles:
Fri Dec 07 08:26:24 IST 2012	Proposer is: 337
Fri Dec 07 08:26:24 IST 2012	Responder is: 210
Fri Dec 07 08:26:24 IST 2012	Protocol: A New Phase Began: Feedback Phase
Fri Dec 07 08:26:24 IST 2012	Protocol: Feedback phase, Round: 1
Fri Dec 07 08:26:24 IST 2012	Number of consecutive no movements for player 337 is 2
Fri Dec 07 08:26:24 IST 2012	Number of consecutive no movements for player 210 is 0
Fri Dec 07 08:26:24 IST 2012	All players have all needed chips to get to goal, end the game
Fri Dec 07 08:26:24 IST 2012	Player: 337 ,role: Proposer score is: 175
Fri Dec 07 08:26:24 IST 2012	Player: 210 ,role: Responder score is: 185
