filename,round,propID,respID,IsPropCustomer,chipsToSend,chipsToReceive,accept,propCurrentScore,respCurrentScore,actualSent,ActualRcvd,propResultingScore,respResultingScore,#ofCustomerMovesInRound,customerRowPositionAfterMovePhase,customerColPositionAfterMovePhase,Player100ChipsAfterMovePhase,Player100ScoreAfterMovePhase,Player200ChipsAfterMovePhase,Player200ScoreAfterMovePhase,Player300ChipsAfterMovePhase,Player300ScoreAfterMovePhase,generosityLevel,ClientReachedGoal
3playersLog_1378880416013.csv,1,530,500,false,{ chips  'CTRed':33 'CTPurple':7 },{ chips  'grey78':11 },TRUE,200,120,{ chips  'CTRed':33 'CTPurple':7 'CTYellow':0 },{ chips  'grey78':11 },55,265,1,(R:5,C:5),{ chips  'CTRed':33 'CTGreen':0 'CTPurple':7 'grey78':1 'CTYellow':11 },260,{ chips  'CTRed':0 'CTGreen':0 'CTPurple':0 'grey78':11 'CTYellow':0 },55,{ chips  'CTRed':33 'CTGreen':0 'CTPurple':7 'grey78':0 'CTYellow':0 },200
3playersLog_1378880416013.csv,2,500,530,true,{ chips  },{ chips  'grey78':5 },FALSE,255,55,,,,,2,(R:3,C:6),{ chips  'CTRed':33 'CTGreen':0 'CTPurple':7 'grey78':1 'CTYellow':8 },245,{ chips  'CTRed':0 'CTGreen':0 'CTPurple':0 'grey78':11 'CTYellow':0 },55,{ chips  'CTRed':33 'CTGreen':0 'CTPurple':7 'grey78':0 'CTYellow':0 },200
3playersLog_1378880416013.csv,3,530,500,false,{ chips  },{ chips  },IGNORED,55,245,,,,,1,(R:3,C:5),{ chips  'CTRed':45 'CTGreen':0 'CTPurple':6 'grey78':1 'CTYellow':8 },300,{ chips  'CTRed':0 'CTGreen':0 'CTPurple':0 'grey78':11 'CTYellow':0 },55,{ chips  'CTRed':21 'CTGreen':0 'CTPurple':7 'grey78':0 'CTYellow':0 },140
3playersLog_1378880416013.csv,3,540,500,false,{ chips  'CTRed':12 },{ chips  },TRUE,200,245,{ chips  'CTRed':12 'CTPurple':0 'CTGreen':0 'grey78':0 'CTYellow':0 },{ chips  'CTRed':0 'CTPurple':0 'CTGreen':0 'grey78':0 'CTYellow':0 },140,305,1,(R:3,C:5),{ chips  'CTRed':45 'CTGreen':0 'CTPurple':6 'grey78':1 'CTYellow':8 },300,{ chips  'CTRed':0 'CTGreen':0 'CTPurple':0 'grey78':11 'CTYellow':0 },55,{ chips  'CTRed':21 'CTGreen':0 'CTPurple':7 'grey78':0 'CTYellow':0 },140
3playersLog_1378880416013.csv,4,500,540,true,{ chips  },{ chips  'CTRed':8 },TRUE,300,55,{ chips  'CTRed':0 'CTPurple':0 'CTGreen':0 'grey78':0 'CTYellow':0 },{ chips  'CTRed':8 'CTPurple':0 'CTGreen':0 'grey78':0 'CTYellow':0 },340,100,1,(R:3,C:4),{ chips  'CTRed':53 'CTGreen':0 'CTPurple':5 'grey78':1 'CTYellow':8 },335,{ chips  'CTRed':0 'CTGreen':0 'CTPurple':0 'grey78':11 'CTYellow':0 },55,{ chips  'CTRed':13 'CTGreen':0 'CTPurple':7 'grey78':0 'CTYellow':0 },100
3playersLog_1378880416013.csv,5,530,500,false,{ chips  },{ chips  },TRUE,55,335,{ chips  'CTRed':0 'CTPurple':0 'CTYellow':0 },{ chips  'grey78':0 },55,335,7,(R:0,C:8),{ chips  'CTRed':53 'CTGreen':0 'CTPurple':4 'grey78':1 'CTYellow':2 },450,{ chips  'CTRed':0 'CTGreen':0 'CTPurple':0 'grey78':11 'CTYellow':0 },205,{ chips  'CTRed':13 'CTGreen':0 'CTPurple':7 'grey78':0 'CTYellow':0 },100
3playersLog_1378880416013.csv,5,540,500,false,{ chips  'CTRed':2 },{ chips  'CTYellow':4 },IGNORED,100,335,,,,,7,(R:0,C:8),{ chips  'CTRed':53 'CTGreen':0 'CTPurple':4 'grey78':1 'CTYellow':2 },450,{ chips  'CTRed':0 'CTGreen':0 'CTPurple':0 'grey78':11 'CTYellow':0 },205,{ chips  'CTRed':13 'CTGreen':0 'CTPurple':7 'grey78':0 'CTYellow':0 },100
3playersLog_1378880416013.csv,,,,,,,,,,,,,,,,,,,,,,,,true
filename,round,propID,respID,IsPropCustomer,chipsToSend,chipsToReceive,accept,propCurrentScore,respCurrentScore,actualSent,ActualRcvd,propResultingScore,respResultingScore,#ofCustomerMovesInRound,customerRowPositionAfterMovePhase,customerColPositionAfterMovePhase,Player100ChipsAfterMovePhase,Player100ScoreAfterMovePhase,Player200ChipsAfterMovePhase,Player200ScoreAfterMovePhase,Player300ChipsAfterMovePhase,Player300ScoreAfterMovePhase,generosityLevel,ClientReachedGoal
3playersLog_1378880422374.csv,1,530,500,false,{ chips  'CTRed':33 'CTPurple':7 },{ chips  'grey78':11 },TRUE,200,120,{ chips  'CTRed':33 'CTPurple':7 'CTYellow':0 },{ chips  'grey78':11 },55,265,0,(R:5,C:4),{ chips  'CTRed':33 'CTGreen':0 'CTPurple':7 'grey78':1 'CTYellow':12 },265,{ chips  'CTRed':0 'CTGreen':0 'CTPurple':0 'grey78':11 'CTYellow':0 },55,{ chips  'CTRed':33 'CTGreen':0 'CTPurple':7 'grey78':0 'CTYellow':0 },200
3playersLog_1378880422374.csv,2,500,530,true,{ chips  'grey78':1 },{ chips  },TRUE,265,55,{ chips  'CTRed':0 'CTPurple':0 'CTGreen':0 'grey78':1 'CTYellow':0 },{ chips  'CTRed':0 'CTPurple':0 'CTGreen':0 'grey78':0 'CTYellow':0 },260,60,9,(R:0,C:8),{ chips  'CTRed':33 'CTGreen':0 'CTPurple':5 'grey78':0 'CTYellow':5 },365,{ chips  'CTRed':0 'CTGreen':0 'CTPurple':0 'grey78':12 'CTYellow':0 },210,{ chips  'CTRed':33 'CTGreen':0 'CTPurple':7 'grey78':0 'CTYellow':0 },200
3playersLog_1378880422374.csv,,,,,,,,,,,,,,,,,,,,,,,,true
filename,round,propID,respID,IsPropCustomer,chipsToSend,chipsToReceive,accept,propCurrentScore,respCurrentScore,actualSent,ActualRcvd,propResultingScore,respResultingScore,#ofCustomerMovesInRound,customerRowPositionAfterMovePhase,customerColPositionAfterMovePhase,Player100ChipsAfterMovePhase,Player100ScoreAfterMovePhase,Player200ChipsAfterMovePhase,Player200ScoreAfterMovePhase,Player300ChipsAfterMovePhase,Player300ScoreAfterMovePhase,generosityLevel,ClientReachedGoal
3playersLog_1378880443387.csv,1,530,500,false,{ chips  'CTRed':33 'CTPurple':7 },{ chips  'grey78':11 },FALSE,200,120,,,,,0,(R:5,C:4),{ chips  'CTRed':0 'CTGreen':0 'CTPurple':0 'grey78':12 'CTYellow':12 },120,{ chips  'CTRed':33 'CTGreen':0 'CTPurple':7 'grey78':0 'CTYellow':0 },200,{ chips  'CTRed':33 'CTGreen':0 'CTPurple':7 'grey78':0 'CTYellow':0 },200
3playersLog_1378880443387.csv,1,540,500,false,{ chips  'CTRed':12 'CTPurple':2 },{ chips  'grey78':12 'CTYellow':4 },FALSE,200,120,,,,,0,(R:5,C:4),{ chips  'CTRed':0 'CTGreen':0 'CTPurple':0 'grey78':12 'CTYellow':12 },120,{ chips  'CTRed':33 'CTGreen':0 'CTPurple':7 'grey78':0 'CTYellow':0 },200,{ chips  'CTRed':33 'CTGreen':0 'CTPurple':7 'grey78':0 'CTYellow':0 },200
3playersLog_1378880443387.csv,2,500,530,true,{ chips  'CTYellow':4 },{ chips  'CTRed':3 'CTPurple':3 },FALSE,120,200,,,,,9,(R:0,C:0),{ chips  'CTRed':0 'CTGreen':0 'CTPurple':0 'grey78':3 'CTYellow':12 },225,{ chips  'CTRed':33 'CTGreen':0 'CTPurple':7 'grey78':0 'CTYellow':0 },200,{ chips  'CTRed':33 'CTGreen':0 'CTPurple':7 'grey78':0 'CTYellow':0 },350
3playersLog_1378880443387.csv,,,,,,,,,,,,,,,,,,,,,,,,true
