Thu Sep 12 11:49:29 IDT 2013	This is the CT debug logger; svn version 638; sep 27 09
Thu Sep 12 11:49:29 IDT 2013	Thu Sep 12 11:49:29 IDT 2013
Thu Sep 12 11:49:29 IDT 2013	ThreePlayersAgentPlayer(): entering.
Thu Sep 12 11:49:41 IDT 2013	phaseAdvanced(): entering.
Thu Sep 12 11:49:41 IDT 2013	phaseAdvanced(): new phase is 'Strategy Prep Phase'.
Thu Sep 12 11:50:41 IDT 2013	phaseAdvanced(): entering.
Thu Sep 12 11:50:41 IDT 2013	phaseAdvanced(): new phase is 'Communication Phase'.
Thu Sep 12 11:52:04 IDT 2013	phaseAdvanced(): entering.
Thu Sep 12 11:52:04 IDT 2013	phaseAdvanced(): new phase is 'Movement Phase'.
Thu Sep 12 11:52:48 IDT 2013	phaseAdvanced(): entering.
Thu Sep 12 11:52:48 IDT 2013	phaseAdvanced(): new phase is 'Feedback Phase'.
Thu Sep 12 11:52:53 IDT 2013	phaseAdvanced(): entering.
Thu Sep 12 11:52:53 IDT 2013	phaseAdvanced(): new phase is 'Communication Phase'.
Thu Sep 12 11:54:54 IDT 2013	phaseAdvanced(): entering.
Thu Sep 12 11:54:54 IDT 2013	phaseAdvanced(): new phase is 'Movement Phase'.
Thu Sep 12 11:55:38 IDT 2013	phaseAdvanced(): entering.
Thu Sep 12 11:55:38 IDT 2013	phaseAdvanced(): new phase is 'Feedback Phase'.
