filename,round,propID,respID,IsPropCustomer,chipsToSend,chipsToReceive,accept,propCurrentScore,respCurrentScore,actualSent,ActualRcvd,propResultingScore,respResultingScore,#ofCustomerMovesInRound,customerRowPositionAfterMovePhase,customerColPositionAfterMovePhase,Player100ChipsAfterMovePhase,Player100ScoreAfterMovePhase,Player200ChipsAfterMovePhase,Player200ScoreAfterMovePhase,Player300ChipsAfterMovePhase,Player300ScoreAfterMovePhase,generosityLevel,ClientReachedGoal
CT_DbgLog_Agent_1349195185364.csv,1,200,100,false,{ chips  'CTPurple':3 'CTYellow':1 },{ chips  'CTRed':4 },TRUE,245,0,{ chips  'CTRed':0 'CTPurple':3 'CTGreen':0 'grey78':0 'CTYellow':1 },{ chips  'CTRed':4 'CTPurple':0 'CTGreen':0 'grey78':0 'CTYellow':0 },245,0,1,(R:5,C:5),{ chips  'CTRed':14 'CTGreen':0 'CTPurple':3 'grey78':0 'CTYellow':0 },5,{ chips  'CTRed':37 'CTGreen':0 'CTPurple':4 'grey78':0 'CTYellow':8 },245,{ chips  'CTRed':33 'CTGreen':0 'CTPurple':7 'grey78':9 'CTYellow':0 },245
CT_DbgLog_Agent_1349195185364.csv,1,300,100,false,{ chips  'CTRed':4 'grey78':2 },{ chips  },IGNORED,245,0,,,,,1,(R:5,C:5),{ chips  'CTRed':14 'CTGreen':0 'CTPurple':3 'grey78':0 'CTYellow':0 },5,{ chips  'CTRed':37 'CTGreen':0 'CTPurple':4 'grey78':0 'CTYellow':8 },245,{ chips  'CTRed':33 'CTGreen':0 'CTPurple':7 'grey78':9 'CTYellow':0 },245
CT_DbgLog_Agent_1349195185364.csv,2,100,200,true,{ chips  'CTRed':5 },{ chips  'CTPurple':3 'CTYellow':3 },FALSE,5,245,,,,,0,(R:5,C:5),{ chips  'CTRed':14 'CTGreen':0 'CTPurple':3 'grey78':0 'CTYellow':0 },5,{ chips  'CTRed':37 'CTGreen':0 'CTPurple':4 'grey78':0 'CTYellow':8 },245,{ chips  'CTRed':33 'CTGreen':0 'CTPurple':7 'grey78':9 'CTYellow':0 },245
CT_DbgLog_Agent_1349195185364.csv,,,,,,,,,,,,,,,,,,,,,,,,false
