filename,round,propID,respID,IsPropCustomer,chipsToSend,chipsToReceive,accept,propCurrentScore,respCurrentScore,actualSent,ActualRcvd,propResultingScore,respResultingScore,#ofCustomerMovesInRound,customerRowPositionAfterMovePhase,customerColPositionAfterMovePhase,Player100ChipsAfterMovePhase,Player100ScoreAfterMovePhase,Player200ChipsAfterMovePhase,Player200ScoreAfterMovePhase,Player300ChipsAfterMovePhase,Player300ScoreAfterMovePhase,generosityLevel,ClientReachedGoal
3playersLog_1371110667008.csv,1,300,100,false,{ chips  'CTRed':8 },{ chips  'CTYellow':5 },TRUE,200,120,{ chips  'CTRed':8 'CTPurple':0 'CTGreen':0 'grey78':0 'CTYellow':0 },{ chips  'CTRed':0 'CTPurple':0 'CTGreen':0 'grey78':0 'CTYellow':5 },185,135,0,(R:5,C:4),{ chips  'CTRed':8 'CTGreen':0 'CTPurple':0 'grey78':12 'CTYellow':7 },135,{ chips  'CTRed':33 'CTGreen':0 'CTPurple':7 'grey78':0 'CTYellow':0 },200,{ chips  'CTRed':25 'CTGreen':0 'CTPurple':7 'grey78':0 'CTYellow':5 },185
3playersLog_1371110667008.csv,2,100,200,true,{ chips  'CTRed':1 },{ chips  'CTPurple':3 },FALSE,135,200,,,,,1,(R:5,C:3),{ chips  'CTRed':8 'CTGreen':0 'CTPurple':0 'grey78':11 'CTYellow':7 },130,{ chips  'CTRed':33 'CTGreen':0 'CTPurple':7 'grey78':0 'CTYellow':0 },200,{ chips  'CTRed':25 'CTGreen':0 'CTPurple':7 'grey78':0 'CTYellow':5 },185
3playersLog_1371110667008.csv,3,200,100,false,{ chips  'CTRed':1 'CTPurple':2 },{ chips  },TRUE,200,130,{ chips  'CTRed':1 'CTPurple':2 'CTGreen':0 'grey78':0 'CTYellow':0 },{ chips  'CTRed':0 'CTPurple':0 'CTGreen':0 'grey78':0 'CTYellow':0 },185,145,0,(R:5,C:3),{ chips  'CTRed':9 'CTGreen':0 'CTPurple':2 'grey78':11 'CTYellow':7 },145,{ chips  'CTRed':32 'CTGreen':0 'CTPurple':5 'grey78':0 'CTYellow':0 },185,{ chips  'CTRed':25 'CTGreen':0 'CTPurple':7 'grey78':0 'CTYellow':5 },185
3playersLog_1371110667008.csv,3,300,100,false,{ chips  'CTRed':5 },{ chips  'CTYellow':3 },FALSE,185,145,,,,,0,(R:5,C:3),{ chips  'CTRed':9 'CTGreen':0 'CTPurple':2 'grey78':11 'CTYellow':7 },145,{ chips  'CTRed':32 'CTGreen':0 'CTPurple':5 'grey78':0 'CTYellow':0 },185,{ chips  'CTRed':25 'CTGreen':0 'CTPurple':7 'grey78':0 'CTYellow':5 },185
3playersLog_1371110667008.csv,4,100,200,true,{ chips  },{ chips  'CTPurple':3 },TRUE,145,185,{ chips  'CTRed':0 'CTPurple':0 'CTGreen':0 'grey78':0 'CTYellow':0 },{ chips  'CTRed':0 'CTPurple':3 'CTGreen':0 'grey78':0 'CTYellow':0 },160,170,1,(R:4,C:3),{ chips  'CTRed':9 'CTGreen':0 'CTPurple':5 'grey78':10 'CTYellow':7 },155,{ chips  'CTRed':32 'CTGreen':0 'CTPurple':2 'grey78':0 'CTYellow':0 },170,{ chips  'CTRed':25 'CTGreen':0 'CTPurple':7 'grey78':0 'CTYellow':5 },185
3playersLog_1371110667008.csv,5,200,100,false,{ chips  'CTRed':3 },{ chips  },TRUE,170,155,{ chips  'CTRed':3 'CTPurple':0 'CTGreen':0 'grey78':0 'CTYellow':0 },{ chips  'CTRed':0 'CTPurple':0 'CTGreen':0 'grey78':0 'CTYellow':0 },155,170,0,(R:4,C:3),{ chips  'CTRed':12 'CTGreen':0 'CTPurple':5 'grey78':10 'CTYellow':7 },170,{ chips  'CTRed':29 'CTGreen':0 'CTPurple':2 'grey78':0 'CTYellow':0 },155,{ chips  'CTRed':25 'CTGreen':0 'CTPurple':7 'grey78':0 'CTYellow':5 },185
3playersLog_1371110667008.csv,5,300,100,false,{ chips  'CTRed':4 'CTPurple':2 },{ chips  'CTYellow':3 },IGNORED,185,170,,,,,0,(R:4,C:3),{ chips  'CTRed':12 'CTGreen':0 'CTPurple':5 'grey78':10 'CTYellow':7 },170,{ chips  'CTRed':29 'CTGreen':0 'CTPurple':2 'grey78':0 'CTYellow':0 },155,{ chips  'CTRed':25 'CTGreen':0 'CTPurple':7 'grey78':0 'CTYellow':5 },185
3playersLog_1371110667008.csv,6,100,300,true,{ chips  },{ chips  'CTRed':6 },FALSE,170,185,,,,,1,(R:3,C:3),{ chips  'CTRed':12 'CTGreen':0 'CTPurple':4 'grey78':10 'CTYellow':7 },165,{ chips  'CTRed':29 'CTGreen':0 'CTPurple':2 'grey78':0 'CTYellow':0 },155,{ chips  'CTRed':25 'CTGreen':0 'CTPurple':7 'grey78':0 'CTYellow':5 },185
3playersLog_1371110667008.csv,7,200,100,false,{ chips  },{ chips  },FALSE,155,165,,,,,1,(R:3,C:4),{ chips  'CTRed':12 'CTGreen':0 'CTPurple':3 'grey78':10 'CTYellow':7 },160,{ chips  'CTRed':29 'CTGreen':0 'CTPurple':2 'grey78':0 'CTYellow':0 },155,{ chips  'CTRed':25 'CTGreen':0 'CTPurple':7 'grey78':0 'CTYellow':5 },185
3playersLog_1371110667008.csv,7,300,100,false,{ chips  'CTRed':7 },{ chips  'CTPurple':3 },FALSE,185,165,,,,,1,(R:3,C:4),{ chips  'CTRed':12 'CTGreen':0 'CTPurple':3 'grey78':10 'CTYellow':7 },160,{ chips  'CTRed':29 'CTGreen':0 'CTPurple':2 'grey78':0 'CTYellow':0 },155,{ chips  'CTRed':25 'CTGreen':0 'CTPurple':7 'grey78':0 'CTYellow':5 },185
3playersLog_1371110667008.csv,8,100,300,true,{ chips  },{ chips  'CTRed':7 'CTPurple':2 },TRUE,160,185,{ chips  'CTRed':0 'CTPurple':0 'CTGreen':0 'grey78':0 'CTYellow':0 },{ chips  'CTRed':7 'CTPurple':2 'CTGreen':0 'grey78':0 'CTYellow':0 },205,140,1,(R:3,C:3),{ chips  'CTRed':19 'CTGreen':0 'CTPurple':4 'grey78':10 'CTYellow':7 },200,{ chips  'CTRed':29 'CTGreen':0 'CTPurple':2 'grey78':0 'CTYellow':0 },155,{ chips  'CTRed':18 'CTGreen':0 'CTPurple':5 'grey78':0 'CTYellow':5 },140
3playersLog_1371110667008.csv,9,200,100,false,{ chips  },{ chips  },FALSE,155,200,,,,,0,(R:3,C:3),{ chips  'CTRed':19 'CTGreen':0 'CTPurple':4 'grey78':10 'CTYellow':7 },200,{ chips  'CTRed':29 'CTGreen':0 'CTPurple':2 'grey78':0 'CTYellow':0 },155,{ chips  'CTRed':18 'CTGreen':0 'CTPurple':5 'grey78':0 'CTYellow':5 },140
3playersLog_1371110667008.csv,9,300,100,false,{ chips  'CTRed':6 'CTPurple':2 },{ chips  'CTYellow':4 },FALSE,140,200,,,,,0,(R:3,C:3),{ chips  'CTRed':19 'CTGreen':0 'CTPurple':4 'grey78':10 'CTYellow':7 },200,{ chips  'CTRed':29 'CTGreen':0 'CTPurple':2 'grey78':0 'CTYellow':0 },155,{ chips  'CTRed':18 'CTGreen':0 'CTPurple':5 'grey78':0 'CTYellow':5 },140
3playersLog_1371110667008.csv,10,100,200,true,{ chips  },{ chips  'CTRed':7 'CTPurple':2 },FALSE,200,155,,,,,1,(R:3,C:2),{ chips  'CTRed':19 'CTGreen':0 'CTPurple':4 'grey78':9 'CTYellow':7 },195,{ chips  'CTRed':29 'CTGreen':0 'CTPurple':2 'grey78':0 'CTYellow':0 },155,{ chips  'CTRed':18 'CTGreen':0 'CTPurple':5 'grey78':0 'CTYellow':5 },140
3playersLog_1371110667008.csv,11,200,100,false,{ chips  },{ chips  },FALSE,155,220,,,,,5,(R:0,C:0),{ chips  'CTRed':27 'CTGreen':0 'CTPurple':2 'grey78':4 'CTYellow':6 },345,{ chips  'CTRed':29 'CTGreen':0 'CTPurple':2 'grey78':0 'CTYellow':0 },155,{ chips  'CTRed':10 'CTGreen':0 'CTPurple':7 'grey78':0 'CTYellow':6 },265
3playersLog_1371110667008.csv,11,300,100,false,{ chips  'CTRed':8 },{ chips  'CTPurple':2 'CTYellow':1 },TRUE,140,195,{ chips  'CTRed':8 'CTPurple':0 'CTGreen':0 'grey78':0 'CTYellow':0 },{ chips  'CTRed':0 'CTPurple':2 'CTGreen':0 'grey78':0 'CTYellow':1 },115,220,5,(R:0,C:0),{ chips  'CTRed':27 'CTGreen':0 'CTPurple':2 'grey78':4 'CTYellow':6 },345,{ chips  'CTRed':29 'CTGreen':0 'CTPurple':2 'grey78':0 'CTYellow':0 },155,{ chips  'CTRed':10 'CTGreen':0 'CTPurple':7 'grey78':0 'CTYellow':6 },265
3playersLog_1371110667008.csv,,,,,,,,,,,,,,,,,,,,,,,,true
