filename,round,propID,respID,IsPropCustomer,chipsToSend,chipsToReceive,accept,propCurrentScore,respCurrentScore,actualSent,ActualRcvd,propResultingScore,respResultingScore,#ofCustomerMovesInRound,customerRowPositionAfterMovePhase,customerColPositionAfterMovePhase,Player100ChipsAfterMovePhase,Player100ScoreAfterMovePhase,Player200ChipsAfterMovePhase,Player200ScoreAfterMovePhase,Player300ChipsAfterMovePhase,Player300ScoreAfterMovePhase,generosityLevel,ClientReachedGoal
3playersLog_1378967598966.csv,1,520,510,false,{ chips  'CTPurple':2 },{ chips  },TRUE,200,120,{ chips  'CTRed':0 'CTPurple':2 'CTGreen':0 'grey78':0 'CTYellow':0 },{ chips  'CTRed':0 'CTPurple':0 'CTGreen':0 'grey78':0 'CTYellow':0 },190,130,0,(R:5,C:4),{ chips  'CTRed':0 'CTGreen':0 'CTPurple':2 'grey78':12 'CTYellow':12 },130,{ chips  'CTRed':33 'CTGreen':0 'CTPurple':5 'grey78':0 'CTYellow':0 },190,{ chips  'CTRed':33 'CTGreen':0 'CTPurple':7 'grey78':0 'CTYellow':0 },200
3playersLog_1378967598966.csv,1,540,510,false,{ chips  'CTPurple':2 },{ chips  },IGNORED,200,120,,,,,0,(R:5,C:4),{ chips  'CTRed':0 'CTGreen':0 'CTPurple':2 'grey78':12 'CTYellow':12 },130,{ chips  'CTRed':33 'CTGreen':0 'CTPurple':5 'grey78':0 'CTYellow':0 },190,{ chips  'CTRed':33 'CTGreen':0 'CTPurple':7 'grey78':0 'CTYellow':0 },200
3playersLog_1378967598966.csv,2,510,520,true,{ chips  'grey78':11 },{ chips  'CTRed':33 'CTPurple':5 },FALSE,130,190,,,,,1,(R:5,C:3),{ chips  'CTRed':0 'CTGreen':0 'CTPurple':2 'grey78':11 'CTYellow':12 },125,{ chips  'CTRed':33 'CTGreen':0 'CTPurple':5 'grey78':0 'CTYellow':0 },190,{ chips  'CTRed':33 'CTGreen':0 'CTPurple':7 'grey78':0 'CTYellow':0 },200
3playersLog_1378967598966.csv,3,520,510,false,{ chips  'CTRed':2 'CTPurple':1 },{ chips  },IGNORED,190,125,,,,,0,(R:5,C:3),{ chips  'CTRed':0 'CTGreen':0 'CTPurple':6 'grey78':11 'CTYellow':12 },145,{ chips  'CTRed':33 'CTGreen':0 'CTPurple':5 'grey78':0 'CTYellow':0 },190,{ chips  'CTRed':33 'CTGreen':0 'CTPurple':3 'grey78':0 'CTYellow':0 },180
3playersLog_1378967598966.csv,3,540,510,false,{ chips  'CTPurple':4 },{ chips  },TRUE,200,125,{ chips  'CTRed':0 'CTPurple':4 'CTGreen':0 'grey78':0 'CTYellow':0 },{ chips  'CTRed':0 'CTPurple':0 'CTGreen':0 'grey78':0 'CTYellow':0 },180,145,0,(R:5,C:3),{ chips  'CTRed':0 'CTGreen':0 'CTPurple':6 'grey78':11 'CTYellow':12 },145,{ chips  'CTRed':33 'CTGreen':0 'CTPurple':5 'grey78':0 'CTYellow':0 },190,{ chips  'CTRed':33 'CTGreen':0 'CTPurple':3 'grey78':0 'CTYellow':0 },180
3playersLog_1378967598966.csv,4,510,540,true,{ chips  'CTYellow':11 },{ chips  'CTRed':33 'CTPurple':3 },TRUE,145,190,{ chips  'CTYellow':11 },{ chips  'CTRed':33 'CTPurple':3 'grey78':0 },270,55,8,(R:0,C:0),{ chips  'CTRed':33 'CTGreen':0 'CTPurple':7 'grey78':5 'CTYellow':1 },380,{ chips  'CTRed':33 'CTGreen':0 'CTPurple':5 'grey78':0 'CTYellow':0 },190,{ chips  'CTRed':0 'CTGreen':0 'CTPurple':0 'grey78':0 'CTYellow':11 },205
3playersLog_1378967598966.csv,,,,,,,,,,,,,,,,,,,,,,,,true
