Tue Nov 27 02:12:42 IST 2012	This is the CT debug logger; svn version 638; sep 27 09
Tue Nov 27 02:12:42 IST 2012	Tue Nov 27 02:12:42 IST 2012
Tue Nov 27 02:12:42 IST 2012	A new Alternative Offers game has began
Tue Nov 27 02:12:42 IST 2012	ID Number: 32712
Tue Nov 27 02:12:42 IST 2012	Creating board
Tue Nov 27 02:12:42 IST 2012	<colors>
Tue Nov 27 02:12:42 IST 2012	{ GamePalette  'CTRed':0 'CTPurple':1 'CTGreen':2 'grey78':3 'CTYellow':4 }
Tue Nov 27 02:12:42 IST 2012	<rows>
Tue Nov 27 02:12:42 IST 2012	7
Tue Nov 27 02:12:42 IST 2012	<columns>
Tue Nov 27 02:12:42 IST 2012	5
Tue Nov 27 02:12:42 IST 2012	<squaresColors>
Tue Nov 27 02:12:42 IST 2012	CTPurple CTRed CTRed CTGreen CTPurple 
Tue Nov 27 02:12:42 IST 2012	CTPurple grey78 CTPurple CTYellow CTPurple 
Tue Nov 27 02:12:42 IST 2012	CTPurple CTRed CTPurple CTGreen CTPurple 
Tue Nov 27 02:12:42 IST 2012	CTPurple grey78 CTPurple CTYellow CTPurple 
Tue Nov 27 02:12:42 IST 2012	CTPurple CTRed CTPurple CTGreen CTPurple 
Tue Nov 27 02:12:42 IST 2012	CTPurple grey78 CTPurple CTYellow CTPurple 
Tue Nov 27 02:12:42 IST 2012	CTPurple CTRed CTPurple CTGreen CTPurple 
Tue Nov 27 02:12:42 IST 2012	</squareColors>
Tue Nov 27 02:12:42 IST 2012	<goalPosition>
Tue Nov 27 02:12:42 IST 2012	Goal position: (R:0,C:2)
Tue Nov 27 02:12:42 IST 2012	<numberOfPlayers>
Tue Nov 27 02:12:42 IST 2012	2
Tue Nov 27 02:12:42 IST 2012	<firstPlayerChips>
Tue Nov 27 02:12:42 IST 2012	Setting chips for player: 337 id:0
Tue Nov 27 02:12:42 IST 2012	{ chips  'CTRed':5 'CTGreen':10 'CTPurple':0 'grey78':0 'CTYellow':9 }
Tue Nov 27 02:12:42 IST 2012	Player position: (R:6,C:0)
Tue Nov 27 02:12:42 IST 2012	Setting chips for player: 310 id:1
Tue Nov 27 02:12:42 IST 2012	{ chips  'CTRed':1 'CTGreen':13 'CTPurple':0 'grey78':10 'CTYellow':0 }
Tue Nov 27 02:12:42 IST 2012	Player position: (R:6,C:4)
Tue Nov 27 02:12:42 IST 2012	Protocol: A New Phase Began: Strategy Prep Phase
Tue Nov 27 02:12:42 IST 2012	Protocol: Strategy Preparation phase, Round: 0
Tue Nov 27 02:12:42 IST 2012	Maximum number of rounds with no consecutive movement is 3
Tue Nov 27 02:12:42 IST 2012	In begin comm. phase, set counter offers count to: 0
Tue Nov 27 02:12:42 IST 2012	In begin comm. phase, get counter offers returned: 0
Tue Nov 27 02:13:03 IST 2012	A Phase Ended: Strategy Prep Phase
Tue Nov 27 02:13:03 IST 2012	Protocol: A New Phase Began: Communication Phase
Tue Nov 27 02:13:03 IST 2012	Protocol: Communication phase, Round: 0
Tue Nov 27 02:14:03 IST 2012	Received communication message 
Tue Nov 27 02:14:03 IST 2012	From player: 337
Tue Nov 27 02:14:03 IST 2012	To player: 310
Tue Nov 27 02:14:03 IST 2012	Message type: basicproposal
Tue Nov 27 02:14:03 IST 2012	Chips to send by proposer: { chips  'CTGreen':1 }
Tue Nov 27 02:14:03 IST 2012	Chips to send by responder: { chips  'grey78':1 }
Tue Nov 27 02:14:17 IST 2012	Received communication message 
Tue Nov 27 02:14:17 IST 2012	From player: 310
Tue Nov 27 02:14:17 IST 2012	To player: 337
Tue Nov 27 02:14:17 IST 2012	Message type: basicproposaldiscussion
Tue Nov 27 02:14:17 IST 2012	Player 310 accepted offer
Tue Nov 27 02:14:17 IST 2012	Prop accepted, set counter offers count to: 0
Tue Nov 27 02:14:17 IST 2012	Prop accepted, get counter offers returned: 0
Tue Nov 27 02:14:17 IST 2012	A Phase Ended: Communication Phase
Tue Nov 27 02:14:17 IST 2012	Protocol: A New Phase Began: Exchange Phase
Tue Nov 27 02:14:17 IST 2012	Protocol: Exchange phase, Round: 0
Tue Nov 27 02:14:17 IST 2012	In begin exch.phase, get counter offers returned: 0
Tue Nov 27 02:14:46 IST 2012	A Phase Ended: Exchange Phase
Tue Nov 27 02:14:46 IST 2012	Proposer 337 sent: { chips  'CTRed':0 'CTPurple':0 'CTGreen':1 'grey78':0 'CTYellow':0 }
Tue Nov 27 02:14:46 IST 2012	Responder 310 sent: { chips  'CTRed':0 'CTPurple':0 'CTGreen':0 'grey78':1 'CTYellow':0 }
Tue Nov 27 02:14:46 IST 2012	Protocol: A New Phase Began: Movement Phase
Tue Nov 27 02:14:46 IST 2012	Protocol: Movement phase, Round: 0
Tue Nov 27 02:15:06 IST 2012	A Phase Ended: Movement Phase
Tue Nov 27 02:15:06 IST 2012	Swaping roles:
Tue Nov 27 02:15:06 IST 2012	Proposer is: 310
Tue Nov 27 02:15:06 IST 2012	Responder is: 337
Tue Nov 27 02:15:06 IST 2012	Protocol: A New Phase Began: Feedback Phase
Tue Nov 27 02:15:06 IST 2012	Protocol: Feedback phase, Round: 0
Tue Nov 27 02:15:06 IST 2012	Number of consecutive no movements for player 337 is 1
Tue Nov 27 02:15:06 IST 2012	Number of consecutive no movements for player 310 is 1
Tue Nov 27 02:15:11 IST 2012	A Phase Ended: Feedback Phase
Tue Nov 27 02:15:11 IST 2012	Protocol: A New Phase Began: Communication Phase
Tue Nov 27 02:15:11 IST 2012	Protocol: Communication phase, Round: 1
Tue Nov 27 02:15:57 IST 2012	Received communication message 
Tue Nov 27 02:15:57 IST 2012	From player: 310
Tue Nov 27 02:15:57 IST 2012	To player: 337
Tue Nov 27 02:15:57 IST 2012	Message type: basicproposal
Tue Nov 27 02:15:57 IST 2012	Chips to send by proposer: { chips  'CTRed':0 'CTPurple':0 'CTGreen':0 'grey78':1 'CTYellow':0 }
Tue Nov 27 02:15:57 IST 2012	Chips to send by responder: { chips  'CTRed':0 'CTPurple':0 'CTGreen':2 'grey78':0 'CTYellow':1 }
Tue Nov 27 02:16:36 IST 2012	Received communication message 
Tue Nov 27 02:16:36 IST 2012	From player: 337
Tue Nov 27 02:16:36 IST 2012	To player: 310
Tue Nov 27 02:16:36 IST 2012	Message type: basicproposaldiscussion
Tue Nov 27 02:16:36 IST 2012	Player 337 rejected offer
Tue Nov 27 02:16:36 IST 2012	Swaping roles:
Tue Nov 27 02:16:36 IST 2012	Proposer is: 337
Tue Nov 27 02:16:36 IST 2012	Responder is: 310
Tue Nov 27 02:16:36 IST 2012	Prop rejected, set counter offers count to: 1
Tue Nov 27 02:16:36 IST 2012	Prop rejected, get counter offers returned: 1
Tue Nov 27 02:16:40 IST 2012	Slept 4 seconds
Tue Nov 27 02:16:40 IST 2012	Sent role changed msgs
Tue Nov 27 02:17:40 IST 2012	Received communication message 
Tue Nov 27 02:17:40 IST 2012	From player: 337
Tue Nov 27 02:17:40 IST 2012	To player: 310
Tue Nov 27 02:17:40 IST 2012	Message type: basicproposal
Tue Nov 27 02:17:40 IST 2012	Chips to send by proposer: { chips  'CTRed':0 'CTPurple':0 'CTGreen':1 'grey78':0 'CTYellow':0 }
Tue Nov 27 02:17:40 IST 2012	Chips to send by responder: { chips  'CTRed':0 'CTPurple':0 'CTGreen':0 'grey78':1 'CTYellow':0 }
Tue Nov 27 02:17:53 IST 2012	Received communication message 
Tue Nov 27 02:17:53 IST 2012	From player: 310
Tue Nov 27 02:17:53 IST 2012	To player: 337
Tue Nov 27 02:17:53 IST 2012	Message type: basicproposaldiscussion
Tue Nov 27 02:17:53 IST 2012	Player 310 rejected offer
Tue Nov 27 02:17:53 IST 2012	Set counter offers count to: 0
Tue Nov 27 02:17:53 IST 2012	A Phase Ended: Communication Phase
Tue Nov 27 02:17:53 IST 2012	Protocol: A New Phase Began: Exchange Phase
Tue Nov 27 02:17:53 IST 2012	Protocol: Exchange phase, Round: 1
Tue Nov 27 02:17:53 IST 2012	In begin exch.phase, get counter offers returned: 0
Tue Nov 27 02:18:33 IST 2012	A Phase Ended: Exchange Phase
Tue Nov 27 02:18:33 IST 2012	Proposer 337 sent: { chips  }
Tue Nov 27 02:18:33 IST 2012	Protocol: A New Phase Began: Movement Phase
Tue Nov 27 02:18:33 IST 2012	Protocol: Movement phase, Round: 1
Tue Nov 27 02:18:54 IST 2012	A Phase Ended: Movement Phase
Tue Nov 27 02:18:54 IST 2012	Protocol: A New Phase Began: Feedback Phase
Tue Nov 27 02:18:54 IST 2012	Protocol: Feedback phase, Round: 1
Tue Nov 27 02:18:54 IST 2012	Number of consecutive no movements for player 337 is 2
Tue Nov 27 02:18:54 IST 2012	Number of consecutive no movements for player 310 is 2
Tue Nov 27 02:18:59 IST 2012	A Phase Ended: Feedback Phase
Tue Nov 27 02:18:59 IST 2012	Protocol: A New Phase Began: Communication Phase
Tue Nov 27 02:18:59 IST 2012	Protocol: Communication phase, Round: 2
Tue Nov 27 02:19:59 IST 2012	Received communication message 
Tue Nov 27 02:19:59 IST 2012	From player: 337
Tue Nov 27 02:19:59 IST 2012	To player: 310
Tue Nov 27 02:19:59 IST 2012	Message type: basicproposal
Tue Nov 27 02:19:59 IST 2012	Chips to send by proposer: { chips  'CTYellow':1 }
Tue Nov 27 02:19:59 IST 2012	Chips to send by responder: { chips  'CTGreen':1 'grey78':1 }
Tue Nov 27 02:20:13 IST 2012	Received communication message 
Tue Nov 27 02:20:13 IST 2012	From player: 310
Tue Nov 27 02:20:13 IST 2012	To player: 337
Tue Nov 27 02:20:13 IST 2012	Message type: basicproposaldiscussion
Tue Nov 27 02:20:13 IST 2012	Player 310 rejected offer
Tue Nov 27 02:20:13 IST 2012	Swaping roles:
Tue Nov 27 02:20:13 IST 2012	Proposer is: 310
Tue Nov 27 02:20:13 IST 2012	Responder is: 337
Tue Nov 27 02:20:13 IST 2012	Prop rejected, set counter offers count to: 1
Tue Nov 27 02:20:13 IST 2012	Prop rejected, get counter offers returned: 1
Tue Nov 27 02:20:17 IST 2012	Slept 4 seconds
Tue Nov 27 02:20:17 IST 2012	Sent role changed msgs
Tue Nov 27 02:21:00 IST 2012	Received communication message 
Tue Nov 27 02:21:00 IST 2012	From player: 310
Tue Nov 27 02:21:00 IST 2012	To player: 337
Tue Nov 27 02:21:00 IST 2012	Message type: basicproposal
Tue Nov 27 02:21:00 IST 2012	Chips to send by proposer: { chips  'CTRed':0 'CTPurple':0 'CTGreen':0 'grey78':1 'CTYellow':0 }
Tue Nov 27 02:21:00 IST 2012	Chips to send by responder: { chips  'CTRed':0 'CTPurple':0 'CTGreen':2 'grey78':0 'CTYellow':1 }
Tue Nov 27 02:21:35 IST 2012	Received communication message 
Tue Nov 27 02:21:35 IST 2012	From player: 337
Tue Nov 27 02:21:35 IST 2012	To player: 310
Tue Nov 27 02:21:35 IST 2012	Message type: basicproposaldiscussion
Tue Nov 27 02:21:35 IST 2012	Player 337 accepted offer
Tue Nov 27 02:21:35 IST 2012	Prop accepted, set counter offers count to: 0
Tue Nov 27 02:21:35 IST 2012	Prop accepted, get counter offers returned: 0
Tue Nov 27 02:21:35 IST 2012	A Phase Ended: Communication Phase
Tue Nov 27 02:21:35 IST 2012	Protocol: A New Phase Began: Exchange Phase
Tue Nov 27 02:21:35 IST 2012	Protocol: Exchange phase, Round: 2
Tue Nov 27 02:21:35 IST 2012	In begin exch.phase, get counter offers returned: 0
Tue Nov 27 02:22:04 IST 2012	A Phase Ended: Exchange Phase
Tue Nov 27 02:22:04 IST 2012	Proposer 310 sent: { chips  'CTRed':0 'CTPurple':0 'CTGreen':0 'grey78':1 'CTYellow':0 }
Tue Nov 27 02:22:04 IST 2012	Responder 337 sent: { chips  'CTRed':0 'CTPurple':0 'CTGreen':0 'grey78':0 'CTYellow':1 }
Tue Nov 27 02:22:04 IST 2012	Protocol: A New Phase Began: Movement Phase
Tue Nov 27 02:22:04 IST 2012	Protocol: Movement phase, Round: 2
Tue Nov 27 02:22:04 IST 2012	Player 337 moved to (R:6,C:1)
Tue Nov 27 02:22:04 IST 2012	Player 310 moved to (R:6,C:3)
Tue Nov 27 02:22:23 IST 2012	A Phase Ended: Movement Phase
Tue Nov 27 02:22:23 IST 2012	Protocol: A New Phase Began: Feedback Phase
Tue Nov 27 02:22:23 IST 2012	Protocol: Feedback phase, Round: 2
Tue Nov 27 02:22:23 IST 2012	Number of consecutive no movements for player 337 is 0
Tue Nov 27 02:22:23 IST 2012	Number of consecutive no movements for player 310 is 0
Tue Nov 27 02:22:29 IST 2012	A Phase Ended: Feedback Phase
Tue Nov 27 02:22:29 IST 2012	Protocol: A New Phase Began: Communication Phase
Tue Nov 27 02:22:29 IST 2012	Protocol: Communication phase, Round: 3
Tue Nov 27 02:22:49 IST 2012	Received communication message 
Tue Nov 27 02:22:49 IST 2012	From player: 310
Tue Nov 27 02:22:49 IST 2012	To player: 337
Tue Nov 27 02:22:49 IST 2012	Message type: basicproposal
Tue Nov 27 02:22:49 IST 2012	Chips to send by proposer: { chips  'CTRed':0 'CTPurple':0 'CTGreen':1 'grey78':1 'CTYellow':0 }
Tue Nov 27 02:22:49 IST 2012	Chips to send by responder: { chips  'CTRed':0 'CTPurple':0 'CTGreen':0 'grey78':0 'CTYellow':2 }
Tue Nov 27 02:23:22 IST 2012	Received communication message 
Tue Nov 27 02:23:22 IST 2012	From player: 337
Tue Nov 27 02:23:22 IST 2012	To player: 310
Tue Nov 27 02:23:22 IST 2012	Message type: basicproposaldiscussion
Tue Nov 27 02:23:22 IST 2012	Player 337 accepted offer
Tue Nov 27 02:23:22 IST 2012	Prop accepted, set counter offers count to: 0
Tue Nov 27 02:23:22 IST 2012	Prop accepted, get counter offers returned: 0
Tue Nov 27 02:23:22 IST 2012	A Phase Ended: Communication Phase
Tue Nov 27 02:23:22 IST 2012	Protocol: A New Phase Began: Exchange Phase
Tue Nov 27 02:23:22 IST 2012	Protocol: Exchange phase, Round: 3
Tue Nov 27 02:23:22 IST 2012	In begin exch.phase, get counter offers returned: 0
Tue Nov 27 02:23:50 IST 2012	A Phase Ended: Exchange Phase
Tue Nov 27 02:23:50 IST 2012	Proposer 310 sent: { chips  }
Tue Nov 27 02:23:50 IST 2012	Responder 337 sent: { chips  'CTRed':0 'CTPurple':0 'CTGreen':0 'grey78':0 'CTYellow':0 }
Tue Nov 27 02:23:50 IST 2012	Protocol: A New Phase Began: Movement Phase
Tue Nov 27 02:23:50 IST 2012	Protocol: Movement phase, Round: 3
Tue Nov 27 02:24:10 IST 2012	A Phase Ended: Movement Phase
Tue Nov 27 02:24:10 IST 2012	Swaping roles:
Tue Nov 27 02:24:10 IST 2012	Proposer is: 337
Tue Nov 27 02:24:10 IST 2012	Responder is: 310
Tue Nov 27 02:24:10 IST 2012	Protocol: A New Phase Began: Feedback Phase
Tue Nov 27 02:24:10 IST 2012	Protocol: Feedback phase, Round: 3
Tue Nov 27 02:24:10 IST 2012	Number of consecutive no movements for player 337 is 1
Tue Nov 27 02:24:10 IST 2012	Number of consecutive no movements for player 310 is 1
Tue Nov 27 02:24:15 IST 2012	A Phase Ended: Feedback Phase
Tue Nov 27 02:24:15 IST 2012	Protocol: A New Phase Began: Communication Phase
Tue Nov 27 02:24:15 IST 2012	Protocol: Communication phase, Round: 4
Tue Nov 27 02:25:15 IST 2012	Received communication message 
Tue Nov 27 02:25:15 IST 2012	From player: 337
Tue Nov 27 02:25:15 IST 2012	To player: 310
Tue Nov 27 02:25:15 IST 2012	Message type: basicproposal
Tue Nov 27 02:25:15 IST 2012	Chips to send by proposer: { chips  'CTYellow':2 }
Tue Nov 27 02:25:15 IST 2012	Chips to send by responder: { chips  'grey78':1 }
Tue Nov 27 02:25:24 IST 2012	Received communication message 
Tue Nov 27 02:25:24 IST 2012	From player: 310
Tue Nov 27 02:25:24 IST 2012	To player: 337
Tue Nov 27 02:25:24 IST 2012	Message type: basicproposaldiscussion
Tue Nov 27 02:25:24 IST 2012	Player 310 accepted offer
Tue Nov 27 02:25:24 IST 2012	Prop accepted, set counter offers count to: 0
Tue Nov 27 02:25:24 IST 2012	Prop accepted, get counter offers returned: 0
Tue Nov 27 02:25:24 IST 2012	A Phase Ended: Communication Phase
Tue Nov 27 02:25:24 IST 2012	Protocol: A New Phase Began: Exchange Phase
Tue Nov 27 02:25:24 IST 2012	Protocol: Exchange phase, Round: 4
Tue Nov 27 02:25:24 IST 2012	In begin exch.phase, get counter offers returned: 0
Tue Nov 27 02:25:53 IST 2012	A Phase Ended: Exchange Phase
Tue Nov 27 02:25:53 IST 2012	Proposer 337 sent: { chips  'CTRed':0 'CTPurple':0 'CTGreen':0 'grey78':0 'CTYellow':1 }
Tue Nov 27 02:25:53 IST 2012	Responder 310 sent: { chips  }
Tue Nov 27 02:25:53 IST 2012	Protocol: A New Phase Began: Movement Phase
Tue Nov 27 02:25:53 IST 2012	Protocol: Movement phase, Round: 4
Tue Nov 27 02:26:13 IST 2012	A Phase Ended: Movement Phase
Tue Nov 27 02:26:13 IST 2012	Swaping roles:
Tue Nov 27 02:26:13 IST 2012	Proposer is: 310
Tue Nov 27 02:26:13 IST 2012	Responder is: 337
Tue Nov 27 02:26:13 IST 2012	Protocol: A New Phase Began: Feedback Phase
Tue Nov 27 02:26:13 IST 2012	Protocol: Feedback phase, Round: 4
Tue Nov 27 02:26:13 IST 2012	Number of consecutive no movements for player 337 is 2
Tue Nov 27 02:26:13 IST 2012	Number of consecutive no movements for player 310 is 2
Tue Nov 27 02:26:18 IST 2012	A Phase Ended: Feedback Phase
Tue Nov 27 02:26:18 IST 2012	Protocol: A New Phase Began: Communication Phase
Tue Nov 27 02:26:18 IST 2012	Protocol: Communication phase, Round: 5
Tue Nov 27 02:26:32 IST 2012	Received communication message 
Tue Nov 27 02:26:32 IST 2012	From player: 310
Tue Nov 27 02:26:32 IST 2012	To player: 337
Tue Nov 27 02:26:32 IST 2012	Message type: basicproposal
Tue Nov 27 02:26:32 IST 2012	Chips to send by proposer: { chips  'CTRed':0 'CTPurple':0 'CTGreen':0 'grey78':1 'CTYellow':0 }
Tue Nov 27 02:26:32 IST 2012	Chips to send by responder: { chips  'CTRed':0 'CTPurple':0 'CTGreen':3 'grey78':0 'CTYellow':1 }
Tue Nov 27 02:27:30 IST 2012	Received communication message 
Tue Nov 27 02:27:30 IST 2012	From player: 337
Tue Nov 27 02:27:30 IST 2012	To player: 310
Tue Nov 27 02:27:30 IST 2012	Message type: basicproposaldiscussion
Tue Nov 27 02:27:30 IST 2012	Player 337 rejected offer
Tue Nov 27 02:27:30 IST 2012	Swaping roles:
Tue Nov 27 02:27:30 IST 2012	Proposer is: 337
Tue Nov 27 02:27:30 IST 2012	Responder is: 310
Tue Nov 27 02:27:30 IST 2012	Prop rejected, set counter offers count to: 1
Tue Nov 27 02:27:30 IST 2012	Prop rejected, get counter offers returned: 1
Tue Nov 27 02:27:34 IST 2012	Slept 4 seconds
Tue Nov 27 02:27:34 IST 2012	Sent role changed msgs
Tue Nov 27 02:28:34 IST 2012	Received communication message 
Tue Nov 27 02:28:34 IST 2012	From player: 337
Tue Nov 27 02:28:34 IST 2012	To player: 310
Tue Nov 27 02:28:34 IST 2012	Message type: basicproposal
Tue Nov 27 02:28:34 IST 2012	Chips to send by proposer: { chips  'CTRed':0 'CTPurple':0 'CTGreen':0 'grey78':0 'CTYellow':3 }
Tue Nov 27 02:28:34 IST 2012	Chips to send by responder: { chips  'CTRed':0 'CTPurple':0 'CTGreen':0 'grey78':1 'CTYellow':0 }
Tue Nov 27 02:28:46 IST 2012	Received communication message 
Tue Nov 27 02:28:46 IST 2012	From player: 310
Tue Nov 27 02:28:46 IST 2012	To player: 337
Tue Nov 27 02:28:46 IST 2012	Message type: basicproposaldiscussion
Tue Nov 27 02:28:46 IST 2012	Player 310 accepted offer
Tue Nov 27 02:28:46 IST 2012	Prop accepted, set counter offers count to: 0
Tue Nov 27 02:28:46 IST 2012	Prop accepted, get counter offers returned: 0
Tue Nov 27 02:28:46 IST 2012	A Phase Ended: Communication Phase
Tue Nov 27 02:28:46 IST 2012	Protocol: A New Phase Began: Exchange Phase
Tue Nov 27 02:28:46 IST 2012	Protocol: Exchange phase, Round: 5
Tue Nov 27 02:28:46 IST 2012	In begin exch.phase, get counter offers returned: 0
Tue Nov 27 02:29:15 IST 2012	A Phase Ended: Exchange Phase
Tue Nov 27 02:29:15 IST 2012	Proposer 337 sent: { chips  'CTRed':0 'CTPurple':0 'CTGreen':0 'grey78':0 'CTYellow':1 }
Tue Nov 27 02:29:15 IST 2012	Responder 310 sent: { chips  'CTRed':0 'CTPurple':0 'CTGreen':0 'grey78':1 'CTYellow':0 }
Tue Nov 27 02:29:15 IST 2012	Protocol: A New Phase Began: Movement Phase
Tue Nov 27 02:29:15 IST 2012	Protocol: Movement phase, Round: 5
Tue Nov 27 02:29:15 IST 2012	Player 310 moved to (R:5,C:3)
Tue Nov 27 02:29:15 IST 2012	Player 337 moved to (R:5,C:1)
Tue Nov 27 02:29:35 IST 2012	A Phase Ended: Movement Phase
Tue Nov 27 02:29:35 IST 2012	Protocol: A New Phase Began: Feedback Phase
Tue Nov 27 02:29:35 IST 2012	Protocol: Feedback phase, Round: 5
Tue Nov 27 02:29:35 IST 2012	Number of consecutive no movements for player 337 is 0
Tue Nov 27 02:29:35 IST 2012	Number of consecutive no movements for player 310 is 0
Tue Nov 27 02:29:35 IST 2012	All players have all needed chips to get to goal, end the game
Tue Nov 27 02:29:35 IST 2012	Player: 337 ,role: Proposer score is: 175
Tue Nov 27 02:29:35 IST 2012	Player: 310 ,role: Responder score is: 185
