Sun Nov 25 05:48:21 IST 2012	This is the CT debug logger; svn version 638; sep 27 09
Sun Nov 25 05:48:21 IST 2012	Sun Nov 25 05:48:21 IST 2012
Sun Nov 25 05:48:21 IST 2012	A new Alternative Offers game has began
Sun Nov 25 05:48:21 IST 2012	ID Number: 31655
Sun Nov 25 05:48:21 IST 2012	Creating board
Sun Nov 25 05:48:21 IST 2012	<colors>
Sun Nov 25 05:48:21 IST 2012	{ GamePalette  'CTRed':0 'CTPurple':1 'CTGreen':2 'grey78':3 'CTYellow':4 }
Sun Nov 25 05:48:21 IST 2012	<rows>
Sun Nov 25 05:48:21 IST 2012	7
Sun Nov 25 05:48:21 IST 2012	<columns>
Sun Nov 25 05:48:21 IST 2012	5
Sun Nov 25 05:48:21 IST 2012	<squaresColors>
Sun Nov 25 05:48:21 IST 2012	CTPurple CTRed CTRed CTGreen CTPurple 
Sun Nov 25 05:48:21 IST 2012	CTPurple grey78 CTPurple CTYellow CTPurple 
Sun Nov 25 05:48:21 IST 2012	CTPurple CTRed CTPurple CTGreen CTPurple 
Sun Nov 25 05:48:21 IST 2012	CTPurple grey78 CTPurple CTYellow CTPurple 
Sun Nov 25 05:48:21 IST 2012	CTPurple CTRed CTPurple CTGreen CTPurple 
Sun Nov 25 05:48:21 IST 2012	CTPurple grey78 CTPurple CTYellow CTPurple 
Sun Nov 25 05:48:21 IST 2012	CTPurple CTRed CTPurple CTGreen CTPurple 
Sun Nov 25 05:48:21 IST 2012	</squareColors>
Sun Nov 25 05:48:21 IST 2012	<goalPosition>
Sun Nov 25 05:48:21 IST 2012	Goal position: (R:0,C:2)
Sun Nov 25 05:48:21 IST 2012	<numberOfPlayers>
Sun Nov 25 05:48:21 IST 2012	2
Sun Nov 25 05:48:21 IST 2012	<firstPlayerChips>
Sun Nov 25 05:48:21 IST 2012	Setting chips for player: 337 id:0
Sun Nov 25 05:48:21 IST 2012	{ chips  'CTRed':5 'CTGreen':10 'CTPurple':0 'grey78':0 'CTYellow':9 }
Sun Nov 25 05:48:21 IST 2012	Player position: (R:6,C:0)
Sun Nov 25 05:48:21 IST 2012	Setting chips for player: 310 id:1
Sun Nov 25 05:48:21 IST 2012	{ chips  'CTRed':1 'CTGreen':13 'CTPurple':0 'grey78':10 'CTYellow':0 }
Sun Nov 25 05:48:21 IST 2012	Player position: (R:6,C:4)
Sun Nov 25 05:48:21 IST 2012	Protocol: A New Phase Began: Strategy Prep Phase
Sun Nov 25 05:48:21 IST 2012	Protocol: Strategy Preparation phase, Round: 0
Sun Nov 25 05:48:21 IST 2012	Maximum number of rounds with no consecutive movement is 3
Sun Nov 25 05:48:21 IST 2012	In begin comm. phase, set counter offers count to: 0
Sun Nov 25 05:48:21 IST 2012	In begin comm. phase, get counter offers returned: 0
Sun Nov 25 05:48:42 IST 2012	A Phase Ended: Strategy Prep Phase
Sun Nov 25 05:48:42 IST 2012	Protocol: A New Phase Began: Communication Phase
Sun Nov 25 05:48:42 IST 2012	Protocol: Communication phase, Round: 0
Sun Nov 25 05:49:42 IST 2012	Received communication message 
Sun Nov 25 05:49:42 IST 2012	From player: 337
Sun Nov 25 05:49:42 IST 2012	To player: 310
Sun Nov 25 05:49:42 IST 2012	Message type: basicproposal
Sun Nov 25 05:49:42 IST 2012	Chips to send by proposer: { chips  'CTGreen':1 }
Sun Nov 25 05:49:42 IST 2012	Chips to send by responder: { chips  'grey78':1 }
Sun Nov 25 05:49:55 IST 2012	Received communication message 
Sun Nov 25 05:49:55 IST 2012	From player: 310
Sun Nov 25 05:49:55 IST 2012	To player: 337
Sun Nov 25 05:49:55 IST 2012	Message type: basicproposaldiscussion
Sun Nov 25 05:49:55 IST 2012	Player 310 accepted offer
Sun Nov 25 05:49:55 IST 2012	Prop accepted, set counter offers count to: 0
Sun Nov 25 05:49:55 IST 2012	Prop accepted, get counter offers returned: 0
Sun Nov 25 05:49:55 IST 2012	A Phase Ended: Communication Phase
Sun Nov 25 05:49:55 IST 2012	Protocol: A New Phase Began: Exchange Phase
Sun Nov 25 05:49:55 IST 2012	Protocol: Exchange phase, Round: 0
Sun Nov 25 05:49:55 IST 2012	In begin exch.phase, get counter offers returned: 0
Sun Nov 25 05:50:24 IST 2012	A Phase Ended: Exchange Phase
Sun Nov 25 05:50:24 IST 2012	Proposer 337 sent: { chips  'CTRed':0 'CTPurple':0 'CTGreen':1 'grey78':0 'CTYellow':0 }
Sun Nov 25 05:50:24 IST 2012	Responder 310 sent: { chips  'CTRed':0 'CTPurple':0 'CTGreen':0 'grey78':1 'CTYellow':0 }
Sun Nov 25 05:50:24 IST 2012	Protocol: A New Phase Began: Movement Phase
Sun Nov 25 05:50:24 IST 2012	Protocol: Movement phase, Round: 0
Sun Nov 25 05:50:44 IST 2012	A Phase Ended: Movement Phase
Sun Nov 25 05:50:44 IST 2012	Swaping roles:
Sun Nov 25 05:50:44 IST 2012	Proposer is: 310
Sun Nov 25 05:50:44 IST 2012	Responder is: 337
Sun Nov 25 05:50:44 IST 2012	Protocol: A New Phase Began: Feedback Phase
Sun Nov 25 05:50:44 IST 2012	Protocol: Feedback phase, Round: 0
Sun Nov 25 05:50:44 IST 2012	Number of consecutive no movements for player 337 is 1
Sun Nov 25 05:50:44 IST 2012	Number of consecutive no movements for player 310 is 1
Sun Nov 25 05:50:49 IST 2012	A Phase Ended: Feedback Phase
Sun Nov 25 05:50:49 IST 2012	Protocol: A New Phase Began: Communication Phase
Sun Nov 25 05:50:49 IST 2012	Protocol: Communication phase, Round: 1
Sun Nov 25 05:51:31 IST 2012	Received communication message 
Sun Nov 25 05:51:31 IST 2012	From player: 310
Sun Nov 25 05:51:31 IST 2012	To player: 337
Sun Nov 25 05:51:31 IST 2012	Message type: basicproposal
Sun Nov 25 05:51:31 IST 2012	Chips to send by proposer: { chips  'CTRed':0 'CTPurple':0 'CTGreen':0 'grey78':1 'CTYellow':0 }
Sun Nov 25 05:51:31 IST 2012	Chips to send by responder: { chips  'CTRed':0 'CTPurple':0 'CTGreen':4 'grey78':0 'CTYellow':2 }
Sun Nov 25 05:52:16 IST 2012	Received communication message 
Sun Nov 25 05:52:16 IST 2012	From player: 337
Sun Nov 25 05:52:16 IST 2012	To player: 310
Sun Nov 25 05:52:16 IST 2012	Message type: basicproposaldiscussion
Sun Nov 25 05:52:16 IST 2012	Player 337 rejected offer
Sun Nov 25 05:52:16 IST 2012	Swaping roles:
Sun Nov 25 05:52:16 IST 2012	Proposer is: 337
Sun Nov 25 05:52:16 IST 2012	Responder is: 310
Sun Nov 25 05:52:16 IST 2012	Prop rejected, set counter offers count to: 1
Sun Nov 25 05:52:16 IST 2012	Prop rejected, get counter offers returned: 1
Sun Nov 25 05:52:20 IST 2012	Slept 4 seconds
Sun Nov 25 05:52:20 IST 2012	Sent role changed msgs
Sun Nov 25 05:53:20 IST 2012	Received communication message 
Sun Nov 25 05:53:20 IST 2012	From player: 337
Sun Nov 25 05:53:20 IST 2012	To player: 310
Sun Nov 25 05:53:20 IST 2012	Message type: basicproposal
Sun Nov 25 05:53:20 IST 2012	Chips to send by proposer: { chips  'CTRed':0 'CTPurple':0 'CTGreen':0 'grey78':0 'CTYellow':2 }
Sun Nov 25 05:53:20 IST 2012	Chips to send by responder: { chips  'CTRed':0 'CTPurple':0 'CTGreen':1 'grey78':2 'CTYellow':0 }
Sun Nov 25 05:53:35 IST 2012	Received communication message 
Sun Nov 25 05:53:35 IST 2012	From player: 310
Sun Nov 25 05:53:35 IST 2012	To player: 337
Sun Nov 25 05:53:35 IST 2012	Message type: basicproposaldiscussion
Sun Nov 25 05:53:35 IST 2012	Player 310 accepted offer
Sun Nov 25 05:53:35 IST 2012	Prop accepted, set counter offers count to: 0
Sun Nov 25 05:53:35 IST 2012	Prop accepted, get counter offers returned: 0
Sun Nov 25 05:53:35 IST 2012	A Phase Ended: Communication Phase
Sun Nov 25 05:53:35 IST 2012	Protocol: A New Phase Began: Exchange Phase
Sun Nov 25 05:53:35 IST 2012	Protocol: Exchange phase, Round: 1
Sun Nov 25 05:53:35 IST 2012	In begin exch.phase, get counter offers returned: 0
Sun Nov 25 05:54:04 IST 2012	A Phase Ended: Exchange Phase
Sun Nov 25 05:54:04 IST 2012	Proposer 337 sent: { chips  'CTRed':0 'CTPurple':0 'CTGreen':0 'grey78':0 'CTYellow':1 }
Sun Nov 25 05:54:04 IST 2012	Responder 310 sent: { chips  'CTRed':0 'CTPurple':0 'CTGreen':0 'grey78':1 'CTYellow':0 }
Sun Nov 25 05:54:04 IST 2012	Protocol: A New Phase Began: Movement Phase
Sun Nov 25 05:54:04 IST 2012	Protocol: Movement phase, Round: 1
Sun Nov 25 05:54:24 IST 2012	A Phase Ended: Movement Phase
Sun Nov 25 05:54:24 IST 2012	Protocol: A New Phase Began: Feedback Phase
Sun Nov 25 05:54:24 IST 2012	Protocol: Feedback phase, Round: 1
Sun Nov 25 05:54:24 IST 2012	Number of consecutive no movements for player 337 is 2
Sun Nov 25 05:54:24 IST 2012	Number of consecutive no movements for player 310 is 2
Sun Nov 25 05:54:29 IST 2012	A Phase Ended: Feedback Phase
Sun Nov 25 05:54:29 IST 2012	Protocol: A New Phase Began: Communication Phase
Sun Nov 25 05:54:29 IST 2012	Protocol: Communication phase, Round: 2
Sun Nov 25 05:55:29 IST 2012	Received communication message 
Sun Nov 25 05:55:29 IST 2012	From player: 337
Sun Nov 25 05:55:29 IST 2012	To player: 310
Sun Nov 25 05:55:29 IST 2012	Message type: basicproposal
Sun Nov 25 05:55:29 IST 2012	Chips to send by proposer: { chips  'CTYellow':1 }
Sun Nov 25 05:55:29 IST 2012	Chips to send by responder: { chips  'CTGreen':1 }
Sun Nov 25 05:55:36 IST 2012	Received communication message 
Sun Nov 25 05:55:36 IST 2012	From player: 310
Sun Nov 25 05:55:36 IST 2012	To player: 337
Sun Nov 25 05:55:36 IST 2012	Message type: basicproposaldiscussion
Sun Nov 25 05:55:36 IST 2012	Player 310 accepted offer
Sun Nov 25 05:55:36 IST 2012	Prop accepted, set counter offers count to: 0
Sun Nov 25 05:55:36 IST 2012	Prop accepted, get counter offers returned: 0
Sun Nov 25 05:55:36 IST 2012	A Phase Ended: Communication Phase
Sun Nov 25 05:55:36 IST 2012	Protocol: A New Phase Began: Exchange Phase
Sun Nov 25 05:55:36 IST 2012	Protocol: Exchange phase, Round: 2
Sun Nov 25 05:55:36 IST 2012	In begin exch.phase, get counter offers returned: 0
Sun Nov 25 05:56:05 IST 2012	A Phase Ended: Exchange Phase
Sun Nov 25 05:56:05 IST 2012	Proposer 337 sent: { chips  'CTRed':0 'CTPurple':0 'CTGreen':0 'grey78':0 'CTYellow':1 }
Sun Nov 25 05:56:05 IST 2012	Responder 310 sent: { chips  'CTRed':0 'CTPurple':0 'CTGreen':1 'grey78':0 'CTYellow':0 }
Sun Nov 25 05:56:05 IST 2012	Protocol: A New Phase Began: Movement Phase
Sun Nov 25 05:56:05 IST 2012	Protocol: Movement phase, Round: 2
Sun Nov 25 05:56:05 IST 2012	Player 310 moved to (R:6,C:3)
Sun Nov 25 05:56:05 IST 2012	Player 337 moved to (R:6,C:1)
Sun Nov 25 05:56:24 IST 2012	A Phase Ended: Movement Phase
Sun Nov 25 05:56:24 IST 2012	Swaping roles:
Sun Nov 25 05:56:24 IST 2012	Proposer is: 310
Sun Nov 25 05:56:24 IST 2012	Responder is: 337
Sun Nov 25 05:56:24 IST 2012	Protocol: A New Phase Began: Feedback Phase
Sun Nov 25 05:56:24 IST 2012	Protocol: Feedback phase, Round: 2
Sun Nov 25 05:56:24 IST 2012	Number of consecutive no movements for player 337 is 0
Sun Nov 25 05:56:24 IST 2012	Number of consecutive no movements for player 310 is 0
Sun Nov 25 05:56:29 IST 2012	A Phase Ended: Feedback Phase
Sun Nov 25 05:56:29 IST 2012	Protocol: A New Phase Began: Communication Phase
Sun Nov 25 05:56:29 IST 2012	Protocol: Communication phase, Round: 3
Sun Nov 25 05:56:49 IST 2012	Received communication message 
Sun Nov 25 05:56:49 IST 2012	From player: 310
Sun Nov 25 05:56:49 IST 2012	To player: 337
Sun Nov 25 05:56:49 IST 2012	Message type: basicproposal
Sun Nov 25 05:56:49 IST 2012	Chips to send by proposer: { chips  'CTRed':0 'CTPurple':0 'CTGreen':0 'grey78':1 'CTYellow':0 }
Sun Nov 25 05:56:49 IST 2012	Chips to send by responder: { chips  'CTRed':0 'CTPurple':0 'CTGreen':1 'grey78':0 'CTYellow':1 }
Sun Nov 25 05:57:13 IST 2012	Received communication message 
Sun Nov 25 05:57:13 IST 2012	From player: 337
Sun Nov 25 05:57:13 IST 2012	To player: 310
Sun Nov 25 05:57:13 IST 2012	Message type: basicproposaldiscussion
Sun Nov 25 05:57:13 IST 2012	Player 337 rejected offer
Sun Nov 25 05:57:13 IST 2012	Swaping roles:
Sun Nov 25 05:57:13 IST 2012	Proposer is: 337
Sun Nov 25 05:57:13 IST 2012	Responder is: 310
Sun Nov 25 05:57:13 IST 2012	Prop rejected, set counter offers count to: 1
Sun Nov 25 05:57:13 IST 2012	Prop rejected, get counter offers returned: 1
Sun Nov 25 05:57:17 IST 2012	Slept 4 seconds
Sun Nov 25 05:57:17 IST 2012	Sent role changed msgs
Sun Nov 25 05:58:17 IST 2012	Received communication message 
Sun Nov 25 05:58:17 IST 2012	From player: 337
Sun Nov 25 05:58:17 IST 2012	To player: 310
Sun Nov 25 05:58:17 IST 2012	Message type: basicproposal
Sun Nov 25 05:58:17 IST 2012	Chips to send by proposer: { chips  'CTRed':0 'CTPurple':0 'CTGreen':0 'grey78':0 'CTYellow':3 }
Sun Nov 25 05:58:17 IST 2012	Chips to send by responder: { chips  'CTRed':0 'CTPurple':0 'CTGreen':0 'grey78':1 'CTYellow':0 }
Sun Nov 25 05:58:30 IST 2012	Received communication message 
Sun Nov 25 05:58:30 IST 2012	From player: 310
Sun Nov 25 05:58:30 IST 2012	To player: 337
Sun Nov 25 05:58:30 IST 2012	Message type: basicproposaldiscussion
Sun Nov 25 05:58:30 IST 2012	Player 310 rejected offer
Sun Nov 25 05:58:30 IST 2012	Set counter offers count to: 0
Sun Nov 25 05:58:30 IST 2012	A Phase Ended: Communication Phase
Sun Nov 25 05:58:30 IST 2012	Protocol: A New Phase Began: Exchange Phase
Sun Nov 25 05:58:30 IST 2012	Protocol: Exchange phase, Round: 3
Sun Nov 25 05:58:30 IST 2012	In begin exch.phase, get counter offers returned: 0
Sun Nov 25 05:59:10 IST 2012	A Phase Ended: Exchange Phase
Sun Nov 25 05:59:10 IST 2012	Proposer 337 sent: { chips  }
Sun Nov 25 05:59:10 IST 2012	Protocol: A New Phase Began: Movement Phase
Sun Nov 25 05:59:10 IST 2012	Protocol: Movement phase, Round: 3
Sun Nov 25 05:59:31 IST 2012	A Phase Ended: Movement Phase
Sun Nov 25 05:59:31 IST 2012	Protocol: A New Phase Began: Feedback Phase
Sun Nov 25 05:59:31 IST 2012	Protocol: Feedback phase, Round: 3
Sun Nov 25 05:59:31 IST 2012	Number of consecutive no movements for player 337 is 1
Sun Nov 25 05:59:31 IST 2012	Number of consecutive no movements for player 310 is 1
Sun Nov 25 05:59:36 IST 2012	A Phase Ended: Feedback Phase
Sun Nov 25 05:59:36 IST 2012	Protocol: A New Phase Began: Communication Phase
Sun Nov 25 05:59:36 IST 2012	Protocol: Communication phase, Round: 4
Sun Nov 25 06:00:36 IST 2012	Received communication message 
Sun Nov 25 06:00:36 IST 2012	From player: 337
Sun Nov 25 06:00:36 IST 2012	To player: 310
Sun Nov 25 06:00:36 IST 2012	Message type: basicproposal
Sun Nov 25 06:00:36 IST 2012	Chips to send by proposer: { chips  'CTYellow':3 }
Sun Nov 25 06:00:36 IST 2012	Chips to send by responder: { chips  'grey78':1 }
Sun Nov 25 06:00:45 IST 2012	Received communication message 
Sun Nov 25 06:00:45 IST 2012	From player: 310
Sun Nov 25 06:00:45 IST 2012	To player: 337
Sun Nov 25 06:00:45 IST 2012	Message type: basicproposaldiscussion
Sun Nov 25 06:00:45 IST 2012	Player 310 rejected offer
Sun Nov 25 06:00:45 IST 2012	Swaping roles:
Sun Nov 25 06:00:45 IST 2012	Proposer is: 310
Sun Nov 25 06:00:45 IST 2012	Responder is: 337
Sun Nov 25 06:00:45 IST 2012	Prop rejected, set counter offers count to: 1
Sun Nov 25 06:00:45 IST 2012	Prop rejected, get counter offers returned: 1
Sun Nov 25 06:00:49 IST 2012	Slept 4 seconds
Sun Nov 25 06:00:49 IST 2012	Sent role changed msgs
Sun Nov 25 06:01:10 IST 2012	Received communication message 
Sun Nov 25 06:01:10 IST 2012	From player: 310
Sun Nov 25 06:01:10 IST 2012	To player: 337
Sun Nov 25 06:01:10 IST 2012	Message type: basicproposal
Sun Nov 25 06:01:10 IST 2012	Chips to send by proposer: { chips  'CTRed':0 'CTPurple':0 'CTGreen':0 'grey78':1 'CTYellow':0 }
Sun Nov 25 06:01:10 IST 2012	Chips to send by responder: { chips  'CTRed':0 'CTPurple':0 'CTGreen':1 'grey78':0 'CTYellow':1 }
Sun Nov 25 06:01:35 IST 2012	Received communication message 
Sun Nov 25 06:01:35 IST 2012	From player: 337
Sun Nov 25 06:01:35 IST 2012	To player: 310
Sun Nov 25 06:01:35 IST 2012	Message type: basicproposaldiscussion
Sun Nov 25 06:01:35 IST 2012	Player 337 rejected offer
Sun Nov 25 06:01:35 IST 2012	Set counter offers count to: 0
Sun Nov 25 06:01:35 IST 2012	A Phase Ended: Communication Phase
Sun Nov 25 06:01:35 IST 2012	Protocol: A New Phase Began: Exchange Phase
Sun Nov 25 06:01:35 IST 2012	Protocol: Exchange phase, Round: 4
Sun Nov 25 06:01:35 IST 2012	In begin exch.phase, get counter offers returned: 0
Sun Nov 25 06:02:15 IST 2012	A Phase Ended: Exchange Phase
Sun Nov 25 06:02:15 IST 2012	Responder 337 sent: { chips  }
Sun Nov 25 06:02:15 IST 2012	Protocol: A New Phase Began: Movement Phase
Sun Nov 25 06:02:15 IST 2012	Protocol: Movement phase, Round: 4
Sun Nov 25 06:02:35 IST 2012	A Phase Ended: Movement Phase
Sun Nov 25 06:02:35 IST 2012	Protocol: A New Phase Began: Feedback Phase
Sun Nov 25 06:02:35 IST 2012	Protocol: Feedback phase, Round: 4
Sun Nov 25 06:02:35 IST 2012	Number of consecutive no movements for player 337 is 2
Sun Nov 25 06:02:35 IST 2012	Number of consecutive no movements for player 310 is 2
Sun Nov 25 06:02:40 IST 2012	A Phase Ended: Feedback Phase
Sun Nov 25 06:02:40 IST 2012	Protocol: A New Phase Began: Communication Phase
Sun Nov 25 06:02:40 IST 2012	Protocol: Communication phase, Round: 5
Sun Nov 25 06:03:00 IST 2012	Received communication message 
Sun Nov 25 06:03:00 IST 2012	From player: 310
Sun Nov 25 06:03:00 IST 2012	To player: 337
Sun Nov 25 06:03:00 IST 2012	Message type: basicproposal
Sun Nov 25 06:03:00 IST 2012	Chips to send by proposer: { chips  'CTRed':0 'CTPurple':0 'CTGreen':0 'grey78':1 'CTYellow':0 }
Sun Nov 25 06:03:00 IST 2012	Chips to send by responder: { chips  'CTRed':0 'CTPurple':0 'CTGreen':1 'grey78':0 'CTYellow':1 }
Sun Nov 25 06:03:26 IST 2012	Received communication message 
Sun Nov 25 06:03:26 IST 2012	From player: 337
Sun Nov 25 06:03:26 IST 2012	To player: 310
Sun Nov 25 06:03:26 IST 2012	Message type: basicproposaldiscussion
Sun Nov 25 06:03:26 IST 2012	Player 337 rejected offer
Sun Nov 25 06:03:26 IST 2012	Swaping roles:
Sun Nov 25 06:03:26 IST 2012	Proposer is: 337
Sun Nov 25 06:03:26 IST 2012	Responder is: 310
Sun Nov 25 06:03:26 IST 2012	Prop rejected, set counter offers count to: 1
Sun Nov 25 06:03:26 IST 2012	Prop rejected, get counter offers returned: 1
Sun Nov 25 06:03:30 IST 2012	Slept 4 seconds
Sun Nov 25 06:03:30 IST 2012	Sent role changed msgs
Sun Nov 25 06:04:30 IST 2012	Received communication message 
Sun Nov 25 06:04:30 IST 2012	From player: 337
Sun Nov 25 06:04:30 IST 2012	To player: 310
Sun Nov 25 06:04:30 IST 2012	Message type: basicproposal
Sun Nov 25 06:04:30 IST 2012	Chips to send by proposer: { chips  'CTRed':0 'CTPurple':0 'CTGreen':0 'grey78':0 'CTYellow':3 }
Sun Nov 25 06:04:30 IST 2012	Chips to send by responder: { chips  'CTRed':0 'CTPurple':0 'CTGreen':0 'grey78':1 'CTYellow':0 }
Sun Nov 25 06:04:38 IST 2012	Received communication message 
Sun Nov 25 06:04:38 IST 2012	From player: 310
Sun Nov 25 06:04:38 IST 2012	To player: 337
Sun Nov 25 06:04:38 IST 2012	Message type: basicproposaldiscussion
Sun Nov 25 06:04:38 IST 2012	Player 310 rejected offer
Sun Nov 25 06:04:38 IST 2012	Set counter offers count to: 0
Sun Nov 25 06:04:38 IST 2012	A Phase Ended: Communication Phase
Sun Nov 25 06:04:38 IST 2012	Protocol: A New Phase Began: Exchange Phase
Sun Nov 25 06:04:38 IST 2012	Protocol: Exchange phase, Round: 5
Sun Nov 25 06:04:38 IST 2012	In begin exch.phase, get counter offers returned: 0
Sun Nov 25 06:05:17 IST 2012	A Phase Ended: Exchange Phase
Sun Nov 25 06:05:17 IST 2012	Proposer 337 sent: { chips  }
Sun Nov 25 06:05:17 IST 2012	Protocol: A New Phase Began: Movement Phase
Sun Nov 25 06:05:17 IST 2012	Protocol: Movement phase, Round: 5
Sun Nov 25 06:05:17 IST 2012	Player 337 moved to (R:5,C:1)
Sun Nov 25 06:05:17 IST 2012	Player 310 moved to (R:5,C:3)
Sun Nov 25 06:05:38 IST 2012	A Phase Ended: Movement Phase
Sun Nov 25 06:05:38 IST 2012	Protocol: A New Phase Began: Feedback Phase
Sun Nov 25 06:05:38 IST 2012	Protocol: Feedback phase, Round: 5
Sun Nov 25 06:05:38 IST 2012	Number of consecutive no movements for player 337 is 0
Sun Nov 25 06:05:38 IST 2012	Number of consecutive no movements for player 310 is 0
Sun Nov 25 06:05:43 IST 2012	A Phase Ended: Feedback Phase
Sun Nov 25 06:05:43 IST 2012	Protocol: A New Phase Began: Communication Phase
Sun Nov 25 06:05:43 IST 2012	Protocol: Communication phase, Round: 6
Sun Nov 25 06:06:43 IST 2012	Received communication message 
Sun Nov 25 06:06:43 IST 2012	From player: 337
Sun Nov 25 06:06:43 IST 2012	To player: 310
Sun Nov 25 06:06:43 IST 2012	Message type: basicproposal
Sun Nov 25 06:06:43 IST 2012	Chips to send by proposer: { chips  'CTYellow':3 }
Sun Nov 25 06:06:43 IST 2012	Chips to send by responder: { chips  'grey78':1 }
Sun Nov 25 06:06:53 IST 2012	Received communication message 
Sun Nov 25 06:06:53 IST 2012	From player: 310
Sun Nov 25 06:06:53 IST 2012	To player: 337
Sun Nov 25 06:06:53 IST 2012	Message type: basicproposaldiscussion
Sun Nov 25 06:06:53 IST 2012	Player 310 rejected offer
Sun Nov 25 06:06:53 IST 2012	Swaping roles:
Sun Nov 25 06:06:53 IST 2012	Proposer is: 310
Sun Nov 25 06:06:53 IST 2012	Responder is: 337
Sun Nov 25 06:06:53 IST 2012	Prop rejected, set counter offers count to: 1
Sun Nov 25 06:06:53 IST 2012	Prop rejected, get counter offers returned: 1
Sun Nov 25 06:06:57 IST 2012	Slept 4 seconds
Sun Nov 25 06:06:57 IST 2012	Sent role changed msgs
Sun Nov 25 06:07:15 IST 2012	Received communication message 
Sun Nov 25 06:07:15 IST 2012	From player: 310
Sun Nov 25 06:07:15 IST 2012	To player: 337
Sun Nov 25 06:07:15 IST 2012	Message type: basicproposal
Sun Nov 25 06:07:15 IST 2012	Chips to send by proposer: { chips  'CTRed':0 'CTPurple':0 'CTGreen':0 'grey78':1 'CTYellow':0 }
Sun Nov 25 06:07:15 IST 2012	Chips to send by responder: { chips  'CTRed':0 'CTPurple':0 'CTGreen':0 'grey78':0 'CTYellow':1 }
Sun Nov 25 06:07:35 IST 2012	Received communication message 
Sun Nov 25 06:07:35 IST 2012	From player: 337
Sun Nov 25 06:07:35 IST 2012	To player: 310
Sun Nov 25 06:07:35 IST 2012	Message type: basicproposaldiscussion
Sun Nov 25 06:07:35 IST 2012	Player 337 accepted offer
Sun Nov 25 06:07:35 IST 2012	Prop accepted, set counter offers count to: 0
Sun Nov 25 06:07:35 IST 2012	Prop accepted, get counter offers returned: 0
Sun Nov 25 06:07:35 IST 2012	A Phase Ended: Communication Phase
Sun Nov 25 06:07:35 IST 2012	Protocol: A New Phase Began: Exchange Phase
Sun Nov 25 06:07:35 IST 2012	Protocol: Exchange phase, Round: 6
Sun Nov 25 06:07:35 IST 2012	In begin exch.phase, get counter offers returned: 0
Sun Nov 25 06:07:51 IST 2012	A Phase Ended: Exchange Phase
Sun Nov 25 06:07:51 IST 2012	Proposer 310 sent: { chips  }
Sun Nov 25 06:07:51 IST 2012	Responder 337 sent: { chips  'CTRed':0 'CTPurple':0 'CTGreen':0 'grey78':0 'CTYellow':1 }
Sun Nov 25 06:07:51 IST 2012	Protocol: A New Phase Began: Movement Phase
Sun Nov 25 06:07:51 IST 2012	Protocol: Movement phase, Round: 6
Sun Nov 25 06:07:51 IST 2012	Player 310 moved to (R:4,C:3)
Sun Nov 25 06:08:11 IST 2012	A Phase Ended: Movement Phase
Sun Nov 25 06:08:11 IST 2012	Protocol: A New Phase Began: Feedback Phase
Sun Nov 25 06:08:11 IST 2012	Protocol: Feedback phase, Round: 6
Sun Nov 25 06:08:11 IST 2012	Number of consecutive no movements for player 337 is 1
Sun Nov 25 06:08:11 IST 2012	Number of consecutive no movements for player 310 is 0
Sun Nov 25 06:08:16 IST 2012	A Phase Ended: Feedback Phase
Sun Nov 25 06:08:16 IST 2012	Protocol: A New Phase Began: Communication Phase
Sun Nov 25 06:08:16 IST 2012	Protocol: Communication phase, Round: 7
Sun Nov 25 06:08:29 IST 2012	Received communication message 
Sun Nov 25 06:08:29 IST 2012	From player: 310
Sun Nov 25 06:08:29 IST 2012	To player: 337
Sun Nov 25 06:08:29 IST 2012	Message type: basicproposal
Sun Nov 25 06:08:29 IST 2012	Chips to send by proposer: { chips  'CTRed':0 'CTPurple':0 'CTGreen':0 'grey78':1 'CTYellow':0 }
Sun Nov 25 06:08:29 IST 2012	Chips to send by responder: { chips  'CTRed':0 'CTPurple':0 'CTGreen':7 'grey78':0 'CTYellow':0 }
Sun Nov 25 06:08:49 IST 2012	Received communication message 
Sun Nov 25 06:08:49 IST 2012	From player: 337
Sun Nov 25 06:08:49 IST 2012	To player: 310
Sun Nov 25 06:08:49 IST 2012	Message type: basicproposaldiscussion
Sun Nov 25 06:08:49 IST 2012	Player 337 rejected offer
Sun Nov 25 06:08:49 IST 2012	Swaping roles:
Sun Nov 25 06:08:49 IST 2012	Proposer is: 337
Sun Nov 25 06:08:49 IST 2012	Responder is: 310
Sun Nov 25 06:08:49 IST 2012	Prop rejected, set counter offers count to: 1
Sun Nov 25 06:08:49 IST 2012	Prop rejected, get counter offers returned: 1
Sun Nov 25 06:08:53 IST 2012	Slept 4 seconds
Sun Nov 25 06:08:53 IST 2012	Sent role changed msgs
Sun Nov 25 06:09:51 IST 2012	Received communication message 
Sun Nov 25 06:09:51 IST 2012	From player: 337
Sun Nov 25 06:09:51 IST 2012	To player: 310
Sun Nov 25 06:09:51 IST 2012	Message type: basicproposal
Sun Nov 25 06:09:51 IST 2012	Chips to send by proposer: { chips  'CTRed':0 'CTPurple':0 'CTGreen':0 'grey78':0 'CTYellow':1 }
Sun Nov 25 06:09:51 IST 2012	Chips to send by responder: { chips  'CTRed':0 'CTPurple':0 'CTGreen':0 'grey78':1 'CTYellow':0 }
Sun Nov 25 06:10:02 IST 2012	Received communication message 
Sun Nov 25 06:10:02 IST 2012	From player: 310
Sun Nov 25 06:10:02 IST 2012	To player: 337
Sun Nov 25 06:10:02 IST 2012	Message type: basicproposaldiscussion
Sun Nov 25 06:10:02 IST 2012	Player 310 accepted offer
Sun Nov 25 06:10:02 IST 2012	Prop accepted, set counter offers count to: 0
Sun Nov 25 06:10:02 IST 2012	Prop accepted, get counter offers returned: 0
Sun Nov 25 06:10:02 IST 2012	A Phase Ended: Communication Phase
Sun Nov 25 06:10:02 IST 2012	Protocol: A New Phase Began: Exchange Phase
Sun Nov 25 06:10:02 IST 2012	Protocol: Exchange phase, Round: 7
Sun Nov 25 06:10:02 IST 2012	In begin exch.phase, get counter offers returned: 0
Sun Nov 25 06:10:17 IST 2012	A Phase Ended: Exchange Phase
Sun Nov 25 06:10:17 IST 2012	Proposer 337 sent: { chips  'CTRed':0 'CTPurple':0 'CTGreen':0 'grey78':0 'CTYellow':1 }
Sun Nov 25 06:10:17 IST 2012	Responder 310 sent: { chips  }
Sun Nov 25 06:10:17 IST 2012	Protocol: A New Phase Began: Movement Phase
Sun Nov 25 06:10:17 IST 2012	Protocol: Movement phase, Round: 7
Sun Nov 25 06:10:17 IST 2012	Player 310 moved to (R:3,C:3)
Sun Nov 25 06:10:36 IST 2012	A Phase Ended: Movement Phase
Sun Nov 25 06:10:36 IST 2012	Protocol: A New Phase Began: Feedback Phase
Sun Nov 25 06:10:36 IST 2012	Protocol: Feedback phase, Round: 7
Sun Nov 25 06:10:36 IST 2012	Number of consecutive no movements for player 337 is 2
Sun Nov 25 06:10:36 IST 2012	Number of consecutive no movements for player 310 is 0
Sun Nov 25 06:10:41 IST 2012	A Phase Ended: Feedback Phase
Sun Nov 25 06:10:41 IST 2012	Protocol: A New Phase Began: Communication Phase
Sun Nov 25 06:10:41 IST 2012	Protocol: Communication phase, Round: 8
Sun Nov 25 06:11:41 IST 2012	Received communication message 
Sun Nov 25 06:11:41 IST 2012	From player: 337
Sun Nov 25 06:11:41 IST 2012	To player: 310
Sun Nov 25 06:11:41 IST 2012	Message type: basicproposal
Sun Nov 25 06:11:41 IST 2012	Chips to send by proposer: { chips  'CTGreen':1 }
Sun Nov 25 06:11:41 IST 2012	Chips to send by responder: { chips  'grey78':1 }
Sun Nov 25 06:11:50 IST 2012	Received communication message 
Sun Nov 25 06:11:50 IST 2012	From player: 310
Sun Nov 25 06:11:50 IST 2012	To player: 337
Sun Nov 25 06:11:50 IST 2012	Message type: basicproposaldiscussion
Sun Nov 25 06:11:50 IST 2012	Player 310 accepted offer
Sun Nov 25 06:11:50 IST 2012	Prop accepted, set counter offers count to: 0
Sun Nov 25 06:11:50 IST 2012	Prop accepted, get counter offers returned: 0
Sun Nov 25 06:11:50 IST 2012	A Phase Ended: Communication Phase
Sun Nov 25 06:11:50 IST 2012	Protocol: A New Phase Began: Exchange Phase
Sun Nov 25 06:11:50 IST 2012	Protocol: Exchange phase, Round: 8
Sun Nov 25 06:11:50 IST 2012	In begin exch.phase, get counter offers returned: 0
Sun Nov 25 06:12:08 IST 2012	A Phase Ended: Exchange Phase
Sun Nov 25 06:12:08 IST 2012	Proposer 337 sent: { chips  'CTRed':0 'CTPurple':0 'CTGreen':1 'grey78':0 'CTYellow':0 }
Sun Nov 25 06:12:08 IST 2012	Responder 310 sent: { chips  }
Sun Nov 25 06:12:08 IST 2012	Protocol: A New Phase Began: Movement Phase
Sun Nov 25 06:12:08 IST 2012	Protocol: Movement phase, Round: 8
Sun Nov 25 06:12:08 IST 2012	Player 337 moved to (R:4,C:1)
Sun Nov 25 06:12:08 IST 2012	Player 310 moved to (R:2,C:3)
Sun Nov 25 06:12:27 IST 2012	A Phase Ended: Movement Phase
Sun Nov 25 06:12:27 IST 2012	Swaping roles:
Sun Nov 25 06:12:27 IST 2012	Proposer is: 310
Sun Nov 25 06:12:27 IST 2012	Responder is: 337
Sun Nov 25 06:12:27 IST 2012	Protocol: A New Phase Began: Feedback Phase
Sun Nov 25 06:12:27 IST 2012	Protocol: Feedback phase, Round: 8
Sun Nov 25 06:12:27 IST 2012	Number of consecutive no movements for player 337 is 0
Sun Nov 25 06:12:27 IST 2012	Number of consecutive no movements for player 310 is 0
Sun Nov 25 06:12:32 IST 2012	A Phase Ended: Feedback Phase
Sun Nov 25 06:12:32 IST 2012	Protocol: A New Phase Began: Communication Phase
Sun Nov 25 06:12:32 IST 2012	Protocol: Communication phase, Round: 9
Sun Nov 25 06:12:52 IST 2012	Received communication message 
Sun Nov 25 06:12:52 IST 2012	From player: 310
Sun Nov 25 06:12:52 IST 2012	To player: 337
Sun Nov 25 06:12:52 IST 2012	Message type: basicproposal
Sun Nov 25 06:12:52 IST 2012	Chips to send by proposer: { chips  'CTRed':0 'CTPurple':0 'CTGreen':0 'grey78':1 'CTYellow':0 }
Sun Nov 25 06:12:52 IST 2012	Chips to send by responder: { chips  'CTRed':0 'CTPurple':0 'CTGreen':4 'grey78':0 'CTYellow':0 }
Sun Nov 25 06:13:16 IST 2012	Received communication message 
Sun Nov 25 06:13:16 IST 2012	From player: 337
Sun Nov 25 06:13:16 IST 2012	To player: 310
Sun Nov 25 06:13:16 IST 2012	Message type: basicproposaldiscussion
Sun Nov 25 06:13:16 IST 2012	Player 337 rejected offer
Sun Nov 25 06:13:16 IST 2012	Swaping roles:
Sun Nov 25 06:13:16 IST 2012	Proposer is: 337
Sun Nov 25 06:13:16 IST 2012	Responder is: 310
Sun Nov 25 06:13:16 IST 2012	Prop rejected, set counter offers count to: 1
Sun Nov 25 06:13:16 IST 2012	Prop rejected, get counter offers returned: 1
Sun Nov 25 06:13:20 IST 2012	Slept 4 seconds
Sun Nov 25 06:13:20 IST 2012	Sent role changed msgs
Sun Nov 25 06:14:20 IST 2012	Received communication message 
Sun Nov 25 06:14:20 IST 2012	From player: 337
Sun Nov 25 06:14:20 IST 2012	To player: 310
Sun Nov 25 06:14:20 IST 2012	Message type: basicproposal
Sun Nov 25 06:14:20 IST 2012	Chips to send by proposer: { chips  'CTRed':0 'CTPurple':0 'CTGreen':0 'grey78':0 'CTYellow':1 }
Sun Nov 25 06:14:20 IST 2012	Chips to send by responder: { chips  'CTRed':0 'CTPurple':0 'CTGreen':0 'grey78':1 'CTYellow':0 }
Sun Nov 25 06:14:28 IST 2012	Received communication message 
Sun Nov 25 06:14:28 IST 2012	From player: 310
Sun Nov 25 06:14:28 IST 2012	To player: 337
Sun Nov 25 06:14:28 IST 2012	Message type: basicproposaldiscussion
Sun Nov 25 06:14:28 IST 2012	Player 310 accepted offer
Sun Nov 25 06:14:28 IST 2012	Prop accepted, set counter offers count to: 0
Sun Nov 25 06:14:28 IST 2012	Prop accepted, get counter offers returned: 0
Sun Nov 25 06:14:28 IST 2012	A Phase Ended: Communication Phase
Sun Nov 25 06:14:28 IST 2012	Protocol: A New Phase Began: Exchange Phase
Sun Nov 25 06:14:28 IST 2012	Protocol: Exchange phase, Round: 9
Sun Nov 25 06:14:28 IST 2012	In begin exch.phase, get counter offers returned: 0
Sun Nov 25 06:14:46 IST 2012	A Phase Ended: Exchange Phase
Sun Nov 25 06:14:46 IST 2012	Proposer 337 sent: { chips  'CTRed':0 'CTPurple':0 'CTGreen':0 'grey78':0 'CTYellow':1 }
Sun Nov 25 06:14:46 IST 2012	Responder 310 sent: { chips  }
Sun Nov 25 06:14:46 IST 2012	Protocol: A New Phase Began: Movement Phase
Sun Nov 25 06:14:46 IST 2012	Protocol: Movement phase, Round: 9
Sun Nov 25 06:14:46 IST 2012	Player 310 moved to (R:1,C:3)
Sun Nov 25 06:15:07 IST 2012	A Phase Ended: Movement Phase
Sun Nov 25 06:15:07 IST 2012	Protocol: A New Phase Began: Feedback Phase
Sun Nov 25 06:15:07 IST 2012	Protocol: Feedback phase, Round: 9
Sun Nov 25 06:15:07 IST 2012	Number of consecutive no movements for player 337 is 1
Sun Nov 25 06:15:07 IST 2012	Number of consecutive no movements for player 310 is 0
Sun Nov 25 06:15:12 IST 2012	A Phase Ended: Feedback Phase
Sun Nov 25 06:15:12 IST 2012	Protocol: A New Phase Began: Communication Phase
Sun Nov 25 06:15:12 IST 2012	Protocol: Communication phase, Round: 10
Sun Nov 25 06:16:12 IST 2012	Received communication message 
Sun Nov 25 06:16:12 IST 2012	From player: 337
Sun Nov 25 06:16:12 IST 2012	To player: 310
Sun Nov 25 06:16:12 IST 2012	Message type: basicproposal
Sun Nov 25 06:16:12 IST 2012	Chips to send by proposer: { chips  'CTGreen':1 }
Sun Nov 25 06:16:12 IST 2012	Chips to send by responder: { chips  'grey78':1 }
Sun Nov 25 06:16:21 IST 2012	Received communication message 
Sun Nov 25 06:16:21 IST 2012	From player: 310
Sun Nov 25 06:16:21 IST 2012	To player: 337
Sun Nov 25 06:16:21 IST 2012	Message type: basicproposaldiscussion
Sun Nov 25 06:16:21 IST 2012	Player 310 accepted offer
Sun Nov 25 06:16:21 IST 2012	Prop accepted, set counter offers count to: 0
Sun Nov 25 06:16:21 IST 2012	Prop accepted, get counter offers returned: 0
Sun Nov 25 06:16:21 IST 2012	A Phase Ended: Communication Phase
Sun Nov 25 06:16:21 IST 2012	Protocol: A New Phase Began: Exchange Phase
Sun Nov 25 06:16:21 IST 2012	Protocol: Exchange phase, Round: 10
Sun Nov 25 06:16:21 IST 2012	In begin exch.phase, get counter offers returned: 0
Sun Nov 25 06:16:36 IST 2012	A Phase Ended: Exchange Phase
Sun Nov 25 06:16:36 IST 2012	Proposer 337 sent: { chips  'CTRed':0 'CTPurple':0 'CTGreen':1 'grey78':0 'CTYellow':0 }
Sun Nov 25 06:16:36 IST 2012	Responder 310 sent: { chips  }
Sun Nov 25 06:16:36 IST 2012	Protocol: A New Phase Began: Movement Phase
Sun Nov 25 06:16:36 IST 2012	Protocol: Movement phase, Round: 10
Sun Nov 25 06:16:36 IST 2012	Player 310 moved to (R:0,C:3)
Sun Nov 25 06:16:55 IST 2012	A Phase Ended: Movement Phase
Sun Nov 25 06:16:55 IST 2012	Swaping roles:
Sun Nov 25 06:16:55 IST 2012	Proposer is: 310
Sun Nov 25 06:16:55 IST 2012	Responder is: 337
Sun Nov 25 06:16:55 IST 2012	Protocol: A New Phase Began: Feedback Phase
Sun Nov 25 06:16:55 IST 2012	Protocol: Feedback phase, Round: 10
Sun Nov 25 06:16:55 IST 2012	Number of consecutive no movements for player 337 is 2
Sun Nov 25 06:16:55 IST 2012	Number of consecutive no movements for player 310 is 0
Sun Nov 25 06:17:00 IST 2012	A Phase Ended: Feedback Phase
Sun Nov 25 06:17:00 IST 2012	Protocol: A New Phase Began: Communication Phase
Sun Nov 25 06:17:00 IST 2012	Protocol: Communication phase, Round: 11
Sun Nov 25 06:17:19 IST 2012	Received communication message 
Sun Nov 25 06:17:19 IST 2012	From player: 310
Sun Nov 25 06:17:19 IST 2012	To player: 337
Sun Nov 25 06:17:19 IST 2012	Message type: basicproposal
Sun Nov 25 06:17:19 IST 2012	Chips to send by proposer: { chips  'CTRed':0 'CTPurple':0 'CTGreen':0 'grey78':1 'CTYellow':0 }
Sun Nov 25 06:17:19 IST 2012	Chips to send by responder: { chips  'CTRed':0 'CTPurple':0 'CTGreen':5 'grey78':0 'CTYellow':0 }
Sun Nov 25 06:17:33 IST 2012	Received communication message 
Sun Nov 25 06:17:33 IST 2012	From player: 337
Sun Nov 25 06:17:33 IST 2012	To player: 310
Sun Nov 25 06:17:33 IST 2012	Message type: basicproposaldiscussion
Sun Nov 25 06:17:33 IST 2012	Player 337 rejected offer
Sun Nov 25 06:17:33 IST 2012	Swaping roles:
Sun Nov 25 06:17:33 IST 2012	Proposer is: 337
Sun Nov 25 06:17:33 IST 2012	Responder is: 310
Sun Nov 25 06:17:33 IST 2012	Prop rejected, set counter offers count to: 1
Sun Nov 25 06:17:33 IST 2012	Prop rejected, get counter offers returned: 1
Sun Nov 25 06:17:37 IST 2012	Slept 4 seconds
Sun Nov 25 06:17:37 IST 2012	Sent role changed msgs
Sun Nov 25 06:18:19 IST 2012	Received communication message 
Sun Nov 25 06:18:19 IST 2012	From player: 337
Sun Nov 25 06:18:19 IST 2012	To player: 310
Sun Nov 25 06:18:19 IST 2012	Message type: basicproposal
Sun Nov 25 06:18:19 IST 2012	Chips to send by proposer: { chips  'CTRed':0 'CTPurple':0 'CTGreen':1 'grey78':0 'CTYellow':0 }
Sun Nov 25 06:18:19 IST 2012	Chips to send by responder: { chips  'CTRed':0 'CTPurple':0 'CTGreen':0 'grey78':1 'CTYellow':0 }
Sun Nov 25 06:18:26 IST 2012	Received communication message 
Sun Nov 25 06:18:26 IST 2012	From player: 310
Sun Nov 25 06:18:26 IST 2012	To player: 337
Sun Nov 25 06:18:26 IST 2012	Message type: basicproposaldiscussion
Sun Nov 25 06:18:26 IST 2012	Player 310 rejected offer
Sun Nov 25 06:18:26 IST 2012	Set counter offers count to: 0
Sun Nov 25 06:18:26 IST 2012	A Phase Ended: Communication Phase
Sun Nov 25 06:18:26 IST 2012	Protocol: A New Phase Began: Exchange Phase
Sun Nov 25 06:18:26 IST 2012	Protocol: Exchange phase, Round: 11
Sun Nov 25 06:18:26 IST 2012	In begin exch.phase, get counter offers returned: 0
Sun Nov 25 06:19:06 IST 2012	A Phase Ended: Exchange Phase
Sun Nov 25 06:19:06 IST 2012	Proposer 337 sent: { chips  }
Sun Nov 25 06:19:06 IST 2012	Protocol: A New Phase Began: Movement Phase
Sun Nov 25 06:19:06 IST 2012	Protocol: Movement phase, Round: 11
Sun Nov 25 06:19:06 IST 2012	Player 337 moved to (R:3,C:1)
Sun Nov 25 06:19:06 IST 2012	Player 310 moved to (R:0,C:2)
Sun Nov 25 06:19:10 IST 2012	Slept 4 seconds
Sun Nov 25 06:19:10 IST 2012	Player 310 got to goal, advance the other and end game
Sun Nov 25 06:19:10 IST 2012	Player: 310 ,role: Responder score is: 205
Sun Nov 25 06:19:10 IST 2012	Player: 337 ,role: Proposer score is: 40
