Mon Nov 26 02:54:12 IST 2012	This is the CT debug logger; svn version 638; sep 27 09
Mon Nov 26 02:54:12 IST 2012	Mon Nov 26 02:54:12 IST 2012
Mon Nov 26 02:54:12 IST 2012	A new Alternative Offers game has began
Mon Nov 26 02:54:12 IST 2012	ID Number: 32886
Mon Nov 26 02:54:12 IST 2012	Creating board
Mon Nov 26 02:54:12 IST 2012	<colors>
Mon Nov 26 02:54:12 IST 2012	{ GamePalette  'CTRed':0 'CTPurple':1 'CTGreen':2 'grey78':3 'CTYellow':4 }
Mon Nov 26 02:54:12 IST 2012	<rows>
Mon Nov 26 02:54:12 IST 2012	7
Mon Nov 26 02:54:12 IST 2012	<columns>
Mon Nov 26 02:54:12 IST 2012	5
Mon Nov 26 02:54:12 IST 2012	<squaresColors>
Mon Nov 26 02:54:12 IST 2012	CTPurple CTRed CTRed CTGreen CTPurple 
Mon Nov 26 02:54:12 IST 2012	CTPurple grey78 CTPurple CTYellow CTPurple 
Mon Nov 26 02:54:12 IST 2012	CTPurple CTRed CTPurple CTGreen CTPurple 
Mon Nov 26 02:54:12 IST 2012	CTPurple grey78 CTPurple CTYellow CTPurple 
Mon Nov 26 02:54:12 IST 2012	CTPurple CTRed CTPurple CTGreen CTPurple 
Mon Nov 26 02:54:12 IST 2012	CTPurple grey78 CTPurple CTYellow CTPurple 
Mon Nov 26 02:54:12 IST 2012	CTPurple CTRed CTPurple CTGreen CTPurple 
Mon Nov 26 02:54:12 IST 2012	</squareColors>
Mon Nov 26 02:54:12 IST 2012	<goalPosition>
Mon Nov 26 02:54:12 IST 2012	Goal position: (R:0,C:2)
Mon Nov 26 02:54:12 IST 2012	<numberOfPlayers>
Mon Nov 26 02:54:12 IST 2012	2
Mon Nov 26 02:54:12 IST 2012	<firstPlayerChips>
Mon Nov 26 02:54:12 IST 2012	Setting chips for player: 337 id:0
Mon Nov 26 02:54:12 IST 2012	{ chips  'CTRed':5 'CTGreen':10 'CTPurple':0 'grey78':0 'CTYellow':9 }
Mon Nov 26 02:54:12 IST 2012	Player position: (R:6,C:0)
Mon Nov 26 02:54:12 IST 2012	Setting chips for player: 310 id:1
Mon Nov 26 02:54:12 IST 2012	{ chips  'CTRed':1 'CTGreen':13 'CTPurple':0 'grey78':10 'CTYellow':0 }
Mon Nov 26 02:54:12 IST 2012	Player position: (R:6,C:4)
Mon Nov 26 02:54:12 IST 2012	Protocol: A New Phase Began: Strategy Prep Phase
Mon Nov 26 02:54:12 IST 2012	Protocol: Strategy Preparation phase, Round: 0
Mon Nov 26 02:54:12 IST 2012	Maximum number of rounds with no consecutive movement is 3
Mon Nov 26 02:54:12 IST 2012	In begin comm. phase, set counter offers count to: 0
Mon Nov 26 02:54:12 IST 2012	In begin comm. phase, get counter offers returned: 0
Mon Nov 26 02:54:33 IST 2012	A Phase Ended: Strategy Prep Phase
Mon Nov 26 02:54:33 IST 2012	Protocol: A New Phase Began: Communication Phase
Mon Nov 26 02:54:33 IST 2012	Protocol: Communication phase, Round: 0
Mon Nov 26 02:55:33 IST 2012	Received communication message 
Mon Nov 26 02:55:33 IST 2012	From player: 337
Mon Nov 26 02:55:33 IST 2012	To player: 310
Mon Nov 26 02:55:33 IST 2012	Message type: basicproposal
Mon Nov 26 02:55:33 IST 2012	Chips to send by proposer: { chips  'CTGreen':1 }
Mon Nov 26 02:55:33 IST 2012	Chips to send by responder: { chips  'grey78':1 }
Mon Nov 26 02:55:47 IST 2012	Received communication message 
Mon Nov 26 02:55:47 IST 2012	From player: 310
Mon Nov 26 02:55:47 IST 2012	To player: 337
Mon Nov 26 02:55:47 IST 2012	Message type: basicproposaldiscussion
Mon Nov 26 02:55:47 IST 2012	Player 310 accepted offer
Mon Nov 26 02:55:47 IST 2012	Prop accepted, set counter offers count to: 0
Mon Nov 26 02:55:47 IST 2012	Prop accepted, get counter offers returned: 0
Mon Nov 26 02:55:47 IST 2012	A Phase Ended: Communication Phase
Mon Nov 26 02:55:47 IST 2012	Protocol: A New Phase Began: Exchange Phase
Mon Nov 26 02:55:47 IST 2012	Protocol: Exchange phase, Round: 0
Mon Nov 26 02:55:47 IST 2012	In begin exch.phase, get counter offers returned: 0
Mon Nov 26 02:56:16 IST 2012	A Phase Ended: Exchange Phase
Mon Nov 26 02:56:16 IST 2012	Proposer 337 sent: { chips  'CTRed':0 'CTPurple':0 'CTGreen':1 'grey78':0 'CTYellow':0 }
Mon Nov 26 02:56:16 IST 2012	Responder 310 sent: { chips  'CTRed':0 'CTPurple':0 'CTGreen':0 'grey78':1 'CTYellow':0 }
Mon Nov 26 02:56:16 IST 2012	Protocol: A New Phase Began: Movement Phase
Mon Nov 26 02:56:16 IST 2012	Protocol: Movement phase, Round: 0
Mon Nov 26 02:56:36 IST 2012	A Phase Ended: Movement Phase
Mon Nov 26 02:56:36 IST 2012	Swaping roles:
Mon Nov 26 02:56:36 IST 2012	Proposer is: 310
Mon Nov 26 02:56:36 IST 2012	Responder is: 337
Mon Nov 26 02:56:36 IST 2012	Protocol: A New Phase Began: Feedback Phase
Mon Nov 26 02:56:36 IST 2012	Protocol: Feedback phase, Round: 0
Mon Nov 26 02:56:36 IST 2012	Number of consecutive no movements for player 337 is 1
Mon Nov 26 02:56:36 IST 2012	Number of consecutive no movements for player 310 is 1
Mon Nov 26 02:56:42 IST 2012	A Phase Ended: Feedback Phase
Mon Nov 26 02:56:42 IST 2012	Protocol: A New Phase Began: Communication Phase
Mon Nov 26 02:56:42 IST 2012	Protocol: Communication phase, Round: 1
Mon Nov 26 02:57:21 IST 2012	Received communication message 
Mon Nov 26 02:57:21 IST 2012	From player: 310
Mon Nov 26 02:57:21 IST 2012	To player: 337
Mon Nov 26 02:57:21 IST 2012	Message type: basicproposal
Mon Nov 26 02:57:21 IST 2012	Chips to send by proposer: { chips  'CTRed':0 'CTPurple':0 'CTGreen':0 'grey78':1 'CTYellow':0 }
Mon Nov 26 02:57:21 IST 2012	Chips to send by responder: { chips  'CTRed':0 'CTPurple':0 'CTGreen':2 'grey78':0 'CTYellow':2 }
Mon Nov 26 02:58:01 IST 2012	Received communication message 
Mon Nov 26 02:58:01 IST 2012	From player: 337
Mon Nov 26 02:58:01 IST 2012	To player: 310
Mon Nov 26 02:58:01 IST 2012	Message type: basicproposaldiscussion
Mon Nov 26 02:58:01 IST 2012	Player 337 rejected offer
Mon Nov 26 02:58:01 IST 2012	Swaping roles:
Mon Nov 26 02:58:01 IST 2012	Proposer is: 337
Mon Nov 26 02:58:01 IST 2012	Responder is: 310
Mon Nov 26 02:58:01 IST 2012	Prop rejected, set counter offers count to: 1
Mon Nov 26 02:58:01 IST 2012	Prop rejected, get counter offers returned: 1
Mon Nov 26 02:58:05 IST 2012	Slept 4 seconds
Mon Nov 26 02:58:05 IST 2012	Sent role changed msgs
Mon Nov 26 02:59:05 IST 2012	Received communication message 
Mon Nov 26 02:59:05 IST 2012	From player: 337
Mon Nov 26 02:59:05 IST 2012	To player: 310
Mon Nov 26 02:59:05 IST 2012	Message type: basicproposal
Mon Nov 26 02:59:05 IST 2012	Chips to send by proposer: { chips  'CTRed':0 'CTPurple':0 'CTGreen':0 'grey78':0 'CTYellow':1 }
Mon Nov 26 02:59:05 IST 2012	Chips to send by responder: { chips  'CTRed':0 'CTPurple':0 'CTGreen':1 'grey78':1 'CTYellow':0 }
Mon Nov 26 02:59:15 IST 2012	Received communication message 
Mon Nov 26 02:59:15 IST 2012	From player: 310
Mon Nov 26 02:59:15 IST 2012	To player: 337
Mon Nov 26 02:59:15 IST 2012	Message type: basicproposaldiscussion
Mon Nov 26 02:59:15 IST 2012	Player 310 rejected offer
Mon Nov 26 02:59:15 IST 2012	Set counter offers count to: 0
Mon Nov 26 02:59:15 IST 2012	A Phase Ended: Communication Phase
Mon Nov 26 02:59:15 IST 2012	Protocol: A New Phase Began: Exchange Phase
Mon Nov 26 02:59:15 IST 2012	Protocol: Exchange phase, Round: 1
Mon Nov 26 02:59:15 IST 2012	In begin exch.phase, get counter offers returned: 0
Mon Nov 26 02:59:55 IST 2012	A Phase Ended: Exchange Phase
Mon Nov 26 02:59:55 IST 2012	Proposer 337 sent: { chips  }
Mon Nov 26 02:59:55 IST 2012	Protocol: A New Phase Began: Movement Phase
Mon Nov 26 02:59:55 IST 2012	Protocol: Movement phase, Round: 1
Mon Nov 26 03:00:16 IST 2012	A Phase Ended: Movement Phase
Mon Nov 26 03:00:16 IST 2012	Protocol: A New Phase Began: Feedback Phase
Mon Nov 26 03:00:16 IST 2012	Protocol: Feedback phase, Round: 1
Mon Nov 26 03:00:16 IST 2012	Number of consecutive no movements for player 337 is 2
Mon Nov 26 03:00:16 IST 2012	Number of consecutive no movements for player 310 is 2
Mon Nov 26 03:00:21 IST 2012	A Phase Ended: Feedback Phase
Mon Nov 26 03:00:21 IST 2012	Protocol: A New Phase Began: Communication Phase
Mon Nov 26 03:00:21 IST 2012	Protocol: Communication phase, Round: 2
Mon Nov 26 03:01:21 IST 2012	Received communication message 
Mon Nov 26 03:01:21 IST 2012	From player: 337
Mon Nov 26 03:01:21 IST 2012	To player: 310
Mon Nov 26 03:01:21 IST 2012	Message type: basicproposal
Mon Nov 26 03:01:21 IST 2012	Chips to send by proposer: { chips  'CTGreen':1 }
Mon Nov 26 03:01:21 IST 2012	Chips to send by responder: { chips  'grey78':1 }
Mon Nov 26 03:01:33 IST 2012	Received communication message 
Mon Nov 26 03:01:33 IST 2012	From player: 310
Mon Nov 26 03:01:33 IST 2012	To player: 337
Mon Nov 26 03:01:33 IST 2012	Message type: basicproposaldiscussion
Mon Nov 26 03:01:33 IST 2012	Player 310 rejected offer
Mon Nov 26 03:01:33 IST 2012	Swaping roles:
Mon Nov 26 03:01:33 IST 2012	Proposer is: 310
Mon Nov 26 03:01:33 IST 2012	Responder is: 337
Mon Nov 26 03:01:33 IST 2012	Prop rejected, set counter offers count to: 1
Mon Nov 26 03:01:33 IST 2012	Prop rejected, get counter offers returned: 1
Mon Nov 26 03:01:37 IST 2012	Slept 4 seconds
Mon Nov 26 03:01:37 IST 2012	Sent role changed msgs
Mon Nov 26 03:02:25 IST 2012	Received communication message 
Mon Nov 26 03:02:25 IST 2012	From player: 310
Mon Nov 26 03:02:25 IST 2012	To player: 337
Mon Nov 26 03:02:25 IST 2012	Message type: basicproposal
Mon Nov 26 03:02:25 IST 2012	Chips to send by proposer: { chips  'CTRed':0 'CTPurple':0 'CTGreen':0 'grey78':1 'CTYellow':0 }
Mon Nov 26 03:02:25 IST 2012	Chips to send by responder: { chips  'CTRed':0 'CTPurple':0 'CTGreen':1 'grey78':0 'CTYellow':2 }
Mon Nov 26 03:02:58 IST 2012	Received communication message 
Mon Nov 26 03:02:58 IST 2012	From player: 337
Mon Nov 26 03:02:58 IST 2012	To player: 310
Mon Nov 26 03:02:58 IST 2012	Message type: basicproposaldiscussion
Mon Nov 26 03:02:58 IST 2012	Player 337 accepted offer
Mon Nov 26 03:02:58 IST 2012	Prop accepted, set counter offers count to: 0
Mon Nov 26 03:02:58 IST 2012	Prop accepted, get counter offers returned: 0
Mon Nov 26 03:02:58 IST 2012	A Phase Ended: Communication Phase
Mon Nov 26 03:02:58 IST 2012	Protocol: A New Phase Began: Exchange Phase
Mon Nov 26 03:02:58 IST 2012	Protocol: Exchange phase, Round: 2
Mon Nov 26 03:02:58 IST 2012	In begin exch.phase, get counter offers returned: 0
Mon Nov 26 03:03:27 IST 2012	A Phase Ended: Exchange Phase
Mon Nov 26 03:03:27 IST 2012	Proposer 310 sent: { chips  'CTRed':0 'CTPurple':0 'CTGreen':0 'grey78':1 'CTYellow':0 }
Mon Nov 26 03:03:27 IST 2012	Responder 337 sent: { chips  'CTRed':0 'CTPurple':0 'CTGreen':0 'grey78':0 'CTYellow':1 }
Mon Nov 26 03:03:27 IST 2012	Protocol: A New Phase Began: Movement Phase
Mon Nov 26 03:03:27 IST 2012	Protocol: Movement phase, Round: 2
Mon Nov 26 03:03:27 IST 2012	Player 310 moved to (R:6,C:3)
Mon Nov 26 03:03:27 IST 2012	Player 337 moved to (R:6,C:1)
Mon Nov 26 03:03:46 IST 2012	A Phase Ended: Movement Phase
Mon Nov 26 03:03:46 IST 2012	Protocol: A New Phase Began: Feedback Phase
Mon Nov 26 03:03:46 IST 2012	Protocol: Feedback phase, Round: 2
Mon Nov 26 03:03:46 IST 2012	Number of consecutive no movements for player 337 is 0
Mon Nov 26 03:03:46 IST 2012	Number of consecutive no movements for player 310 is 0
Mon Nov 26 03:03:52 IST 2012	A Phase Ended: Feedback Phase
Mon Nov 26 03:03:52 IST 2012	Protocol: A New Phase Began: Communication Phase
Mon Nov 26 03:03:52 IST 2012	Protocol: Communication phase, Round: 3
Mon Nov 26 03:04:08 IST 2012	Received communication message 
Mon Nov 26 03:04:08 IST 2012	From player: 310
Mon Nov 26 03:04:08 IST 2012	To player: 337
Mon Nov 26 03:04:08 IST 2012	Message type: basicproposal
Mon Nov 26 03:04:08 IST 2012	Chips to send by proposer: { chips  'CTRed':0 'CTPurple':0 'CTGreen':0 'grey78':1 'CTYellow':0 }
Mon Nov 26 03:04:08 IST 2012	Chips to send by responder: { chips  'CTRed':0 'CTPurple':0 'CTGreen':3 'grey78':0 'CTYellow':2 }
Mon Nov 26 03:04:45 IST 2012	Received communication message 
Mon Nov 26 03:04:45 IST 2012	From player: 337
Mon Nov 26 03:04:45 IST 2012	To player: 310
Mon Nov 26 03:04:45 IST 2012	Message type: basicproposaldiscussion
Mon Nov 26 03:04:45 IST 2012	Player 337 rejected offer
Mon Nov 26 03:04:45 IST 2012	Swaping roles:
Mon Nov 26 03:04:45 IST 2012	Proposer is: 337
Mon Nov 26 03:04:45 IST 2012	Responder is: 310
Mon Nov 26 03:04:45 IST 2012	Prop rejected, set counter offers count to: 1
Mon Nov 26 03:04:45 IST 2012	Prop rejected, get counter offers returned: 1
Mon Nov 26 03:04:49 IST 2012	Slept 4 seconds
Mon Nov 26 03:04:49 IST 2012	Sent role changed msgs
Mon Nov 26 03:05:49 IST 2012	Received communication message 
Mon Nov 26 03:05:49 IST 2012	From player: 337
Mon Nov 26 03:05:49 IST 2012	To player: 310
Mon Nov 26 03:05:49 IST 2012	Message type: basicproposal
Mon Nov 26 03:05:49 IST 2012	Chips to send by proposer: { chips  'CTRed':0 'CTPurple':0 'CTGreen':0 'grey78':0 'CTYellow':1 }
Mon Nov 26 03:05:49 IST 2012	Chips to send by responder: { chips  'CTRed':0 'CTPurple':0 'CTGreen':1 'grey78':1 'CTYellow':0 }
Mon Nov 26 03:06:03 IST 2012	Received communication message 
Mon Nov 26 03:06:03 IST 2012	From player: 310
Mon Nov 26 03:06:03 IST 2012	To player: 337
Mon Nov 26 03:06:03 IST 2012	Message type: basicproposaldiscussion
Mon Nov 26 03:06:03 IST 2012	Player 310 rejected offer
Mon Nov 26 03:06:03 IST 2012	Set counter offers count to: 0
Mon Nov 26 03:06:03 IST 2012	A Phase Ended: Communication Phase
Mon Nov 26 03:06:03 IST 2012	Protocol: A New Phase Began: Exchange Phase
Mon Nov 26 03:06:03 IST 2012	Protocol: Exchange phase, Round: 3
Mon Nov 26 03:06:03 IST 2012	In begin exch.phase, get counter offers returned: 0
Mon Nov 26 03:06:43 IST 2012	A Phase Ended: Exchange Phase
Mon Nov 26 03:06:43 IST 2012	Proposer 337 sent: { chips  }
Mon Nov 26 03:06:43 IST 2012	Protocol: A New Phase Began: Movement Phase
Mon Nov 26 03:06:43 IST 2012	Protocol: Movement phase, Round: 3
Mon Nov 26 03:07:03 IST 2012	A Phase Ended: Movement Phase
Mon Nov 26 03:07:03 IST 2012	Protocol: A New Phase Began: Feedback Phase
Mon Nov 26 03:07:03 IST 2012	Protocol: Feedback phase, Round: 3
Mon Nov 26 03:07:03 IST 2012	Number of consecutive no movements for player 337 is 1
Mon Nov 26 03:07:03 IST 2012	Number of consecutive no movements for player 310 is 1
Mon Nov 26 03:07:08 IST 2012	A Phase Ended: Feedback Phase
Mon Nov 26 03:07:08 IST 2012	Protocol: A New Phase Began: Communication Phase
Mon Nov 26 03:07:08 IST 2012	Protocol: Communication phase, Round: 4
Mon Nov 26 03:08:08 IST 2012	Received communication message 
Mon Nov 26 03:08:08 IST 2012	From player: 337
Mon Nov 26 03:08:08 IST 2012	To player: 310
Mon Nov 26 03:08:08 IST 2012	Message type: basicproposal
Mon Nov 26 03:08:08 IST 2012	Chips to send by proposer: { chips  'CTYellow':1 }
Mon Nov 26 03:08:08 IST 2012	Chips to send by responder: { chips  'CTGreen':2 }
Mon Nov 26 03:08:14 IST 2012	Received communication message 
Mon Nov 26 03:08:14 IST 2012	From player: 310
Mon Nov 26 03:08:14 IST 2012	To player: 337
Mon Nov 26 03:08:14 IST 2012	Message type: basicproposaldiscussion
Mon Nov 26 03:08:14 IST 2012	Player 310 accepted offer
Mon Nov 26 03:08:14 IST 2012	Prop accepted, set counter offers count to: 0
Mon Nov 26 03:08:14 IST 2012	Prop accepted, get counter offers returned: 0
Mon Nov 26 03:08:14 IST 2012	A Phase Ended: Communication Phase
Mon Nov 26 03:08:14 IST 2012	Protocol: A New Phase Began: Exchange Phase
Mon Nov 26 03:08:14 IST 2012	Protocol: Exchange phase, Round: 4
Mon Nov 26 03:08:14 IST 2012	In begin exch.phase, get counter offers returned: 0
Mon Nov 26 03:08:43 IST 2012	A Phase Ended: Exchange Phase
Mon Nov 26 03:08:43 IST 2012	Proposer 337 sent: { chips  'CTRed':0 'CTPurple':0 'CTGreen':0 'grey78':0 'CTYellow':1 }
Mon Nov 26 03:08:43 IST 2012	Responder 310 sent: { chips  'CTRed':0 'CTPurple':0 'CTGreen':2 'grey78':0 'CTYellow':0 }
Mon Nov 26 03:08:44 IST 2012	Protocol: A New Phase Began: Movement Phase
Mon Nov 26 03:08:44 IST 2012	Protocol: Movement phase, Round: 4
Mon Nov 26 03:09:03 IST 2012	A Phase Ended: Movement Phase
Mon Nov 26 03:09:03 IST 2012	Swaping roles:
Mon Nov 26 03:09:03 IST 2012	Proposer is: 310
Mon Nov 26 03:09:03 IST 2012	Responder is: 337
Mon Nov 26 03:09:03 IST 2012	Protocol: A New Phase Began: Feedback Phase
Mon Nov 26 03:09:03 IST 2012	Protocol: Feedback phase, Round: 4
Mon Nov 26 03:09:03 IST 2012	Number of consecutive no movements for player 337 is 2
Mon Nov 26 03:09:03 IST 2012	Number of consecutive no movements for player 310 is 2
Mon Nov 26 03:09:08 IST 2012	A Phase Ended: Feedback Phase
Mon Nov 26 03:09:08 IST 2012	Protocol: A New Phase Began: Communication Phase
Mon Nov 26 03:09:08 IST 2012	Protocol: Communication phase, Round: 5
Mon Nov 26 03:09:28 IST 2012	Received communication message 
Mon Nov 26 03:09:28 IST 2012	From player: 310
Mon Nov 26 03:09:28 IST 2012	To player: 337
Mon Nov 26 03:09:28 IST 2012	Message type: basicproposal
Mon Nov 26 03:09:28 IST 2012	Chips to send by proposer: { chips  'CTRed':0 'CTPurple':0 'CTGreen':0 'grey78':1 'CTYellow':0 }
Mon Nov 26 03:09:28 IST 2012	Chips to send by responder: { chips  'CTRed':0 'CTPurple':0 'CTGreen':2 'grey78':0 'CTYellow':1 }
Mon Nov 26 03:09:50 IST 2012	Received communication message 
Mon Nov 26 03:09:50 IST 2012	From player: 337
Mon Nov 26 03:09:50 IST 2012	To player: 310
Mon Nov 26 03:09:50 IST 2012	Message type: basicproposaldiscussion
Mon Nov 26 03:09:50 IST 2012	Player 337 rejected offer
Mon Nov 26 03:09:50 IST 2012	Swaping roles:
Mon Nov 26 03:09:50 IST 2012	Proposer is: 337
Mon Nov 26 03:09:50 IST 2012	Responder is: 310
Mon Nov 26 03:09:50 IST 2012	Prop rejected, set counter offers count to: 1
Mon Nov 26 03:09:50 IST 2012	Prop rejected, get counter offers returned: 1
Mon Nov 26 03:09:54 IST 2012	Slept 4 seconds
Mon Nov 26 03:09:54 IST 2012	Sent role changed msgs
Mon Nov 26 03:10:54 IST 2012	Received communication message 
Mon Nov 26 03:10:54 IST 2012	From player: 337
Mon Nov 26 03:10:54 IST 2012	To player: 310
Mon Nov 26 03:10:54 IST 2012	Message type: basicproposal
Mon Nov 26 03:10:54 IST 2012	Chips to send by proposer: { chips  'CTRed':0 'CTPurple':0 'CTGreen':0 'grey78':0 'CTYellow':3 }
Mon Nov 26 03:10:54 IST 2012	Chips to send by responder: { chips  'CTRed':0 'CTPurple':0 'CTGreen':0 'grey78':1 'CTYellow':0 }
Mon Nov 26 03:11:00 IST 2012	Received communication message 
Mon Nov 26 03:11:00 IST 2012	From player: 310
Mon Nov 26 03:11:00 IST 2012	To player: 337
Mon Nov 26 03:11:00 IST 2012	Message type: basicproposaldiscussion
Mon Nov 26 03:11:00 IST 2012	Player 310 rejected offer
Mon Nov 26 03:11:00 IST 2012	Set counter offers count to: 0
Mon Nov 26 03:11:00 IST 2012	A Phase Ended: Communication Phase
Mon Nov 26 03:11:00 IST 2012	Protocol: A New Phase Began: Exchange Phase
Mon Nov 26 03:11:00 IST 2012	Protocol: Exchange phase, Round: 5
Mon Nov 26 03:11:00 IST 2012	In begin exch.phase, get counter offers returned: 0
Mon Nov 26 03:11:40 IST 2012	A Phase Ended: Exchange Phase
Mon Nov 26 03:11:40 IST 2012	Proposer 337 sent: { chips  }
Mon Nov 26 03:11:40 IST 2012	Protocol: A New Phase Began: Movement Phase
Mon Nov 26 03:11:40 IST 2012	Protocol: Movement phase, Round: 5
Mon Nov 26 03:11:40 IST 2012	Player 337 moved to (R:5,C:1)
Mon Nov 26 03:11:40 IST 2012	Player 310 moved to (R:5,C:3)
Mon Nov 26 03:12:00 IST 2012	A Phase Ended: Movement Phase
Mon Nov 26 03:12:00 IST 2012	Protocol: A New Phase Began: Feedback Phase
Mon Nov 26 03:12:00 IST 2012	Protocol: Feedback phase, Round: 5
Mon Nov 26 03:12:00 IST 2012	Number of consecutive no movements for player 337 is 0
Mon Nov 26 03:12:00 IST 2012	Number of consecutive no movements for player 310 is 0
Mon Nov 26 03:12:05 IST 2012	A Phase Ended: Feedback Phase
Mon Nov 26 03:12:05 IST 2012	Protocol: A New Phase Began: Communication Phase
Mon Nov 26 03:12:05 IST 2012	Protocol: Communication phase, Round: 6
Mon Nov 26 03:13:05 IST 2012	Received communication message 
Mon Nov 26 03:13:05 IST 2012	From player: 337
Mon Nov 26 03:13:05 IST 2012	To player: 310
Mon Nov 26 03:13:05 IST 2012	Message type: basicproposal
Mon Nov 26 03:13:05 IST 2012	Chips to send by proposer: { chips  'CTYellow':1 }
Mon Nov 26 03:13:05 IST 2012	Chips to send by responder: { chips  'CTGreen':2 'grey78':1 }
Mon Nov 26 03:13:20 IST 2012	Received communication message 
Mon Nov 26 03:13:20 IST 2012	From player: 310
Mon Nov 26 03:13:20 IST 2012	To player: 337
Mon Nov 26 03:13:20 IST 2012	Message type: basicproposaldiscussion
Mon Nov 26 03:13:20 IST 2012	Player 310 accepted offer
Mon Nov 26 03:13:20 IST 2012	Prop accepted, set counter offers count to: 0
Mon Nov 26 03:13:20 IST 2012	Prop accepted, get counter offers returned: 0
Mon Nov 26 03:13:20 IST 2012	A Phase Ended: Communication Phase
Mon Nov 26 03:13:20 IST 2012	Protocol: A New Phase Began: Exchange Phase
Mon Nov 26 03:13:20 IST 2012	Protocol: Exchange phase, Round: 6
Mon Nov 26 03:13:20 IST 2012	In begin exch.phase, get counter offers returned: 0
Mon Nov 26 03:13:37 IST 2012	A Phase Ended: Exchange Phase
Mon Nov 26 03:13:37 IST 2012	Proposer 337 sent: { chips  'CTRed':0 'CTPurple':0 'CTGreen':0 'grey78':0 'CTYellow':0 }
Mon Nov 26 03:13:37 IST 2012	Responder 310 sent: { chips  }
Mon Nov 26 03:13:37 IST 2012	Protocol: A New Phase Began: Movement Phase
Mon Nov 26 03:13:37 IST 2012	Protocol: Movement phase, Round: 6
Mon Nov 26 03:13:57 IST 2012	A Phase Ended: Movement Phase
Mon Nov 26 03:13:57 IST 2012	Swaping roles:
Mon Nov 26 03:13:57 IST 2012	Proposer is: 310
Mon Nov 26 03:13:57 IST 2012	Responder is: 337
Mon Nov 26 03:13:57 IST 2012	Protocol: A New Phase Began: Feedback Phase
Mon Nov 26 03:13:57 IST 2012	Protocol: Feedback phase, Round: 6
Mon Nov 26 03:13:57 IST 2012	Number of consecutive no movements for player 337 is 1
Mon Nov 26 03:13:57 IST 2012	Number of consecutive no movements for player 310 is 1
Mon Nov 26 03:14:02 IST 2012	A Phase Ended: Feedback Phase
Mon Nov 26 03:14:02 IST 2012	Protocol: A New Phase Began: Communication Phase
Mon Nov 26 03:14:02 IST 2012	Protocol: Communication phase, Round: 7
Mon Nov 26 03:14:23 IST 2012	Received communication message 
Mon Nov 26 03:14:23 IST 2012	From player: 310
Mon Nov 26 03:14:23 IST 2012	To player: 337
Mon Nov 26 03:14:23 IST 2012	Message type: basicproposal
Mon Nov 26 03:14:23 IST 2012	Chips to send by proposer: { chips  'CTRed':0 'CTPurple':0 'CTGreen':0 'grey78':1 'CTYellow':0 }
Mon Nov 26 03:14:23 IST 2012	Chips to send by responder: { chips  'CTRed':0 'CTPurple':0 'CTGreen':3 'grey78':0 'CTYellow':1 }
Mon Nov 26 03:14:44 IST 2012	Received communication message 
Mon Nov 26 03:14:44 IST 2012	From player: 337
Mon Nov 26 03:14:44 IST 2012	To player: 310
Mon Nov 26 03:14:44 IST 2012	Message type: basicproposaldiscussion
Mon Nov 26 03:14:44 IST 2012	Player 337 rejected offer
Mon Nov 26 03:14:44 IST 2012	Swaping roles:
Mon Nov 26 03:14:44 IST 2012	Proposer is: 337
Mon Nov 26 03:14:44 IST 2012	Responder is: 310
Mon Nov 26 03:14:44 IST 2012	Prop rejected, set counter offers count to: 1
Mon Nov 26 03:14:44 IST 2012	Prop rejected, get counter offers returned: 1
Mon Nov 26 03:14:48 IST 2012	Slept 4 seconds
Mon Nov 26 03:14:48 IST 2012	Sent role changed msgs
Mon Nov 26 03:15:48 IST 2012	Received communication message 
Mon Nov 26 03:15:48 IST 2012	From player: 337
Mon Nov 26 03:15:48 IST 2012	To player: 310
Mon Nov 26 03:15:48 IST 2012	Message type: basicproposal
Mon Nov 26 03:15:48 IST 2012	Chips to send by proposer: { chips  'CTRed':0 'CTPurple':0 'CTGreen':0 'grey78':0 'CTYellow':1 }
Mon Nov 26 03:15:48 IST 2012	Chips to send by responder: { chips  'CTRed':0 'CTPurple':0 'CTGreen':2 'grey78':1 'CTYellow':0 }
Mon Nov 26 03:15:59 IST 2012	Received communication message 
Mon Nov 26 03:15:59 IST 2012	From player: 310
Mon Nov 26 03:15:59 IST 2012	To player: 337
Mon Nov 26 03:15:59 IST 2012	Message type: basicproposaldiscussion
Mon Nov 26 03:15:59 IST 2012	Player 310 rejected offer
Mon Nov 26 03:15:59 IST 2012	Set counter offers count to: 0
Mon Nov 26 03:15:59 IST 2012	A Phase Ended: Communication Phase
Mon Nov 26 03:15:59 IST 2012	Protocol: A New Phase Began: Exchange Phase
Mon Nov 26 03:15:59 IST 2012	Protocol: Exchange phase, Round: 7
Mon Nov 26 03:15:59 IST 2012	In begin exch.phase, get counter offers returned: 0
Mon Nov 26 03:16:38 IST 2012	A Phase Ended: Exchange Phase
Mon Nov 26 03:16:38 IST 2012	Proposer 337 sent: { chips  }
Mon Nov 26 03:16:38 IST 2012	Protocol: A New Phase Began: Movement Phase
Mon Nov 26 03:16:38 IST 2012	Protocol: Movement phase, Round: 7
Mon Nov 26 03:16:58 IST 2012	A Phase Ended: Movement Phase
Mon Nov 26 03:16:58 IST 2012	Protocol: A New Phase Began: Feedback Phase
Mon Nov 26 03:16:58 IST 2012	Protocol: Feedback phase, Round: 7
Mon Nov 26 03:16:58 IST 2012	Number of consecutive no movements for player 337 is 2
Mon Nov 26 03:16:58 IST 2012	Number of consecutive no movements for player 310 is 2
Mon Nov 26 03:17:04 IST 2012	A Phase Ended: Feedback Phase
Mon Nov 26 03:17:04 IST 2012	Protocol: A New Phase Began: Communication Phase
Mon Nov 26 03:17:04 IST 2012	Protocol: Communication phase, Round: 8
Mon Nov 26 03:18:04 IST 2012	Received communication message 
Mon Nov 26 03:18:04 IST 2012	From player: 337
Mon Nov 26 03:18:04 IST 2012	To player: 310
Mon Nov 26 03:18:04 IST 2012	Message type: basicproposal
Mon Nov 26 03:18:04 IST 2012	Chips to send by proposer: { chips  'CTYellow':1 }
Mon Nov 26 03:18:04 IST 2012	Chips to send by responder: { chips  'CTGreen':2 'grey78':1 }
Mon Nov 26 03:18:18 IST 2012	Received communication message 
Mon Nov 26 03:18:18 IST 2012	From player: 310
Mon Nov 26 03:18:18 IST 2012	To player: 337
Mon Nov 26 03:18:18 IST 2012	Message type: basicproposaldiscussion
Mon Nov 26 03:18:18 IST 2012	Player 310 accepted offer
Mon Nov 26 03:18:18 IST 2012	Prop accepted, set counter offers count to: 0
Mon Nov 26 03:18:18 IST 2012	Prop accepted, get counter offers returned: 0
Mon Nov 26 03:18:18 IST 2012	A Phase Ended: Communication Phase
Mon Nov 26 03:18:18 IST 2012	Protocol: A New Phase Began: Exchange Phase
Mon Nov 26 03:18:18 IST 2012	Protocol: Exchange phase, Round: 8
Mon Nov 26 03:18:18 IST 2012	In begin exch.phase, get counter offers returned: 0
Mon Nov 26 03:18:38 IST 2012	A Phase Ended: Exchange Phase
Mon Nov 26 03:18:38 IST 2012	Proposer 337 sent: { chips  'CTRed':0 'CTPurple':0 'CTGreen':0 'grey78':0 'CTYellow':0 }
Mon Nov 26 03:18:38 IST 2012	Responder 310 sent: { chips  'CTRed':0 'CTPurple':0 'CTGreen':2 'grey78':1 'CTYellow':0 }
Mon Nov 26 03:18:38 IST 2012	Protocol: A New Phase Began: Movement Phase
Mon Nov 26 03:18:38 IST 2012	Protocol: Movement phase, Round: 8
Mon Nov 26 03:18:38 IST 2012	Player 310 moved to (R:4,C:3)
Mon Nov 26 03:18:38 IST 2012	Player 337 moved to (R:4,C:1)
Mon Nov 26 03:18:58 IST 2012	A Phase Ended: Movement Phase
Mon Nov 26 03:18:58 IST 2012	Swaping roles:
Mon Nov 26 03:18:58 IST 2012	Proposer is: 310
Mon Nov 26 03:18:58 IST 2012	Responder is: 337
Mon Nov 26 03:18:58 IST 2012	Protocol: A New Phase Began: Feedback Phase
Mon Nov 26 03:18:58 IST 2012	Protocol: Feedback phase, Round: 8
Mon Nov 26 03:18:58 IST 2012	Number of consecutive no movements for player 337 is 0
Mon Nov 26 03:18:58 IST 2012	Number of consecutive no movements for player 310 is 0
Mon Nov 26 03:19:03 IST 2012	A Phase Ended: Feedback Phase
Mon Nov 26 03:19:03 IST 2012	Protocol: A New Phase Began: Communication Phase
Mon Nov 26 03:19:03 IST 2012	Protocol: Communication phase, Round: 9
Mon Nov 26 03:19:19 IST 2012	Received communication message 
Mon Nov 26 03:19:19 IST 2012	From player: 310
Mon Nov 26 03:19:19 IST 2012	To player: 337
Mon Nov 26 03:19:19 IST 2012	Message type: basicproposal
Mon Nov 26 03:19:19 IST 2012	Chips to send by proposer: { chips  'CTRed':0 'CTPurple':0 'CTGreen':6 'grey78':0 'CTYellow':0 }
Mon Nov 26 03:19:19 IST 2012	Chips to send by responder: { chips  'CTRed':0 'CTPurple':0 'CTGreen':0 'grey78':0 'CTYellow':1 }
Mon Nov 26 03:19:41 IST 2012	Received communication message 
Mon Nov 26 03:19:41 IST 2012	From player: 337
Mon Nov 26 03:19:41 IST 2012	To player: 310
Mon Nov 26 03:19:41 IST 2012	Message type: basicproposaldiscussion
Mon Nov 26 03:19:41 IST 2012	Player 337 accepted offer
Mon Nov 26 03:19:41 IST 2012	Prop accepted, set counter offers count to: 0
Mon Nov 26 03:19:41 IST 2012	Prop accepted, get counter offers returned: 0
Mon Nov 26 03:19:41 IST 2012	A Phase Ended: Communication Phase
Mon Nov 26 03:19:41 IST 2012	Protocol: A New Phase Began: Exchange Phase
Mon Nov 26 03:19:41 IST 2012	Protocol: Exchange phase, Round: 9
Mon Nov 26 03:19:41 IST 2012	In begin exch.phase, get counter offers returned: 0
Mon Nov 26 03:20:01 IST 2012	A Phase Ended: Exchange Phase
Mon Nov 26 03:20:01 IST 2012	Proposer 310 sent: { chips  'CTRed':0 'CTPurple':0 'CTGreen':6 'grey78':0 'CTYellow':0 }
Mon Nov 26 03:20:01 IST 2012	Responder 337 sent: { chips  'CTRed':0 'CTPurple':0 'CTGreen':0 'grey78':0 'CTYellow':0 }
Mon Nov 26 03:20:01 IST 2012	Protocol: A New Phase Began: Movement Phase
Mon Nov 26 03:20:01 IST 2012	Protocol: Movement phase, Round: 9
Mon Nov 26 03:20:20 IST 2012	A Phase Ended: Movement Phase
Mon Nov 26 03:20:20 IST 2012	Swaping roles:
Mon Nov 26 03:20:20 IST 2012	Proposer is: 337
Mon Nov 26 03:20:20 IST 2012	Responder is: 310
Mon Nov 26 03:20:20 IST 2012	Protocol: A New Phase Began: Feedback Phase
Mon Nov 26 03:20:20 IST 2012	Protocol: Feedback phase, Round: 9
Mon Nov 26 03:20:20 IST 2012	Number of consecutive no movements for player 337 is 1
Mon Nov 26 03:20:20 IST 2012	Number of consecutive no movements for player 310 is 1
Mon Nov 26 03:20:25 IST 2012	A Phase Ended: Feedback Phase
Mon Nov 26 03:20:25 IST 2012	Protocol: A New Phase Began: Communication Phase
Mon Nov 26 03:20:25 IST 2012	Protocol: Communication phase, Round: 10
Mon Nov 26 03:21:25 IST 2012	Received communication message 
Mon Nov 26 03:21:25 IST 2012	From player: 337
Mon Nov 26 03:21:25 IST 2012	To player: 310
Mon Nov 26 03:21:25 IST 2012	Message type: basicproposal
Mon Nov 26 03:21:25 IST 2012	Chips to send by proposer: { chips  'CTYellow':1 }
Mon Nov 26 03:21:25 IST 2012	Chips to send by responder: { chips  'grey78':3 }
Mon Nov 26 03:21:39 IST 2012	Received communication message 
Mon Nov 26 03:21:39 IST 2012	From player: 310
Mon Nov 26 03:21:39 IST 2012	To player: 337
Mon Nov 26 03:21:39 IST 2012	Message type: basicproposaldiscussion
Mon Nov 26 03:21:39 IST 2012	Player 310 rejected offer
Mon Nov 26 03:21:39 IST 2012	Swaping roles:
Mon Nov 26 03:21:39 IST 2012	Proposer is: 310
Mon Nov 26 03:21:39 IST 2012	Responder is: 337
Mon Nov 26 03:21:39 IST 2012	Prop rejected, set counter offers count to: 1
Mon Nov 26 03:21:39 IST 2012	Prop rejected, get counter offers returned: 1
Mon Nov 26 03:21:43 IST 2012	Slept 4 seconds
Mon Nov 26 03:21:43 IST 2012	Sent role changed msgs
Mon Nov 26 03:22:02 IST 2012	Received communication message 
Mon Nov 26 03:22:02 IST 2012	From player: 310
Mon Nov 26 03:22:02 IST 2012	To player: 337
Mon Nov 26 03:22:02 IST 2012	Message type: basicproposal
Mon Nov 26 03:22:02 IST 2012	Chips to send by proposer: { chips  'CTRed':0 'CTPurple':0 'CTGreen':0 'grey78':6 'CTYellow':0 }
Mon Nov 26 03:22:02 IST 2012	Chips to send by responder: { chips  'CTRed':0 'CTPurple':0 'CTGreen':0 'grey78':0 'CTYellow':1 }
Mon Nov 26 03:22:39 IST 2012	Received communication message 
Mon Nov 26 03:22:39 IST 2012	From player: 337
Mon Nov 26 03:22:39 IST 2012	To player: 310
Mon Nov 26 03:22:39 IST 2012	Message type: basicproposaldiscussion
Mon Nov 26 03:22:39 IST 2012	Player 337 accepted offer
Mon Nov 26 03:22:39 IST 2012	Prop accepted, set counter offers count to: 0
Mon Nov 26 03:22:39 IST 2012	Prop accepted, get counter offers returned: 0
Mon Nov 26 03:22:39 IST 2012	A Phase Ended: Communication Phase
Mon Nov 26 03:22:39 IST 2012	Protocol: A New Phase Began: Exchange Phase
Mon Nov 26 03:22:39 IST 2012	Protocol: Exchange phase, Round: 10
Mon Nov 26 03:22:39 IST 2012	In begin exch.phase, get counter offers returned: 0
Mon Nov 26 03:23:03 IST 2012	A Phase Ended: Exchange Phase
Mon Nov 26 03:23:03 IST 2012	Proposer 310 sent: { chips  }
Mon Nov 26 03:23:03 IST 2012	Responder 337 sent: { chips  'CTRed':0 'CTPurple':0 'CTGreen':0 'grey78':0 'CTYellow':0 }
Mon Nov 26 03:23:03 IST 2012	Protocol: A New Phase Began: Movement Phase
Mon Nov 26 03:23:03 IST 2012	Protocol: Movement phase, Round: 10
Mon Nov 26 03:23:23 IST 2012	A Phase Ended: Movement Phase
Mon Nov 26 03:23:23 IST 2012	Protocol: A New Phase Began: Feedback Phase
Mon Nov 26 03:23:23 IST 2012	Protocol: Feedback phase, Round: 10
Mon Nov 26 03:23:23 IST 2012	Number of consecutive no movements for player 337 is 2
Mon Nov 26 03:23:23 IST 2012	Number of consecutive no movements for player 310 is 2
Mon Nov 26 03:23:28 IST 2012	A Phase Ended: Feedback Phase
Mon Nov 26 03:23:28 IST 2012	Protocol: A New Phase Began: Communication Phase
Mon Nov 26 03:23:28 IST 2012	Protocol: Communication phase, Round: 11
Mon Nov 26 03:23:48 IST 2012	Received communication message 
Mon Nov 26 03:23:48 IST 2012	From player: 310
Mon Nov 26 03:23:48 IST 2012	To player: 337
Mon Nov 26 03:23:48 IST 2012	Message type: basicproposal
Mon Nov 26 03:23:48 IST 2012	Chips to send by proposer: { chips  'CTRed':0 'CTPurple':0 'CTGreen':0 'grey78':4 'CTYellow':0 }
Mon Nov 26 03:23:48 IST 2012	Chips to send by responder: { chips  'CTRed':0 'CTPurple':0 'CTGreen':0 'grey78':0 'CTYellow':1 }
Mon Nov 26 03:24:24 IST 2012	Received communication message 
Mon Nov 26 03:24:24 IST 2012	From player: 337
Mon Nov 26 03:24:24 IST 2012	To player: 310
Mon Nov 26 03:24:24 IST 2012	Message type: basicproposaldiscussion
Mon Nov 26 03:24:24 IST 2012	Player 337 accepted offer
Mon Nov 26 03:24:24 IST 2012	Prop accepted, set counter offers count to: 0
Mon Nov 26 03:24:24 IST 2012	Prop accepted, get counter offers returned: 0
Mon Nov 26 03:24:24 IST 2012	A Phase Ended: Communication Phase
Mon Nov 26 03:24:24 IST 2012	Protocol: A New Phase Began: Exchange Phase
Mon Nov 26 03:24:24 IST 2012	Protocol: Exchange phase, Round: 11
Mon Nov 26 03:24:24 IST 2012	In begin exch.phase, get counter offers returned: 0
Mon Nov 26 03:24:48 IST 2012	A Phase Ended: Exchange Phase
Mon Nov 26 03:24:48 IST 2012	Proposer 310 sent: { chips  }
Mon Nov 26 03:24:48 IST 2012	Responder 337 sent: { chips  'CTRed':0 'CTPurple':0 'CTGreen':0 'grey78':0 'CTYellow':0 }
Mon Nov 26 03:24:48 IST 2012	Protocol: A New Phase Began: Movement Phase
Mon Nov 26 03:24:48 IST 2012	Protocol: Movement phase, Round: 11
Mon Nov 26 03:24:48 IST 2012	Player 310 moved to (R:3,C:3)
Mon Nov 26 03:24:48 IST 2012	Player 337 moved to (R:3,C:1)
Mon Nov 26 03:25:07 IST 2012	A Phase Ended: Movement Phase
Mon Nov 26 03:25:07 IST 2012	Swaping roles:
Mon Nov 26 03:25:07 IST 2012	Proposer is: 337
Mon Nov 26 03:25:07 IST 2012	Responder is: 310
Mon Nov 26 03:25:07 IST 2012	Protocol: A New Phase Began: Feedback Phase
Mon Nov 26 03:25:07 IST 2012	Protocol: Feedback phase, Round: 11
Mon Nov 26 03:25:07 IST 2012	Number of consecutive no movements for player 337 is 0
Mon Nov 26 03:25:07 IST 2012	Number of consecutive no movements for player 310 is 0
Mon Nov 26 03:25:12 IST 2012	A Phase Ended: Feedback Phase
Mon Nov 26 03:25:12 IST 2012	Protocol: A New Phase Began: Communication Phase
Mon Nov 26 03:25:12 IST 2012	Protocol: Communication phase, Round: 12
Mon Nov 26 03:26:12 IST 2012	Received communication message 
Mon Nov 26 03:26:12 IST 2012	From player: 337
Mon Nov 26 03:26:12 IST 2012	To player: 310
Mon Nov 26 03:26:12 IST 2012	Message type: basicproposal
Mon Nov 26 03:26:12 IST 2012	Chips to send by proposer: { chips  'CTYellow':1 }
Mon Nov 26 03:26:12 IST 2012	Chips to send by responder: { chips  'grey78':3 }
Mon Nov 26 03:26:25 IST 2012	Received communication message 
Mon Nov 26 03:26:25 IST 2012	From player: 310
Mon Nov 26 03:26:25 IST 2012	To player: 337
Mon Nov 26 03:26:25 IST 2012	Message type: basicproposaldiscussion
Mon Nov 26 03:26:25 IST 2012	Player 310 accepted offer
Mon Nov 26 03:26:25 IST 2012	Prop accepted, set counter offers count to: 0
Mon Nov 26 03:26:25 IST 2012	Prop accepted, get counter offers returned: 0
Mon Nov 26 03:26:25 IST 2012	A Phase Ended: Communication Phase
Mon Nov 26 03:26:25 IST 2012	Protocol: A New Phase Began: Exchange Phase
Mon Nov 26 03:26:25 IST 2012	Protocol: Exchange phase, Round: 12
Mon Nov 26 03:26:25 IST 2012	In begin exch.phase, get counter offers returned: 0
Mon Nov 26 03:26:47 IST 2012	A Phase Ended: Exchange Phase
Mon Nov 26 03:26:47 IST 2012	Proposer 337 sent: { chips  'CTRed':0 'CTPurple':0 'CTGreen':0 'grey78':0 'CTYellow':0 }
Mon Nov 26 03:26:47 IST 2012	Responder 310 sent: { chips  }
Mon Nov 26 03:26:47 IST 2012	Protocol: A New Phase Began: Movement Phase
Mon Nov 26 03:26:47 IST 2012	Protocol: Movement phase, Round: 12
Mon Nov 26 03:27:07 IST 2012	A Phase Ended: Movement Phase
Mon Nov 26 03:27:07 IST 2012	Swaping roles:
Mon Nov 26 03:27:07 IST 2012	Proposer is: 310
Mon Nov 26 03:27:07 IST 2012	Responder is: 337
Mon Nov 26 03:27:07 IST 2012	Protocol: A New Phase Began: Feedback Phase
Mon Nov 26 03:27:07 IST 2012	Protocol: Feedback phase, Round: 12
Mon Nov 26 03:27:07 IST 2012	Number of consecutive no movements for player 337 is 1
Mon Nov 26 03:27:07 IST 2012	Number of consecutive no movements for player 310 is 1
Mon Nov 26 03:27:12 IST 2012	A Phase Ended: Feedback Phase
Mon Nov 26 03:27:12 IST 2012	Protocol: A New Phase Began: Communication Phase
Mon Nov 26 03:27:12 IST 2012	Protocol: Communication phase, Round: 13
Mon Nov 26 03:27:27 IST 2012	Received communication message 
Mon Nov 26 03:27:27 IST 2012	From player: 310
Mon Nov 26 03:27:27 IST 2012	To player: 337
Mon Nov 26 03:27:27 IST 2012	Message type: basicproposal
Mon Nov 26 03:27:27 IST 2012	Chips to send by proposer: { chips  'CTRed':0 'CTPurple':0 'CTGreen':0 'grey78':1 'CTYellow':0 }
Mon Nov 26 03:27:27 IST 2012	Chips to send by responder: { chips  'CTRed':0 'CTPurple':0 'CTGreen':0 'grey78':0 'CTYellow':1 }
Mon Nov 26 03:27:57 IST 2012	Received communication message 
Mon Nov 26 03:27:57 IST 2012	From player: 337
Mon Nov 26 03:27:57 IST 2012	To player: 310
Mon Nov 26 03:27:57 IST 2012	Message type: basicproposaldiscussion
Mon Nov 26 03:27:57 IST 2012	Player 337 accepted offer
Mon Nov 26 03:27:57 IST 2012	Prop accepted, set counter offers count to: 0
Mon Nov 26 03:27:57 IST 2012	Prop accepted, get counter offers returned: 0
Mon Nov 26 03:27:57 IST 2012	A Phase Ended: Communication Phase
Mon Nov 26 03:27:57 IST 2012	Protocol: A New Phase Began: Exchange Phase
Mon Nov 26 03:27:57 IST 2012	Protocol: Exchange phase, Round: 13
Mon Nov 26 03:27:57 IST 2012	In begin exch.phase, get counter offers returned: 0
Mon Nov 26 03:28:16 IST 2012	A Phase Ended: Exchange Phase
Mon Nov 26 03:28:16 IST 2012	Proposer 310 sent: { chips  'CTRed':0 'CTPurple':0 'CTGreen':0 'grey78':1 'CTYellow':0 }
Mon Nov 26 03:28:16 IST 2012	Responder 337 sent: { chips  'CTRed':0 'CTPurple':0 'CTGreen':0 'grey78':0 'CTYellow':0 }
Mon Nov 26 03:28:16 IST 2012	Protocol: A New Phase Began: Movement Phase
Mon Nov 26 03:28:16 IST 2012	Protocol: Movement phase, Round: 13
Mon Nov 26 03:28:36 IST 2012	A Phase Ended: Movement Phase
Mon Nov 26 03:28:36 IST 2012	Swaping roles:
Mon Nov 26 03:28:36 IST 2012	Proposer is: 337
Mon Nov 26 03:28:36 IST 2012	Responder is: 310
Mon Nov 26 03:28:36 IST 2012	Protocol: A New Phase Began: Feedback Phase
Mon Nov 26 03:28:36 IST 2012	Protocol: Feedback phase, Round: 13
Mon Nov 26 03:28:36 IST 2012	Number of consecutive no movements for player 337 is 2
Mon Nov 26 03:28:36 IST 2012	Number of consecutive no movements for player 310 is 2
Mon Nov 26 03:28:41 IST 2012	A Phase Ended: Feedback Phase
Mon Nov 26 03:28:41 IST 2012	Protocol: A New Phase Began: Communication Phase
Mon Nov 26 03:28:41 IST 2012	Protocol: Communication phase, Round: 14
Mon Nov 26 03:29:41 IST 2012	Received communication message 
Mon Nov 26 03:29:41 IST 2012	From player: 337
Mon Nov 26 03:29:41 IST 2012	To player: 310
Mon Nov 26 03:29:41 IST 2012	Message type: basicproposal
Mon Nov 26 03:29:41 IST 2012	Chips to send by proposer: { chips  'CTYellow':1 }
Mon Nov 26 03:29:41 IST 2012	Chips to send by responder: { chips  'grey78':2 }
Mon Nov 26 03:29:49 IST 2012	Received communication message 
Mon Nov 26 03:29:49 IST 2012	From player: 310
Mon Nov 26 03:29:49 IST 2012	To player: 337
Mon Nov 26 03:29:49 IST 2012	Message type: basicproposaldiscussion
Mon Nov 26 03:29:49 IST 2012	Player 310 rejected offer
Mon Nov 26 03:29:49 IST 2012	Swaping roles:
Mon Nov 26 03:29:49 IST 2012	Proposer is: 310
Mon Nov 26 03:29:49 IST 2012	Responder is: 337
Mon Nov 26 03:29:49 IST 2012	Prop rejected, set counter offers count to: 1
Mon Nov 26 03:29:49 IST 2012	Prop rejected, get counter offers returned: 1
Mon Nov 26 03:29:53 IST 2012	Slept 4 seconds
Mon Nov 26 03:29:53 IST 2012	Sent role changed msgs
Mon Nov 26 03:30:11 IST 2012	Received communication message 
Mon Nov 26 03:30:11 IST 2012	From player: 310
Mon Nov 26 03:30:11 IST 2012	To player: 337
Mon Nov 26 03:30:11 IST 2012	Message type: basicproposal
Mon Nov 26 03:30:11 IST 2012	Chips to send by proposer: { chips  'CTRed':0 'CTPurple':0 'CTGreen':0 'grey78':5 'CTYellow':0 }
Mon Nov 26 03:30:11 IST 2012	Chips to send by responder: { chips  'CTRed':0 'CTPurple':0 'CTGreen':0 'grey78':0 'CTYellow':1 }
Mon Nov 26 03:30:34 IST 2012	Received communication message 
Mon Nov 26 03:30:34 IST 2012	From player: 337
Mon Nov 26 03:30:34 IST 2012	To player: 310
Mon Nov 26 03:30:34 IST 2012	Message type: basicproposaldiscussion
Mon Nov 26 03:30:34 IST 2012	Player 337 accepted offer
Mon Nov 26 03:30:34 IST 2012	Prop accepted, set counter offers count to: 0
Mon Nov 26 03:30:34 IST 2012	Prop accepted, get counter offers returned: 0
Mon Nov 26 03:30:34 IST 2012	A Phase Ended: Communication Phase
Mon Nov 26 03:30:34 IST 2012	Protocol: A New Phase Began: Exchange Phase
Mon Nov 26 03:30:34 IST 2012	Protocol: Exchange phase, Round: 14
Mon Nov 26 03:30:34 IST 2012	In begin exch.phase, get counter offers returned: 0
Mon Nov 26 03:30:51 IST 2012	A Phase Ended: Exchange Phase
Mon Nov 26 03:30:51 IST 2012	Proposer 310 sent: { chips  }
Mon Nov 26 03:30:51 IST 2012	Responder 337 sent: { chips  'CTRed':0 'CTPurple':0 'CTGreen':0 'grey78':0 'CTYellow':0 }
Mon Nov 26 03:30:51 IST 2012	Protocol: A New Phase Began: Movement Phase
Mon Nov 26 03:30:51 IST 2012	Protocol: Movement phase, Round: 14
Mon Nov 26 03:30:51 IST 2012	Player 337 moved to (R:2,C:1)
Mon Nov 26 03:30:51 IST 2012	Player 310 moved to (R:2,C:3)
Mon Nov 26 03:31:10 IST 2012	A Phase Ended: Movement Phase
Mon Nov 26 03:31:10 IST 2012	Protocol: A New Phase Began: Feedback Phase
Mon Nov 26 03:31:10 IST 2012	Protocol: Feedback phase, Round: 14
Mon Nov 26 03:31:10 IST 2012	Number of consecutive no movements for player 337 is 0
Mon Nov 26 03:31:10 IST 2012	Number of consecutive no movements for player 310 is 0
Mon Nov 26 03:31:15 IST 2012	A Phase Ended: Feedback Phase
Mon Nov 26 03:31:15 IST 2012	Protocol: A New Phase Began: Communication Phase
Mon Nov 26 03:31:15 IST 2012	Protocol: Communication phase, Round: 15
Mon Nov 26 03:31:35 IST 2012	Received communication message 
Mon Nov 26 03:31:35 IST 2012	From player: 310
Mon Nov 26 03:31:35 IST 2012	To player: 337
Mon Nov 26 03:31:35 IST 2012	Message type: basicproposal
Mon Nov 26 03:31:35 IST 2012	Chips to send by proposer: { chips  'CTRed':0 'CTPurple':0 'CTGreen':0 'grey78':6 'CTYellow':0 }
Mon Nov 26 03:31:35 IST 2012	Chips to send by responder: { chips  'CTRed':0 'CTPurple':0 'CTGreen':0 'grey78':0 'CTYellow':1 }
Mon Nov 26 03:31:54 IST 2012	Received communication message 
Mon Nov 26 03:31:54 IST 2012	From player: 337
Mon Nov 26 03:31:54 IST 2012	To player: 310
Mon Nov 26 03:31:54 IST 2012	Message type: basicproposaldiscussion
Mon Nov 26 03:31:54 IST 2012	Player 337 accepted offer
Mon Nov 26 03:31:54 IST 2012	Prop accepted, set counter offers count to: 0
Mon Nov 26 03:31:54 IST 2012	Prop accepted, get counter offers returned: 0
Mon Nov 26 03:31:54 IST 2012	A Phase Ended: Communication Phase
Mon Nov 26 03:31:54 IST 2012	Protocol: A New Phase Began: Exchange Phase
Mon Nov 26 03:31:54 IST 2012	Protocol: Exchange phase, Round: 15
Mon Nov 26 03:31:54 IST 2012	In begin exch.phase, get counter offers returned: 0
Mon Nov 26 03:32:07 IST 2012	A Phase Ended: Exchange Phase
Mon Nov 26 03:32:07 IST 2012	Proposer 310 sent: { chips  }
Mon Nov 26 03:32:07 IST 2012	Responder 337 sent: { chips  'CTRed':0 'CTPurple':0 'CTGreen':0 'grey78':0 'CTYellow':0 }
Mon Nov 26 03:32:07 IST 2012	Protocol: A New Phase Began: Movement Phase
Mon Nov 26 03:32:07 IST 2012	Protocol: Movement phase, Round: 15
Mon Nov 26 03:32:26 IST 2012	A Phase Ended: Movement Phase
Mon Nov 26 03:32:26 IST 2012	Swaping roles:
Mon Nov 26 03:32:26 IST 2012	Proposer is: 337
Mon Nov 26 03:32:26 IST 2012	Responder is: 310
Mon Nov 26 03:32:26 IST 2012	Protocol: A New Phase Began: Feedback Phase
Mon Nov 26 03:32:26 IST 2012	Protocol: Feedback phase, Round: 15
Mon Nov 26 03:32:26 IST 2012	Number of consecutive no movements for player 337 is 1
Mon Nov 26 03:32:26 IST 2012	Number of consecutive no movements for player 310 is 1
Mon Nov 26 03:32:31 IST 2012	A Phase Ended: Feedback Phase
Mon Nov 26 03:32:31 IST 2012	Protocol: A New Phase Began: Communication Phase
Mon Nov 26 03:32:31 IST 2012	Protocol: Communication phase, Round: 16
Mon Nov 26 03:33:16 IST 2012	Received communication message 
Mon Nov 26 03:33:16 IST 2012	From player: 337
Mon Nov 26 03:33:16 IST 2012	To player: 310
Mon Nov 26 03:33:16 IST 2012	Message type: basicproposal
Mon Nov 26 03:33:16 IST 2012	Chips to send by proposer: { chips  'CTYellow':1 }
Mon Nov 26 03:33:16 IST 2012	Chips to send by responder: { chips  'grey78':3 }
Mon Nov 26 03:33:30 IST 2012	Received communication message 
Mon Nov 26 03:33:30 IST 2012	From player: 310
Mon Nov 26 03:33:30 IST 2012	To player: 337
Mon Nov 26 03:33:30 IST 2012	Message type: basicproposaldiscussion
Mon Nov 26 03:33:30 IST 2012	Player 310 accepted offer
Mon Nov 26 03:33:30 IST 2012	Prop accepted, set counter offers count to: 0
Mon Nov 26 03:33:30 IST 2012	Prop accepted, get counter offers returned: 0
Mon Nov 26 03:33:30 IST 2012	A Phase Ended: Communication Phase
Mon Nov 26 03:33:30 IST 2012	Protocol: A New Phase Began: Exchange Phase
Mon Nov 26 03:33:30 IST 2012	Protocol: Exchange phase, Round: 16
Mon Nov 26 03:33:30 IST 2012	In begin exch.phase, get counter offers returned: 0
Mon Nov 26 03:33:39 IST 2012	A Phase Ended: Exchange Phase
Mon Nov 26 03:33:39 IST 2012	Proposer 337 sent: { chips  'CTRed':0 'CTPurple':0 'CTGreen':0 'grey78':0 'CTYellow':0 }
Mon Nov 26 03:33:39 IST 2012	Responder 310 sent: { chips  }
Mon Nov 26 03:33:39 IST 2012	Protocol: A New Phase Began: Movement Phase
Mon Nov 26 03:33:39 IST 2012	Protocol: Movement phase, Round: 16
Mon Nov 26 03:33:59 IST 2012	A Phase Ended: Movement Phase
Mon Nov 26 03:33:59 IST 2012	Swaping roles:
Mon Nov 26 03:33:59 IST 2012	Proposer is: 310
Mon Nov 26 03:33:59 IST 2012	Responder is: 337
Mon Nov 26 03:33:59 IST 2012	Protocol: A New Phase Began: Feedback Phase
Mon Nov 26 03:33:59 IST 2012	Protocol: Feedback phase, Round: 16
Mon Nov 26 03:33:59 IST 2012	Number of consecutive no movements for player 337 is 2
Mon Nov 26 03:33:59 IST 2012	Number of consecutive no movements for player 310 is 2
Mon Nov 26 03:34:04 IST 2012	A Phase Ended: Feedback Phase
Mon Nov 26 03:34:04 IST 2012	Protocol: A New Phase Began: Communication Phase
Mon Nov 26 03:34:04 IST 2012	Protocol: Communication phase, Round: 17
Mon Nov 26 03:34:16 IST 2012	Received communication message 
Mon Nov 26 03:34:16 IST 2012	From player: 310
Mon Nov 26 03:34:16 IST 2012	To player: 337
Mon Nov 26 03:34:16 IST 2012	Message type: basicproposal
Mon Nov 26 03:34:16 IST 2012	Chips to send by proposer: { chips  'CTRed':0 'CTPurple':0 'CTGreen':0 'grey78':6 'CTYellow':0 }
Mon Nov 26 03:34:16 IST 2012	Chips to send by responder: { chips  'CTRed':0 'CTPurple':0 'CTGreen':0 'grey78':0 'CTYellow':1 }
Mon Nov 26 03:34:23 IST 2012	Received communication message 
Mon Nov 26 03:34:23 IST 2012	From player: 337
Mon Nov 26 03:34:23 IST 2012	To player: 310
Mon Nov 26 03:34:23 IST 2012	Message type: basicproposaldiscussion
Mon Nov 26 03:34:23 IST 2012	Player 337 accepted offer
Mon Nov 26 03:34:23 IST 2012	Prop accepted, set counter offers count to: 0
Mon Nov 26 03:34:23 IST 2012	Prop accepted, get counter offers returned: 0
Mon Nov 26 03:34:23 IST 2012	A Phase Ended: Communication Phase
Mon Nov 26 03:34:23 IST 2012	Protocol: A New Phase Began: Exchange Phase
Mon Nov 26 03:34:23 IST 2012	Protocol: Exchange phase, Round: 17
Mon Nov 26 03:34:23 IST 2012	In begin exch.phase, get counter offers returned: 0
Mon Nov 26 03:34:29 IST 2012	A Phase Ended: Exchange Phase
Mon Nov 26 03:34:29 IST 2012	Proposer 310 sent: { chips  }
Mon Nov 26 03:34:29 IST 2012	Responder 337 sent: { chips  'CTRed':0 'CTPurple':0 'CTGreen':0 'grey78':0 'CTYellow':0 }
Mon Nov 26 03:34:29 IST 2012	Protocol: A New Phase Began: Movement Phase
Mon Nov 26 03:34:29 IST 2012	Protocol: Movement phase, Round: 17
Mon Nov 26 03:34:29 IST 2012	Player 337 moved to (R:1,C:1)
Mon Nov 26 03:34:48 IST 2012	A Phase Ended: Movement Phase
Mon Nov 26 03:34:48 IST 2012	Swaping roles:
Mon Nov 26 03:34:48 IST 2012	Proposer is: 337
Mon Nov 26 03:34:48 IST 2012	Responder is: 310
Mon Nov 26 03:34:48 IST 2012	Protocol: A New Phase Began: Feedback Phase
Mon Nov 26 03:34:48 IST 2012	Protocol: Feedback phase, Round: 17
Mon Nov 26 03:34:48 IST 2012	Number of consecutive no movements for player 337 is 0
Mon Nov 26 03:34:48 IST 2012	Number of consecutive no movements for player 310 is 3
Mon Nov 26 03:34:48 IST 2012	Ending game, all players move as much as they can towards goal
Mon Nov 26 03:34:48 IST 2012	Player: 337 ,role: Proposer score is: 235
Mon Nov 26 03:34:48 IST 2012	Player: 310 ,role: Responder score is: 10
