Tue Nov 27 01:28:51 IST 2012	This is the CT debug logger; svn version 638; sep 27 09
Tue Nov 27 01:28:51 IST 2012	Tue Nov 27 01:28:51 IST 2012
Tue Nov 27 01:28:51 IST 2012	A new Alternative Offers game has began
Tue Nov 27 01:28:51 IST 2012	ID Number: 31222
Tue Nov 27 01:28:51 IST 2012	Creating board
Tue Nov 27 01:28:51 IST 2012	<colors>
Tue Nov 27 01:28:51 IST 2012	{ GamePalette  'CTRed':0 'CTPurple':1 'CTGreen':2 'grey78':3 'CTYellow':4 }
Tue Nov 27 01:28:51 IST 2012	<rows>
Tue Nov 27 01:28:51 IST 2012	7
Tue Nov 27 01:28:51 IST 2012	<columns>
Tue Nov 27 01:28:51 IST 2012	5
Tue Nov 27 01:28:51 IST 2012	<squaresColors>
Tue Nov 27 01:28:51 IST 2012	CTPurple CTRed CTRed CTGreen CTPurple 
Tue Nov 27 01:28:51 IST 2012	CTPurple grey78 CTPurple CTYellow CTPurple 
Tue Nov 27 01:28:51 IST 2012	CTPurple CTRed CTPurple CTGreen CTPurple 
Tue Nov 27 01:28:51 IST 2012	CTPurple grey78 CTPurple CTYellow CTPurple 
Tue Nov 27 01:28:51 IST 2012	CTPurple CTRed CTPurple CTGreen CTPurple 
Tue Nov 27 01:28:51 IST 2012	CTPurple grey78 CTPurple CTYellow CTPurple 
Tue Nov 27 01:28:51 IST 2012	CTPurple CTRed CTPurple CTGreen CTPurple 
Tue Nov 27 01:28:51 IST 2012	</squareColors>
Tue Nov 27 01:28:51 IST 2012	<goalPosition>
Tue Nov 27 01:28:51 IST 2012	Goal position: (R:0,C:2)
Tue Nov 27 01:28:51 IST 2012	<numberOfPlayers>
Tue Nov 27 01:28:51 IST 2012	2
Tue Nov 27 01:28:51 IST 2012	<firstPlayerChips>
Tue Nov 27 01:28:51 IST 2012	Setting chips for player: 337 id:0
Tue Nov 27 01:28:51 IST 2012	{ chips  'CTRed':5 'CTGreen':10 'CTPurple':0 'grey78':0 'CTYellow':9 }
Tue Nov 27 01:28:51 IST 2012	Player position: (R:6,C:0)
Tue Nov 27 01:28:51 IST 2012	Setting chips for player: 310 id:1
Tue Nov 27 01:28:51 IST 2012	{ chips  'CTRed':1 'CTGreen':13 'CTPurple':0 'grey78':10 'CTYellow':0 }
Tue Nov 27 01:28:51 IST 2012	Player position: (R:6,C:4)
Tue Nov 27 01:28:51 IST 2012	Protocol: A New Phase Began: Strategy Prep Phase
Tue Nov 27 01:28:51 IST 2012	Protocol: Strategy Preparation phase, Round: 0
Tue Nov 27 01:28:51 IST 2012	Maximum number of rounds with no consecutive movement is 3
Tue Nov 27 01:28:51 IST 2012	In begin comm. phase, set counter offers count to: 0
Tue Nov 27 01:28:51 IST 2012	In begin comm. phase, get counter offers returned: 0
Tue Nov 27 01:29:11 IST 2012	A Phase Ended: Strategy Prep Phase
Tue Nov 27 01:29:11 IST 2012	Protocol: A New Phase Began: Communication Phase
Tue Nov 27 01:29:11 IST 2012	Protocol: Communication phase, Round: 0
Tue Nov 27 01:30:11 IST 2012	Received communication message 
Tue Nov 27 01:30:11 IST 2012	From player: 337
Tue Nov 27 01:30:11 IST 2012	To player: 310
Tue Nov 27 01:30:11 IST 2012	Message type: basicproposal
Tue Nov 27 01:30:11 IST 2012	Chips to send by proposer: { chips  'CTGreen':2 }
Tue Nov 27 01:30:11 IST 2012	Chips to send by responder: { chips  'grey78':1 }
Tue Nov 27 01:30:19 IST 2012	Received communication message 
Tue Nov 27 01:30:19 IST 2012	From player: 310
Tue Nov 27 01:30:19 IST 2012	To player: 337
Tue Nov 27 01:30:19 IST 2012	Message type: basicproposaldiscussion
Tue Nov 27 01:30:19 IST 2012	Player 310 accepted offer
Tue Nov 27 01:30:19 IST 2012	Prop accepted, set counter offers count to: 0
Tue Nov 27 01:30:19 IST 2012	Prop accepted, get counter offers returned: 0
Tue Nov 27 01:30:19 IST 2012	A Phase Ended: Communication Phase
Tue Nov 27 01:30:19 IST 2012	Protocol: A New Phase Began: Exchange Phase
Tue Nov 27 01:30:19 IST 2012	Protocol: Exchange phase, Round: 0
Tue Nov 27 01:30:19 IST 2012	In begin exch.phase, get counter offers returned: 0
Tue Nov 27 01:30:48 IST 2012	A Phase Ended: Exchange Phase
Tue Nov 27 01:30:48 IST 2012	Proposer 337 sent: { chips  'CTRed':0 'CTPurple':0 'CTGreen':2 'grey78':0 'CTYellow':0 }
Tue Nov 27 01:30:48 IST 2012	Responder 310 sent: { chips  'CTRed':0 'CTPurple':0 'CTGreen':0 'grey78':1 'CTYellow':0 }
Tue Nov 27 01:30:48 IST 2012	Protocol: A New Phase Began: Movement Phase
Tue Nov 27 01:30:48 IST 2012	Protocol: Movement phase, Round: 0
Tue Nov 27 01:31:08 IST 2012	A Phase Ended: Movement Phase
Tue Nov 27 01:31:08 IST 2012	Swaping roles:
Tue Nov 27 01:31:08 IST 2012	Proposer is: 310
Tue Nov 27 01:31:08 IST 2012	Responder is: 337
Tue Nov 27 01:31:08 IST 2012	Protocol: A New Phase Began: Feedback Phase
Tue Nov 27 01:31:08 IST 2012	Protocol: Feedback phase, Round: 0
Tue Nov 27 01:31:08 IST 2012	Number of consecutive no movements for player 337 is 1
Tue Nov 27 01:31:08 IST 2012	Number of consecutive no movements for player 310 is 1
Tue Nov 27 01:31:13 IST 2012	A Phase Ended: Feedback Phase
Tue Nov 27 01:31:13 IST 2012	Protocol: A New Phase Began: Communication Phase
Tue Nov 27 01:31:13 IST 2012	Protocol: Communication phase, Round: 1
Tue Nov 27 01:31:54 IST 2012	Received communication message 
Tue Nov 27 01:31:54 IST 2012	From player: 310
Tue Nov 27 01:31:54 IST 2012	To player: 337
Tue Nov 27 01:31:54 IST 2012	Message type: basicproposal
Tue Nov 27 01:31:54 IST 2012	Chips to send by proposer: { chips  'CTRed':0 'CTPurple':0 'CTGreen':0 'grey78':1 'CTYellow':0 }
Tue Nov 27 01:31:54 IST 2012	Chips to send by responder: { chips  'CTRed':0 'CTPurple':0 'CTGreen':1 'grey78':0 'CTYellow':2 }
Tue Nov 27 01:32:30 IST 2012	Received communication message 
Tue Nov 27 01:32:30 IST 2012	From player: 337
Tue Nov 27 01:32:30 IST 2012	To player: 310
Tue Nov 27 01:32:30 IST 2012	Message type: basicproposaldiscussion
Tue Nov 27 01:32:30 IST 2012	Player 337 rejected offer
Tue Nov 27 01:32:30 IST 2012	Swaping roles:
Tue Nov 27 01:32:30 IST 2012	Proposer is: 337
Tue Nov 27 01:32:30 IST 2012	Responder is: 310
Tue Nov 27 01:32:30 IST 2012	Prop rejected, set counter offers count to: 1
Tue Nov 27 01:32:30 IST 2012	Prop rejected, get counter offers returned: 1
Tue Nov 27 01:32:34 IST 2012	Slept 4 seconds
Tue Nov 27 01:32:34 IST 2012	Sent role changed msgs
Tue Nov 27 01:33:34 IST 2012	Received communication message 
Tue Nov 27 01:33:34 IST 2012	From player: 337
Tue Nov 27 01:33:34 IST 2012	To player: 310
Tue Nov 27 01:33:34 IST 2012	Message type: basicproposal
Tue Nov 27 01:33:34 IST 2012	Chips to send by proposer: { chips  'CTRed':0 'CTPurple':0 'CTGreen':0 'grey78':0 'CTYellow':1 }
Tue Nov 27 01:33:34 IST 2012	Chips to send by responder: { chips  'CTRed':0 'CTPurple':0 'CTGreen':1 'grey78':1 'CTYellow':0 }
Tue Nov 27 01:33:41 IST 2012	Received communication message 
Tue Nov 27 01:33:41 IST 2012	From player: 310
Tue Nov 27 01:33:41 IST 2012	To player: 337
Tue Nov 27 01:33:41 IST 2012	Message type: basicproposaldiscussion
Tue Nov 27 01:33:41 IST 2012	Player 310 rejected offer
Tue Nov 27 01:33:41 IST 2012	Set counter offers count to: 0
Tue Nov 27 01:33:41 IST 2012	A Phase Ended: Communication Phase
Tue Nov 27 01:33:41 IST 2012	Protocol: A New Phase Began: Exchange Phase
Tue Nov 27 01:33:41 IST 2012	Protocol: Exchange phase, Round: 1
Tue Nov 27 01:33:41 IST 2012	In begin exch.phase, get counter offers returned: 0
Tue Nov 27 01:34:21 IST 2012	A Phase Ended: Exchange Phase
Tue Nov 27 01:34:21 IST 2012	Proposer 337 sent: { chips  }
Tue Nov 27 01:34:21 IST 2012	Protocol: A New Phase Began: Movement Phase
Tue Nov 27 01:34:21 IST 2012	Protocol: Movement phase, Round: 1
Tue Nov 27 01:34:41 IST 2012	A Phase Ended: Movement Phase
Tue Nov 27 01:34:41 IST 2012	Protocol: A New Phase Began: Feedback Phase
Tue Nov 27 01:34:41 IST 2012	Protocol: Feedback phase, Round: 1
Tue Nov 27 01:34:41 IST 2012	Number of consecutive no movements for player 337 is 2
Tue Nov 27 01:34:41 IST 2012	Number of consecutive no movements for player 310 is 2
Tue Nov 27 01:34:46 IST 2012	A Phase Ended: Feedback Phase
Tue Nov 27 01:34:46 IST 2012	Protocol: A New Phase Began: Communication Phase
Tue Nov 27 01:34:46 IST 2012	Protocol: Communication phase, Round: 2
Tue Nov 27 01:35:46 IST 2012	Received communication message 
Tue Nov 27 01:35:46 IST 2012	From player: 337
Tue Nov 27 01:35:46 IST 2012	To player: 310
Tue Nov 27 01:35:46 IST 2012	Message type: basicproposal
Tue Nov 27 01:35:46 IST 2012	Chips to send by proposer: { chips  'CTYellow':1 }
Tue Nov 27 01:35:46 IST 2012	Chips to send by responder: { chips  'CTGreen':1 'grey78':1 }
Tue Nov 27 01:35:56 IST 2012	Received communication message 
Tue Nov 27 01:35:56 IST 2012	From player: 310
Tue Nov 27 01:35:56 IST 2012	To player: 337
Tue Nov 27 01:35:56 IST 2012	Message type: basicproposaldiscussion
Tue Nov 27 01:35:56 IST 2012	Player 310 accepted offer
Tue Nov 27 01:35:56 IST 2012	Prop accepted, set counter offers count to: 0
Tue Nov 27 01:35:56 IST 2012	Prop accepted, get counter offers returned: 0
Tue Nov 27 01:35:56 IST 2012	A Phase Ended: Communication Phase
Tue Nov 27 01:35:56 IST 2012	Protocol: A New Phase Began: Exchange Phase
Tue Nov 27 01:35:56 IST 2012	Protocol: Exchange phase, Round: 2
Tue Nov 27 01:35:56 IST 2012	In begin exch.phase, get counter offers returned: 0
Tue Nov 27 01:36:25 IST 2012	A Phase Ended: Exchange Phase
Tue Nov 27 01:36:25 IST 2012	Proposer 337 sent: { chips  'CTRed':0 'CTPurple':0 'CTGreen':0 'grey78':0 'CTYellow':1 }
Tue Nov 27 01:36:25 IST 2012	Responder 310 sent: { chips  'CTRed':0 'CTPurple':0 'CTGreen':0 'grey78':1 'CTYellow':0 }
Tue Nov 27 01:36:25 IST 2012	Protocol: A New Phase Began: Movement Phase
Tue Nov 27 01:36:25 IST 2012	Protocol: Movement phase, Round: 2
Tue Nov 27 01:36:25 IST 2012	Player 310 moved to (R:6,C:3)
Tue Nov 27 01:36:25 IST 2012	Player 337 moved to (R:6,C:1)
Tue Nov 27 01:36:45 IST 2012	A Phase Ended: Movement Phase
Tue Nov 27 01:36:45 IST 2012	Swaping roles:
Tue Nov 27 01:36:45 IST 2012	Proposer is: 310
Tue Nov 27 01:36:45 IST 2012	Responder is: 337
Tue Nov 27 01:36:45 IST 2012	Protocol: A New Phase Began: Feedback Phase
Tue Nov 27 01:36:45 IST 2012	Protocol: Feedback phase, Round: 2
Tue Nov 27 01:36:45 IST 2012	Number of consecutive no movements for player 337 is 0
Tue Nov 27 01:36:45 IST 2012	Number of consecutive no movements for player 310 is 0
Tue Nov 27 01:36:50 IST 2012	A Phase Ended: Feedback Phase
Tue Nov 27 01:36:50 IST 2012	Protocol: A New Phase Began: Communication Phase
Tue Nov 27 01:36:50 IST 2012	Protocol: Communication phase, Round: 3
Tue Nov 27 01:37:09 IST 2012	Received communication message 
Tue Nov 27 01:37:09 IST 2012	From player: 310
Tue Nov 27 01:37:09 IST 2012	To player: 337
Tue Nov 27 01:37:09 IST 2012	Message type: basicproposal
Tue Nov 27 01:37:09 IST 2012	Chips to send by proposer: { chips  'CTRed':0 'CTPurple':0 'CTGreen':0 'grey78':1 'CTYellow':0 }
Tue Nov 27 01:37:09 IST 2012	Chips to send by responder: { chips  'CTRed':0 'CTPurple':0 'CTGreen':5 'grey78':0 'CTYellow':1 }
Tue Nov 27 01:37:40 IST 2012	Received communication message 
Tue Nov 27 01:37:40 IST 2012	From player: 337
Tue Nov 27 01:37:40 IST 2012	To player: 310
Tue Nov 27 01:37:40 IST 2012	Message type: basicproposaldiscussion
Tue Nov 27 01:37:40 IST 2012	Player 337 rejected offer
Tue Nov 27 01:37:40 IST 2012	Swaping roles:
Tue Nov 27 01:37:40 IST 2012	Proposer is: 337
Tue Nov 27 01:37:40 IST 2012	Responder is: 310
Tue Nov 27 01:37:40 IST 2012	Prop rejected, set counter offers count to: 1
Tue Nov 27 01:37:40 IST 2012	Prop rejected, get counter offers returned: 1
Tue Nov 27 01:37:44 IST 2012	Slept 4 seconds
Tue Nov 27 01:37:44 IST 2012	Sent role changed msgs
Tue Nov 27 01:38:44 IST 2012	Received communication message 
Tue Nov 27 01:38:44 IST 2012	From player: 337
Tue Nov 27 01:38:44 IST 2012	To player: 310
Tue Nov 27 01:38:44 IST 2012	Message type: basicproposal
Tue Nov 27 01:38:44 IST 2012	Chips to send by proposer: { chips  'CTRed':0 'CTPurple':0 'CTGreen':0 'grey78':0 'CTYellow':2 }
Tue Nov 27 01:38:44 IST 2012	Chips to send by responder: { chips  'CTRed':0 'CTPurple':0 'CTGreen':1 'grey78':1 'CTYellow':0 }
Tue Nov 27 01:38:58 IST 2012	Received communication message 
Tue Nov 27 01:38:58 IST 2012	From player: 310
Tue Nov 27 01:38:58 IST 2012	To player: 337
Tue Nov 27 01:38:58 IST 2012	Message type: basicproposaldiscussion
Tue Nov 27 01:38:58 IST 2012	Player 310 rejected offer
Tue Nov 27 01:38:58 IST 2012	Set counter offers count to: 0
Tue Nov 27 01:38:58 IST 2012	A Phase Ended: Communication Phase
Tue Nov 27 01:38:58 IST 2012	Protocol: A New Phase Began: Exchange Phase
Tue Nov 27 01:38:58 IST 2012	Protocol: Exchange phase, Round: 3
Tue Nov 27 01:38:58 IST 2012	In begin exch.phase, get counter offers returned: 0
Tue Nov 27 01:39:38 IST 2012	A Phase Ended: Exchange Phase
Tue Nov 27 01:39:38 IST 2012	Proposer 337 sent: { chips  }
Tue Nov 27 01:39:38 IST 2012	Protocol: A New Phase Began: Movement Phase
Tue Nov 27 01:39:38 IST 2012	Protocol: Movement phase, Round: 3
Tue Nov 27 01:39:58 IST 2012	A Phase Ended: Movement Phase
Tue Nov 27 01:39:58 IST 2012	Protocol: A New Phase Began: Feedback Phase
Tue Nov 27 01:39:58 IST 2012	Protocol: Feedback phase, Round: 3
Tue Nov 27 01:39:58 IST 2012	Number of consecutive no movements for player 337 is 1
Tue Nov 27 01:39:58 IST 2012	Number of consecutive no movements for player 310 is 1
Tue Nov 27 01:40:03 IST 2012	A Phase Ended: Feedback Phase
Tue Nov 27 01:40:03 IST 2012	Protocol: A New Phase Began: Communication Phase
Tue Nov 27 01:40:03 IST 2012	Protocol: Communication phase, Round: 4
Tue Nov 27 01:41:03 IST 2012	Received communication message 
Tue Nov 27 01:41:03 IST 2012	From player: 337
Tue Nov 27 01:41:03 IST 2012	To player: 310
Tue Nov 27 01:41:03 IST 2012	Message type: basicproposal
Tue Nov 27 01:41:03 IST 2012	Chips to send by proposer: { chips  'CTYellow':2 }
Tue Nov 27 01:41:03 IST 2012	Chips to send by responder: { chips  'CTGreen':2 'grey78':1 }
Tue Nov 27 01:41:14 IST 2012	Received communication message 
Tue Nov 27 01:41:14 IST 2012	From player: 310
Tue Nov 27 01:41:14 IST 2012	To player: 337
Tue Nov 27 01:41:14 IST 2012	Message type: basicproposaldiscussion
Tue Nov 27 01:41:14 IST 2012	Player 310 rejected offer
Tue Nov 27 01:41:14 IST 2012	Swaping roles:
Tue Nov 27 01:41:14 IST 2012	Proposer is: 310
Tue Nov 27 01:41:14 IST 2012	Responder is: 337
Tue Nov 27 01:41:14 IST 2012	Prop rejected, set counter offers count to: 1
Tue Nov 27 01:41:14 IST 2012	Prop rejected, get counter offers returned: 1
Tue Nov 27 01:41:18 IST 2012	Slept 4 seconds
Tue Nov 27 01:41:18 IST 2012	Sent role changed msgs
Tue Nov 27 01:41:34 IST 2012	Received communication message 
Tue Nov 27 01:41:34 IST 2012	From player: 310
Tue Nov 27 01:41:34 IST 2012	To player: 337
Tue Nov 27 01:41:34 IST 2012	Message type: basicproposal
Tue Nov 27 01:41:34 IST 2012	Chips to send by proposer: { chips  'CTRed':0 'CTPurple':0 'CTGreen':0 'grey78':1 'CTYellow':0 }
Tue Nov 27 01:41:34 IST 2012	Chips to send by responder: { chips  'CTRed':0 'CTPurple':0 'CTGreen':3 'grey78':0 'CTYellow':2 }
Tue Nov 27 01:42:03 IST 2012	Received communication message 
Tue Nov 27 01:42:03 IST 2012	From player: 337
Tue Nov 27 01:42:03 IST 2012	To player: 310
Tue Nov 27 01:42:03 IST 2012	Message type: basicproposaldiscussion
Tue Nov 27 01:42:03 IST 2012	Player 337 rejected offer
Tue Nov 27 01:42:03 IST 2012	Set counter offers count to: 0
Tue Nov 27 01:42:03 IST 2012	A Phase Ended: Communication Phase
Tue Nov 27 01:42:03 IST 2012	Protocol: A New Phase Began: Exchange Phase
Tue Nov 27 01:42:03 IST 2012	Protocol: Exchange phase, Round: 4
Tue Nov 27 01:42:03 IST 2012	In begin exch.phase, get counter offers returned: 0
Tue Nov 27 01:42:43 IST 2012	A Phase Ended: Exchange Phase
Tue Nov 27 01:42:43 IST 2012	Responder 337 sent: { chips  }
Tue Nov 27 01:42:43 IST 2012	Protocol: A New Phase Began: Movement Phase
Tue Nov 27 01:42:43 IST 2012	Protocol: Movement phase, Round: 4
Tue Nov 27 01:43:03 IST 2012	A Phase Ended: Movement Phase
Tue Nov 27 01:43:03 IST 2012	Protocol: A New Phase Began: Feedback Phase
Tue Nov 27 01:43:03 IST 2012	Protocol: Feedback phase, Round: 4
Tue Nov 27 01:43:03 IST 2012	Number of consecutive no movements for player 337 is 2
Tue Nov 27 01:43:03 IST 2012	Number of consecutive no movements for player 310 is 2
Tue Nov 27 01:43:08 IST 2012	A Phase Ended: Feedback Phase
Tue Nov 27 01:43:08 IST 2012	Protocol: A New Phase Began: Communication Phase
Tue Nov 27 01:43:08 IST 2012	Protocol: Communication phase, Round: 5
Tue Nov 27 01:43:25 IST 2012	Received communication message 
Tue Nov 27 01:43:25 IST 2012	From player: 310
Tue Nov 27 01:43:25 IST 2012	To player: 337
Tue Nov 27 01:43:25 IST 2012	Message type: basicproposal
Tue Nov 27 01:43:25 IST 2012	Chips to send by proposer: { chips  'CTRed':0 'CTPurple':0 'CTGreen':0 'grey78':1 'CTYellow':0 }
Tue Nov 27 01:43:25 IST 2012	Chips to send by responder: { chips  'CTRed':0 'CTPurple':0 'CTGreen':4 'grey78':0 'CTYellow':2 }
Tue Nov 27 01:43:55 IST 2012	Received communication message 
Tue Nov 27 01:43:55 IST 2012	From player: 337
Tue Nov 27 01:43:55 IST 2012	To player: 310
Tue Nov 27 01:43:55 IST 2012	Message type: basicproposaldiscussion
Tue Nov 27 01:43:55 IST 2012	Player 337 rejected offer
Tue Nov 27 01:43:55 IST 2012	Swaping roles:
Tue Nov 27 01:43:55 IST 2012	Proposer is: 337
Tue Nov 27 01:43:55 IST 2012	Responder is: 310
Tue Nov 27 01:43:55 IST 2012	Prop rejected, set counter offers count to: 1
Tue Nov 27 01:43:55 IST 2012	Prop rejected, get counter offers returned: 1
Tue Nov 27 01:43:59 IST 2012	Slept 4 seconds
Tue Nov 27 01:43:59 IST 2012	Sent role changed msgs
Tue Nov 27 01:44:59 IST 2012	Received communication message 
Tue Nov 27 01:44:59 IST 2012	From player: 337
Tue Nov 27 01:44:59 IST 2012	To player: 310
Tue Nov 27 01:44:59 IST 2012	Message type: basicproposal
Tue Nov 27 01:44:59 IST 2012	Chips to send by proposer: { chips  'CTRed':0 'CTPurple':0 'CTGreen':0 'grey78':0 'CTYellow':1 }
Tue Nov 27 01:44:59 IST 2012	Chips to send by responder: { chips  'CTRed':0 'CTPurple':0 'CTGreen':2 'grey78':1 'CTYellow':0 }
Tue Nov 27 01:45:07 IST 2012	Received communication message 
Tue Nov 27 01:45:07 IST 2012	From player: 310
Tue Nov 27 01:45:07 IST 2012	To player: 337
Tue Nov 27 01:45:07 IST 2012	Message type: basicproposaldiscussion
Tue Nov 27 01:45:07 IST 2012	Player 310 rejected offer
Tue Nov 27 01:45:07 IST 2012	Set counter offers count to: 0
Tue Nov 27 01:45:07 IST 2012	A Phase Ended: Communication Phase
Tue Nov 27 01:45:07 IST 2012	Protocol: A New Phase Began: Exchange Phase
Tue Nov 27 01:45:07 IST 2012	Protocol: Exchange phase, Round: 5
Tue Nov 27 01:45:07 IST 2012	In begin exch.phase, get counter offers returned: 0
Tue Nov 27 01:45:47 IST 2012	A Phase Ended: Exchange Phase
Tue Nov 27 01:45:47 IST 2012	Proposer 337 sent: { chips  }
Tue Nov 27 01:45:47 IST 2012	Protocol: A New Phase Began: Movement Phase
Tue Nov 27 01:45:47 IST 2012	Protocol: Movement phase, Round: 5
Tue Nov 27 01:45:47 IST 2012	Player 310 moved to (R:5,C:3)
Tue Nov 27 01:45:47 IST 2012	Player 337 moved to (R:5,C:1)
Tue Nov 27 01:46:07 IST 2012	A Phase Ended: Movement Phase
Tue Nov 27 01:46:07 IST 2012	Protocol: A New Phase Began: Feedback Phase
Tue Nov 27 01:46:07 IST 2012	Protocol: Feedback phase, Round: 5
Tue Nov 27 01:46:07 IST 2012	Number of consecutive no movements for player 337 is 0
Tue Nov 27 01:46:07 IST 2012	Number of consecutive no movements for player 310 is 0
Tue Nov 27 01:46:13 IST 2012	A Phase Ended: Feedback Phase
Tue Nov 27 01:46:13 IST 2012	Protocol: A New Phase Began: Communication Phase
Tue Nov 27 01:46:13 IST 2012	Protocol: Communication phase, Round: 6
Tue Nov 27 01:47:13 IST 2012	Received communication message 
Tue Nov 27 01:47:13 IST 2012	From player: 337
Tue Nov 27 01:47:13 IST 2012	To player: 310
Tue Nov 27 01:47:13 IST 2012	Message type: basicproposal
Tue Nov 27 01:47:13 IST 2012	Chips to send by proposer: { chips  'CTYellow':1 }
Tue Nov 27 01:47:13 IST 2012	Chips to send by responder: { chips  'CTGreen':3 }
Tue Nov 27 01:47:19 IST 2012	Received communication message 
Tue Nov 27 01:47:19 IST 2012	From player: 310
Tue Nov 27 01:47:19 IST 2012	To player: 337
Tue Nov 27 01:47:19 IST 2012	Message type: basicproposaldiscussion
Tue Nov 27 01:47:19 IST 2012	Player 310 accepted offer
Tue Nov 27 01:47:19 IST 2012	Prop accepted, set counter offers count to: 0
Tue Nov 27 01:47:19 IST 2012	Prop accepted, get counter offers returned: 0
Tue Nov 27 01:47:19 IST 2012	A Phase Ended: Communication Phase
Tue Nov 27 01:47:19 IST 2012	Protocol: A New Phase Began: Exchange Phase
Tue Nov 27 01:47:19 IST 2012	Protocol: Exchange phase, Round: 6
Tue Nov 27 01:47:19 IST 2012	In begin exch.phase, get counter offers returned: 0
Tue Nov 27 01:47:43 IST 2012	A Phase Ended: Exchange Phase
Tue Nov 27 01:47:43 IST 2012	Proposer 337 sent: { chips  'CTRed':0 'CTPurple':0 'CTGreen':0 'grey78':0 'CTYellow':1 }
Tue Nov 27 01:47:43 IST 2012	Responder 310 sent: { chips  'CTRed':0 'CTPurple':0 'CTGreen':3 'grey78':0 'CTYellow':0 }
Tue Nov 27 01:47:43 IST 2012	Protocol: A New Phase Began: Movement Phase
Tue Nov 27 01:47:43 IST 2012	Protocol: Movement phase, Round: 6
Tue Nov 27 01:48:03 IST 2012	A Phase Ended: Movement Phase
Tue Nov 27 01:48:03 IST 2012	Swaping roles:
Tue Nov 27 01:48:03 IST 2012	Proposer is: 310
Tue Nov 27 01:48:03 IST 2012	Responder is: 337
Tue Nov 27 01:48:03 IST 2012	Protocol: A New Phase Began: Feedback Phase
Tue Nov 27 01:48:03 IST 2012	Protocol: Feedback phase, Round: 6
Tue Nov 27 01:48:03 IST 2012	Number of consecutive no movements for player 337 is 1
Tue Nov 27 01:48:03 IST 2012	Number of consecutive no movements for player 310 is 1
Tue Nov 27 01:48:08 IST 2012	A Phase Ended: Feedback Phase
Tue Nov 27 01:48:08 IST 2012	Protocol: A New Phase Began: Communication Phase
Tue Nov 27 01:48:08 IST 2012	Protocol: Communication phase, Round: 7
Tue Nov 27 01:48:23 IST 2012	Received communication message 
Tue Nov 27 01:48:23 IST 2012	From player: 310
Tue Nov 27 01:48:23 IST 2012	To player: 337
Tue Nov 27 01:48:23 IST 2012	Message type: basicproposal
Tue Nov 27 01:48:23 IST 2012	Chips to send by proposer: { chips  'CTRed':0 'CTPurple':0 'CTGreen':0 'grey78':1 'CTYellow':0 }
Tue Nov 27 01:48:23 IST 2012	Chips to send by responder: { chips  'CTRed':0 'CTPurple':0 'CTGreen':1 'grey78':0 'CTYellow':1 }
Tue Nov 27 01:48:39 IST 2012	Received communication message 
Tue Nov 27 01:48:39 IST 2012	From player: 337
Tue Nov 27 01:48:39 IST 2012	To player: 310
Tue Nov 27 01:48:39 IST 2012	Message type: basicproposaldiscussion
Tue Nov 27 01:48:39 IST 2012	Player 337 rejected offer
Tue Nov 27 01:48:39 IST 2012	Swaping roles:
Tue Nov 27 01:48:39 IST 2012	Proposer is: 337
Tue Nov 27 01:48:39 IST 2012	Responder is: 310
Tue Nov 27 01:48:39 IST 2012	Prop rejected, set counter offers count to: 1
Tue Nov 27 01:48:39 IST 2012	Prop rejected, get counter offers returned: 1
Tue Nov 27 01:48:43 IST 2012	Slept 4 seconds
Tue Nov 27 01:48:43 IST 2012	Sent role changed msgs
Tue Nov 27 01:49:43 IST 2012	Received communication message 
Tue Nov 27 01:49:43 IST 2012	From player: 337
Tue Nov 27 01:49:43 IST 2012	To player: 310
Tue Nov 27 01:49:43 IST 2012	Message type: basicproposal
Tue Nov 27 01:49:43 IST 2012	Chips to send by proposer: { chips  'CTRed':0 'CTPurple':0 'CTGreen':0 'grey78':0 'CTYellow':1 }
Tue Nov 27 01:49:43 IST 2012	Chips to send by responder: { chips  'CTRed':0 'CTPurple':0 'CTGreen':2 'grey78':1 'CTYellow':0 }
Tue Nov 27 01:49:50 IST 2012	Received communication message 
Tue Nov 27 01:49:50 IST 2012	From player: 310
Tue Nov 27 01:49:50 IST 2012	To player: 337
Tue Nov 27 01:49:50 IST 2012	Message type: basicproposaldiscussion
Tue Nov 27 01:49:50 IST 2012	Player 310 accepted offer
Tue Nov 27 01:49:50 IST 2012	Prop accepted, set counter offers count to: 0
Tue Nov 27 01:49:50 IST 2012	Prop accepted, get counter offers returned: 0
Tue Nov 27 01:49:50 IST 2012	A Phase Ended: Communication Phase
Tue Nov 27 01:49:50 IST 2012	Protocol: A New Phase Began: Exchange Phase
Tue Nov 27 01:49:50 IST 2012	Protocol: Exchange phase, Round: 7
Tue Nov 27 01:49:50 IST 2012	In begin exch.phase, get counter offers returned: 0
Tue Nov 27 01:50:07 IST 2012	A Phase Ended: Exchange Phase
Tue Nov 27 01:50:07 IST 2012	Proposer 337 sent: { chips  'CTRed':0 'CTPurple':0 'CTGreen':0 'grey78':0 'CTYellow':0 }
Tue Nov 27 01:50:07 IST 2012	Responder 310 sent: { chips  'CTRed':0 'CTPurple':0 'CTGreen':1 'grey78':0 'CTYellow':0 }
Tue Nov 27 01:50:07 IST 2012	Protocol: A New Phase Began: Movement Phase
Tue Nov 27 01:50:07 IST 2012	Protocol: Movement phase, Round: 7
Tue Nov 27 01:50:27 IST 2012	A Phase Ended: Movement Phase
Tue Nov 27 01:50:27 IST 2012	Protocol: A New Phase Began: Feedback Phase
Tue Nov 27 01:50:27 IST 2012	Protocol: Feedback phase, Round: 7
Tue Nov 27 01:50:27 IST 2012	Number of consecutive no movements for player 337 is 2
Tue Nov 27 01:50:27 IST 2012	Number of consecutive no movements for player 310 is 2
Tue Nov 27 01:50:32 IST 2012	A Phase Ended: Feedback Phase
Tue Nov 27 01:50:32 IST 2012	Protocol: A New Phase Began: Communication Phase
Tue Nov 27 01:50:32 IST 2012	Protocol: Communication phase, Round: 8
Tue Nov 27 01:51:32 IST 2012	Received communication message 
Tue Nov 27 01:51:32 IST 2012	From player: 337
Tue Nov 27 01:51:32 IST 2012	To player: 310
Tue Nov 27 01:51:32 IST 2012	Message type: basicproposal
Tue Nov 27 01:51:32 IST 2012	Chips to send by proposer: { chips  'CTYellow':1 }
Tue Nov 27 01:51:32 IST 2012	Chips to send by responder: { chips  'CTGreen':2 'grey78':1 }
Tue Nov 27 01:51:38 IST 2012	Received communication message 
Tue Nov 27 01:51:38 IST 2012	From player: 310
Tue Nov 27 01:51:38 IST 2012	To player: 337
Tue Nov 27 01:51:38 IST 2012	Message type: basicproposaldiscussion
Tue Nov 27 01:51:38 IST 2012	Player 310 accepted offer
Tue Nov 27 01:51:38 IST 2012	Prop accepted, set counter offers count to: 0
Tue Nov 27 01:51:38 IST 2012	Prop accepted, get counter offers returned: 0
Tue Nov 27 01:51:38 IST 2012	A Phase Ended: Communication Phase
Tue Nov 27 01:51:38 IST 2012	Protocol: A New Phase Began: Exchange Phase
Tue Nov 27 01:51:38 IST 2012	Protocol: Exchange phase, Round: 8
Tue Nov 27 01:51:38 IST 2012	In begin exch.phase, get counter offers returned: 0
Tue Nov 27 01:51:58 IST 2012	A Phase Ended: Exchange Phase
Tue Nov 27 01:51:58 IST 2012	Proposer 337 sent: { chips  'CTRed':0 'CTPurple':0 'CTGreen':0 'grey78':0 'CTYellow':1 }
Tue Nov 27 01:51:58 IST 2012	Responder 310 sent: { chips  }
Tue Nov 27 01:51:58 IST 2012	Protocol: A New Phase Began: Movement Phase
Tue Nov 27 01:51:58 IST 2012	Protocol: Movement phase, Round: 8
Tue Nov 27 01:51:58 IST 2012	Player 310 moved to (R:4,C:3)
Tue Nov 27 01:51:58 IST 2012	Player 337 moved to (R:4,C:1)
Tue Nov 27 01:52:18 IST 2012	A Phase Ended: Movement Phase
Tue Nov 27 01:52:18 IST 2012	Swaping roles:
Tue Nov 27 01:52:18 IST 2012	Proposer is: 310
Tue Nov 27 01:52:18 IST 2012	Responder is: 337
Tue Nov 27 01:52:18 IST 2012	Protocol: A New Phase Began: Feedback Phase
Tue Nov 27 01:52:18 IST 2012	Protocol: Feedback phase, Round: 8
Tue Nov 27 01:52:18 IST 2012	Number of consecutive no movements for player 337 is 0
Tue Nov 27 01:52:18 IST 2012	Number of consecutive no movements for player 310 is 0
Tue Nov 27 01:52:23 IST 2012	A Phase Ended: Feedback Phase
Tue Nov 27 01:52:23 IST 2012	Protocol: A New Phase Began: Communication Phase
Tue Nov 27 01:52:23 IST 2012	Protocol: Communication phase, Round: 9
Tue Nov 27 01:52:41 IST 2012	Received communication message 
Tue Nov 27 01:52:41 IST 2012	From player: 310
Tue Nov 27 01:52:41 IST 2012	To player: 337
Tue Nov 27 01:52:41 IST 2012	Message type: basicproposal
Tue Nov 27 01:52:41 IST 2012	Chips to send by proposer: { chips  'CTRed':0 'CTPurple':0 'CTGreen':0 'grey78':1 'CTYellow':0 }
Tue Nov 27 01:52:41 IST 2012	Chips to send by responder: { chips  'CTRed':0 'CTPurple':0 'CTGreen':7 'grey78':0 'CTYellow':0 }
Tue Nov 27 01:53:00 IST 2012	Received communication message 
Tue Nov 27 01:53:00 IST 2012	From player: 337
Tue Nov 27 01:53:00 IST 2012	To player: 310
Tue Nov 27 01:53:00 IST 2012	Message type: basicproposaldiscussion
Tue Nov 27 01:53:00 IST 2012	Player 337 rejected offer
Tue Nov 27 01:53:00 IST 2012	Swaping roles:
Tue Nov 27 01:53:00 IST 2012	Proposer is: 337
Tue Nov 27 01:53:00 IST 2012	Responder is: 310
Tue Nov 27 01:53:00 IST 2012	Prop rejected, set counter offers count to: 1
Tue Nov 27 01:53:00 IST 2012	Prop rejected, get counter offers returned: 1
Tue Nov 27 01:53:04 IST 2012	Slept 4 seconds
Tue Nov 27 01:53:04 IST 2012	Sent role changed msgs
Tue Nov 27 01:53:56 IST 2012	Received communication message 
Tue Nov 27 01:53:56 IST 2012	From player: 337
Tue Nov 27 01:53:56 IST 2012	To player: 310
Tue Nov 27 01:53:56 IST 2012	Message type: basicproposal
Tue Nov 27 01:53:56 IST 2012	Chips to send by proposer: { chips  'CTRed':0 'CTPurple':0 'CTGreen':0 'grey78':0 'CTYellow':1 }
Tue Nov 27 01:53:56 IST 2012	Chips to send by responder: { chips  'CTRed':0 'CTPurple':0 'CTGreen':0 'grey78':1 'CTYellow':0 }
Tue Nov 27 01:54:05 IST 2012	Received communication message 
Tue Nov 27 01:54:05 IST 2012	From player: 310
Tue Nov 27 01:54:05 IST 2012	To player: 337
Tue Nov 27 01:54:05 IST 2012	Message type: basicproposaldiscussion
Tue Nov 27 01:54:05 IST 2012	Player 310 accepted offer
Tue Nov 27 01:54:05 IST 2012	Prop accepted, set counter offers count to: 0
Tue Nov 27 01:54:05 IST 2012	Prop accepted, get counter offers returned: 0
Tue Nov 27 01:54:05 IST 2012	A Phase Ended: Communication Phase
Tue Nov 27 01:54:05 IST 2012	Protocol: A New Phase Began: Exchange Phase
Tue Nov 27 01:54:05 IST 2012	Protocol: Exchange phase, Round: 9
Tue Nov 27 01:54:05 IST 2012	In begin exch.phase, get counter offers returned: 0
Tue Nov 27 01:54:17 IST 2012	A Phase Ended: Exchange Phase
Tue Nov 27 01:54:17 IST 2012	Proposer 337 sent: { chips  'CTRed':0 'CTPurple':0 'CTGreen':0 'grey78':0 'CTYellow':0 }
Tue Nov 27 01:54:17 IST 2012	Responder 310 sent: { chips  }
Tue Nov 27 01:54:17 IST 2012	Protocol: A New Phase Began: Movement Phase
Tue Nov 27 01:54:17 IST 2012	Protocol: Movement phase, Round: 9
Tue Nov 27 01:54:17 IST 2012	Player 310 moved to (R:3,C:3)
Tue Nov 27 01:54:38 IST 2012	A Phase Ended: Movement Phase
Tue Nov 27 01:54:38 IST 2012	Protocol: A New Phase Began: Feedback Phase
Tue Nov 27 01:54:38 IST 2012	Protocol: Feedback phase, Round: 9
Tue Nov 27 01:54:38 IST 2012	Number of consecutive no movements for player 337 is 1
Tue Nov 27 01:54:38 IST 2012	Number of consecutive no movements for player 310 is 0
Tue Nov 27 01:54:43 IST 2012	A Phase Ended: Feedback Phase
Tue Nov 27 01:54:43 IST 2012	Protocol: A New Phase Began: Communication Phase
Tue Nov 27 01:54:43 IST 2012	Protocol: Communication phase, Round: 10
Tue Nov 27 01:55:43 IST 2012	Received communication message 
Tue Nov 27 01:55:43 IST 2012	From player: 337
Tue Nov 27 01:55:43 IST 2012	To player: 310
Tue Nov 27 01:55:43 IST 2012	Message type: basicproposal
Tue Nov 27 01:55:43 IST 2012	Chips to send by proposer: { chips  'CTYellow':1 }
Tue Nov 27 01:55:43 IST 2012	Chips to send by responder: { chips  'grey78':1 }
Tue Nov 27 01:55:53 IST 2012	Received communication message 
Tue Nov 27 01:55:53 IST 2012	From player: 310
Tue Nov 27 01:55:53 IST 2012	To player: 337
Tue Nov 27 01:55:53 IST 2012	Message type: basicproposaldiscussion
Tue Nov 27 01:55:53 IST 2012	Player 310 accepted offer
Tue Nov 27 01:55:53 IST 2012	Prop accepted, set counter offers count to: 0
Tue Nov 27 01:55:53 IST 2012	Prop accepted, get counter offers returned: 0
Tue Nov 27 01:55:53 IST 2012	A Phase Ended: Communication Phase
Tue Nov 27 01:55:53 IST 2012	Protocol: A New Phase Began: Exchange Phase
Tue Nov 27 01:55:53 IST 2012	Protocol: Exchange phase, Round: 10
Tue Nov 27 01:55:53 IST 2012	In begin exch.phase, get counter offers returned: 0
Tue Nov 27 01:56:13 IST 2012	A Phase Ended: Exchange Phase
Tue Nov 27 01:56:13 IST 2012	Proposer 337 sent: { chips  'CTRed':0 'CTPurple':0 'CTGreen':0 'grey78':0 'CTYellow':1 }
Tue Nov 27 01:56:13 IST 2012	Responder 310 sent: { chips  }
Tue Nov 27 01:56:13 IST 2012	Protocol: A New Phase Began: Movement Phase
Tue Nov 27 01:56:13 IST 2012	Protocol: Movement phase, Round: 10
Tue Nov 27 01:56:13 IST 2012	Player 310 moved to (R:2,C:3)
Tue Nov 27 01:56:32 IST 2012	A Phase Ended: Movement Phase
Tue Nov 27 01:56:32 IST 2012	Swaping roles:
Tue Nov 27 01:56:32 IST 2012	Proposer is: 310
Tue Nov 27 01:56:32 IST 2012	Responder is: 337
Tue Nov 27 01:56:32 IST 2012	Protocol: A New Phase Began: Feedback Phase
Tue Nov 27 01:56:32 IST 2012	Protocol: Feedback phase, Round: 10
Tue Nov 27 01:56:32 IST 2012	Number of consecutive no movements for player 337 is 2
Tue Nov 27 01:56:32 IST 2012	Number of consecutive no movements for player 310 is 0
Tue Nov 27 01:56:37 IST 2012	A Phase Ended: Feedback Phase
Tue Nov 27 01:56:37 IST 2012	Protocol: A New Phase Began: Communication Phase
Tue Nov 27 01:56:37 IST 2012	Protocol: Communication phase, Round: 11
Tue Nov 27 01:56:53 IST 2012	Received communication message 
Tue Nov 27 01:56:53 IST 2012	From player: 310
Tue Nov 27 01:56:53 IST 2012	To player: 337
Tue Nov 27 01:56:53 IST 2012	Message type: basicproposal
Tue Nov 27 01:56:53 IST 2012	Chips to send by proposer: { chips  'CTRed':0 'CTPurple':0 'CTGreen':0 'grey78':1 'CTYellow':0 }
Tue Nov 27 01:56:53 IST 2012	Chips to send by responder: { chips  'CTRed':0 'CTPurple':0 'CTGreen':7 'grey78':0 'CTYellow':0 }
Tue Nov 27 01:57:18 IST 2012	Received communication message 
Tue Nov 27 01:57:18 IST 2012	From player: 337
Tue Nov 27 01:57:18 IST 2012	To player: 310
Tue Nov 27 01:57:18 IST 2012	Message type: basicproposaldiscussion
Tue Nov 27 01:57:18 IST 2012	Player 337 rejected offer
Tue Nov 27 01:57:18 IST 2012	Swaping roles:
Tue Nov 27 01:57:18 IST 2012	Proposer is: 337
Tue Nov 27 01:57:18 IST 2012	Responder is: 310
Tue Nov 27 01:57:18 IST 2012	Prop rejected, set counter offers count to: 1
Tue Nov 27 01:57:18 IST 2012	Prop rejected, get counter offers returned: 1
Tue Nov 27 01:57:22 IST 2012	Slept 4 seconds
Tue Nov 27 01:57:22 IST 2012	Sent role changed msgs
Tue Nov 27 01:58:22 IST 2012	Received communication message 
Tue Nov 27 01:58:22 IST 2012	From player: 337
Tue Nov 27 01:58:22 IST 2012	To player: 310
Tue Nov 27 01:58:22 IST 2012	Message type: basicproposal
Tue Nov 27 01:58:22 IST 2012	Chips to send by proposer: { chips  'CTRed':0 'CTPurple':0 'CTGreen':1 'grey78':0 'CTYellow':0 }
Tue Nov 27 01:58:22 IST 2012	Chips to send by responder: { chips  'CTRed':0 'CTPurple':0 'CTGreen':0 'grey78':1 'CTYellow':0 }
Tue Nov 27 01:58:35 IST 2012	Received communication message 
Tue Nov 27 01:58:35 IST 2012	From player: 310
Tue Nov 27 01:58:35 IST 2012	To player: 337
Tue Nov 27 01:58:35 IST 2012	Message type: basicproposaldiscussion
Tue Nov 27 01:58:35 IST 2012	Player 310 accepted offer
Tue Nov 27 01:58:35 IST 2012	Prop accepted, set counter offers count to: 0
Tue Nov 27 01:58:35 IST 2012	Prop accepted, get counter offers returned: 0
Tue Nov 27 01:58:35 IST 2012	A Phase Ended: Communication Phase
Tue Nov 27 01:58:35 IST 2012	Protocol: A New Phase Began: Exchange Phase
Tue Nov 27 01:58:35 IST 2012	Protocol: Exchange phase, Round: 11
Tue Nov 27 01:58:35 IST 2012	In begin exch.phase, get counter offers returned: 0
Tue Nov 27 01:58:53 IST 2012	A Phase Ended: Exchange Phase
Tue Nov 27 01:58:53 IST 2012	Proposer 337 sent: { chips  'CTRed':0 'CTPurple':0 'CTGreen':1 'grey78':0 'CTYellow':0 }
Tue Nov 27 01:58:53 IST 2012	Responder 310 sent: { chips  }
Tue Nov 27 01:58:53 IST 2012	Protocol: A New Phase Began: Movement Phase
Tue Nov 27 01:58:53 IST 2012	Protocol: Movement phase, Round: 11
Tue Nov 27 01:58:53 IST 2012	Player 337 moved to (R:3,C:1)
Tue Nov 27 01:58:53 IST 2012	Player 310 moved to (R:1,C:3)
Tue Nov 27 01:59:13 IST 2012	A Phase Ended: Movement Phase
Tue Nov 27 01:59:13 IST 2012	Protocol: A New Phase Began: Feedback Phase
Tue Nov 27 01:59:13 IST 2012	Protocol: Feedback phase, Round: 11
Tue Nov 27 01:59:13 IST 2012	Number of consecutive no movements for player 337 is 0
Tue Nov 27 01:59:13 IST 2012	Number of consecutive no movements for player 310 is 0
Tue Nov 27 01:59:18 IST 2012	A Phase Ended: Feedback Phase
Tue Nov 27 01:59:18 IST 2012	Protocol: A New Phase Began: Communication Phase
Tue Nov 27 01:59:18 IST 2012	Protocol: Communication phase, Round: 12
Tue Nov 27 02:00:10 IST 2012	Received communication message 
Tue Nov 27 02:00:10 IST 2012	From player: 337
Tue Nov 27 02:00:10 IST 2012	To player: 310
Tue Nov 27 02:00:10 IST 2012	Message type: basicproposal
Tue Nov 27 02:00:10 IST 2012	Chips to send by proposer: { chips  'CTGreen':1 }
Tue Nov 27 02:00:10 IST 2012	Chips to send by responder: { chips  'grey78':1 }
Tue Nov 27 02:00:18 IST 2012	Received communication message 
Tue Nov 27 02:00:18 IST 2012	From player: 310
Tue Nov 27 02:00:18 IST 2012	To player: 337
Tue Nov 27 02:00:18 IST 2012	Message type: basicproposaldiscussion
Tue Nov 27 02:00:18 IST 2012	Player 310 accepted offer
Tue Nov 27 02:00:18 IST 2012	Prop accepted, set counter offers count to: 0
Tue Nov 27 02:00:18 IST 2012	Prop accepted, get counter offers returned: 0
Tue Nov 27 02:00:18 IST 2012	A Phase Ended: Communication Phase
Tue Nov 27 02:00:18 IST 2012	Protocol: A New Phase Began: Exchange Phase
Tue Nov 27 02:00:18 IST 2012	Protocol: Exchange phase, Round: 12
Tue Nov 27 02:00:18 IST 2012	In begin exch.phase, get counter offers returned: 0
Tue Nov 27 02:00:31 IST 2012	A Phase Ended: Exchange Phase
Tue Nov 27 02:00:31 IST 2012	Proposer 337 sent: { chips  'CTRed':0 'CTPurple':0 'CTGreen':1 'grey78':0 'CTYellow':0 }
Tue Nov 27 02:00:31 IST 2012	Responder 310 sent: { chips  }
Tue Nov 27 02:00:31 IST 2012	Protocol: A New Phase Began: Movement Phase
Tue Nov 27 02:00:31 IST 2012	Protocol: Movement phase, Round: 12
Tue Nov 27 02:00:31 IST 2012	Player 310 moved to (R:0,C:3)
Tue Nov 27 02:00:51 IST 2012	A Phase Ended: Movement Phase
Tue Nov 27 02:00:51 IST 2012	Swaping roles:
Tue Nov 27 02:00:51 IST 2012	Proposer is: 310
Tue Nov 27 02:00:51 IST 2012	Responder is: 337
Tue Nov 27 02:00:51 IST 2012	Protocol: A New Phase Began: Feedback Phase
Tue Nov 27 02:00:51 IST 2012	Protocol: Feedback phase, Round: 12
Tue Nov 27 02:00:51 IST 2012	Number of consecutive no movements for player 337 is 1
Tue Nov 27 02:00:51 IST 2012	Number of consecutive no movements for player 310 is 0
Tue Nov 27 02:00:56 IST 2012	A Phase Ended: Feedback Phase
Tue Nov 27 02:00:56 IST 2012	Protocol: A New Phase Began: Communication Phase
Tue Nov 27 02:00:56 IST 2012	Protocol: Communication phase, Round: 13
Tue Nov 27 02:01:08 IST 2012	Received communication message 
Tue Nov 27 02:01:08 IST 2012	From player: 310
Tue Nov 27 02:01:08 IST 2012	To player: 337
Tue Nov 27 02:01:08 IST 2012	Message type: basicproposal
Tue Nov 27 02:01:08 IST 2012	Chips to send by proposer: { chips  'CTRed':0 'CTPurple':0 'CTGreen':0 'grey78':1 'CTYellow':0 }
Tue Nov 27 02:01:08 IST 2012	Chips to send by responder: { chips  'CTRed':0 'CTPurple':0 'CTGreen':7 'grey78':0 'CTYellow':0 }
Tue Nov 27 02:01:21 IST 2012	Received communication message 
Tue Nov 27 02:01:21 IST 2012	From player: 337
Tue Nov 27 02:01:21 IST 2012	To player: 310
Tue Nov 27 02:01:21 IST 2012	Message type: basicproposaldiscussion
Tue Nov 27 02:01:21 IST 2012	Player 337 rejected offer
Tue Nov 27 02:01:21 IST 2012	Swaping roles:
Tue Nov 27 02:01:21 IST 2012	Proposer is: 337
Tue Nov 27 02:01:21 IST 2012	Responder is: 310
Tue Nov 27 02:01:21 IST 2012	Prop rejected, set counter offers count to: 1
Tue Nov 27 02:01:21 IST 2012	Prop rejected, get counter offers returned: 1
Tue Nov 27 02:01:25 IST 2012	Slept 4 seconds
Tue Nov 27 02:01:25 IST 2012	Sent role changed msgs
Tue Nov 27 02:02:03 IST 2012	Received communication message 
Tue Nov 27 02:02:03 IST 2012	From player: 337
Tue Nov 27 02:02:03 IST 2012	To player: 310
Tue Nov 27 02:02:03 IST 2012	Message type: basicproposal
Tue Nov 27 02:02:03 IST 2012	Chips to send by proposer: { chips  'CTRed':0 'CTPurple':0 'CTGreen':0 'grey78':0 'CTYellow':1 }
Tue Nov 27 02:02:03 IST 2012	Chips to send by responder: { chips  'CTRed':0 'CTPurple':0 'CTGreen':0 'grey78':1 'CTYellow':0 }
Tue Nov 27 02:02:16 IST 2012	Received communication message 
Tue Nov 27 02:02:16 IST 2012	From player: 310
Tue Nov 27 02:02:16 IST 2012	To player: 337
Tue Nov 27 02:02:16 IST 2012	Message type: basicproposaldiscussion
Tue Nov 27 02:02:16 IST 2012	Player 310 accepted offer
Tue Nov 27 02:02:16 IST 2012	Prop accepted, set counter offers count to: 0
Tue Nov 27 02:02:16 IST 2012	Prop accepted, get counter offers returned: 0
Tue Nov 27 02:02:16 IST 2012	A Phase Ended: Communication Phase
Tue Nov 27 02:02:16 IST 2012	Protocol: A New Phase Began: Exchange Phase
Tue Nov 27 02:02:16 IST 2012	Protocol: Exchange phase, Round: 13
Tue Nov 27 02:02:16 IST 2012	In begin exch.phase, get counter offers returned: 0
Tue Nov 27 02:02:25 IST 2012	A Phase Ended: Exchange Phase
Tue Nov 27 02:02:25 IST 2012	Proposer 337 sent: { chips  'CTRed':0 'CTPurple':0 'CTGreen':0 'grey78':0 'CTYellow':1 }
Tue Nov 27 02:02:25 IST 2012	Responder 310 sent: { chips  }
Tue Nov 27 02:02:25 IST 2012	Protocol: A New Phase Began: Movement Phase
Tue Nov 27 02:02:25 IST 2012	Protocol: Movement phase, Round: 13
Tue Nov 27 02:02:25 IST 2012	Player 310 moved to (R:0,C:2)
Tue Nov 27 02:02:29 IST 2012	Slept 4 seconds
Tue Nov 27 02:02:29 IST 2012	Player 310 got to goal, advance the other and end game
Tue Nov 27 02:02:29 IST 2012	Player: 310 ,role: Responder score is: 195
Tue Nov 27 02:02:29 IST 2012	Player: 337 ,role: Proposer score is: 50
