Tue Nov 27 05:31:49 IST 2012	This is the CT debug logger; svn version 638; sep 27 09
Tue Nov 27 05:31:49 IST 2012	Tue Nov 27 05:31:49 IST 2012
Tue Nov 27 05:31:49 IST 2012	A new Alternative Offers game has began
Tue Nov 27 05:31:50 IST 2012	ID Number: 39987
Tue Nov 27 05:31:50 IST 2012	Creating board
Tue Nov 27 05:31:50 IST 2012	<colors>
Tue Nov 27 05:31:50 IST 2012	{ GamePalette  'CTRed':0 'CTPurple':1 'CTGreen':2 'grey78':3 'CTYellow':4 }
Tue Nov 27 05:31:50 IST 2012	<rows>
Tue Nov 27 05:31:50 IST 2012	7
Tue Nov 27 05:31:50 IST 2012	<columns>
Tue Nov 27 05:31:50 IST 2012	5
Tue Nov 27 05:31:50 IST 2012	<squaresColors>
Tue Nov 27 05:31:50 IST 2012	CTPurple CTRed CTRed CTGreen CTPurple 
Tue Nov 27 05:31:50 IST 2012	CTPurple grey78 CTPurple CTYellow CTPurple 
Tue Nov 27 05:31:50 IST 2012	CTPurple CTRed CTPurple CTGreen CTPurple 
Tue Nov 27 05:31:50 IST 2012	CTPurple grey78 CTPurple CTYellow CTPurple 
Tue Nov 27 05:31:50 IST 2012	CTPurple CTRed CTPurple CTGreen CTPurple 
Tue Nov 27 05:31:50 IST 2012	CTPurple grey78 CTPurple CTYellow CTPurple 
Tue Nov 27 05:31:50 IST 2012	CTPurple CTRed CTPurple CTGreen CTPurple 
Tue Nov 27 05:31:50 IST 2012	</squareColors>
Tue Nov 27 05:31:50 IST 2012	<goalPosition>
Tue Nov 27 05:31:50 IST 2012	Goal position: (R:0,C:2)
Tue Nov 27 05:31:50 IST 2012	<numberOfPlayers>
Tue Nov 27 05:31:50 IST 2012	2
Tue Nov 27 05:31:50 IST 2012	<firstPlayerChips>
Tue Nov 27 05:31:50 IST 2012	Setting chips for player: 337 id:0
Tue Nov 27 05:31:50 IST 2012	{ chips  'CTRed':5 'CTGreen':10 'CTPurple':0 'grey78':0 'CTYellow':9 }
Tue Nov 27 05:31:50 IST 2012	Player position: (R:6,C:0)
Tue Nov 27 05:31:50 IST 2012	Setting chips for player: 310 id:1
Tue Nov 27 05:31:50 IST 2012	{ chips  'CTRed':1 'CTGreen':13 'CTPurple':0 'grey78':10 'CTYellow':0 }
Tue Nov 27 05:31:50 IST 2012	Player position: (R:6,C:4)
Tue Nov 27 05:31:50 IST 2012	Protocol: A New Phase Began: Strategy Prep Phase
Tue Nov 27 05:31:50 IST 2012	Protocol: Strategy Preparation phase, Round: 0
Tue Nov 27 05:31:50 IST 2012	Maximum number of rounds with no consecutive movement is 3
Tue Nov 27 05:31:50 IST 2012	In begin comm. phase, set counter offers count to: 0
Tue Nov 27 05:31:50 IST 2012	In begin comm. phase, get counter offers returned: 0
Tue Nov 27 05:32:10 IST 2012	A Phase Ended: Strategy Prep Phase
Tue Nov 27 05:32:10 IST 2012	Protocol: A New Phase Began: Communication Phase
Tue Nov 27 05:32:10 IST 2012	Protocol: Communication phase, Round: 0
Tue Nov 27 05:33:10 IST 2012	Received communication message 
Tue Nov 27 05:33:10 IST 2012	From player: 337
Tue Nov 27 05:33:10 IST 2012	To player: 310
Tue Nov 27 05:33:10 IST 2012	Message type: basicproposal
Tue Nov 27 05:33:10 IST 2012	Chips to send by proposer: { chips  'CTYellow':2 }
Tue Nov 27 05:33:10 IST 2012	Chips to send by responder: { chips  'CTGreen':1 'grey78':2 }
Tue Nov 27 05:33:20 IST 2012	Received communication message 
Tue Nov 27 05:33:20 IST 2012	From player: 310
Tue Nov 27 05:33:20 IST 2012	To player: 337
Tue Nov 27 05:33:20 IST 2012	Message type: basicproposaldiscussion
Tue Nov 27 05:33:20 IST 2012	Player 310 accepted offer
Tue Nov 27 05:33:20 IST 2012	Prop accepted, set counter offers count to: 0
Tue Nov 27 05:33:20 IST 2012	Prop accepted, get counter offers returned: 0
Tue Nov 27 05:33:20 IST 2012	A Phase Ended: Communication Phase
Tue Nov 27 05:33:20 IST 2012	Protocol: A New Phase Began: Exchange Phase
Tue Nov 27 05:33:20 IST 2012	Protocol: Exchange phase, Round: 0
Tue Nov 27 05:33:20 IST 2012	In begin exch.phase, get counter offers returned: 0
Tue Nov 27 05:33:49 IST 2012	A Phase Ended: Exchange Phase
Tue Nov 27 05:33:49 IST 2012	Proposer 337 sent: { chips  'CTRed':0 'CTPurple':0 'CTGreen':0 'grey78':0 'CTYellow':2 }
Tue Nov 27 05:33:49 IST 2012	Responder 310 sent: { chips  'CTRed':0 'CTPurple':0 'CTGreen':1 'grey78':0 'CTYellow':0 }
Tue Nov 27 05:33:49 IST 2012	Protocol: A New Phase Began: Movement Phase
Tue Nov 27 05:33:49 IST 2012	Protocol: Movement phase, Round: 0
Tue Nov 27 05:34:09 IST 2012	A Phase Ended: Movement Phase
Tue Nov 27 05:34:09 IST 2012	Swaping roles:
Tue Nov 27 05:34:09 IST 2012	Proposer is: 310
Tue Nov 27 05:34:09 IST 2012	Responder is: 337
Tue Nov 27 05:34:09 IST 2012	Protocol: A New Phase Began: Feedback Phase
Tue Nov 27 05:34:09 IST 2012	Protocol: Feedback phase, Round: 0
Tue Nov 27 05:34:09 IST 2012	Number of consecutive no movements for player 337 is 1
Tue Nov 27 05:34:09 IST 2012	Number of consecutive no movements for player 310 is 1
Tue Nov 27 05:34:14 IST 2012	A Phase Ended: Feedback Phase
Tue Nov 27 05:34:14 IST 2012	Protocol: A New Phase Began: Communication Phase
Tue Nov 27 05:34:14 IST 2012	Protocol: Communication phase, Round: 1
Tue Nov 27 05:34:33 IST 2012	Received communication message 
Tue Nov 27 05:34:33 IST 2012	From player: 310
Tue Nov 27 05:34:33 IST 2012	To player: 337
Tue Nov 27 05:34:33 IST 2012	Message type: basicproposal
Tue Nov 27 05:34:33 IST 2012	Chips to send by proposer: { chips  'CTRed':0 'CTPurple':0 'CTGreen':0 'grey78':3 'CTYellow':0 }
Tue Nov 27 05:34:33 IST 2012	Chips to send by responder: { chips  'CTRed':0 'CTPurple':0 'CTGreen':4 'grey78':0 'CTYellow':1 }
Tue Nov 27 05:35:19 IST 2012	Received communication message 
Tue Nov 27 05:35:19 IST 2012	From player: 337
Tue Nov 27 05:35:19 IST 2012	To player: 310
Tue Nov 27 05:35:19 IST 2012	Message type: basicproposaldiscussion
Tue Nov 27 05:35:19 IST 2012	Player 337 rejected offer
Tue Nov 27 05:35:19 IST 2012	Swaping roles:
Tue Nov 27 05:35:19 IST 2012	Proposer is: 337
Tue Nov 27 05:35:19 IST 2012	Responder is: 310
Tue Nov 27 05:35:19 IST 2012	Prop rejected, set counter offers count to: 1
Tue Nov 27 05:35:19 IST 2012	Prop rejected, get counter offers returned: 1
Tue Nov 27 05:35:23 IST 2012	Slept 4 seconds
Tue Nov 27 05:35:23 IST 2012	Sent role changed msgs
Tue Nov 27 05:36:23 IST 2012	Received communication message 
Tue Nov 27 05:36:23 IST 2012	From player: 337
Tue Nov 27 05:36:23 IST 2012	To player: 310
Tue Nov 27 05:36:23 IST 2012	Message type: basicproposal
Tue Nov 27 05:36:23 IST 2012	Chips to send by proposer: { chips  'CTRed':0 'CTPurple':0 'CTGreen':1 'grey78':0 'CTYellow':0 }
Tue Nov 27 05:36:23 IST 2012	Chips to send by responder: { chips  'CTRed':0 'CTPurple':0 'CTGreen':0 'grey78':1 'CTYellow':0 }
Tue Nov 27 05:36:29 IST 2012	Received communication message 
Tue Nov 27 05:36:29 IST 2012	From player: 310
Tue Nov 27 05:36:29 IST 2012	To player: 337
Tue Nov 27 05:36:29 IST 2012	Message type: basicproposaldiscussion
Tue Nov 27 05:36:29 IST 2012	Player 310 rejected offer
Tue Nov 27 05:36:29 IST 2012	Set counter offers count to: 0
Tue Nov 27 05:36:29 IST 2012	A Phase Ended: Communication Phase
Tue Nov 27 05:36:29 IST 2012	Protocol: A New Phase Began: Exchange Phase
Tue Nov 27 05:36:29 IST 2012	Protocol: Exchange phase, Round: 1
Tue Nov 27 05:36:29 IST 2012	In begin exch.phase, get counter offers returned: 0
Tue Nov 27 05:37:09 IST 2012	A Phase Ended: Exchange Phase
Tue Nov 27 05:37:09 IST 2012	Proposer 337 sent: { chips  }
Tue Nov 27 05:37:09 IST 2012	Protocol: A New Phase Began: Movement Phase
Tue Nov 27 05:37:09 IST 2012	Protocol: Movement phase, Round: 1
Tue Nov 27 05:37:29 IST 2012	A Phase Ended: Movement Phase
Tue Nov 27 05:37:29 IST 2012	Protocol: A New Phase Began: Feedback Phase
Tue Nov 27 05:37:29 IST 2012	Protocol: Feedback phase, Round: 1
Tue Nov 27 05:37:29 IST 2012	Number of consecutive no movements for player 337 is 2
Tue Nov 27 05:37:29 IST 2012	Number of consecutive no movements for player 310 is 2
Tue Nov 27 05:37:34 IST 2012	A Phase Ended: Feedback Phase
Tue Nov 27 05:37:34 IST 2012	Protocol: A New Phase Began: Communication Phase
Tue Nov 27 05:37:34 IST 2012	Protocol: Communication phase, Round: 2
Tue Nov 27 05:38:34 IST 2012	Received communication message 
Tue Nov 27 05:38:34 IST 2012	From player: 337
Tue Nov 27 05:38:34 IST 2012	To player: 310
Tue Nov 27 05:38:34 IST 2012	Message type: basicproposal
Tue Nov 27 05:38:34 IST 2012	Chips to send by proposer: { chips  'CTGreen':1 }
Tue Nov 27 05:38:34 IST 2012	Chips to send by responder: { chips  'grey78':1 }
Tue Nov 27 05:38:48 IST 2012	Received communication message 
Tue Nov 27 05:38:48 IST 2012	From player: 310
Tue Nov 27 05:38:48 IST 2012	To player: 337
Tue Nov 27 05:38:48 IST 2012	Message type: basicproposaldiscussion
Tue Nov 27 05:38:48 IST 2012	Player 310 rejected offer
Tue Nov 27 05:38:48 IST 2012	Swaping roles:
Tue Nov 27 05:38:48 IST 2012	Proposer is: 310
Tue Nov 27 05:38:48 IST 2012	Responder is: 337
Tue Nov 27 05:38:48 IST 2012	Prop rejected, set counter offers count to: 1
Tue Nov 27 05:38:48 IST 2012	Prop rejected, get counter offers returned: 1
Tue Nov 27 05:38:52 IST 2012	Slept 4 seconds
Tue Nov 27 05:38:52 IST 2012	Sent role changed msgs
Tue Nov 27 05:39:10 IST 2012	Received communication message 
Tue Nov 27 05:39:10 IST 2012	From player: 310
Tue Nov 27 05:39:10 IST 2012	To player: 337
Tue Nov 27 05:39:10 IST 2012	Message type: basicproposal
Tue Nov 27 05:39:10 IST 2012	Chips to send by proposer: { chips  'CTRed':0 'CTPurple':0 'CTGreen':1 'grey78':3 'CTYellow':0 }
Tue Nov 27 05:39:10 IST 2012	Chips to send by responder: { chips  'CTRed':0 'CTPurple':0 'CTGreen':0 'grey78':0 'CTYellow':1 }
Tue Nov 27 05:39:44 IST 2012	Received communication message 
Tue Nov 27 05:39:44 IST 2012	From player: 337
Tue Nov 27 05:39:44 IST 2012	To player: 310
Tue Nov 27 05:39:44 IST 2012	Message type: basicproposaldiscussion
Tue Nov 27 05:39:44 IST 2012	Player 337 accepted offer
Tue Nov 27 05:39:44 IST 2012	Prop accepted, set counter offers count to: 0
Tue Nov 27 05:39:44 IST 2012	Prop accepted, get counter offers returned: 0
Tue Nov 27 05:39:44 IST 2012	A Phase Ended: Communication Phase
Tue Nov 27 05:39:44 IST 2012	Protocol: A New Phase Began: Exchange Phase
Tue Nov 27 05:39:44 IST 2012	Protocol: Exchange phase, Round: 2
Tue Nov 27 05:39:44 IST 2012	In begin exch.phase, get counter offers returned: 0
Tue Nov 27 05:40:13 IST 2012	A Phase Ended: Exchange Phase
Tue Nov 27 05:40:13 IST 2012	Proposer 310 sent: { chips  }
Tue Nov 27 05:40:13 IST 2012	Responder 337 sent: { chips  'CTRed':0 'CTPurple':0 'CTGreen':0 'grey78':0 'CTYellow':0 }
Tue Nov 27 05:40:13 IST 2012	Protocol: A New Phase Began: Movement Phase
Tue Nov 27 05:40:13 IST 2012	Protocol: Movement phase, Round: 2
Tue Nov 27 05:40:13 IST 2012	Player 310 moved to (R:6,C:3)
Tue Nov 27 05:40:13 IST 2012	Player 337 moved to (R:6,C:1)
Tue Nov 27 05:40:33 IST 2012	A Phase Ended: Movement Phase
Tue Nov 27 05:40:33 IST 2012	Protocol: A New Phase Began: Feedback Phase
Tue Nov 27 05:40:33 IST 2012	Protocol: Feedback phase, Round: 2
Tue Nov 27 05:40:33 IST 2012	Number of consecutive no movements for player 337 is 0
Tue Nov 27 05:40:33 IST 2012	Number of consecutive no movements for player 310 is 0
Tue Nov 27 05:40:38 IST 2012	A Phase Ended: Feedback Phase
Tue Nov 27 05:40:38 IST 2012	Protocol: A New Phase Began: Communication Phase
Tue Nov 27 05:40:38 IST 2012	Protocol: Communication phase, Round: 3
Tue Nov 27 05:41:00 IST 2012	Received communication message 
Tue Nov 27 05:41:00 IST 2012	From player: 310
Tue Nov 27 05:41:00 IST 2012	To player: 337
Tue Nov 27 05:41:00 IST 2012	Message type: basicproposal
Tue Nov 27 05:41:00 IST 2012	Chips to send by proposer: { chips  'CTRed':0 'CTPurple':0 'CTGreen':0 'grey78':1 'CTYellow':0 }
Tue Nov 27 05:41:00 IST 2012	Chips to send by responder: { chips  'CTRed':0 'CTPurple':0 'CTGreen':0 'grey78':0 'CTYellow':1 }
Tue Nov 27 05:41:34 IST 2012	Received communication message 
Tue Nov 27 05:41:34 IST 2012	From player: 337
Tue Nov 27 05:41:34 IST 2012	To player: 310
Tue Nov 27 05:41:34 IST 2012	Message type: basicproposaldiscussion
Tue Nov 27 05:41:34 IST 2012	Player 337 rejected offer
Tue Nov 27 05:41:34 IST 2012	Swaping roles:
Tue Nov 27 05:41:34 IST 2012	Proposer is: 337
Tue Nov 27 05:41:34 IST 2012	Responder is: 310
Tue Nov 27 05:41:34 IST 2012	Prop rejected, set counter offers count to: 1
Tue Nov 27 05:41:34 IST 2012	Prop rejected, get counter offers returned: 1
Tue Nov 27 05:41:38 IST 2012	Slept 4 seconds
Tue Nov 27 05:41:38 IST 2012	Sent role changed msgs
Tue Nov 27 05:42:38 IST 2012	Received communication message 
Tue Nov 27 05:42:38 IST 2012	From player: 337
Tue Nov 27 05:42:38 IST 2012	To player: 310
Tue Nov 27 05:42:38 IST 2012	Message type: basicproposal
Tue Nov 27 05:42:38 IST 2012	Chips to send by proposer: { chips  'CTRed':0 'CTPurple':0 'CTGreen':1 'grey78':0 'CTYellow':0 }
Tue Nov 27 05:42:38 IST 2012	Chips to send by responder: { chips  'CTRed':0 'CTPurple':0 'CTGreen':0 'grey78':1 'CTYellow':0 }
Tue Nov 27 05:42:49 IST 2012	Received communication message 
Tue Nov 27 05:42:49 IST 2012	From player: 310
Tue Nov 27 05:42:49 IST 2012	To player: 337
Tue Nov 27 05:42:49 IST 2012	Message type: basicproposaldiscussion
Tue Nov 27 05:42:49 IST 2012	Player 310 accepted offer
Tue Nov 27 05:42:49 IST 2012	Prop accepted, set counter offers count to: 0
Tue Nov 27 05:42:49 IST 2012	Prop accepted, get counter offers returned: 0
Tue Nov 27 05:42:49 IST 2012	A Phase Ended: Communication Phase
Tue Nov 27 05:42:49 IST 2012	Protocol: A New Phase Began: Exchange Phase
Tue Nov 27 05:42:49 IST 2012	Protocol: Exchange phase, Round: 3
Tue Nov 27 05:42:49 IST 2012	In begin exch.phase, get counter offers returned: 0
Tue Nov 27 05:43:18 IST 2012	A Phase Ended: Exchange Phase
Tue Nov 27 05:43:18 IST 2012	Proposer 337 sent: { chips  'CTRed':0 'CTPurple':0 'CTGreen':1 'grey78':0 'CTYellow':0 }
Tue Nov 27 05:43:18 IST 2012	Responder 310 sent: { chips  'CTRed':0 'CTPurple':0 'CTGreen':0 'grey78':1 'CTYellow':0 }
Tue Nov 27 05:43:18 IST 2012	Protocol: A New Phase Began: Movement Phase
Tue Nov 27 05:43:18 IST 2012	Protocol: Movement phase, Round: 3
Tue Nov 27 05:43:38 IST 2012	A Phase Ended: Movement Phase
Tue Nov 27 05:43:38 IST 2012	Protocol: A New Phase Began: Feedback Phase
Tue Nov 27 05:43:38 IST 2012	Protocol: Feedback phase, Round: 3
Tue Nov 27 05:43:38 IST 2012	Number of consecutive no movements for player 337 is 1
Tue Nov 27 05:43:38 IST 2012	Number of consecutive no movements for player 310 is 1
Tue Nov 27 05:43:43 IST 2012	A Phase Ended: Feedback Phase
Tue Nov 27 05:43:43 IST 2012	Protocol: A New Phase Began: Communication Phase
Tue Nov 27 05:43:43 IST 2012	Protocol: Communication phase, Round: 4
Tue Nov 27 05:44:43 IST 2012	Received communication message 
Tue Nov 27 05:44:43 IST 2012	From player: 337
Tue Nov 27 05:44:43 IST 2012	To player: 310
Tue Nov 27 05:44:43 IST 2012	Message type: basicproposal
Tue Nov 27 05:44:43 IST 2012	Chips to send by proposer: { chips  'CTGreen':1 }
Tue Nov 27 05:44:43 IST 2012	Chips to send by responder: { chips  'grey78':1 }
Tue Nov 27 05:44:50 IST 2012	Received communication message 
Tue Nov 27 05:44:50 IST 2012	From player: 310
Tue Nov 27 05:44:50 IST 2012	To player: 337
Tue Nov 27 05:44:50 IST 2012	Message type: basicproposaldiscussion
Tue Nov 27 05:44:50 IST 2012	Player 310 rejected offer
Tue Nov 27 05:44:50 IST 2012	Swaping roles:
Tue Nov 27 05:44:50 IST 2012	Proposer is: 310
Tue Nov 27 05:44:50 IST 2012	Responder is: 337
Tue Nov 27 05:44:50 IST 2012	Prop rejected, set counter offers count to: 1
Tue Nov 27 05:44:50 IST 2012	Prop rejected, get counter offers returned: 1
Tue Nov 27 05:44:54 IST 2012	Slept 4 seconds
Tue Nov 27 05:44:54 IST 2012	Sent role changed msgs
Tue Nov 27 05:45:10 IST 2012	Received communication message 
Tue Nov 27 05:45:10 IST 2012	From player: 310
Tue Nov 27 05:45:10 IST 2012	To player: 337
Tue Nov 27 05:45:10 IST 2012	Message type: basicproposal
Tue Nov 27 05:45:10 IST 2012	Chips to send by proposer: { chips  'CTRed':0 'CTPurple':0 'CTGreen':2 'grey78':2 'CTYellow':0 }
Tue Nov 27 05:45:10 IST 2012	Chips to send by responder: { chips  'CTRed':0 'CTPurple':0 'CTGreen':0 'grey78':0 'CTYellow':1 }
Tue Nov 27 05:45:51 IST 2012	Received communication message 
Tue Nov 27 05:45:51 IST 2012	From player: 337
Tue Nov 27 05:45:51 IST 2012	To player: 310
Tue Nov 27 05:45:51 IST 2012	Message type: basicproposaldiscussion
Tue Nov 27 05:45:51 IST 2012	Player 337 accepted offer
Tue Nov 27 05:45:51 IST 2012	Prop accepted, set counter offers count to: 0
Tue Nov 27 05:45:51 IST 2012	Prop accepted, get counter offers returned: 0
Tue Nov 27 05:45:51 IST 2012	A Phase Ended: Communication Phase
Tue Nov 27 05:45:51 IST 2012	Protocol: A New Phase Began: Exchange Phase
Tue Nov 27 05:45:51 IST 2012	Protocol: Exchange phase, Round: 4
Tue Nov 27 05:45:51 IST 2012	In begin exch.phase, get counter offers returned: 0
Tue Nov 27 05:46:20 IST 2012	A Phase Ended: Exchange Phase
Tue Nov 27 05:46:20 IST 2012	Proposer 310 sent: { chips  }
Tue Nov 27 05:46:20 IST 2012	Responder 337 sent: { chips  'CTRed':0 'CTPurple':0 'CTGreen':0 'grey78':0 'CTYellow':1 }
Tue Nov 27 05:46:20 IST 2012	Protocol: A New Phase Began: Movement Phase
Tue Nov 27 05:46:20 IST 2012	Protocol: Movement phase, Round: 4
Tue Nov 27 05:46:20 IST 2012	Player 310 moved to (R:5,C:3)
Tue Nov 27 05:46:40 IST 2012	A Phase Ended: Movement Phase
Tue Nov 27 05:46:40 IST 2012	Protocol: A New Phase Began: Feedback Phase
Tue Nov 27 05:46:40 IST 2012	Protocol: Feedback phase, Round: 4
Tue Nov 27 05:46:40 IST 2012	Number of consecutive no movements for player 337 is 2
Tue Nov 27 05:46:40 IST 2012	Number of consecutive no movements for player 310 is 0
Tue Nov 27 05:46:45 IST 2012	A Phase Ended: Feedback Phase
Tue Nov 27 05:46:45 IST 2012	Protocol: A New Phase Began: Communication Phase
Tue Nov 27 05:46:45 IST 2012	Protocol: Communication phase, Round: 5
Tue Nov 27 05:47:04 IST 2012	Received communication message 
Tue Nov 27 05:47:04 IST 2012	From player: 310
Tue Nov 27 05:47:04 IST 2012	To player: 337
Tue Nov 27 05:47:04 IST 2012	Message type: basicproposal
Tue Nov 27 05:47:04 IST 2012	Chips to send by proposer: { chips  'CTRed':0 'CTPurple':0 'CTGreen':0 'grey78':2 'CTYellow':0 }
Tue Nov 27 05:47:04 IST 2012	Chips to send by responder: { chips  'CTRed':0 'CTPurple':0 'CTGreen':7 'grey78':0 'CTYellow':0 }
Tue Nov 27 05:47:44 IST 2012	Received communication message 
Tue Nov 27 05:47:44 IST 2012	From player: 337
Tue Nov 27 05:47:44 IST 2012	To player: 310
Tue Nov 27 05:47:44 IST 2012	Message type: basicproposaldiscussion
Tue Nov 27 05:47:44 IST 2012	Player 337 rejected offer
Tue Nov 27 05:47:44 IST 2012	Swaping roles:
Tue Nov 27 05:47:44 IST 2012	Proposer is: 337
Tue Nov 27 05:47:44 IST 2012	Responder is: 310
Tue Nov 27 05:47:44 IST 2012	Prop rejected, set counter offers count to: 1
Tue Nov 27 05:47:44 IST 2012	Prop rejected, get counter offers returned: 1
Tue Nov 27 05:47:48 IST 2012	Slept 4 seconds
Tue Nov 27 05:47:48 IST 2012	Sent role changed msgs
Tue Nov 27 05:48:48 IST 2012	Received communication message 
Tue Nov 27 05:48:48 IST 2012	From player: 337
Tue Nov 27 05:48:48 IST 2012	To player: 310
Tue Nov 27 05:48:48 IST 2012	Message type: basicproposal
Tue Nov 27 05:48:48 IST 2012	Chips to send by proposer: { chips  'CTRed':0 'CTPurple':0 'CTGreen':1 'grey78':0 'CTYellow':0 }
Tue Nov 27 05:48:48 IST 2012	Chips to send by responder: { chips  'CTRed':0 'CTPurple':0 'CTGreen':0 'grey78':1 'CTYellow':0 }
Tue Nov 27 05:48:59 IST 2012	Received communication message 
Tue Nov 27 05:48:59 IST 2012	From player: 310
Tue Nov 27 05:48:59 IST 2012	To player: 337
Tue Nov 27 05:48:59 IST 2012	Message type: basicproposaldiscussion
Tue Nov 27 05:48:59 IST 2012	Player 310 rejected offer
Tue Nov 27 05:48:59 IST 2012	Set counter offers count to: 0
Tue Nov 27 05:48:59 IST 2012	A Phase Ended: Communication Phase
Tue Nov 27 05:48:59 IST 2012	Protocol: A New Phase Began: Exchange Phase
Tue Nov 27 05:48:59 IST 2012	Protocol: Exchange phase, Round: 5
Tue Nov 27 05:48:59 IST 2012	In begin exch.phase, get counter offers returned: 0
Tue Nov 27 05:49:39 IST 2012	A Phase Ended: Exchange Phase
Tue Nov 27 05:49:39 IST 2012	Proposer 337 sent: { chips  }
Tue Nov 27 05:49:39 IST 2012	Protocol: A New Phase Began: Movement Phase
Tue Nov 27 05:49:39 IST 2012	Protocol: Movement phase, Round: 5
Tue Nov 27 05:49:39 IST 2012	Player 337 moved to (R:5,C:1)
Tue Nov 27 05:49:39 IST 2012	Player 310 moved to (R:4,C:3)
Tue Nov 27 05:49:59 IST 2012	A Phase Ended: Movement Phase
Tue Nov 27 05:49:59 IST 2012	Protocol: A New Phase Began: Feedback Phase
Tue Nov 27 05:49:59 IST 2012	Protocol: Feedback phase, Round: 5
Tue Nov 27 05:49:59 IST 2012	Number of consecutive no movements for player 337 is 0
Tue Nov 27 05:49:59 IST 2012	Number of consecutive no movements for player 310 is 0
Tue Nov 27 05:50:04 IST 2012	A Phase Ended: Feedback Phase
Tue Nov 27 05:50:04 IST 2012	Protocol: A New Phase Began: Communication Phase
Tue Nov 27 05:50:04 IST 2012	Protocol: Communication phase, Round: 6
Tue Nov 27 05:51:04 IST 2012	Received communication message 
Tue Nov 27 05:51:04 IST 2012	From player: 337
Tue Nov 27 05:51:04 IST 2012	To player: 310
Tue Nov 27 05:51:04 IST 2012	Message type: basicproposal
Tue Nov 27 05:51:04 IST 2012	Chips to send by proposer: { chips  'CTGreen':1 }
Tue Nov 27 05:51:04 IST 2012	Chips to send by responder: { chips  'grey78':1 }
Tue Nov 27 05:51:14 IST 2012	Received communication message 
Tue Nov 27 05:51:14 IST 2012	From player: 310
Tue Nov 27 05:51:14 IST 2012	To player: 337
Tue Nov 27 05:51:14 IST 2012	Message type: basicproposaldiscussion
Tue Nov 27 05:51:14 IST 2012	Player 310 rejected offer
Tue Nov 27 05:51:14 IST 2012	Swaping roles:
Tue Nov 27 05:51:14 IST 2012	Proposer is: 310
Tue Nov 27 05:51:14 IST 2012	Responder is: 337
Tue Nov 27 05:51:14 IST 2012	Prop rejected, set counter offers count to: 1
Tue Nov 27 05:51:14 IST 2012	Prop rejected, get counter offers returned: 1
Tue Nov 27 05:51:18 IST 2012	Slept 4 seconds
Tue Nov 27 05:51:18 IST 2012	Sent role changed msgs
Tue Nov 27 05:51:37 IST 2012	Received communication message 
Tue Nov 27 05:51:37 IST 2012	From player: 310
Tue Nov 27 05:51:37 IST 2012	To player: 337
Tue Nov 27 05:51:37 IST 2012	Message type: basicproposal
Tue Nov 27 05:51:37 IST 2012	Chips to send by proposer: { chips  'CTRed':0 'CTPurple':0 'CTGreen':0 'grey78':2 'CTYellow':0 }
Tue Nov 27 05:51:37 IST 2012	Chips to send by responder: { chips  'CTRed':0 'CTPurple':0 'CTGreen':5 'grey78':0 'CTYellow':0 }
Tue Nov 27 05:52:09 IST 2012	Received communication message 
Tue Nov 27 05:52:09 IST 2012	From player: 337
Tue Nov 27 05:52:09 IST 2012	To player: 310
Tue Nov 27 05:52:09 IST 2012	Message type: basicproposaldiscussion
Tue Nov 27 05:52:09 IST 2012	Player 337 rejected offer
Tue Nov 27 05:52:09 IST 2012	Set counter offers count to: 0
Tue Nov 27 05:52:09 IST 2012	A Phase Ended: Communication Phase
Tue Nov 27 05:52:09 IST 2012	Protocol: A New Phase Began: Exchange Phase
Tue Nov 27 05:52:09 IST 2012	Protocol: Exchange phase, Round: 6
Tue Nov 27 05:52:09 IST 2012	In begin exch.phase, get counter offers returned: 0
Tue Nov 27 05:52:49 IST 2012	A Phase Ended: Exchange Phase
Tue Nov 27 05:52:49 IST 2012	Responder 337 sent: { chips  }
Tue Nov 27 05:52:49 IST 2012	Protocol: A New Phase Began: Movement Phase
Tue Nov 27 05:52:49 IST 2012	Protocol: Movement phase, Round: 6
Tue Nov 27 05:52:49 IST 2012	Player 310 moved to (R:3,C:3)
Tue Nov 27 05:53:10 IST 2012	A Phase Ended: Movement Phase
Tue Nov 27 05:53:10 IST 2012	Protocol: A New Phase Began: Feedback Phase
Tue Nov 27 05:53:10 IST 2012	Protocol: Feedback phase, Round: 6
Tue Nov 27 05:53:10 IST 2012	Number of consecutive no movements for player 337 is 1
Tue Nov 27 05:53:10 IST 2012	Number of consecutive no movements for player 310 is 0
Tue Nov 27 05:53:15 IST 2012	A Phase Ended: Feedback Phase
Tue Nov 27 05:53:15 IST 2012	Protocol: A New Phase Began: Communication Phase
Tue Nov 27 05:53:15 IST 2012	Protocol: Communication phase, Round: 7
Tue Nov 27 05:53:28 IST 2012	Received communication message 
Tue Nov 27 05:53:28 IST 2012	From player: 310
Tue Nov 27 05:53:28 IST 2012	To player: 337
Tue Nov 27 05:53:28 IST 2012	Message type: basicproposal
Tue Nov 27 05:53:28 IST 2012	Chips to send by proposer: { chips  'CTRed':0 'CTPurple':0 'CTGreen':0 'grey78':2 'CTYellow':0 }
Tue Nov 27 05:53:28 IST 2012	Chips to send by responder: { chips  'CTRed':0 'CTPurple':0 'CTGreen':7 'grey78':0 'CTYellow':0 }
Tue Nov 27 05:53:58 IST 2012	Received communication message 
Tue Nov 27 05:53:58 IST 2012	From player: 337
Tue Nov 27 05:53:58 IST 2012	To player: 310
Tue Nov 27 05:53:58 IST 2012	Message type: basicproposaldiscussion
Tue Nov 27 05:53:58 IST 2012	Player 337 rejected offer
Tue Nov 27 05:53:58 IST 2012	Swaping roles:
Tue Nov 27 05:53:58 IST 2012	Proposer is: 337
Tue Nov 27 05:53:58 IST 2012	Responder is: 310
Tue Nov 27 05:53:58 IST 2012	Prop rejected, set counter offers count to: 1
Tue Nov 27 05:53:58 IST 2012	Prop rejected, get counter offers returned: 1
Tue Nov 27 05:54:02 IST 2012	Slept 4 seconds
Tue Nov 27 05:54:02 IST 2012	Sent role changed msgs
Tue Nov 27 05:55:02 IST 2012	Received communication message 
Tue Nov 27 05:55:02 IST 2012	From player: 337
Tue Nov 27 05:55:02 IST 2012	To player: 310
Tue Nov 27 05:55:02 IST 2012	Message type: basicproposal
Tue Nov 27 05:55:02 IST 2012	Chips to send by proposer: { chips  'CTRed':0 'CTPurple':0 'CTGreen':0 'grey78':0 'CTYellow':1 }
Tue Nov 27 05:55:02 IST 2012	Chips to send by responder: { chips  'CTRed':0 'CTPurple':0 'CTGreen':0 'grey78':1 'CTYellow':0 }
Tue Nov 27 05:55:11 IST 2012	Received communication message 
Tue Nov 27 05:55:11 IST 2012	From player: 310
Tue Nov 27 05:55:11 IST 2012	To player: 337
Tue Nov 27 05:55:11 IST 2012	Message type: basicproposaldiscussion
Tue Nov 27 05:55:11 IST 2012	Player 310 rejected offer
Tue Nov 27 05:55:11 IST 2012	Set counter offers count to: 0
Tue Nov 27 05:55:11 IST 2012	A Phase Ended: Communication Phase
Tue Nov 27 05:55:11 IST 2012	Protocol: A New Phase Began: Exchange Phase
Tue Nov 27 05:55:11 IST 2012	Protocol: Exchange phase, Round: 7
Tue Nov 27 05:55:11 IST 2012	In begin exch.phase, get counter offers returned: 0
Tue Nov 27 05:55:51 IST 2012	A Phase Ended: Exchange Phase
Tue Nov 27 05:55:51 IST 2012	Proposer 337 sent: { chips  }
Tue Nov 27 05:55:51 IST 2012	Protocol: A New Phase Began: Movement Phase
Tue Nov 27 05:55:51 IST 2012	Protocol: Movement phase, Round: 7
Tue Nov 27 05:55:51 IST 2012	Player 310 moved to (R:2,C:3)
Tue Nov 27 05:56:11 IST 2012	A Phase Ended: Movement Phase
Tue Nov 27 05:56:11 IST 2012	Protocol: A New Phase Began: Feedback Phase
Tue Nov 27 05:56:11 IST 2012	Protocol: Feedback phase, Round: 7
Tue Nov 27 05:56:11 IST 2012	Number of consecutive no movements for player 337 is 2
Tue Nov 27 05:56:11 IST 2012	Number of consecutive no movements for player 310 is 0
Tue Nov 27 05:56:16 IST 2012	A Phase Ended: Feedback Phase
Tue Nov 27 05:56:16 IST 2012	Protocol: A New Phase Began: Communication Phase
Tue Nov 27 05:56:16 IST 2012	Protocol: Communication phase, Round: 8
Tue Nov 27 05:57:16 IST 2012	Received communication message 
Tue Nov 27 05:57:16 IST 2012	From player: 337
Tue Nov 27 05:57:16 IST 2012	To player: 310
Tue Nov 27 05:57:16 IST 2012	Message type: basicproposal
Tue Nov 27 05:57:16 IST 2012	Chips to send by proposer: { chips  'CTGreen':1 }
Tue Nov 27 05:57:16 IST 2012	Chips to send by responder: { chips  'grey78':1 }
Tue Nov 27 05:57:25 IST 2012	Received communication message 
Tue Nov 27 05:57:25 IST 2012	From player: 310
Tue Nov 27 05:57:25 IST 2012	To player: 337
Tue Nov 27 05:57:25 IST 2012	Message type: basicproposaldiscussion
Tue Nov 27 05:57:25 IST 2012	Player 310 rejected offer
Tue Nov 27 05:57:25 IST 2012	Swaping roles:
Tue Nov 27 05:57:25 IST 2012	Proposer is: 310
Tue Nov 27 05:57:25 IST 2012	Responder is: 337
Tue Nov 27 05:57:25 IST 2012	Prop rejected, set counter offers count to: 1
Tue Nov 27 05:57:25 IST 2012	Prop rejected, get counter offers returned: 1
Tue Nov 27 05:57:29 IST 2012	Slept 4 seconds
Tue Nov 27 05:57:29 IST 2012	Sent role changed msgs
Tue Nov 27 05:57:44 IST 2012	Received communication message 
Tue Nov 27 05:57:44 IST 2012	From player: 310
Tue Nov 27 05:57:44 IST 2012	To player: 337
Tue Nov 27 05:57:44 IST 2012	Message type: basicproposal
Tue Nov 27 05:57:44 IST 2012	Chips to send by proposer: { chips  'CTRed':0 'CTPurple':0 'CTGreen':0 'grey78':1 'CTYellow':0 }
Tue Nov 27 05:57:44 IST 2012	Chips to send by responder: { chips  'CTRed':0 'CTPurple':0 'CTGreen':6 'grey78':0 'CTYellow':0 }
Tue Nov 27 05:58:06 IST 2012	Received communication message 
Tue Nov 27 05:58:06 IST 2012	From player: 337
Tue Nov 27 05:58:06 IST 2012	To player: 310
Tue Nov 27 05:58:06 IST 2012	Message type: basicproposaldiscussion
Tue Nov 27 05:58:06 IST 2012	Player 337 rejected offer
Tue Nov 27 05:58:06 IST 2012	Set counter offers count to: 0
Tue Nov 27 05:58:06 IST 2012	A Phase Ended: Communication Phase
Tue Nov 27 05:58:06 IST 2012	Protocol: A New Phase Began: Exchange Phase
Tue Nov 27 05:58:06 IST 2012	Protocol: Exchange phase, Round: 8
Tue Nov 27 05:58:06 IST 2012	In begin exch.phase, get counter offers returned: 0
Tue Nov 27 05:58:46 IST 2012	A Phase Ended: Exchange Phase
Tue Nov 27 05:58:46 IST 2012	Responder 337 sent: { chips  }
Tue Nov 27 05:58:46 IST 2012	Protocol: A New Phase Began: Movement Phase
Tue Nov 27 05:58:46 IST 2012	Protocol: Movement phase, Round: 8
Tue Nov 27 05:58:46 IST 2012	Player 337 moved to (R:4,C:1)
Tue Nov 27 05:58:46 IST 2012	Player 310 moved to (R:1,C:3)
Tue Nov 27 05:59:07 IST 2012	A Phase Ended: Movement Phase
Tue Nov 27 05:59:07 IST 2012	Protocol: A New Phase Began: Feedback Phase
Tue Nov 27 05:59:07 IST 2012	Protocol: Feedback phase, Round: 8
Tue Nov 27 05:59:07 IST 2012	Number of consecutive no movements for player 337 is 0
Tue Nov 27 05:59:07 IST 2012	Number of consecutive no movements for player 310 is 0
Tue Nov 27 05:59:12 IST 2012	A Phase Ended: Feedback Phase
Tue Nov 27 05:59:12 IST 2012	Protocol: A New Phase Began: Communication Phase
Tue Nov 27 05:59:12 IST 2012	Protocol: Communication phase, Round: 9
Tue Nov 27 05:59:32 IST 2012	Received communication message 
Tue Nov 27 05:59:32 IST 2012	From player: 310
Tue Nov 27 05:59:32 IST 2012	To player: 337
Tue Nov 27 05:59:32 IST 2012	Message type: basicproposal
Tue Nov 27 05:59:32 IST 2012	Chips to send by proposer: { chips  'CTRed':0 'CTPurple':0 'CTGreen':0 'grey78':2 'CTYellow':0 }
Tue Nov 27 05:59:32 IST 2012	Chips to send by responder: { chips  'CTRed':0 'CTPurple':0 'CTGreen':7 'grey78':0 'CTYellow':0 }
Tue Nov 27 05:59:50 IST 2012	Received communication message 
Tue Nov 27 05:59:50 IST 2012	From player: 337
Tue Nov 27 05:59:50 IST 2012	To player: 310
Tue Nov 27 05:59:50 IST 2012	Message type: basicproposaldiscussion
Tue Nov 27 05:59:50 IST 2012	Player 337 rejected offer
Tue Nov 27 05:59:50 IST 2012	Swaping roles:
Tue Nov 27 05:59:50 IST 2012	Proposer is: 337
Tue Nov 27 05:59:50 IST 2012	Responder is: 310
Tue Nov 27 05:59:50 IST 2012	Prop rejected, set counter offers count to: 1
Tue Nov 27 05:59:50 IST 2012	Prop rejected, get counter offers returned: 1
Tue Nov 27 05:59:54 IST 2012	Slept 4 seconds
Tue Nov 27 05:59:54 IST 2012	Sent role changed msgs
Tue Nov 27 06:00:48 IST 2012	Received communication message 
Tue Nov 27 06:00:48 IST 2012	From player: 337
Tue Nov 27 06:00:48 IST 2012	To player: 310
Tue Nov 27 06:00:48 IST 2012	Message type: basicproposal
Tue Nov 27 06:00:48 IST 2012	Chips to send by proposer: { chips  'CTRed':0 'CTPurple':0 'CTGreen':0 'grey78':0 'CTYellow':1 }
Tue Nov 27 06:00:48 IST 2012	Chips to send by responder: { chips  'CTRed':0 'CTPurple':0 'CTGreen':0 'grey78':1 'CTYellow':0 }
Tue Nov 27 06:00:55 IST 2012	Received communication message 
Tue Nov 27 06:00:55 IST 2012	From player: 310
Tue Nov 27 06:00:55 IST 2012	To player: 337
Tue Nov 27 06:00:55 IST 2012	Message type: basicproposaldiscussion
Tue Nov 27 06:00:55 IST 2012	Player 310 rejected offer
Tue Nov 27 06:00:55 IST 2012	Set counter offers count to: 0
Tue Nov 27 06:00:55 IST 2012	A Phase Ended: Communication Phase
Tue Nov 27 06:00:55 IST 2012	Protocol: A New Phase Began: Exchange Phase
Tue Nov 27 06:00:55 IST 2012	Protocol: Exchange phase, Round: 9
Tue Nov 27 06:00:55 IST 2012	In begin exch.phase, get counter offers returned: 0
Tue Nov 27 06:01:35 IST 2012	A Phase Ended: Exchange Phase
Tue Nov 27 06:01:35 IST 2012	Proposer 337 sent: { chips  }
Tue Nov 27 06:01:35 IST 2012	Protocol: A New Phase Began: Movement Phase
Tue Nov 27 06:01:35 IST 2012	Protocol: Movement phase, Round: 9
Tue Nov 27 06:01:35 IST 2012	Player 310 moved to (R:0,C:3)
Tue Nov 27 06:01:55 IST 2012	A Phase Ended: Movement Phase
Tue Nov 27 06:01:55 IST 2012	Protocol: A New Phase Began: Feedback Phase
Tue Nov 27 06:01:55 IST 2012	Protocol: Feedback phase, Round: 9
Tue Nov 27 06:01:55 IST 2012	Number of consecutive no movements for player 337 is 1
Tue Nov 27 06:01:55 IST 2012	Number of consecutive no movements for player 310 is 0
Tue Nov 27 06:02:00 IST 2012	A Phase Ended: Feedback Phase
Tue Nov 27 06:02:00 IST 2012	Protocol: A New Phase Began: Communication Phase
Tue Nov 27 06:02:00 IST 2012	Protocol: Communication phase, Round: 10
Tue Nov 27 06:02:39 IST 2012	Received communication message 
Tue Nov 27 06:02:39 IST 2012	From player: 337
Tue Nov 27 06:02:39 IST 2012	To player: 310
Tue Nov 27 06:02:39 IST 2012	Message type: basicproposal
Tue Nov 27 06:02:39 IST 2012	Chips to send by proposer: { chips  'CTYellow':1 }
Tue Nov 27 06:02:39 IST 2012	Chips to send by responder: { chips  'grey78':1 }
Tue Nov 27 06:02:50 IST 2012	Received communication message 
Tue Nov 27 06:02:50 IST 2012	From player: 310
Tue Nov 27 06:02:50 IST 2012	To player: 337
Tue Nov 27 06:02:50 IST 2012	Message type: basicproposaldiscussion
Tue Nov 27 06:02:50 IST 2012	Player 310 rejected offer
Tue Nov 27 06:02:50 IST 2012	Swaping roles:
Tue Nov 27 06:02:50 IST 2012	Proposer is: 310
Tue Nov 27 06:02:50 IST 2012	Responder is: 337
Tue Nov 27 06:02:50 IST 2012	Prop rejected, set counter offers count to: 1
Tue Nov 27 06:02:50 IST 2012	Prop rejected, get counter offers returned: 1
Tue Nov 27 06:02:54 IST 2012	Slept 4 seconds
Tue Nov 27 06:02:54 IST 2012	Sent role changed msgs
Tue Nov 27 06:03:07 IST 2012	Received communication message 
Tue Nov 27 06:03:07 IST 2012	From player: 310
Tue Nov 27 06:03:07 IST 2012	To player: 337
Tue Nov 27 06:03:07 IST 2012	Message type: basicproposal
Tue Nov 27 06:03:07 IST 2012	Chips to send by proposer: { chips  'CTRed':0 'CTPurple':0 'CTGreen':0 'grey78':2 'CTYellow':0 }
Tue Nov 27 06:03:07 IST 2012	Chips to send by responder: { chips  'CTRed':0 'CTPurple':0 'CTGreen':5 'grey78':0 'CTYellow':0 }
Tue Nov 27 06:03:16 IST 2012	Received communication message 
Tue Nov 27 06:03:16 IST 2012	From player: 337
Tue Nov 27 06:03:16 IST 2012	To player: 310
Tue Nov 27 06:03:16 IST 2012	Message type: basicproposaldiscussion
Tue Nov 27 06:03:16 IST 2012	Player 337 rejected offer
Tue Nov 27 06:03:16 IST 2012	Set counter offers count to: 0
Tue Nov 27 06:03:16 IST 2012	A Phase Ended: Communication Phase
Tue Nov 27 06:03:16 IST 2012	Protocol: A New Phase Began: Exchange Phase
Tue Nov 27 06:03:16 IST 2012	Protocol: Exchange phase, Round: 10
Tue Nov 27 06:03:16 IST 2012	In begin exch.phase, get counter offers returned: 0
Tue Nov 27 06:03:57 IST 2012	A Phase Ended: Exchange Phase
Tue Nov 27 06:03:57 IST 2012	Responder 337 sent: { chips  }
Tue Nov 27 06:03:57 IST 2012	Protocol: A New Phase Began: Movement Phase
Tue Nov 27 06:03:57 IST 2012	Protocol: Movement phase, Round: 10
Tue Nov 27 06:03:57 IST 2012	Player 310 moved to (R:0,C:2)
Tue Nov 27 06:04:01 IST 2012	Slept 4 seconds
Tue Nov 27 06:04:01 IST 2012	Player 310 got to goal, advance the other and end game
Tue Nov 27 06:04:01 IST 2012	Player: 310 ,role: Proposer score is: 190
Tue Nov 27 06:04:01 IST 2012	Player: 337 ,role: Responder score is: 45
