Wed May 29 10:32:52 IDT 2013	This is the CT debug logger; svn version 638; sep 27 09
Wed May 29 10:32:52 IDT 2013	Wed May 29 10:32:52 IDT 2013
Wed May 29 10:32:52 IDT 2013	ID Number: 62302
Wed May 29 10:32:52 IDT 2013	Creating board
Wed May 29 10:32:52 IDT 2013	<colors>
Wed May 29 10:32:52 IDT 2013	{ GamePalette  'CTPurple':0 'CTRed':1 'CTGreen':2 'grey78':3 'CTYellow':4 }
Wed May 29 10:32:52 IDT 2013	<rows>
Wed May 29 10:32:52 IDT 2013	6
Wed May 29 10:32:52 IDT 2013	<columns>
Wed May 29 10:32:52 IDT 2013	9
Wed May 29 10:32:52 IDT 2013	<squaresColors>
Wed May 29 10:32:52 IDT 2013	grey78 CTGreen CTGreen CTGreen CTGreen CTGreen CTGreen CTGreen CTYellow 
Wed May 29 10:32:52 IDT 2013	grey78 CTPurple CTPurple CTPurple CTPurple CTPurple CTPurple CTPurple CTYellow 
Wed May 29 10:32:52 IDT 2013	grey78 grey78 CTGreen CTGreen CTGreen CTGreen CTGreen CTYellow CTYellow 
Wed May 29 10:32:52 IDT 2013	CTGreen grey78 grey78 CTPurple CTPurple CTPurple CTYellow CTYellow CTGreen 
Wed May 29 10:32:52 IDT 2013	CTGreen CTGreen grey78 grey78 CTGreen CTYellow CTYellow CTGreen CTGreen 
Wed May 29 10:32:52 IDT 2013	CTGreen CTGreen CTGreen grey78 CTGreen CTYellow CTGreen CTGreen CTGreen 
Wed May 29 10:32:52 IDT 2013	</squareColors>
Wed May 29 10:32:52 IDT 2013	<goalPosition>
Wed May 29 10:32:52 IDT 2013	Goal position: (R:0,C:0)
Wed May 29 10:32:52 IDT 2013	<goalPosition>
Wed May 29 10:32:52 IDT 2013	Goal position: (R:0,C:0)
Wed May 29 10:32:52 IDT 2013	<firstPlayerPossibleGoal1>
Wed May 29 10:32:52 IDT 2013	0.5
Wed May 29 10:32:52 IDT 2013	0
Wed May 29 10:32:52 IDT 2013	0
Wed May 29 10:32:52 IDT 2013	</firstPlayerPossibleGoal1>
Wed May 29 10:32:52 IDT 2013	<firstPlayerPossibleGoal2>
Wed May 29 10:32:52 IDT 2013	0.5
Wed May 29 10:32:52 IDT 2013	0
Wed May 29 10:32:52 IDT 2013	8
Wed May 29 10:32:52 IDT 2013	</firstPlayerPossibleGoal2>
Wed May 29 10:32:52 IDT 2013	<numberOfPlayers>
Wed May 29 10:32:52 IDT 2013	3
Wed May 29 10:32:52 IDT 2013	<firstPlayerChips>
Wed May 29 10:32:52 IDT 2013	Setting chips for player: 100 id:0
Wed May 29 10:32:52 IDT 2013	{ chips  'CTRed':0 'CTGreen':0 'CTPurple':0 'grey78':12 'CTYellow':12 }
Wed May 29 10:32:52 IDT 2013	Player position: (R:5,C:4)
Wed May 29 10:32:52 IDT 2013	Setting chips for player: 200 id:1
Wed May 29 10:32:52 IDT 2013	{ chips  'CTRed':33 'CTGreen':0 'CTPurple':7 'grey78':0 'CTYellow':0 }
Wed May 29 10:32:52 IDT 2013	Player position: (R:0,C:8)
Wed May 29 10:32:52 IDT 2013	Setting chips for player: 300 id:2
Wed May 29 10:32:52 IDT 2013	{ chips  'CTRed':33 'CTGreen':0 'CTPurple':7 'grey78':0 'CTYellow':0 }
Wed May 29 10:32:52 IDT 2013	Player position: (R:0,C:0)
Wed May 29 10:32:52 IDT 2013	Protocol: A New Phase Began: Strategy Prep Phase. loop is true
Wed May 29 10:32:52 IDT 2013	---------- Beginning Strategy Prep Phase at round 0 ----------
Wed May 29 10:33:53 IDT 2013	A Phase Ended: Strategy Prep Phase
Wed May 29 10:33:53 IDT 2013	Protocol: A New Phase Began: Communication Phase. loop is true
Wed May 29 10:33:53 IDT 2013	---------- Beginning Communication Phase at round 1 ----------
Wed May 29 10:34:17 IDT 2013	Received communication message 
Wed May 29 10:34:17 IDT 2013	From player: 200
Wed May 29 10:34:17 IDT 2013	To player: 100
Wed May 29 10:34:17 IDT 2013	Chips to send by proposer: { chips  'CTRed':15 'CTPurple':0 'CTGreen':0 'grey78':0 'CTYellow':0 }
Wed May 29 10:34:17 IDT 2013	Chips to send by responder: { chips  'CTRed':0 'CTPurple':0 'CTGreen':0 'grey78':0 'CTYellow':2 }
Wed May 29 10:35:57 IDT 2013	Received communication message 
Wed May 29 10:35:57 IDT 2013	From player: 300
Wed May 29 10:35:57 IDT 2013	To player: 100
Wed May 29 10:35:57 IDT 2013	Chips to send by proposer: { chips  'CTRed':33 'CTPurple':7 'CTGreen':0 'grey78':0 'CTYellow':0 }
Wed May 29 10:35:57 IDT 2013	Chips to send by responder: { chips  'CTRed':0 'CTPurple':0 'CTGreen':0 'grey78':9 'CTYellow':0 }
Wed May 29 10:36:54 IDT 2013	Received communication message 
Wed May 29 10:36:54 IDT 2013	Proposer 1 accepted? true
Wed May 29 10:36:54 IDT 2013	A Phase Ended: Communication Phase
Wed May 29 10:36:54 IDT 2013	Protocol: A New Phase Began: Movement Phase. loop is true
Wed May 29 10:36:54 IDT 2013	---------- Beginning Movement Phase at round 1 ----------
Wed May 29 10:36:54 IDT 2013	remove strategy phase. 
Wed May 29 10:37:39 IDT 2013	A Phase Ended: Movement Phase
Wed May 29 10:37:39 IDT 2013	Protocol: A New Phase Began: Feedback Phase. loop is true
Wed May 29 10:37:39 IDT 2013	---------- Beginning Feedback Phase at round 1 ----------
Wed May 29 10:37:39 IDT 2013	Number of consecutive no movements for player 100 is 0
Wed May 29 10:37:39 IDT 2013	TDPlayerPosition is(R:4,C:3)goal location 0(R:0,C:0)goal location 1(R:0,C:8)
Wed May 29 10:37:39 IDT 2013	ended is false
Wed May 29 10:37:44 IDT 2013	A Phase Ended: Feedback Phase
Wed May 29 10:37:44 IDT 2013	 numberofMoves in round 1 is 2
Wed May 29 10:37:44 IDT 2013	Swaping roles:
Wed May 29 10:37:44 IDT 2013	Protocol: A New Phase Began: Communication Phase. loop is true
Wed May 29 10:37:44 IDT 2013	---------- Beginning Communication Phase at round 2 ----------
Wed May 29 10:39:28 IDT 2013	Received communication message 
Wed May 29 10:39:28 IDT 2013	From player: 100
Wed May 29 10:39:28 IDT 2013	To player: 300
Wed May 29 10:39:28 IDT 2013	Chips to send by proposer: { chips  'CTRed':0 'CTPurple':1 'CTGreen':0 'grey78':0 'CTYellow':0 }
Wed May 29 10:39:28 IDT 2013	Chips to send by responder: { chips  'CTRed':0 'CTPurple':0 'CTGreen':0 'grey78':9 'CTYellow':0 }
Wed May 29 10:39:55 IDT 2013	Received communication message 
Wed May 29 10:39:55 IDT 2013	Proposer 1 accepted? false
Wed May 29 10:39:55 IDT 2013	case that we had one reject, and one accept
Wed May 29 10:39:55 IDT 2013	A Phase Ended: Communication Phase
Wed May 29 10:39:55 IDT 2013	Protocol: A New Phase Began: Movement Phase. loop is true
Wed May 29 10:39:55 IDT 2013	---------- Beginning Movement Phase at round 2 ----------
Wed May 29 10:40:40 IDT 2013	A Phase Ended: Movement Phase
Wed May 29 10:40:40 IDT 2013	Protocol: A New Phase Began: Feedback Phase. loop is true
Wed May 29 10:40:40 IDT 2013	---------- Beginning Feedback Phase at round 2 ----------
Wed May 29 10:40:40 IDT 2013	Number of consecutive no movements for player 100 is 0
Wed May 29 10:40:40 IDT 2013	TDPlayerPosition is(R:3,C:4)goal location 0(R:0,C:0)goal location 1(R:0,C:8)
Wed May 29 10:40:40 IDT 2013	ended is false
Wed May 29 10:40:45 IDT 2013	A Phase Ended: Feedback Phase
Wed May 29 10:40:45 IDT 2013	 numberofMoves in round 2 is 2
Wed May 29 10:40:45 IDT 2013	Swaping roles:
Wed May 29 10:40:45 IDT 2013	Protocol: A New Phase Began: Communication Phase. loop is true
Wed May 29 10:40:45 IDT 2013	---------- Beginning Communication Phase at round 3 ----------
Wed May 29 10:41:51 IDT 2013	Received communication message 
Wed May 29 10:41:51 IDT 2013	From player: 200
Wed May 29 10:41:51 IDT 2013	To player: 100
Wed May 29 10:41:51 IDT 2013	Chips to send by proposer: { chips  'CTRed':13 'CTPurple':5 'CTGreen':0 'grey78':0 'CTYellow':0 }
Wed May 29 10:41:51 IDT 2013	Chips to send by responder: { chips  'CTRed':0 'CTPurple':0 'CTGreen':0 'grey78':1 'CTYellow':0 }
Wed May 29 10:42:05 IDT 2013	Received communication message 
Wed May 29 10:42:05 IDT 2013	From player: 300
Wed May 29 10:42:05 IDT 2013	To player: 100
Wed May 29 10:42:05 IDT 2013	Chips to send by proposer: { chips  'CTRed':0 'CTPurple':0 'CTGreen':0 'grey78':9 'CTYellow':0 }
Wed May 29 10:42:05 IDT 2013	Chips to send by responder: { chips  'CTRed':6 'CTPurple':0 'CTGreen':0 'grey78':0 'CTYellow':0 }
Wed May 29 10:43:45 IDT 2013	Received communication message 
Wed May 29 10:43:45 IDT 2013	Proposer 1 accepted? true
Wed May 29 10:43:45 IDT 2013	A Phase Ended: Communication Phase
Wed May 29 10:43:45 IDT 2013	Protocol: A New Phase Began: Movement Phase. loop is true
Wed May 29 10:43:45 IDT 2013	---------- Beginning Movement Phase at round 3 ----------
Wed May 29 10:44:31 IDT 2013	A Phase Ended: Movement Phase
Wed May 29 10:44:31 IDT 2013	Protocol: A New Phase Began: Feedback Phase. loop is true
Wed May 29 10:44:31 IDT 2013	---------- Beginning Feedback Phase at round 3 ----------
Wed May 29 10:44:31 IDT 2013	Number of consecutive no movements for player 100 is 0
Wed May 29 10:44:31 IDT 2013	TDPlayerPosition is(R:3,C:2)goal location 0(R:0,C:0)goal location 1(R:0,C:8)
Wed May 29 10:44:31 IDT 2013	ended is false
Wed May 29 10:44:36 IDT 2013	A Phase Ended: Feedback Phase
Wed May 29 10:44:36 IDT 2013	 numberofMoves in round 3 is 2
Wed May 29 10:44:36 IDT 2013	Swaping roles:
Wed May 29 10:44:36 IDT 2013	Protocol: A New Phase Began: Communication Phase. loop is true
Wed May 29 10:44:36 IDT 2013	---------- Beginning Communication Phase at round 4 ----------
Wed May 29 10:45:56 IDT 2013	Received communication message 
Wed May 29 10:45:56 IDT 2013	From player: 100
Wed May 29 10:45:56 IDT 2013	To player: 200
Wed May 29 10:45:56 IDT 2013	Chips to send by proposer: { chips  'CTRed':0 'CTPurple':0 'CTGreen':0 'grey78':3 'CTYellow':0 }
Wed May 29 10:45:56 IDT 2013	Chips to send by responder: { chips  'CTRed':17 'CTPurple':0 'CTGreen':0 'grey78':0 'CTYellow':0 }
Wed May 29 10:46:23 IDT 2013	Received communication message 
Wed May 29 10:46:23 IDT 2013	Proposer 0 accepted? false
Wed May 29 10:46:23 IDT 2013	case that we had one reject, and one accept
Wed May 29 10:46:23 IDT 2013	A Phase Ended: Communication Phase
Wed May 29 10:46:23 IDT 2013	Protocol: A New Phase Began: Movement Phase. loop is true
Wed May 29 10:46:23 IDT 2013	---------- Beginning Movement Phase at round 4 ----------
Wed May 29 10:47:09 IDT 2013	A Phase Ended: Movement Phase
Wed May 29 10:47:09 IDT 2013	Protocol: A New Phase Began: Feedback Phase. loop is true
Wed May 29 10:47:09 IDT 2013	---------- Beginning Feedback Phase at round 4 ----------
Wed May 29 10:47:09 IDT 2013	Number of consecutive no movements for player 100 is 0
Wed May 29 10:47:09 IDT 2013	TDPlayerPosition is(R:3,C:1)goal location 0(R:0,C:0)goal location 1(R:0,C:8)
Wed May 29 10:47:09 IDT 2013	ended is false
Wed May 29 10:47:14 IDT 2013	A Phase Ended: Feedback Phase
Wed May 29 10:47:14 IDT 2013	 numberofMoves in round 4 is 1
Wed May 29 10:47:14 IDT 2013	Swaping roles:
Wed May 29 10:47:14 IDT 2013	Protocol: A New Phase Began: Communication Phase. loop is true
Wed May 29 10:47:14 IDT 2013	---------- Beginning Communication Phase at round 5 ----------
Wed May 29 10:47:52 IDT 2013	Received communication message 
Wed May 29 10:47:52 IDT 2013	From player: 200
Wed May 29 10:47:52 IDT 2013	To player: 100
Wed May 29 10:47:52 IDT 2013	Chips to send by proposer: { chips  'CTRed':20 'CTPurple':4 'CTGreen':0 'grey78':0 'CTYellow':0 }
Wed May 29 10:47:52 IDT 2013	Chips to send by responder: { chips  'CTRed':0 'CTPurple':0 'CTGreen':0 'grey78':7 'CTYellow':0 }
Wed May 29 10:49:30 IDT 2013	Received communication message 
Wed May 29 10:49:30 IDT 2013	From player: 300
Wed May 29 10:49:30 IDT 2013	To player: 100
Wed May 29 10:49:30 IDT 2013	Chips to send by proposer: { chips  'CTRed':6 'CTPurple':0 'CTGreen':0 'grey78':0 'CTYellow':0 }
Wed May 29 10:49:30 IDT 2013	Chips to send by responder: { chips  'CTRed':0 'CTPurple':0 'CTGreen':0 'grey78':5 'CTYellow':0 }
Wed May 29 10:49:35 IDT 2013	Received communication message 
Wed May 29 10:49:35 IDT 2013	Proposer 0 accepted? true
Wed May 29 10:49:35 IDT 2013	A Phase Ended: Communication Phase
Wed May 29 10:49:35 IDT 2013	Protocol: A New Phase Began: Movement Phase. loop is true
Wed May 29 10:49:35 IDT 2013	---------- Beginning Movement Phase at round 5 ----------
Wed May 29 10:50:20 IDT 2013	A Phase Ended: Movement Phase
Wed May 29 10:50:20 IDT 2013	Protocol: A New Phase Began: Feedback Phase. loop is true
Wed May 29 10:50:20 IDT 2013	---------- Beginning Feedback Phase at round 5 ----------
Wed May 29 10:50:20 IDT 2013	The TD player reached the goal, end the game
Wed May 29 10:50:20 IDT 2013	ended is true
Wed May 29 10:50:25 IDT 2013	A Phase Ended: Feedback Phase
Wed May 29 10:50:25 IDT 2013	 numberofMoves in round 5 is 10
Wed May 29 10:50:25 IDT 2013	Loop status: false
Wed May 29 10:50:25 IDT 2013	Player: 200 ,role: Proposer score is: 265
Wed May 29 10:50:25 IDT 2013	Player: 200Game Ended
Wed May 29 10:50:25 IDT 2013	Player: 300 ,role: Proposer score is: 30
Wed May 29 10:50:25 IDT 2013	Player: 300Game Ended
Wed May 29 10:50:25 IDT 2013	Player: 100 ,role: Responder score is: 440
Wed May 29 10:50:25 IDT 2013	Player: 100Game Ended
Wed May 29 10:50:25 IDT 2013	Protocol: A New Phase Began: Communication Phase. loop is false
Wed May 29 10:50:25 IDT 2013	---------- Beginning Communication Phase at round 5 ----------
Wed May 29 10:53:28 IDT 2013	A Phase Ended: Communication Phase
Wed May 29 10:53:28 IDT 2013	Protocol: A New Phase Began: Movement Phase. loop is false
Wed May 29 10:53:28 IDT 2013	---------- Beginning Movement Phase at round 5 ----------
Wed May 29 10:54:14 IDT 2013	A Phase Ended: Movement Phase
Wed May 29 10:54:14 IDT 2013	Protocol: A New Phase Began: Feedback Phase. loop is false
Wed May 29 10:54:14 IDT 2013	---------- Beginning Feedback Phase at round 5 ----------
Wed May 29 10:54:14 IDT 2013	The TD player reached the goal, end the game
Wed May 29 10:54:14 IDT 2013	ended is true
Wed May 29 10:54:19 IDT 2013	A Phase Ended: Feedback Phase
Wed May 29 10:54:19 IDT 2013	 numberofMoves in round 5 is 0
Wed May 29 10:54:19 IDT 2013	Loop status: false
Wed May 29 10:54:19 IDT 2013	Player: 200 ,role: GameEnded score is: 265
Wed May 29 10:54:19 IDT 2013	Player: 200Game Ended
Wed May 29 10:54:19 IDT 2013	Player: 300 ,role: GameEnded score is: 30
Wed May 29 10:54:19 IDT 2013	Player: 300Game Ended
Wed May 29 10:54:19 IDT 2013	Player: 100 ,role: GameEnded score is: 440
Wed May 29 10:54:19 IDT 2013	Player: 100Game Ended
