filename,round,propID,respID,IsPropCustomer,chipsToSend,chipsToReceive,accept,propCurrentScore,respCurrentScore,actualSent,ActualRcvd,propResultingScore,respResultingScore,#ofCustomerMovesInRound,customerRowPositionAfterMovePhase,customerColPositionAfterMovePhase,Player100ChipsAfterMovePhase,Player100ScoreAfterMovePhase,Player200ChipsAfterMovePhase,Player200ScoreAfterMovePhase,Player300ChipsAfterMovePhase,Player300ScoreAfterMovePhase,generosityLevel,ClientReachedGoal
3playersLog_1378211468878.csv,1,530,500,false,{ chips  'CTRed':33 'CTPurple':7 },{ chips  'grey78':11 },FALSE,200,120,,,,,2,(R:4,C:3),{ chips  'CTRed':4 'CTGreen':0 'CTPurple':0 'grey78':8 'CTYellow':12 },120,{ chips  'CTRed':33 'CTGreen':0 'CTPurple':7 'grey78':0 'CTYellow':0 },200,{ chips  'CTRed':29 'CTGreen':0 'CTPurple':7 'grey78':2 'CTYellow':0 },190
3playersLog_1378211468878.csv,1,540,500,false,{ chips  'CTRed':4 },{ chips  'grey78':2 },TRUE,200,120,{ chips  'CTRed':4 'CTPurple':0 'CTGreen':0 'grey78':0 'CTYellow':0 },{ chips  'CTRed':0 'CTPurple':0 'CTGreen':0 'grey78':2 'CTYellow':0 },190,130,2,(R:4,C:3),{ chips  'CTRed':4 'CTGreen':0 'CTPurple':0 'grey78':8 'CTYellow':12 },120,{ chips  'CTRed':33 'CTGreen':0 'CTPurple':7 'grey78':0 'CTYellow':0 },200,{ chips  'CTRed':29 'CTGreen':0 'CTPurple':7 'grey78':2 'CTYellow':0 },190
3playersLog_1378211468878.csv,2,500,530,true,{ chips  'CTYellow':2 },{ chips  'CTPurple':5 },FALSE,120,200,,,,,1,(R:4,C:2),{ chips  'CTRed':4 'CTGreen':0 'CTPurple':0 'grey78':7 'CTYellow':12 },115,{ chips  'CTRed':33 'CTGreen':0 'CTPurple':7 'grey78':0 'CTYellow':0 },200,{ chips  'CTRed':29 'CTGreen':0 'CTPurple':7 'grey78':2 'CTYellow':0 },190
3playersLog_1378211468878.csv,3,530,500,false,{ chips  },{ chips  },TRUE,200,115,{ chips  'grey78':0 },{ chips  'CTRed':0 'CTPurple':0 },200,115,1,(R:3,C:2),{ chips  'CTRed':4 'CTGreen':0 'CTPurple':0 'grey78':6 'CTYellow':12 },110,{ chips  'CTRed':33 'CTGreen':0 'CTPurple':7 'grey78':0 'CTYellow':0 },200,{ chips  'CTRed':29 'CTGreen':0 'CTPurple':7 'grey78':2 'CTYellow':0 },190
3playersLog_1378211468878.csv,4,500,540,true,{ chips  'grey78':1 'CTYellow':2 },{ chips  'CTRed':6 'CTPurple':1 },TRUE,110,200,{ chips  'CTRed':0 'CTPurple':0 'CTGreen':0 'grey78':1 'CTYellow':2 },{ chips  'CTRed':6 'CTPurple':1 'CTGreen':0 'grey78':0 'CTYellow':0 },130,170,2,(R:2,C:1),{ chips  'CTRed':10 'CTGreen':0 'CTPurple':1 'grey78':3 'CTYellow':10 },120,{ chips  'CTRed':33 'CTGreen':0 'CTPurple':7 'grey78':0 'CTYellow':0 },200,{ chips  'CTRed':23 'CTGreen':0 'CTPurple':6 'grey78':3 'CTYellow':2 },170
3playersLog_1378211468878.csv,5,530,500,false,{ chips  },{ chips  },FALSE,200,120,,,,,1,(R:2,C:0),{ chips  'CTRed':12 'CTGreen':0 'CTPurple':0 'grey78':2 'CTYellow':10 },120,{ chips  'CTRed':33 'CTGreen':0 'CTPurple':7 'grey78':0 'CTYellow':0 },200,{ chips  'CTRed':21 'CTGreen':0 'CTPurple':7 'grey78':3 'CTYellow':2 },165
3playersLog_1378211468878.csv,5,540,500,false,{ chips  'CTRed':2 },{ chips  'CTPurple':1 },TRUE,170,120,{ chips  'CTRed':2 'CTPurple':0 'CTGreen':0 'grey78':0 'CTYellow':0 },{ chips  'CTRed':0 'CTPurple':1 'CTGreen':0 'grey78':0 'CTYellow':0 },165,125,1,(R:2,C:0),{ chips  'CTRed':12 'CTGreen':0 'CTPurple':0 'grey78':2 'CTYellow':10 },120,{ chips  'CTRed':33 'CTGreen':0 'CTPurple':7 'grey78':0 'CTYellow':0 },200,{ chips  'CTRed':21 'CTGreen':0 'CTPurple':7 'grey78':3 'CTYellow':2 },165
3playersLog_1378211468878.csv,6,500,540,true,{ chips  'CTRed':1 'CTYellow':3 },{ chips  'CTRed':3 'CTPurple':2 'grey78':2 },FALSE,120,165,,,,,0,(R:2,C:0),{ chips  'CTRed':12 'CTGreen':0 'CTPurple':0 'grey78':2 'CTYellow':10 },120,{ chips  'CTRed':33 'CTGreen':0 'CTPurple':7 'grey78':0 'CTYellow':0 },200,{ chips  'CTRed':21 'CTGreen':0 'CTPurple':7 'grey78':3 'CTYellow':2 },165
3playersLog_1378211468878.csv,7,530,500,false,{ chips  },{ chips  },FALSE,200,120,,,,,1,(R:1,C:0),{ chips  'CTRed':11 'CTGreen':0 'CTPurple':2 'grey78':3 'CTYellow':7 },115,{ chips  'CTRed':33 'CTGreen':0 'CTPurple':7 'grey78':0 'CTYellow':0 },200,{ chips  'CTRed':22 'CTGreen':0 'CTPurple':5 'grey78':1 'CTYellow':5 },165
3playersLog_1378211468878.csv,7,540,500,false,{ chips  'CTPurple':2 'grey78':2 },{ chips  'CTRed':1 'CTYellow':3 },TRUE,165,120,{ chips  'CTRed':0 'CTPurple':2 'CTGreen':0 'grey78':2 'CTYellow':0 },{ chips  'CTRed':1 'CTPurple':0 'CTGreen':0 'grey78':0 'CTYellow':3 },165,120,1,(R:1,C:0),{ chips  'CTRed':11 'CTGreen':0 'CTPurple':2 'grey78':3 'CTYellow':7 },115,{ chips  'CTRed':33 'CTGreen':0 'CTPurple':7 'grey78':0 'CTYellow':0 },200,{ chips  'CTRed':22 'CTGreen':0 'CTPurple':5 'grey78':1 'CTYellow':5 },165
3playersLog_1378211468878.csv,8,500,540,true,{ chips  'CTPurple':2 'CTYellow':2 },{ chips  'CTRed':6 'CTPurple':2 },TRUE,115,200,{ chips  'CTRed':0 'CTPurple':2 'CTGreen':0 'grey78':0 'CTYellow':2 },{ chips  'CTRed':6 'CTPurple':2 'CTGreen':0 'grey78':0 'CTYellow':0 },135,145,0,(R:1,C:0),{ chips  'CTRed':17 'CTGreen':0 'CTPurple':2 'grey78':3 'CTYellow':5 },135,{ chips  'CTRed':33 'CTGreen':0 'CTPurple':7 'grey78':0 'CTYellow':0 },200,{ chips  'CTRed':16 'CTGreen':0 'CTPurple':5 'grey78':1 'CTYellow':7 },145
3playersLog_1378211468878.csv,9,530,500,false,{ chips  },{ chips  },FALSE,200,135,,,,,1,(R:0,C:0),{ chips  'CTRed':21 'CTGreen':0 'CTPurple':0 'grey78':3 'CTYellow':5 },295,{ chips  'CTRed':33 'CTGreen':0 'CTPurple':7 'grey78':0 'CTYellow':0 },200,{ chips  'CTRed':12 'CTGreen':0 'CTPurple':7 'grey78':0 'CTYellow':7 },280
3playersLog_1378211468878.csv,9,540,500,false,{ chips  'CTRed':4 'grey78':1 },{ chips  'CTPurple':2 },TRUE,145,135,{ chips  'CTRed':4 'CTPurple':0 'CTGreen':0 'grey78':1 'CTYellow':0 },{ chips  'CTRed':0 'CTPurple':2 'CTGreen':0 'grey78':0 'CTYellow':0 },130,150,1,(R:0,C:0),{ chips  'CTRed':21 'CTGreen':0 'CTPurple':0 'grey78':3 'CTYellow':5 },295,{ chips  'CTRed':33 'CTGreen':0 'CTPurple':7 'grey78':0 'CTYellow':0 },200,{ chips  'CTRed':12 'CTGreen':0 'CTPurple':7 'grey78':0 'CTYellow':7 },280
3playersLog_1378211468878.csv,,,,,,,,,,,,,,,,,,,,,,,,true
