Tue Apr 30 14:00:25 IDT 2013	This is the CT debug logger; svn version 638; sep 27 09
Tue Apr 30 14:00:25 IDT 2013	Tue Apr 30 14:00:25 IDT 2013
Tue Apr 30 14:00:25 IDT 2013	ID Number: 65514
Tue Apr 30 14:00:25 IDT 2013	Creating board
Tue Apr 30 14:00:25 IDT 2013	<colors>
Tue Apr 30 14:00:25 IDT 2013	{ GamePalette  'CTPurple':0 'CTRed':1 'CTGreen':2 'grey78':3 'CTYellow':4 }
Tue Apr 30 14:00:25 IDT 2013	<rows>
Tue Apr 30 14:00:25 IDT 2013	6
Tue Apr 30 14:00:25 IDT 2013	<columns>
Tue Apr 30 14:00:25 IDT 2013	9
Tue Apr 30 14:00:25 IDT 2013	<squaresColors>
Tue Apr 30 14:00:25 IDT 2013	grey78 CTGreen CTGreen CTGreen CTGreen CTGreen CTGreen CTGreen CTYellow 
Tue Apr 30 14:00:25 IDT 2013	grey78 CTPurple CTPurple CTPurple CTPurple CTPurple CTPurple CTPurple CTYellow 
Tue Apr 30 14:00:25 IDT 2013	grey78 grey78 CTGreen CTGreen CTGreen CTGreen CTGreen CTYellow CTYellow 
Tue Apr 30 14:00:25 IDT 2013	CTGreen grey78 grey78 CTPurple CTPurple CTPurple CTYellow CTYellow CTGreen 
Tue Apr 30 14:00:25 IDT 2013	CTGreen CTGreen grey78 grey78 CTGreen CTYellow CTYellow CTGreen CTGreen 
Tue Apr 30 14:00:25 IDT 2013	CTGreen CTGreen CTGreen grey78 CTGreen CTYellow CTGreen CTGreen CTGreen 
Tue Apr 30 14:00:25 IDT 2013	</squareColors>
Tue Apr 30 14:00:25 IDT 2013	<goalPosition>
Tue Apr 30 14:00:25 IDT 2013	Goal position: (R:0,C:0)
Tue Apr 30 14:00:25 IDT 2013	<goalPosition>
Tue Apr 30 14:00:25 IDT 2013	Goal position: (R:0,C:0)
Tue Apr 30 14:00:25 IDT 2013	<firstPlayerPossibleGoal1>
Tue Apr 30 14:00:25 IDT 2013	0.5
Tue Apr 30 14:00:25 IDT 2013	0
Tue Apr 30 14:00:25 IDT 2013	0
Tue Apr 30 14:00:25 IDT 2013	</firstPlayerPossibleGoal1>
Tue Apr 30 14:00:25 IDT 2013	<firstPlayerPossibleGoal2>
Tue Apr 30 14:00:25 IDT 2013	0.5
Tue Apr 30 14:00:25 IDT 2013	0
Tue Apr 30 14:00:25 IDT 2013	8
Tue Apr 30 14:00:25 IDT 2013	</firstPlayerPossibleGoal2>
Tue Apr 30 14:00:25 IDT 2013	<numberOfPlayers>
Tue Apr 30 14:00:25 IDT 2013	3
Tue Apr 30 14:00:25 IDT 2013	<firstPlayerChips>
Tue Apr 30 14:00:25 IDT 2013	Setting chips for player: 100 id:0
Tue Apr 30 14:00:25 IDT 2013	{ chips  'CTRed':0 'CTGreen':0 'CTPurple':0 'grey78':12 'CTYellow':12 }
Tue Apr 30 14:00:25 IDT 2013	Player position: (R:5,C:4)
Tue Apr 30 14:00:25 IDT 2013	Setting chips for player: 200 id:1
Tue Apr 30 14:00:25 IDT 2013	{ chips  'CTRed':33 'CTGreen':0 'CTPurple':7 'grey78':0 'CTYellow':0 }
Tue Apr 30 14:00:25 IDT 2013	Player position: (R:0,C:8)
Tue Apr 30 14:00:25 IDT 2013	Setting chips for player: 300 id:2
Tue Apr 30 14:00:25 IDT 2013	{ chips  'CTRed':33 'CTGreen':0 'CTPurple':7 'grey78':0 'CTYellow':0 }
Tue Apr 30 14:00:25 IDT 2013	Player position: (R:0,C:0)
Tue Apr 30 14:00:25 IDT 2013	Protocol: A New Phase Began: Strategy Prep Phase. loop is true
Tue Apr 30 14:00:25 IDT 2013	---------- Beginning Strategy Prep Phase at round 0 ----------
Tue Apr 30 14:01:26 IDT 2013	A Phase Ended: Strategy Prep Phase
Tue Apr 30 14:01:26 IDT 2013	Protocol: A New Phase Began: Communication Phase. loop is true
Tue Apr 30 14:01:26 IDT 2013	---------- Beginning Communication Phase at round 1 ----------
Tue Apr 30 14:02:10 IDT 2013	Received communication message 
Tue Apr 30 14:02:10 IDT 2013	From player: 300
Tue Apr 30 14:02:10 IDT 2013	To player: 100
Tue Apr 30 14:02:10 IDT 2013	Chips to send by proposer: { chips  'CTRed':26 'CTPurple':3 'CTGreen':0 'grey78':0 'CTYellow':0 }
Tue Apr 30 14:02:10 IDT 2013	Chips to send by responder: { chips  'CTRed':0 'CTPurple':0 'CTGreen':0 'grey78':0 'CTYellow':10 }
Tue Apr 30 14:02:13 IDT 2013	Received communication message 
Tue Apr 30 14:02:13 IDT 2013	From player: 200
Tue Apr 30 14:02:13 IDT 2013	To player: 100
Tue Apr 30 14:02:13 IDT 2013	Chips to send by proposer: { chips  'CTRed':8 'CTPurple':2 'CTGreen':0 'grey78':0 'CTYellow':0 }
Tue Apr 30 14:02:13 IDT 2013	Chips to send by responder: { chips  'CTRed':0 'CTPurple':0 'CTGreen':0 'grey78':0 'CTYellow':0 }
Tue Apr 30 14:02:33 IDT 2013	Received communication message 
Tue Apr 30 14:02:33 IDT 2013	Proposer 0 accepted? false
Tue Apr 30 14:02:33 IDT 2013	case that we had one reject, and one accept
Tue Apr 30 14:03:01 IDT 2013	Received communication message 
Tue Apr 30 14:03:01 IDT 2013	Proposer 1 accepted? false
Tue Apr 30 14:03:01 IDT 2013	case that we had one reject, and one accept
Tue Apr 30 14:03:01 IDT 2013	A Phase Ended: Communication Phase
Tue Apr 30 14:03:01 IDT 2013	Protocol: A New Phase Began: Movement Phase. loop is true
Tue Apr 30 14:03:01 IDT 2013	---------- Beginning Movement Phase at round 1 ----------
Tue Apr 30 14:03:01 IDT 2013	remove strategy phase. 
Tue Apr 30 14:03:46 IDT 2013	A Phase Ended: Movement Phase
Tue Apr 30 14:03:46 IDT 2013	Protocol: A New Phase Began: Feedback Phase. loop is true
Tue Apr 30 14:03:46 IDT 2013	---------- Beginning Feedback Phase at round 1 ----------
Tue Apr 30 14:03:46 IDT 2013	Number of consecutive no movements for player 100 is 1
Tue Apr 30 14:03:46 IDT 2013	TDPlayerPosition is(R:5,C:4)goal location 0(R:0,C:0)goal location 1(R:0,C:8)
Tue Apr 30 14:03:46 IDT 2013	ended is false
Tue Apr 30 14:03:51 IDT 2013	A Phase Ended: Feedback Phase
Tue Apr 30 14:03:51 IDT 2013	 numberofMoves in round 1 is 0
Tue Apr 30 14:03:51 IDT 2013	Swaping roles:
Tue Apr 30 14:03:51 IDT 2013	Protocol: A New Phase Began: Communication Phase. loop is true
Tue Apr 30 14:03:51 IDT 2013	---------- Beginning Communication Phase at round 2 ----------
Tue Apr 30 14:04:21 IDT 2013	Received communication message 
Tue Apr 30 14:04:21 IDT 2013	From player: 100
Tue Apr 30 14:04:21 IDT 2013	To player: 300
Tue Apr 30 14:04:21 IDT 2013	Chips to send by proposer: { chips  'CTRed':0 'CTPurple':0 'CTGreen':0 'grey78':0 'CTYellow':4 }
Tue Apr 30 14:04:21 IDT 2013	Chips to send by responder: { chips  'CTRed':33 'CTPurple':7 'CTGreen':0 'grey78':0 'CTYellow':0 }
Tue Apr 30 14:04:43 IDT 2013	Received communication message 
Tue Apr 30 14:04:43 IDT 2013	Proposer 1 accepted? false
Tue Apr 30 14:04:43 IDT 2013	case that we had one reject, and one accept
Tue Apr 30 14:04:43 IDT 2013	A Phase Ended: Communication Phase
Tue Apr 30 14:04:43 IDT 2013	Protocol: A New Phase Began: Movement Phase. loop is true
Tue Apr 30 14:04:43 IDT 2013	---------- Beginning Movement Phase at round 2 ----------
Tue Apr 30 14:05:28 IDT 2013	A Phase Ended: Movement Phase
Tue Apr 30 14:05:28 IDT 2013	Protocol: A New Phase Began: Feedback Phase. loop is true
Tue Apr 30 14:05:28 IDT 2013	---------- Beginning Feedback Phase at round 2 ----------
Tue Apr 30 14:05:28 IDT 2013	Number of consecutive no movements for player 100 is 0
Tue Apr 30 14:05:28 IDT 2013	TDPlayerPosition is(R:5,C:5)goal location 0(R:0,C:0)goal location 1(R:0,C:8)
Tue Apr 30 14:05:28 IDT 2013	ended is false
Tue Apr 30 14:05:33 IDT 2013	A Phase Ended: Feedback Phase
Tue Apr 30 14:05:33 IDT 2013	 numberofMoves in round 2 is 1
Tue Apr 30 14:05:33 IDT 2013	Swaping roles:
Tue Apr 30 14:05:33 IDT 2013	Protocol: A New Phase Began: Communication Phase. loop is true
Tue Apr 30 14:05:33 IDT 2013	---------- Beginning Communication Phase at round 3 ----------
Tue Apr 30 14:06:14 IDT 2013	Received communication message 
Tue Apr 30 14:06:14 IDT 2013	From player: 200
Tue Apr 30 14:06:14 IDT 2013	To player: 100
Tue Apr 30 14:06:14 IDT 2013	Chips to send by proposer: { chips  'CTRed':18 'CTPurple':2 'CTGreen':0 'grey78':0 'CTYellow':0 }
Tue Apr 30 14:06:14 IDT 2013	Chips to send by responder: { chips  'CTRed':0 'CTPurple':0 'CTGreen':0 'grey78':2 'CTYellow':1 }
Tue Apr 30 14:06:24 IDT 2013	Received communication message 
Tue Apr 30 14:06:24 IDT 2013	Proposer 0 accepted? false
Tue Apr 30 14:06:24 IDT 2013	case that we had one reject, and one accept
Tue Apr 30 14:06:41 IDT 2013	Received communication message 
Tue Apr 30 14:06:41 IDT 2013	From player: 300
Tue Apr 30 14:06:41 IDT 2013	To player: 100
Tue Apr 30 14:06:41 IDT 2013	Chips to send by proposer: { chips  'CTRed':23 'CTPurple':3 'CTGreen':0 'grey78':0 'CTYellow':0 }
Tue Apr 30 14:06:41 IDT 2013	Chips to send by responder: { chips  'CTRed':0 'CTPurple':0 'CTGreen':0 'grey78':0 'CTYellow':7 }
Tue Apr 30 14:07:05 IDT 2013	Received communication message 
Tue Apr 30 14:07:05 IDT 2013	Proposer 1 accepted? false
Tue Apr 30 14:07:05 IDT 2013	case that we had one reject, and one accept
Tue Apr 30 14:07:05 IDT 2013	A Phase Ended: Communication Phase
Tue Apr 30 14:07:05 IDT 2013	Protocol: A New Phase Began: Movement Phase. loop is true
Tue Apr 30 14:07:05 IDT 2013	---------- Beginning Movement Phase at round 3 ----------
Tue Apr 30 14:07:50 IDT 2013	A Phase Ended: Movement Phase
Tue Apr 30 14:07:50 IDT 2013	Protocol: A New Phase Began: Feedback Phase. loop is true
Tue Apr 30 14:07:50 IDT 2013	---------- Beginning Feedback Phase at round 3 ----------
Tue Apr 30 14:07:50 IDT 2013	Number of consecutive no movements for player 100 is 1
Tue Apr 30 14:07:50 IDT 2013	TDPlayerPosition is(R:5,C:5)goal location 0(R:0,C:0)goal location 1(R:0,C:8)
Tue Apr 30 14:07:50 IDT 2013	ended is false
Tue Apr 30 14:07:55 IDT 2013	A Phase Ended: Feedback Phase
Tue Apr 30 14:07:55 IDT 2013	 numberofMoves in round 3 is 0
Tue Apr 30 14:07:55 IDT 2013	Swaping roles:
Tue Apr 30 14:07:55 IDT 2013	Protocol: A New Phase Began: Communication Phase. loop is true
Tue Apr 30 14:07:55 IDT 2013	---------- Beginning Communication Phase at round 4 ----------
Tue Apr 30 14:08:30 IDT 2013	Received communication message 
Tue Apr 30 14:08:30 IDT 2013	From player: 100
Tue Apr 30 14:08:30 IDT 2013	To player: 200
Tue Apr 30 14:08:30 IDT 2013	Chips to send by proposer: { chips  'CTRed':0 'CTPurple':0 'CTGreen':0 'grey78':2 'CTYellow':0 }
Tue Apr 30 14:08:30 IDT 2013	Chips to send by responder: { chips  'CTRed':31 'CTPurple':4 'CTGreen':0 'grey78':0 'CTYellow':0 }
Tue Apr 30 14:08:46 IDT 2013	Received communication message 
Tue Apr 30 14:08:46 IDT 2013	Proposer 0 accepted? false
Tue Apr 30 14:08:46 IDT 2013	case that we had one reject, and one accept
Tue Apr 30 14:08:46 IDT 2013	A Phase Ended: Communication Phase
Tue Apr 30 14:08:47 IDT 2013	Protocol: A New Phase Began: Movement Phase. loop is true
Tue Apr 30 14:08:47 IDT 2013	---------- Beginning Movement Phase at round 4 ----------
Tue Apr 30 14:09:32 IDT 2013	A Phase Ended: Movement Phase
Tue Apr 30 14:09:32 IDT 2013	Protocol: A New Phase Began: Feedback Phase. loop is true
Tue Apr 30 14:09:32 IDT 2013	---------- Beginning Feedback Phase at round 4 ----------
Tue Apr 30 14:09:32 IDT 2013	Number of consecutive no movements for player 100 is 0
Tue Apr 30 14:09:32 IDT 2013	TDPlayerPosition is(R:4,C:5)goal location 0(R:0,C:0)goal location 1(R:0,C:8)
Tue Apr 30 14:09:32 IDT 2013	ended is false
Tue Apr 30 14:09:37 IDT 2013	A Phase Ended: Feedback Phase
Tue Apr 30 14:09:37 IDT 2013	 numberofMoves in round 4 is 1
Tue Apr 30 14:09:37 IDT 2013	Swaping roles:
Tue Apr 30 14:09:37 IDT 2013	Protocol: A New Phase Began: Communication Phase. loop is true
Tue Apr 30 14:09:37 IDT 2013	---------- Beginning Communication Phase at round 5 ----------
Tue Apr 30 14:10:37 IDT 2013	Received communication message 
Tue Apr 30 14:10:37 IDT 2013	From player: 200
Tue Apr 30 14:10:37 IDT 2013	To player: 100
Tue Apr 30 14:10:37 IDT 2013	Chips to send by proposer: { chips  'CTRed':25 'CTPurple':2 'CTGreen':0 'grey78':0 'CTYellow':0 }
Tue Apr 30 14:10:37 IDT 2013	Chips to send by responder: { chips  'CTRed':0 'CTPurple':0 'CTGreen':0 'grey78':3 'CTYellow':0 }
Tue Apr 30 14:10:37 IDT 2013	Received communication message 
Tue Apr 30 14:10:37 IDT 2013	From player: 300
Tue Apr 30 14:10:37 IDT 2013	To player: 100
Tue Apr 30 14:10:37 IDT 2013	Chips to send by proposer: { chips  'CTRed':31 'CTPurple':3 'CTGreen':0 'grey78':0 'CTYellow':0 }
Tue Apr 30 14:10:37 IDT 2013	Chips to send by responder: { chips  'CTRed':0 'CTPurple':0 'CTGreen':0 'grey78':2 'CTYellow':10 }
Tue Apr 30 14:10:57 IDT 2013	Received communication message 
Tue Apr 30 14:10:57 IDT 2013	Proposer 0 accepted? true
Tue Apr 30 14:10:57 IDT 2013	A Phase Ended: Communication Phase
Tue Apr 30 14:10:57 IDT 2013	Protocol: A New Phase Began: Movement Phase. loop is true
Tue Apr 30 14:10:57 IDT 2013	---------- Beginning Movement Phase at round 5 ----------
Tue Apr 30 14:11:41 IDT 2013	A Phase Ended: Movement Phase
Tue Apr 30 14:11:41 IDT 2013	Protocol: A New Phase Began: Feedback Phase. loop is true
Tue Apr 30 14:11:41 IDT 2013	---------- Beginning Feedback Phase at round 5 ----------
Tue Apr 30 14:11:41 IDT 2013	Number of consecutive no movements for player 100 is 0
Tue Apr 30 14:11:41 IDT 2013	TDPlayerPosition is(R:3,C:5)goal location 0(R:0,C:0)goal location 1(R:0,C:8)
Tue Apr 30 14:11:41 IDT 2013	ended is false
Tue Apr 30 14:11:47 IDT 2013	A Phase Ended: Feedback Phase
Tue Apr 30 14:11:47 IDT 2013	 numberofMoves in round 5 is 1
Tue Apr 30 14:11:47 IDT 2013	Swaping roles:
Tue Apr 30 14:11:47 IDT 2013	Protocol: A New Phase Began: Communication Phase. loop is true
Tue Apr 30 14:11:47 IDT 2013	---------- Beginning Communication Phase at round 6 ----------
Tue Apr 30 14:12:23 IDT 2013	Received communication message 
Tue Apr 30 14:12:23 IDT 2013	From player: 100
Tue Apr 30 14:12:23 IDT 2013	To player: 300
Tue Apr 30 14:12:23 IDT 2013	Chips to send by proposer: { chips  'CTRed':0 'CTPurple':0 'CTGreen':0 'grey78':0 'CTYellow':3 }
Tue Apr 30 14:12:23 IDT 2013	Chips to send by responder: { chips  'CTRed':25 'CTPurple':7 'CTGreen':0 'grey78':0 'CTYellow':0 }
Tue Apr 30 14:12:37 IDT 2013	Received communication message 
Tue Apr 30 14:12:37 IDT 2013	Proposer 1 accepted? false
Tue Apr 30 14:12:37 IDT 2013	case that we had one reject, and one accept
Tue Apr 30 14:12:37 IDT 2013	A Phase Ended: Communication Phase
Tue Apr 30 14:12:37 IDT 2013	Protocol: A New Phase Began: Movement Phase. loop is true
Tue Apr 30 14:12:37 IDT 2013	---------- Beginning Movement Phase at round 6 ----------
Tue Apr 30 14:13:22 IDT 2013	A Phase Ended: Movement Phase
Tue Apr 30 14:13:22 IDT 2013	Protocol: A New Phase Began: Feedback Phase. loop is true
Tue Apr 30 14:13:22 IDT 2013	---------- Beginning Feedback Phase at round 6 ----------
Tue Apr 30 14:13:22 IDT 2013	Number of consecutive no movements for player 100 is 0
Tue Apr 30 14:13:22 IDT 2013	TDPlayerPosition is(R:3,C:4)goal location 0(R:0,C:0)goal location 1(R:0,C:8)
Tue Apr 30 14:13:22 IDT 2013	ended is false
Tue Apr 30 14:13:27 IDT 2013	A Phase Ended: Feedback Phase
Tue Apr 30 14:13:27 IDT 2013	 numberofMoves in round 6 is 1
Tue Apr 30 14:13:27 IDT 2013	Swaping roles:
Tue Apr 30 14:13:27 IDT 2013	Protocol: A New Phase Began: Communication Phase. loop is true
Tue Apr 30 14:13:27 IDT 2013	---------- Beginning Communication Phase at round 7 ----------
Tue Apr 30 14:14:02 IDT 2013	Received communication message 
Tue Apr 30 14:14:02 IDT 2013	From player: 200
Tue Apr 30 14:14:02 IDT 2013	To player: 100
Tue Apr 30 14:14:02 IDT 2013	Chips to send by proposer: { chips  'CTRed':5 'CTPurple':0 'CTGreen':0 'grey78':0 'CTYellow':0 }
Tue Apr 30 14:14:02 IDT 2013	Chips to send by responder: { chips  'CTRed':0 'CTPurple':0 'CTGreen':0 'grey78':4 'CTYellow':0 }
Tue Apr 30 14:14:28 IDT 2013	Received communication message 
Tue Apr 30 14:14:28 IDT 2013	Proposer 0 accepted? false
Tue Apr 30 14:14:28 IDT 2013	case that we had one reject, and one accept
Tue Apr 30 14:14:28 IDT 2013	Received communication message 
Tue Apr 30 14:14:28 IDT 2013	From player: 300
Tue Apr 30 14:14:28 IDT 2013	To player: 100
Tue Apr 30 14:14:28 IDT 2013	Chips to send by proposer: { chips  'CTRed':19 'CTPurple':4 'CTGreen':0 'grey78':0 'CTYellow':0 }
Tue Apr 30 14:14:28 IDT 2013	Chips to send by responder: { chips  'CTRed':0 'CTPurple':0 'CTGreen':0 'grey78':0 'CTYellow':6 }
Tue Apr 30 14:14:39 IDT 2013	Received communication message 
Tue Apr 30 14:14:39 IDT 2013	Proposer 1 accepted? true
Tue Apr 30 14:14:39 IDT 2013	A Phase Ended: Communication Phase
Tue Apr 30 14:14:39 IDT 2013	Protocol: A New Phase Began: Movement Phase. loop is true
Tue Apr 30 14:14:39 IDT 2013	---------- Beginning Movement Phase at round 7 ----------
Tue Apr 30 14:15:25 IDT 2013	A Phase Ended: Movement Phase
Tue Apr 30 14:15:25 IDT 2013	Protocol: A New Phase Began: Feedback Phase. loop is true
Tue Apr 30 14:15:25 IDT 2013	---------- Beginning Feedback Phase at round 7 ----------
Tue Apr 30 14:15:25 IDT 2013	Number of consecutive no movements for player 100 is 0
Tue Apr 30 14:15:25 IDT 2013	TDPlayerPosition is(R:3,C:3)goal location 0(R:0,C:0)goal location 1(R:0,C:8)
Tue Apr 30 14:15:25 IDT 2013	ended is false
Tue Apr 30 14:15:30 IDT 2013	A Phase Ended: Feedback Phase
Tue Apr 30 14:15:30 IDT 2013	 numberofMoves in round 7 is 1
Tue Apr 30 14:15:30 IDT 2013	Swaping roles:
Tue Apr 30 14:15:30 IDT 2013	Protocol: A New Phase Began: Communication Phase. loop is true
Tue Apr 30 14:15:30 IDT 2013	---------- Beginning Communication Phase at round 8 ----------
Tue Apr 30 14:16:12 IDT 2013	Received communication message 
Tue Apr 30 14:16:12 IDT 2013	From player: 100
Tue Apr 30 14:16:12 IDT 2013	To player: 200
Tue Apr 30 14:16:12 IDT 2013	Chips to send by proposer: { chips  'CTRed':0 'CTPurple':0 'CTGreen':0 'grey78':0 'CTYellow':2 }
Tue Apr 30 14:16:12 IDT 2013	Chips to send by responder: { chips  'CTRed':2 'CTPurple':5 'CTGreen':0 'grey78':0 'CTYellow':0 }
Tue Apr 30 14:17:11 IDT 2013	Received communication message 
Tue Apr 30 14:17:11 IDT 2013	Proposer 0 accepted? false
Tue Apr 30 14:17:11 IDT 2013	case that we had one reject, and one accept
Tue Apr 30 14:17:11 IDT 2013	A Phase Ended: Communication Phase
Tue Apr 30 14:17:11 IDT 2013	Protocol: A New Phase Began: Movement Phase. loop is true
Tue Apr 30 14:17:11 IDT 2013	---------- Beginning Movement Phase at round 8 ----------
Tue Apr 30 14:17:57 IDT 2013	A Phase Ended: Movement Phase
Tue Apr 30 14:17:57 IDT 2013	Protocol: A New Phase Began: Feedback Phase. loop is true
Tue Apr 30 14:17:57 IDT 2013	---------- Beginning Feedback Phase at round 8 ----------
Tue Apr 30 14:17:57 IDT 2013	Number of consecutive no movements for player 100 is 0
Tue Apr 30 14:17:57 IDT 2013	TDPlayerPosition is(R:3,C:2)goal location 0(R:0,C:0)goal location 1(R:0,C:8)
Tue Apr 30 14:17:57 IDT 2013	ended is false
Tue Apr 30 14:18:02 IDT 2013	A Phase Ended: Feedback Phase
Tue Apr 30 14:18:02 IDT 2013	 numberofMoves in round 8 is 1
Tue Apr 30 14:18:02 IDT 2013	Swaping roles:
Tue Apr 30 14:18:02 IDT 2013	Protocol: A New Phase Began: Communication Phase. loop is true
Tue Apr 30 14:18:02 IDT 2013	---------- Beginning Communication Phase at round 9 ----------
Tue Apr 30 14:18:56 IDT 2013	Received communication message 
Tue Apr 30 14:18:56 IDT 2013	From player: 300
Tue Apr 30 14:18:56 IDT 2013	To player: 100
Tue Apr 30 14:18:56 IDT 2013	Chips to send by proposer: { chips  'CTRed':11 'CTPurple':0 'CTGreen':0 'grey78':0 'CTYellow':0 }
Tue Apr 30 14:18:56 IDT 2013	Chips to send by responder: { chips  'CTRed':0 'CTPurple':3 'CTGreen':0 'grey78':0 'CTYellow':4 }
Tue Apr 30 14:18:58 IDT 2013	Received communication message 
Tue Apr 30 14:18:58 IDT 2013	From player: 200
Tue Apr 30 14:18:58 IDT 2013	To player: 100
Tue Apr 30 14:18:58 IDT 2013	Chips to send by proposer: { chips  'CTRed':2 'CTPurple':5 'CTGreen':0 'grey78':0 'CTYellow':0 }
Tue Apr 30 14:18:58 IDT 2013	Chips to send by responder: { chips  'CTRed':0 'CTPurple':0 'CTGreen':0 'grey78':4 'CTYellow':0 }
Tue Apr 30 14:19:16 IDT 2013	Received communication message 
Tue Apr 30 14:19:16 IDT 2013	Proposer 1 accepted? false
Tue Apr 30 14:19:16 IDT 2013	case that we had one reject, and one accept
Tue Apr 30 14:19:47 IDT 2013	Received communication message 
Tue Apr 30 14:19:47 IDT 2013	Proposer 0 accepted? true
Tue Apr 30 14:19:47 IDT 2013	A Phase Ended: Communication Phase
Tue Apr 30 14:19:47 IDT 2013	Protocol: A New Phase Began: Movement Phase. loop is true
Tue Apr 30 14:19:47 IDT 2013	---------- Beginning Movement Phase at round 9 ----------
Tue Apr 30 14:20:32 IDT 2013	A Phase Ended: Movement Phase
Tue Apr 30 14:20:32 IDT 2013	Protocol: A New Phase Began: Feedback Phase. loop is true
Tue Apr 30 14:20:32 IDT 2013	---------- Beginning Feedback Phase at round 9 ----------
Tue Apr 30 14:20:32 IDT 2013	Number of consecutive no movements for player 100 is 0
Tue Apr 30 14:20:32 IDT 2013	TDPlayerPosition is(R:1,C:1)goal location 0(R:0,C:0)goal location 1(R:0,C:8)
Tue Apr 30 14:20:32 IDT 2013	ended is false
Tue Apr 30 14:20:37 IDT 2013	A Phase Ended: Feedback Phase
Tue Apr 30 14:20:37 IDT 2013	 numberofMoves in round 9 is 3
Tue Apr 30 14:20:37 IDT 2013	Swaping roles:
Tue Apr 30 14:20:37 IDT 2013	Protocol: A New Phase Began: Communication Phase. loop is true
Tue Apr 30 14:20:37 IDT 2013	---------- Beginning Communication Phase at round 10 ----------
Tue Apr 30 14:21:22 IDT 2013	Received communication message 
Tue Apr 30 14:21:22 IDT 2013	From player: 100
Tue Apr 30 14:21:22 IDT 2013	To player: 300
Tue Apr 30 14:21:22 IDT 2013	Chips to send by proposer: { chips  'CTRed':0 'CTPurple':1 'CTGreen':0 'grey78':0 'CTYellow':2 }
Tue Apr 30 14:21:22 IDT 2013	Chips to send by responder: { chips  'CTRed':10 'CTPurple':0 'CTGreen':0 'grey78':0 'CTYellow':0 }
Tue Apr 30 14:21:35 IDT 2013	Received communication message 
Tue Apr 30 14:21:35 IDT 2013	Proposer 1 accepted? false
Tue Apr 30 14:21:35 IDT 2013	case that we had one reject, and one accept
Tue Apr 30 14:21:35 IDT 2013	A Phase Ended: Communication Phase
Tue Apr 30 14:21:35 IDT 2013	Protocol: A New Phase Began: Movement Phase. loop is true
Tue Apr 30 14:21:35 IDT 2013	---------- Beginning Movement Phase at round 10 ----------
Tue Apr 30 14:22:20 IDT 2013	A Phase Ended: Movement Phase
Tue Apr 30 14:22:20 IDT 2013	Protocol: A New Phase Began: Feedback Phase. loop is true
Tue Apr 30 14:22:20 IDT 2013	---------- Beginning Feedback Phase at round 10 ----------
Tue Apr 30 14:22:20 IDT 2013	Number of consecutive no movements for player 100 is 0
Tue Apr 30 14:22:20 IDT 2013	TDPlayerPosition is(R:1,C:4)goal location 0(R:0,C:0)goal location 1(R:0,C:8)
Tue Apr 30 14:22:20 IDT 2013	ended is false
Tue Apr 30 14:22:25 IDT 2013	A Phase Ended: Feedback Phase
Tue Apr 30 14:22:25 IDT 2013	 numberofMoves in round 10 is 3
Tue Apr 30 14:22:25 IDT 2013	Swaping roles:
Tue Apr 30 14:22:25 IDT 2013	Protocol: A New Phase Began: Communication Phase. loop is true
Tue Apr 30 14:22:25 IDT 2013	---------- Beginning Communication Phase at round 11 ----------
Tue Apr 30 14:22:56 IDT 2013	Received communication message 
Tue Apr 30 14:22:56 IDT 2013	From player: 200
Tue Apr 30 14:22:56 IDT 2013	To player: 100
Tue Apr 30 14:22:56 IDT 2013	Chips to send by proposer: { chips  'CTRed':6 'CTPurple':0 'CTGreen':0 'grey78':0 'CTYellow':0 }
Tue Apr 30 14:22:56 IDT 2013	Chips to send by responder: { chips  'CTRed':0 'CTPurple':0 'CTGreen':0 'grey78':1 'CTYellow':0 }
Tue Apr 30 14:24:07 IDT 2013	Received communication message 
Tue Apr 30 14:24:07 IDT 2013	From player: 300
Tue Apr 30 14:24:07 IDT 2013	To player: 100
Tue Apr 30 14:24:07 IDT 2013	Chips to send by proposer: { chips  'CTRed':11 'CTPurple':2 'CTGreen':0 'grey78':0 'CTYellow':0 }
Tue Apr 30 14:24:07 IDT 2013	Chips to send by responder: { chips  'CTRed':0 'CTPurple':0 'CTGreen':0 'grey78':0 'CTYellow':3 }
Tue Apr 30 14:24:48 IDT 2013	Received communication message 
Tue Apr 30 14:24:48 IDT 2013	Proposer 1 accepted? true
Tue Apr 30 14:24:48 IDT 2013	A Phase Ended: Communication Phase
Tue Apr 30 14:24:48 IDT 2013	Protocol: A New Phase Began: Movement Phase. loop is true
Tue Apr 30 14:24:48 IDT 2013	---------- Beginning Movement Phase at round 11 ----------
Tue Apr 30 14:25:34 IDT 2013	A Phase Ended: Movement Phase
Tue Apr 30 14:25:34 IDT 2013	Protocol: A New Phase Began: Feedback Phase. loop is true
Tue Apr 30 14:25:34 IDT 2013	---------- Beginning Feedback Phase at round 11 ----------
Tue Apr 30 14:25:34 IDT 2013	The TD player reached the goal, end the game
Tue Apr 30 14:25:34 IDT 2013	ended is true
Tue Apr 30 14:25:39 IDT 2013	A Phase Ended: Feedback Phase
Tue Apr 30 14:25:39 IDT 2013	 numberofMoves in round 11 is 5
Tue Apr 30 14:25:39 IDT 2013	Loop status: false
Tue Apr 30 14:25:39 IDT 2013	Player: 300 ,role: Proposer score is: 215
Tue Apr 30 14:25:39 IDT 2013	Player: 300Game Ended
Tue Apr 30 14:25:39 IDT 2013	Player: 200 ,role: Proposer score is: 65
Tue Apr 30 14:25:39 IDT 2013	Player: 200Game Ended
Tue Apr 30 14:25:39 IDT 2013	Player: 100 ,role: Responder score is: 455
Tue Apr 30 14:25:39 IDT 2013	Player: 100Game Ended
Tue Apr 30 14:25:39 IDT 2013	Protocol: A New Phase Began: Communication Phase. loop is false
Tue Apr 30 14:25:39 IDT 2013	---------- Beginning Communication Phase at round 11 ----------
Tue Apr 30 14:28:42 IDT 2013	A Phase Ended: Communication Phase
Tue Apr 30 14:28:42 IDT 2013	Protocol: A New Phase Began: Movement Phase. loop is false
Tue Apr 30 14:28:42 IDT 2013	---------- Beginning Movement Phase at round 11 ----------
Tue Apr 30 14:29:27 IDT 2013	A Phase Ended: Movement Phase
Tue Apr 30 14:29:27 IDT 2013	Protocol: A New Phase Began: Feedback Phase. loop is false
Tue Apr 30 14:29:27 IDT 2013	---------- Beginning Feedback Phase at round 11 ----------
Tue Apr 30 14:29:27 IDT 2013	The TD player reached the goal, end the game
Tue Apr 30 14:29:27 IDT 2013	ended is true
