filename,round,propID,respID,IsPropCustomer,chipsToSend,chipsToReceive,accept,propCurrentScore,respCurrentScore,actualSent,ActualRcvd,propResultingScore,respResultingScore,#ofCustomerMovesInRound,customerRowPositionAfterMovePhase,customerColPositionAfterMovePhase,Player100ChipsAfterMovePhase,Player100ScoreAfterMovePhase,Player200ChipsAfterMovePhase,Player200ScoreAfterMovePhase,Player300ChipsAfterMovePhase,Player300ScoreAfterMovePhase,generosityLevel,ClientReachedGoal
3playersLog_1378208432137.csv,1,520,510,false,{ chips  'CTRed':7 'CTPurple':2 },{ chips  'grey78':6 },TRUE,200,120,{ chips  'CTRed':7 'CTPurple':2 'CTGreen':0 'grey78':0 'CTYellow':0 },{ chips  'CTRed':0 'CTPurple':0 'CTGreen':0 'grey78':6 'CTYellow':0 },185,135,0,(R:5,C:4),{ chips  'CTRed':7 'CTGreen':0 'CTPurple':2 'grey78':6 'CTYellow':12 },135,{ chips  'CTRed':26 'CTGreen':0 'CTPurple':5 'grey78':6 'CTYellow':0 },185,{ chips  'CTRed':33 'CTGreen':0 'CTPurple':7 'grey78':0 'CTYellow':0 },200
3playersLog_1378208432137.csv,1,540,510,false,{ chips  'CTRed':1 },{ chips  'CTYellow':1 },IGNORED,200,120,,,,,0,(R:5,C:4),{ chips  'CTRed':7 'CTGreen':0 'CTPurple':2 'grey78':6 'CTYellow':12 },135,{ chips  'CTRed':26 'CTGreen':0 'CTPurple':5 'grey78':6 'CTYellow':0 },185,{ chips  'CTRed':33 'CTGreen':0 'CTPurple':7 'grey78':0 'CTYellow':0 },200
3playersLog_1378208432137.csv,2,510,520,true,{ chips  'grey78':5 },{ chips  'CTRed':26 'CTPurple':5 },FALSE,135,185,,,,,1,(R:5,C:5),{ chips  'CTRed':7 'CTGreen':0 'CTPurple':2 'grey78':6 'CTYellow':11 },130,{ chips  'CTRed':26 'CTGreen':0 'CTPurple':5 'grey78':6 'CTYellow':0 },185,{ chips  'CTRed':33 'CTGreen':0 'CTPurple':7 'grey78':0 'CTYellow':0 },200
3playersLog_1378208432137.csv,3,520,510,false,{ chips  'CTPurple':2 },{ chips  'CTRed':2 'grey78':2 },IGNORED,185,130,,,,,0,(R:5,C:5),{ chips  'CTRed':9 'CTGreen':0 'CTPurple':2 'grey78':6 'CTYellow':10 },135,{ chips  'CTRed':26 'CTGreen':0 'CTPurple':5 'grey78':6 'CTYellow':0 },185,{ chips  'CTRed':31 'CTGreen':0 'CTPurple':7 'grey78':0 'CTYellow':1 },195
3playersLog_1378208432137.csv,3,540,510,false,{ chips  'CTRed':2 },{ chips  'CTYellow':1 },TRUE,200,130,{ chips  'CTRed':2 'CTPurple':0 'CTGreen':0 'grey78':0 'CTYellow':0 },{ chips  'CTRed':0 'CTPurple':0 'CTGreen':0 'grey78':0 'CTYellow':1 },195,135,0,(R:5,C:5),{ chips  'CTRed':9 'CTGreen':0 'CTPurple':2 'grey78':6 'CTYellow':10 },135,{ chips  'CTRed':26 'CTGreen':0 'CTPurple':5 'grey78':6 'CTYellow':0 },185,{ chips  'CTRed':31 'CTGreen':0 'CTPurple':7 'grey78':0 'CTYellow':1 },195
3playersLog_1378208432137.csv,4,510,520,true,{ chips  'grey78':5 },{ chips  'CTRed':26 'CTPurple':5 },FALSE,135,185,,,,,1,(R:4,C:5),{ chips  'CTRed':9 'CTGreen':0 'CTPurple':2 'grey78':6 'CTYellow':9 },130,{ chips  'CTRed':26 'CTGreen':0 'CTPurple':5 'grey78':6 'CTYellow':0 },185,{ chips  'CTRed':31 'CTGreen':0 'CTPurple':7 'grey78':0 'CTYellow':1 },195
3playersLog_1378208432137.csv,5,520,510,false,{ chips  'CTRed':2 'grey78':4 },{ chips  'CTPurple':2 },TRUE,185,130,{ chips  'CTRed':2 'CTPurple':0 'CTGreen':0 'grey78':4 'CTYellow':0 },{ chips  'CTRed':0 'CTPurple':2 'CTGreen':0 'grey78':0 'CTYellow':0 },165,150,0,(R:4,C:5),{ chips  'CTRed':11 'CTGreen':0 'CTPurple':0 'grey78':10 'CTYellow':9 },150,{ chips  'CTRed':24 'CTGreen':0 'CTPurple':7 'grey78':2 'CTYellow':0 },165,{ chips  'CTRed':31 'CTGreen':0 'CTPurple':7 'grey78':0 'CTYellow':1 },195
3playersLog_1378208432137.csv,5,540,510,false,{ chips  'CTPurple':2 },{ chips  'grey78':2 },IGNORED,195,130,,,,,0,(R:4,C:5),{ chips  'CTRed':11 'CTGreen':0 'CTPurple':0 'grey78':10 'CTYellow':9 },150,{ chips  'CTRed':24 'CTGreen':0 'CTPurple':7 'grey78':2 'CTYellow':0 },165,{ chips  'CTRed':31 'CTGreen':0 'CTPurple':7 'grey78':0 'CTYellow':1 },195
3playersLog_1378208432137.csv,6,510,520,true,{ chips  'grey78':9 },{ chips  'CTRed':24 'CTPurple':7 },FALSE,150,165,,,,,1,(R:4,C:6),{ chips  'CTRed':11 'CTGreen':0 'CTPurple':0 'grey78':10 'CTYellow':8 },145,{ chips  'CTRed':24 'CTGreen':0 'CTPurple':7 'grey78':2 'CTYellow':0 },165,{ chips  'CTRed':31 'CTGreen':0 'CTPurple':7 'grey78':0 'CTYellow':1 },195
3playersLog_1378208432137.csv,7,520,510,false,{ chips  'CTRed':2 },{ chips  'CTRed':2 'grey78':2 },FALSE,165,145,,,,,0,(R:4,C:6),{ chips  'CTRed':11 'CTGreen':0 'CTPurple':0 'grey78':10 'CTYellow':8 },145,{ chips  'CTRed':24 'CTGreen':0 'CTPurple':7 'grey78':2 'CTYellow':0 },165,{ chips  'CTRed':31 'CTGreen':0 'CTPurple':7 'grey78':0 'CTYellow':1 },195
3playersLog_1378208432137.csv,7,540,510,false,{ chips  'CTRed':1 },{ chips  'CTYellow':1 },FALSE,195,145,,,,,0,(R:4,C:6),{ chips  'CTRed':11 'CTGreen':0 'CTPurple':0 'grey78':10 'CTYellow':8 },145,{ chips  'CTRed':24 'CTGreen':0 'CTPurple':7 'grey78':2 'CTYellow':0 },165,{ chips  'CTRed':31 'CTGreen':0 'CTPurple':7 'grey78':0 'CTYellow':1 },195
3playersLog_1378208432137.csv,8,510,520,true,{ chips  'grey78':9 },{ chips  'CTRed':24 'CTPurple':7 },FALSE,145,165,,,,,1,(R:3,C:6),{ chips  'CTRed':11 'CTGreen':0 'CTPurple':0 'grey78':10 'CTYellow':7 },140,{ chips  'CTRed':24 'CTGreen':0 'CTPurple':7 'grey78':2 'CTYellow':0 },165,{ chips  'CTRed':31 'CTGreen':0 'CTPurple':7 'grey78':0 'CTYellow':1 },195
3playersLog_1378208432137.csv,9,520,510,false,{ chips  'CTRed':4 },{ chips  'CTRed':11 'grey78':10 },IGNORED,165,140,,,,,0,(R:3,C:6),{ chips  'CTRed':11 'CTGreen':0 'CTPurple':0 'grey78':10 'CTYellow':7 },140,{ chips  'CTRed':24 'CTGreen':0 'CTPurple':7 'grey78':2 'CTYellow':0 },165,{ chips  'CTRed':31 'CTGreen':0 'CTPurple':7 'grey78':0 'CTYellow':1 },195
3playersLog_1378208432137.csv,10,510,520,true,{ chips  'grey78':9 },{ chips  'CTRed':24 'CTPurple':7 },FALSE,140,165,,,,,1,(R:3,C:7),{ chips  'CTRed':11 'CTGreen':0 'CTPurple':0 'grey78':10 'CTYellow':6 },135,{ chips  'CTRed':24 'CTGreen':0 'CTPurple':7 'grey78':2 'CTYellow':0 },165,{ chips  'CTRed':31 'CTGreen':0 'CTPurple':7 'grey78':0 'CTYellow':1 },195
