@relation IsraelHumanVsHumanOffersReachedGoal_DD_DoubleLines-weka.filters.unsupervised.attribute.Remove-R8

@attribute PlayerI_curScore numeric
@attribute PlayerJ_curScore numeric
@attribute playerI_role {TD,TI}
@attribute playerJ_role {TD,TI}
@attribute playerI_prevReli numeric
@attribute playerJ_prevReli. numeric
@attribute playerI_reachedGoal {FALSE,TRUE}

@data
45,45,TD,TD,0.5,0.5,FALSE
45,45,TD,TD,0.5,0.5,FALSE
45,45,TD,TD,0.5,0.5,FALSE
45,45,TD,TD,0.5,0.5,FALSE
45,45,TD,TD,0.5,0.5,FALSE
45,45,TD,TD,0.5,0.5,FALSE
40,60,TD,TD,0.1,0,FALSE
60,40,TD,TD,0,0.1,FALSE
60,40,TD,TD,0,0.1,FALSE
40,60,TD,TD,0.1,0,FALSE
55,55,TD,TD,0.5,0,FALSE
55,55,TD,TD,0,0.5,FALSE
55,55,TD,TD,0,0,FALSE
55,55,TD,TD,0,0,FALSE
70,50,TD,TD,0,1,FALSE
50,70,TD,TD,1,0,FALSE
50,70,TD,TD,0,0,FALSE
70,50,TD,TD,0,0,FALSE
65,55,TD,TD,0.1,0,FALSE
55,65,TD,TD,0,0.1,FALSE
45,45,TD,TD,0.5,0.5,TRUE
45,45,TD,TD,0.5,0.5,TRUE
185,60,TI,TD,0.2,1,TRUE
60,185,TD,TI,1,0.2,TRUE
45,45,TD,TD,0.5,0.5,FALSE
45,45,TD,TD,0.5,0.5,FALSE
45,45,TD,TD,0.5,0.5,FALSE
45,45,TD,TD,0.5,0.5,FALSE
65,45,TD,TD,0.066667,0.2,FALSE
45,65,TD,TD,0.2,0.066667,FALSE
45,65,TD,TD,0,0,FALSE
65,45,TD,TD,0,0,FALSE
65,45,TD,TD,0,0,FALSE
45,65,TD,TD,0,0,FALSE
65,45,TD,TD,0,0,FALSE
45,65,TD,TD,0,0,FALSE
45,45,TD,TD,0.5,0.5,TRUE
45,45,TD,TD,0.5,0.5,FALSE
45,45,TD,TD,0,0,FALSE
45,45,TD,TD,0,0,TRUE
45,45,TD,TD,0,0,TRUE
45,45,TD,TD,0,0,FALSE
60,40,TD,TD,0,0.5,FALSE
40,60,TD,TD,0.5,0,TRUE
55,55,TD,TD,0,0.5,TRUE
55,55,TD,TD,0.5,0,FALSE
65,65,TD,TD,1,0.111111,FALSE
65,65,TD,TD,0.111111,1,TRUE
185,60,TI,TD,0,1,TRUE
60,185,TD,TI,1,0,FALSE
45,200,TD,TI,3,0,FALSE
200,45,TI,TD,0,3,TRUE
200,45,TI,TD,0,3,TRUE
45,200,TD,TI,3,0,FALSE
220,25,TI,TD,0,1,TRUE
25,220,TD,TI,1,0,FALSE
25,220,TD,TI,1,0,FALSE
220,25,TI,TD,0,1,TRUE
45,45,TD,TD,0.5,0.5,TRUE
45,45,TD,TD,0.5,0.5,TRUE
45,75,TD,TD,0.21875,0.1,TRUE
75,45,TD,TD,0.1,0.21875,TRUE
75,45,TD,TD,0.1,0.21875,TRUE
45,75,TD,TD,0.21875,0.1,TRUE
80,40,TD,TD,1,1,TRUE
40,80,TD,TD,1,1,TRUE
30,90,TD,TD,1,1,TRUE
90,30,TD,TD,1,1,TRUE
90,40,TD,TD,1,0.04,TRUE
40,90,TD,TD,0.04,1,TRUE
35,210,TD,TI,1,0,TRUE
210,35,TI,TD,0,1,TRUE
210,35,TI,TD,0,1,TRUE
35,210,TD,TI,1,0,TRUE
215,30,TI,TD,1,1,TRUE
30,215,TD,TI,1,1,TRUE
45,45,TD,TD,0.5,0.5,FALSE
45,45,TD,TD,0.5,0.5,TRUE
45,45,TD,TD,0.5,0.5,TRUE
45,45,TD,TD,0.5,0.5,FALSE
45,45,TD,TD,0.5,0.5,TRUE
45,45,TD,TD,0.5,0.5,FALSE
45,45,TD,TD,0.5,0.5,FALSE
45,45,TD,TD,0.5,0.5,TRUE
60,40,TD,TD,0,0.1,FALSE
40,60,TD,TD,0.1,0,TRUE
190,45,TI,TD,1,1,TRUE
45,190,TD,TI,1,1,FALSE
35,200,TD,TI,1,1,FALSE
200,35,TI,TD,1,1,TRUE
45,45,TD,TD,0.5,0.5,TRUE
45,45,TD,TD,0.5,0.5,TRUE
50,70,TD,TD,1,1,TRUE
70,50,TD,TD,1,1,TRUE
70,50,TD,TD,1,1,TRUE
50,70,TD,TD,1,1,TRUE
70,50,TD,TD,1,1,TRUE
50,70,TD,TD,1,1,TRUE
50,195,TD,TI,1,1,TRUE
195,50,TI,TD,1,1,TRUE
195,50,TI,TD,1,1,TRUE
50,195,TD,TI,1,1,TRUE
45,45,TD,TD,0.5,0.5,TRUE
45,45,TD,TD,0.5,0.5,TRUE
195,30,TI,TD,0,1,TRUE
30,195,TD,TI,1,0,TRUE
60,185,TD,TI,0,0.2,TRUE
185,60,TI,TD,0.2,0,TRUE
185,60,TI,TD,0.2,0,TRUE
60,185,TD,TI,0,0.2,TRUE
185,60,TI,TD,0.2,0,TRUE
60,185,TD,TI,0,0.2,TRUE
60,185,TD,TI,0,0.2,TRUE
185,60,TI,TD,0.2,0,TRUE
60,185,TD,TI,0,0.2,TRUE
185,60,TI,TD,0.2,0,TRUE
185,60,TI,TD,0.2,0,TRUE
60,185,TD,TI,0,0.2,TRUE
185,60,TI,TD,0.2,0,TRUE
60,185,TD,TI,0,0.2,TRUE
60,185,TD,TI,0,0.2,TRUE
185,60,TI,TD,0.2,0,TRUE
60,185,TD,TI,0,0.2,TRUE
185,60,TI,TD,0.2,0,TRUE
185,60,TI,TD,0.2,0,TRUE
60,185,TD,TI,0,0.2,TRUE
185,60,TI,TD,0,0,TRUE
60,185,TD,TI,0,0,TRUE
60,185,TD,TI,0,0,TRUE
185,60,TI,TD,0,0,TRUE
60,185,TD,TI,0,0,TRUE
185,60,TI,TD,0,0,TRUE
185,60,TI,TD,0,0,TRUE
60,185,TD,TI,0,0,TRUE
45,45,TD,TD,0.5,0.5,FALSE
45,45,TD,TD,0.5,0.5,TRUE
55,55,TD,TD,0.1,0.1,TRUE
55,55,TD,TD,0.1,0.1,FALSE
70,50,TD,TD,0,0.111111,FALSE
50,70,TD,TD,0.111111,0,TRUE
50,70,TD,TD,0,0,TRUE
70,50,TD,TD,0,0,FALSE
70,50,TD,TD,0,0,FALSE
50,70,TD,TD,0,0,TRUE
70,50,TD,TD,0,0,FALSE
50,70,TD,TD,0,0,TRUE
50,70,TD,TD,0,0,TRUE
70,50,TD,TD,0,0,FALSE
55,65,TD,TD,0,0.026316,TRUE
65,55,TD,TD,0.026316,0,FALSE
75,55,TD,TD,0.111111,0.1,FALSE
55,75,TD,TD,0.1,0.111111,TRUE
55,75,TD,TD,0.1,0.111111,TRUE
75,55,TD,TD,0.111111,0.1,FALSE
55,75,TD,TD,0,0,TRUE
75,55,TD,TD,0,0,FALSE
75,55,TD,TD,0,0,FALSE
55,75,TD,TD,0,0,TRUE
45,45,TD,TD,0.5,0.5,TRUE
45,45,TD,TD,0.5,0.5,TRUE
45,45,TD,TD,0.5,0.5,TRUE
45,45,TD,TD,0.5,0.5,TRUE
65,65,TD,TD,1,1,TRUE
65,65,TD,TD,1,1,TRUE
185,60,TI,TD,0,1,TRUE
60,185,TD,TI,1,0,TRUE
60,185,TD,TI,0,0,TRUE
185,60,TI,TD,0,0,TRUE
185,60,TI,TD,0,0,TRUE
60,185,TD,TI,0,0,TRUE
180,65,TI,TD,0.041667,0,TRUE
65,180,TD,TI,0,0.041667,TRUE
70,175,TD,TI,0,1,TRUE
175,70,TI,TD,1,0,TRUE
175,70,TI,TD,1,0,TRUE
70,175,TD,TI,0,1,TRUE
175,70,TI,TD,1,0,TRUE
70,175,TD,TI,0,1,TRUE
70,175,TD,TI,0,1,TRUE
175,70,TI,TD,1,0,TRUE
70,175,TD,TI,0,1,TRUE
175,70,TI,TD,1,0,TRUE
45,45,TD,TD,0.5,0.5,TRUE
45,45,TD,TD,0.5,0.5,TRUE
45,45,TD,TD,0.5,0.5,FALSE
45,45,TD,TD,0.5,0.5,FALSE
45,45,TD,TD,0.5,0.5,FALSE
45,45,TD,TD,0.5,0.5,FALSE
45,45,TD,TD,0.5,0.5,FALSE
45,45,TD,TD,0.5,0.5,FALSE
45,45,TD,TD,0.5,0.5,FALSE
45,45,TD,TD,0.5,0.5,FALSE
40,50,TD,TD,0.5,0.5,FALSE
50,40,TD,TD,0.5,0.5,FALSE
50,40,TD,TD,0.5,0.5,FALSE
40,50,TD,TD,0.5,0.5,FALSE
50,40,TD,TD,0.5,0.5,FALSE
40,50,TD,TD,0.5,0.5,FALSE
45,45,TD,TD,0.5,0.5,FALSE
45,45,TD,TD,0.5,0.5,FALSE
45,45,TD,TD,0.5,0.5,FALSE
45,45,TD,TD,0.5,0.5,FALSE
60,40,TD,TD,0.5,0.5,FALSE
40,60,TD,TD,0.5,0.5,FALSE
40,60,TD,TD,0,0,FALSE
60,40,TD,TD,0,0,FALSE
60,40,TD,TD,0,1,FALSE
40,60,TD,TD,1,0,FALSE
40,60,TD,TD,1,0,FALSE
60,40,TD,TD,0,1,FALSE
45,45,TD,TD,0.5,0.5,FALSE
45,45,TD,TD,0.5,0.5,TRUE
65,65,TD,TD,1,1,TRUE
65,65,TD,TD,1,1,FALSE
65,65,TD,TD,1,1,FALSE
65,65,TD,TD,1,1,TRUE
65,65,TD,TD,1,1,FALSE
65,65,TD,TD,1,1,TRUE
65,65,TD,TD,0,0,TRUE
65,65,TD,TD,0,0,FALSE
60,185,TD,TI,1,0,FALSE
185,60,TI,TD,0,1,TRUE
185,60,TI,TD,0,1,TRUE
60,185,TD,TI,1,0,FALSE
190,55,TI,TD,0,0.0625,TRUE
55,190,TD,TI,0.0625,0,FALSE
55,190,TD,TI,0.0625,0,FALSE
190,55,TI,TD,0,0.0625,TRUE
55,190,TD,TI,0.0625,0,FALSE
190,55,TI,TD,0,0.0625,TRUE
190,55,TI,TD,0,0.0625,TRUE
55,190,TD,TI,0.0625,0,FALSE
195,50,TI,TD,0,0.066667,TRUE
50,195,TD,TI,0.066667,0,FALSE
50,195,TD,TI,0.066667,0,FALSE
195,50,TI,TD,0,0.066667,TRUE
45,45,TD,TD,0.5,0.5,TRUE
45,45,TD,TD,0.5,0.5,TRUE
185,60,TI,TD,0.2,1,TRUE
60,185,TD,TI,1,0.2,TRUE
10,235,TD,TI,1,0,TRUE
235,10,TI,TD,0,1,TRUE
235,10,TI,TD,0,1,TRUE
10,235,TD,TI,1,0,TRUE
45,45,TD,TD,0.5,0.5,TRUE
45,45,TD,TD,0.5,0.5,TRUE
45,45,TD,TD,0.5,0.5,FALSE
45,45,TD,TD,0.5,0.5,TRUE
45,45,TD,TD,0.5,0.5,TRUE
45,45,TD,TD,0.5,0.5,FALSE
40,50,TD,TD,1,0,TRUE
50,40,TD,TD,0,1,FALSE
50,40,TD,TD,0,1,FALSE
40,50,TD,TD,1,0,TRUE
40,70,TD,TD,1,0,FALSE
70,40,TD,TD,0,1,TRUE
70,40,TD,TD,0,1,TRUE
40,70,TD,TD,1,0,FALSE
65,55,TD,TD,1,0,TRUE
55,65,TD,TD,0,1,FALSE
65,65,TD,TD,0.04,1,FALSE
65,65,TD,TD,1,0.04,TRUE
65,65,TD,TD,1,0.04,TRUE
65,65,TD,TD,0.04,1,FALSE
65,65,TD,TD,1,0.04,TRUE
65,65,TD,TD,0.04,1,FALSE
65,65,TD,TD,0.04,1,FALSE
65,65,TD,TD,1,0.04,TRUE
65,65,TD,TD,0,0,FALSE
65,65,TD,TD,0,0,TRUE
70,60,TD,TD,0,0.04,TRUE
60,70,TD,TD,0.04,0,FALSE
55,190,TD,TI,1,0,FALSE
190,55,TI,TD,0,1,TRUE
190,55,TI,TD,0,1,TRUE
55,190,TD,TI,1,0,FALSE
45,45,TD,TD,0.5,0.5,TRUE
45,45,TD,TD,0.5,0.5,TRUE
45,45,TD,TD,0.5,0.5,TRUE
45,45,TD,TD,0.5,0.5,TRUE
40,60,TD,TD,1,0,TRUE
60,40,TD,TD,0,1,TRUE
60,40,TD,TD,0,1,TRUE
40,60,TD,TD,1,0,TRUE
60,40,TD,TD,0,1,TRUE
40,60,TD,TD,1,0,TRUE
40,60,TD,TD,1,0,TRUE
60,40,TD,TD,0,1,TRUE
55,55,TD,TD,1,1,TRUE
55,55,TD,TD,1,1,TRUE
65,65,TD,TD,1,1,TRUE
65,65,TD,TD,1,1,TRUE
65,65,TD,TD,1,1,TRUE
65,65,TD,TD,1,1,TRUE
65,65,TD,TD,1,1,TRUE
65,65,TD,TD,1,1,TRUE
65,65,TD,TD,1,1,TRUE
65,65,TD,TD,1,1,TRUE
65,65,TD,TD,1,1,TRUE
65,65,TD,TD,1,1,TRUE
65,65,TD,TD,1,1,TRUE
65,65,TD,TD,1,1,TRUE
45,45,TD,TD,0.5,0.5,TRUE
45,45,TD,TD,0.5,0.5,FALSE
45,45,TD,TD,0.5,0.5,FALSE
45,45,TD,TD,0.5,0.5,TRUE
40,60,TD,TD,1,0,FALSE
60,40,TD,TD,0,1,TRUE
190,45,TI,TD,1,1,TRUE
45,190,TD,TI,1,1,FALSE
45,190,TD,TI,1,1,FALSE
190,45,TI,TD,1,1,TRUE
45,190,TD,TI,1,1,FALSE
190,45,TI,TD,1,1,TRUE
190,45,TI,TD,1,1,TRUE
45,190,TD,TI,1,1,FALSE
190,45,TI,TD,1,1,TRUE
45,190,TD,TI,1,1,FALSE
45,190,TD,TI,1,1,FALSE
190,45,TI,TD,1,1,TRUE
45,200,TD,TI,1,1,FALSE
200,45,TI,TD,1,1,TRUE
200,45,TI,TD,1,1,TRUE
45,200,TD,TI,1,1,FALSE
200,45,TI,TD,1,1,TRUE
45,200,TD,TI,1,1,FALSE
45,200,TD,TI,1,1,FALSE
200,45,TI,TD,1,1,TRUE
30,215,TD,TI,1,1,FALSE
215,30,TI,TD,1,1,TRUE
215,30,TI,TD,1,1,TRUE
30,215,TD,TI,1,1,FALSE
210,35,TI,TD,1,1,TRUE
35,210,TD,TI,1,1,FALSE
35,210,TD,TI,1,1,FALSE
210,35,TI,TD,1,1,TRUE
45,45,TD,TD,0.5,0.5,TRUE
45,45,TD,TD,0.5,0.5,TRUE
60,40,TD,TD,0,1,TRUE
40,60,TD,TD,1,0,TRUE
50,50,TD,TD,0.068966,1,TRUE
50,50,TD,TD,1,0.068966,TRUE
40,195,TD,TI,1,0.035714,TRUE
195,40,TI,TD,0.035714,1,TRUE
45,45,TD,TD,0.5,0.5,FALSE
45,45,TD,TD,0.5,0.5,FALSE
45,45,TD,TD,0,1,FALSE
45,45,TD,TD,1,0,FALSE
40,60,TD,TD,0.5,0,FALSE
60,40,TD,TD,0,0.5,FALSE
60,40,TD,TD,0,0.5,FALSE
40,60,TD,TD,0.5,0,FALSE
60,40,TD,TD,0,0.5,FALSE
40,60,TD,TD,0.5,0,FALSE
45,45,TD,TD,0.5,0.5,TRUE
45,45,TD,TD,0.5,0.5,FALSE
45,45,TD,TD,0.5,0.5,FALSE
45,45,TD,TD,0.5,0.5,TRUE
50,70,TD,TD,0.2,0.085714,FALSE
70,50,TD,TD,0.085714,0.2,TRUE
70,50,TD,TD,0.085714,0.2,TRUE
50,70,TD,TD,0.2,0.085714,FALSE
65,65,TD,TD,0.111111,0,TRUE
65,65,TD,TD,0,0.111111,FALSE
65,65,TD,TD,0,0.111111,FALSE
65,65,TD,TD,0.111111,0,TRUE
65,65,TD,TD,0,0.111111,FALSE
65,65,TD,TD,0.111111,0,TRUE
65,65,TD,TD,0,0,TRUE
65,65,TD,TD,0,0,FALSE
65,65,TD,TD,0,0,FALSE
65,65,TD,TD,0,0,TRUE
65,65,TD,TD,0,0,TRUE
65,65,TD,TD,0,0,FALSE
65,65,TD,TD,0,0,TRUE
65,65,TD,TD,0,0,FALSE
65,65,TD,TD,0,0,FALSE
65,65,TD,TD,0,0,TRUE
65,65,TD,TD,0,0,FALSE
65,65,TD,TD,0,0,TRUE
45,45,TD,TD,0.5,0.5,FALSE
45,45,TD,TD,0.5,0.5,FALSE
45,45,TD,TD,0.5,0.5,FALSE
45,45,TD,TD,0.5,0.5,FALSE
25,85,TD,TD,0.222222,0,FALSE
85,25,TD,TD,0,0.222222,FALSE
85,25,TD,TD,0,0,FALSE
25,85,TD,TD,0,0,FALSE
45,45,TD,TD,0.5,0.5,TRUE
45,45,TD,TD,0.5,0.5,TRUE
40,70,TD,TD,1,1,TRUE
70,40,TD,TD,1,1,TRUE
195,40,TI,TD,0.1,1,TRUE
40,195,TD,TI,1,0.1,TRUE
40,195,TD,TI,1,0.1,TRUE
195,40,TI,TD,0.1,1,TRUE
35,200,TD,TI,1,0.1,TRUE
200,35,TI,TD,0.1,1,TRUE
205,40,TI,TD,0.111111,1,TRUE
40,205,TD,TI,1,0.111111,TRUE
45,45,TD,TD,0.5,0.5,FALSE
45,45,TD,TD,0.5,0.5,TRUE
45,45,TD,TD,0.5,0.5,TRUE
45,45,TD,TD,0.5,0.5,FALSE
65,65,TD,TD,1,0.857143,TRUE
65,65,TD,TD,0.857143,1,FALSE
65,65,TD,TD,0.857143,1,FALSE
65,65,TD,TD,1,0.857143,TRUE
60,185,TD,TI,1,0,FALSE
185,60,TI,TD,0,1,TRUE
185,60,TI,TD,0,0,TRUE
60,185,TD,TI,0,0,FALSE
60,185,TD,TI,0,0,FALSE
185,60,TI,TD,0,0,TRUE
185,60,TI,TD,0,0,TRUE
60,185,TD,TI,0,0,FALSE
185,60,TI,TD,0,0,TRUE
60,185,TD,TI,0,0,FALSE
60,185,TD,TI,0,0,FALSE
185,60,TI,TD,0,0,TRUE
60,185,TD,TI,0,0,FALSE
185,60,TI,TD,0,0,TRUE
185,60,TI,TD,0,0,TRUE
60,185,TD,TI,0,0,FALSE
185,60,TI,TD,0,0,TRUE
60,185,TD,TI,0,0,FALSE
60,185,TD,TI,0,0,FALSE
185,60,TI,TD,0,0,TRUE
45,45,TD,TD,0.5,0.5,TRUE
45,45,TD,TD,0.5,0.5,TRUE
35,75,TD,TD,1,0,TRUE
35,75,TD,TD,1,0,TRUE
50,70,TD,TD,1,0,TRUE
50,70,TD,TD,1,0,TRUE
185,60,TI,TD,0,1,TRUE
185,60,TI,TD,0,1,TRUE
185,60,TI,TD,0,1,TRUE
185,60,TI,TD,0,1,TRUE
45,45,TD,TD,0.5,0.5,TRUE
65,65,TD,TD,1,1,TRUE
45,45,TD,TD,0.5,0.5,TRUE
45,45,TD,TD,0.5,0.5,TRUE
65,65,TD,TD,1,1,TRUE
45,45,TD,TD,0.5,0.5,TRUE
55,55,TD,TD,1,1,TRUE
55,55,TD,TD,1,1,TRUE
55,55,TD,TD,1,1,TRUE
55,55,TD,TD,1,1,TRUE
60,185,TD,TI,1,0.111111,TRUE
60,185,TD,TI,1,0.111111,TRUE
60,185,TD,TI,1,0.111111,TRUE
60,185,TD,TI,1,0.111111,TRUE
45,45,TD,TD,0.5,0.5,FALSE
45,45,TD,TD,0.5,0.5,FALSE
45,45,TD,TD,0.5,0.5,FALSE
35,75,TD,TD,1,0,FALSE
35,75,TD,TD,1,0,FALSE
65,65,TD,TD,0,0.2,FALSE
65,65,TD,TD,0,0,FALSE
70,60,TD,TD,0,0.04,FALSE
70,60,TD,TD,0,0.04,FALSE
70,60,TD,TD,0,0.04,FALSE
70,60,TD,TD,0,0,FALSE
70,60,TD,TD,0,0,FALSE
45,45,TD,TD,0.5,0.5,TRUE
50,70,TD,TD,1,0.5,TRUE
50,70,TD,TD,1,0.5,TRUE
55,190,TD,TI,1,0.111111,TRUE
55,190,TD,TI,1,0.111111,TRUE
50,195,TD,TI,1,0.041667,TRUE
45,45,TD,TD,0.5,0.5,TRUE
45,45,TD,TD,0.5,0.5,TRUE
65,65,TD,TD,1,1,TRUE
45,45,TD,TD,0.5,0.5,FALSE
40,60,TD,TD,1,0,FALSE
40,60,TD,TD,1,0,FALSE
40,60,TD,TD,1,0,FALSE
40,60,TD,TD,1,0,FALSE
70,50,TD,TD,0,0.2,FALSE
70,50,TD,TD,0,0,FALSE
70,50,TD,TD,0,0,FALSE
70,50,TD,TD,0,0,FALSE
45,45,TD,TD,0.5,0.5,TRUE
45,45,TD,TD,0.5,0.5,TRUE
65,65,TD,TD,1,1,TRUE
60,185,TD,TI,1,0,TRUE
60,185,TD,TI,1,0,TRUE
60,185,TD,TI,1,0,TRUE
60,185,TD,TI,1,0,TRUE
60,185,TD,TI,0,0,TRUE
60,185,TD,TI,0,0,TRUE
60,185,TD,TI,0,0,TRUE
65,180,TD,TI,0,0.041667,TRUE
-15,260,TD,TI,1,0.04,TRUE
45,45,TD,TD,0.5,0.5,TRUE
45,45,TD,TD,0.5,0.5,TRUE
65,65,TD,TD,1,1,TRUE
45,45,TD,TD,0.5,0.5,TRUE
45,45,TD,TD,0.5,0.5,TRUE
65,65,TD,TD,1,1,TRUE
45,45,TD,TD,0.5,0.5,TRUE
55,55,TD,TD,1,1,TRUE
45,190,TD,TI,1,0,TRUE
45,190,TD,TI,1,0,TRUE
45,190,TD,TI,0,0,TRUE
45,190,TD,TI,0,0,TRUE
45,190,TD,TI,0,0,TRUE
45,190,TD,TI,0,0,TRUE
45,190,TD,TI,0,0,TRUE
45,190,TD,TI,0,0,TRUE
45,190,TD,TI,0,0,TRUE
45,190,TD,TI,0,0,TRUE
45,45,TD,TD,0.5,0.5,TRUE
55,55,TD,TD,1,1,TRUE
55,55,TD,TD,1,1,TRUE
60,50,TD,TD,1,1,TRUE
60,50,TD,TD,1,1,TRUE
45,45,TD,TD,0.5,0.5,TRUE
45,45,TD,TD,0.5,0.5,TRUE
50,70,TD,TD,1,0.5,TRUE
60,185,TD,TI,0.96,0.111111,TRUE
45,45,TD,TD,0.5,0.5,TRUE
45,45,TD,TD,0.5,0.5,TRUE
185,60,TI,TD,1,5,TRUE
185,60,TI,TD,1,5,TRUE
185,60,TI,TD,1,5,TRUE
185,60,TI,TD,1,5,TRUE
45,45,TD,TD,0.5,0.5,TRUE
45,45,TD,TD,0.5,0.5,TRUE
65,65,TD,TD,1,1,TRUE
60,185,TD,TI,1,0,TRUE
60,185,TD,TI,1,0,TRUE
60,185,TD,TI,1,0,TRUE
60,185,TD,TI,1,1,TRUE
60,185,TD,TI,1,1,TRUE
60,185,TD,TI,1,1,TRUE
60,185,TD,TI,1,1,TRUE
45,45,TD,TD,0.5,0.5,TRUE
45,45,TD,TD,0.5,0.5,TRUE
50,70,TD,TD,1,0.5,TRUE
55,190,TD,TI,1,0.111111,TRUE
55,190,TD,TI,1,0.111111,TRUE
45,45,TD,TD,0.5,0.5,TRUE
45,45,TD,TD,0.5,0.5,TRUE
45,45,TD,TD,0.5,0.5,TRUE
45,45,TD,TD,0.5,0.5,TRUE
45,45,TD,TD,0.5,0.5,TRUE
45,45,TD,TD,0.5,0.5,TRUE
45,45,TD,TD,0.5,0.5,TRUE
45,45,TD,TD,0.5,0.5,TRUE
85,160,TD,TI,1,0.846154,TRUE
85,160,TD,TI,1,0.846154,TRUE
85,160,TD,TI,1,0.846154,TRUE
85,160,TD,TI,1,0.846154,TRUE
85,160,TD,TI,1,0.846154,TRUE
85,160,TD,TI,1,0.846154,TRUE
85,160,TD,TI,1,0.846154,TRUE
85,160,TD,TI,1,0.846154,TRUE
55,190,TD,TI,1,0,TRUE
45,45,TD,TD,0.5,0.5,TRUE
45,45,TD,TD,0.5,0.5,TRUE
65,65,TD,TD,1,1,TRUE
45,45,TD,TD,0.5,0.5,TRUE
45,45,TD,TD,0.5,0.5,TRUE
65,65,TD,TD,1,1,TRUE
60,185,TD,TI,1,0,TRUE
45,45,TD,TD,0.5,0.5,TRUE
45,45,TD,TD,0.5,0.5,TRUE
35,75,TD,TD,1,0,TRUE
50,70,TD,TD,0,0.1,TRUE
50,70,TD,TD,0,0.1,TRUE
50,70,TD,TD,0,0.1,TRUE
70,60,TD,TD,0,0.148148,TRUE
70,60,TD,TD,0,0.148148,TRUE
45,45,TD,TD,0.5,0.5,TRUE
45,45,TD,TD,0.5,0.5,TRUE
50,70,TD,TD,1,0.5,TRUE
45,45,TD,TD,0.5,0.5,TRUE
45,45,TD,TD,0.5,0.5,TRUE
65,65,TD,TD,1,1,TRUE
45,45,TD,TD,0.5,0.5,FALSE
45,45,TD,TD,0.5,0.5,FALSE
35,75,TD,TD,1,0,FALSE
35,75,TD,TD,0,0,FALSE
35,75,TD,TD,0,0,FALSE
50,70,TD,TD,0,0.1,FALSE
50,70,TD,TD,0,0,FALSE
65,65,TD,TD,0,0.111111,FALSE
65,65,TD,TD,0,0,FALSE
65,65,TD,TD,0,0,FALSE
45,45,TD,TD,0.5,0.5,TRUE
45,45,TD,TD,0.5,0.5,TRUE
65,65,TD,TD,1,1,TRUE
60,185,TD,TI,1,0,TRUE
60,185,TD,TI,1,0,TRUE
60,185,TD,TI,0,0,TRUE
60,185,TD,TI,1,1,TRUE
60,185,TD,TI,1,1,TRUE
60,185,TD,TI,1,1,TRUE
60,185,TD,TI,1,1,TRUE
60,185,TD,TI,1,1,TRUE
60,185,TD,TI,1,1,TRUE
60,185,TD,TI,1,1,TRUE
60,185,TD,TI,1,1,TRUE
45,45,TD,TD,0.5,0.5,TRUE
45,45,TD,TD,0.5,0.5,TRUE
65,65,TD,TD,1,1,TRUE
60,185,TD,TI,1,0,TRUE
45,45,TD,TD,0.5,0.5,TRUE
65,65,TD,TD,1,1,TRUE
45,45,TD,TD,0.5,0.5,TRUE
35,75,TD,TD,1,0,TRUE
35,75,TD,TD,1,0,TRUE
185,60,TI,TD,0,1,TRUE
185,60,TI,TD,0,1,TRUE
185,60,TI,TD,0,1,TRUE
45,45,TD,TD,0.5,0.5,TRUE
45,45,TD,TD,0.5,0.5,TRUE
60,40,TD,TD,0.5,0.5,TRUE
60,40,TD,TD,0.5,0.5,TRUE
50,70,TD,TD,1,0,TRUE
65,65,TD,TD,0,0.111111,TRUE
65,65,TD,TD,0,0.111111,TRUE
65,65,TD,TD,0,0,TRUE
185,60,TI,TD,0,1,TRUE
185,60,TI,TD,0,1,TRUE