filename,round,propID,respID,IsPropCustomer,chipsToSend,chipsToReceive,accept,propCurrentScore,respCurrentScore,actualSent,ActualRcvd,propResultingScore,respResultingScore,#ofCustomerMovesInRound,customerRowPositionAfterMovePhase,customerColPositionAfterMovePhase,Player100ChipsAfterMovePhase,Player100ScoreAfterMovePhase,Player200ChipsAfterMovePhase,Player200ScoreAfterMovePhase,Player300ChipsAfterMovePhase,Player300ScoreAfterMovePhase,generosityLevel,ClientReachedGoal
3playersLog_1378215778808.csv,1,540,510,false,{ chips  'CTRed':12 'CTPurple':2 },{ chips  'grey78':4 'CTYellow':1 },TRUE,200,120,{ chips  'CTRed':12 'CTPurple':2 'CTGreen':0 'grey78':0 'CTYellow':0 },{ chips  'CTRed':0 'CTPurple':0 'CTGreen':0 'grey78':4 'CTYellow':1 },155,165,0,(R:5,C:4),{ chips  'CTRed':12 'CTGreen':0 'CTPurple':2 'grey78':8 'CTYellow':11 },165,{ chips  'CTRed':33 'CTGreen':0 'CTPurple':7 'grey78':0 'CTYellow':0 },200,{ chips  'CTRed':21 'CTGreen':0 'CTPurple':5 'grey78':4 'CTYellow':1 },155
3playersLog_1378215778808.csv,2,510,520,true,{ chips  },{ chips  'CTRed':3 'CTPurple':3 },FALSE,165,200,,,,,1,(R:5,C:5),{ chips  'CTRed':12 'CTGreen':0 'CTPurple':2 'grey78':8 'CTYellow':10 },160,{ chips  'CTRed':33 'CTGreen':0 'CTPurple':7 'grey78':0 'CTYellow':0 },200,{ chips  'CTRed':21 'CTGreen':0 'CTPurple':5 'grey78':4 'CTYellow':1 },155
3playersLog_1378215778808.csv,3,520,510,false,{ chips  'CTRed':5 },{ chips  'CTYellow':2 },TRUE,200,160,{ chips  'CTRed':5 'CTPurple':0 'CTGreen':0 'grey78':0 'CTYellow':0 },{ chips  'CTRed':0 'CTPurple':0 'CTGreen':0 'grey78':0 'CTYellow':2 },185,175,0,(R:5,C:5),{ chips  'CTRed':17 'CTGreen':0 'CTPurple':2 'grey78':8 'CTYellow':8 },175,{ chips  'CTRed':28 'CTGreen':0 'CTPurple':7 'grey78':0 'CTYellow':2 },185,{ chips  'CTRed':21 'CTGreen':0 'CTPurple':5 'grey78':4 'CTYellow':1 },155
3playersLog_1378215778808.csv,4,510,520,true,{ chips  },{ chips  'CTRed':11 'CTPurple':2 'CTYellow':2 },FALSE,175,185,,,,,1,(R:4,C:5),{ chips  'CTRed':17 'CTGreen':0 'CTPurple':2 'grey78':8 'CTYellow':7 },170,{ chips  'CTRed':28 'CTGreen':0 'CTPurple':7 'grey78':0 'CTYellow':2 },185,{ chips  'CTRed':21 'CTGreen':0 'CTPurple':5 'grey78':4 'CTYellow':1 },155
3playersLog_1378215778808.csv,5,520,510,false,{ chips  'CTRed':10 'CTPurple':1 },{ chips  'grey78':6 'CTYellow':1 },IGNORED,185,170,,,,,0,(R:4,C:5),{ chips  'CTRed':32 'CTGreen':0 'CTPurple':3 'grey78':7 'CTYellow':6 },240,{ chips  'CTRed':28 'CTGreen':0 'CTPurple':7 'grey78':0 'CTYellow':2 },185,{ chips  'CTRed':6 'CTGreen':0 'CTPurple':4 'grey78':5 'CTYellow':2 },85
3playersLog_1378215778808.csv,5,540,510,false,{ chips  'CTRed':15 'CTPurple':1 },{ chips  'grey78':1 'CTYellow':1 },TRUE,155,170,{ chips  'CTRed':15 'CTPurple':1 'CTGreen':0 'grey78':0 'CTYellow':0 },{ chips  'CTRed':0 'CTPurple':0 'CTGreen':0 'grey78':1 'CTYellow':1 },85,240,0,(R:4,C:5),{ chips  'CTRed':32 'CTGreen':0 'CTPurple':3 'grey78':7 'CTYellow':6 },240,{ chips  'CTRed':28 'CTGreen':0 'CTPurple':7 'grey78':0 'CTYellow':2 },185,{ chips  'CTRed':6 'CTGreen':0 'CTPurple':4 'grey78':5 'CTYellow':2 },85
3playersLog_1378215778808.csv,6,510,520,true,{ chips  },{ chips  'CTRed':21 'CTPurple':3 'CTYellow':2 },FALSE,240,185,,,,,1,(R:3,C:5),{ chips  'CTRed':32 'CTGreen':0 'CTPurple':2 'grey78':7 'CTYellow':6 },235,{ chips  'CTRed':28 'CTGreen':0 'CTPurple':7 'grey78':0 'CTYellow':2 },185,{ chips  'CTRed':6 'CTGreen':0 'CTPurple':4 'grey78':5 'CTYellow':2 },85
3playersLog_1378215778808.csv,7,520,510,false,{ chips  'CTRed':4 'CTPurple':2 },{ chips  'CTPurple':2 'grey78':3 },IGNORED,185,235,,,,,0,(R:3,C:5),{ chips  'CTRed':36 'CTGreen':0 'CTPurple':4 'grey78':7 'CTYellow':4 },255,{ chips  'CTRed':28 'CTGreen':0 'CTPurple':7 'grey78':0 'CTYellow':2 },185,{ chips  'CTRed':2 'CTGreen':0 'CTPurple':2 'grey78':5 'CTYellow':4 },65
3playersLog_1378215778808.csv,7,540,510,false,{ chips  'CTRed':4 'CTPurple':2 },{ chips  'CTYellow':2 },TRUE,85,235,{ chips  'CTRed':4 'CTPurple':2 'CTGreen':0 'grey78':0 'CTYellow':0 },{ chips  'CTRed':0 'CTPurple':0 'CTGreen':0 'grey78':0 'CTYellow':2 },65,255,0,(R:3,C:5),{ chips  'CTRed':36 'CTGreen':0 'CTPurple':4 'grey78':7 'CTYellow':4 },255,{ chips  'CTRed':28 'CTGreen':0 'CTPurple':7 'grey78':0 'CTYellow':2 },185,{ chips  'CTRed':2 'CTGreen':0 'CTPurple':2 'grey78':5 'CTYellow':4 },65
3playersLog_1378215778808.csv,8,510,540,true,{ chips  },{ chips  'CTPurple':1 'grey78':5 },FALSE,255,65,,,,,1,(R:3,C:4),{ chips  'CTRed':36 'CTGreen':0 'CTPurple':3 'grey78':7 'CTYellow':4 },250,{ chips  'CTRed':28 'CTGreen':0 'CTPurple':7 'grey78':0 'CTYellow':2 },185,{ chips  'CTRed':2 'CTGreen':0 'CTPurple':2 'grey78':5 'CTYellow':4 },65
3playersLog_1378215778808.csv,9,520,510,false,{ chips  'CTRed':10 },{ chips  'grey78':5 },TRUE,185,250,{ chips  'CTRed':10 'CTPurple':0 'CTGreen':0 'grey78':0 'CTYellow':0 },{ chips  'CTRed':0 'CTPurple':0 'CTGreen':0 'grey78':5 'CTYellow':0 },160,275,0,(R:3,C:4),{ chips  'CTRed':46 'CTGreen':0 'CTPurple':3 'grey78':2 'CTYellow':4 },275,{ chips  'CTRed':18 'CTGreen':0 'CTPurple':7 'grey78':5 'CTYellow':2 },160,{ chips  'CTRed':2 'CTGreen':0 'CTPurple':2 'grey78':5 'CTYellow':4 },65
3playersLog_1378215778808.csv,9,540,510,false,{ chips  },{ chips  'CTRed':20 },IGNORED,65,250,,,,,0,(R:3,C:4),{ chips  'CTRed':46 'CTGreen':0 'CTPurple':3 'grey78':2 'CTYellow':4 },275,{ chips  'CTRed':18 'CTGreen':0 'CTPurple':7 'grey78':5 'CTYellow':2 },160,{ chips  'CTRed':2 'CTGreen':0 'CTPurple':2 'grey78':5 'CTYellow':4 },65
3playersLog_1378215778808.csv,10,510,540,true,{ chips  },{ chips  'grey78':5 },FALSE,275,65,,,,,0,(R:3,C:4),{ chips  'CTRed':46 'CTGreen':0 'CTPurple':3 'grey78':2 'CTYellow':4 },275,{ chips  'CTRed':18 'CTGreen':0 'CTPurple':7 'grey78':5 'CTYellow':2 },160,{ chips  'CTRed':2 'CTGreen':0 'CTPurple':2 'grey78':5 'CTYellow':4 },65
3playersLog_1378215778808.csv,,,,,,,,,,,,,,,,,,,,,,,,false
