Thu Aug 22 17:05:45 IDT 2013	This is the CT debug logger; svn version 638; sep 27 09
Thu Aug 22 17:05:45 IDT 2013	Thu Aug 22 17:05:45 IDT 2013
Thu Aug 22 17:05:45 IDT 2013	ThreePlayersAgentPlayer(): entering.
Thu Aug 22 17:06:00 IDT 2013	phaseAdvanced(): entering.
Thu Aug 22 17:06:00 IDT 2013	phaseAdvanced(): new phase is 'Strategy Prep Phase'.
Thu Aug 22 17:07:00 IDT 2013	phaseAdvanced(): entering.
Thu Aug 22 17:07:00 IDT 2013	phaseAdvanced(): new phase is 'Communication Phase'.
Thu Aug 22 17:07:50 IDT 2013	onReceipt(): entering.
Thu Aug 22 17:07:50 IDT 2013	onReceipt(): opponent's proposal: ({ chips  'CTRed':15 'CTPurple':3 'CTGreen':0 'grey78':0 'CTYellow':0 }, { chips  'CTRed':0 'CTPurple':0 'CTGreen':0 'grey78':0 'CTYellow':0 }).
Thu Aug 22 17:07:53 IDT 2013	onReceipt(): entering.
Thu Aug 22 17:07:53 IDT 2013	onReceipt(): opponent's proposal: ({ chips  'CTRed':0 'CTPurple':4 'CTGreen':0 'grey78':0 'CTYellow':0 }, { chips  'CTRed':0 'CTPurple':0 'CTGreen':0 'grey78':3 'CTYellow':0 }).
Thu Aug 22 17:07:53 IDT 2013	responseToSend(): entering.
Thu Aug 22 17:07:53 IDT 2013	compareProposals(): decision: 0 utility 210.0
Thu Aug 22 17:07:53 IDT 2013	responseToSend(): accepting proposal ({ chips  'CTRed':15 'CTPurple':3 'CTGreen':0 'grey78':0 'CTYellow':0 }, { chips  'CTRed':0 'CTPurple':0 'CTGreen':0 'grey78':0 'CTYellow':0 }).
Thu Aug 22 17:07:53 IDT 2013	phaseAdvanced(): entering.
Thu Aug 22 17:07:53 IDT 2013	phaseAdvanced(): new phase is 'Movement Phase'.
Thu Aug 22 17:08:38 IDT 2013	phaseAdvanced(): entering.
Thu Aug 22 17:08:38 IDT 2013	phaseAdvanced(): new phase is 'Feedback Phase'.
Thu Aug 22 17:08:43 IDT 2013	phaseAdvanced(): entering.
Thu Aug 22 17:08:43 IDT 2013	phaseAdvanced(): new phase is 'Communication Phase'.
Thu Aug 22 17:08:55 IDT 2013	onReceipt(): entering.
Thu Aug 22 17:08:55 IDT 2013	phaseAdvanced(): entering.
Thu Aug 22 17:08:55 IDT 2013	phaseAdvanced(): new phase is 'Movement Phase'.
Thu Aug 22 17:09:39 IDT 2013	phaseAdvanced(): entering.
Thu Aug 22 17:09:39 IDT 2013	phaseAdvanced(): new phase is 'Feedback Phase'.
Thu Aug 22 17:09:44 IDT 2013	phaseAdvanced(): entering.
Thu Aug 22 17:09:44 IDT 2013	phaseAdvanced(): new phase is 'Communication Phase'.
Thu Aug 22 17:10:12 IDT 2013	onReceipt(): entering.
Thu Aug 22 17:10:12 IDT 2013	onReceipt(): opponent's proposal: ({ chips  'CTRed':5 'CTPurple':1 'CTGreen':0 'grey78':0 'CTYellow':0 }, { chips  'CTRed':0 'CTPurple':0 'CTGreen':0 'grey78':0 'CTYellow':0 }).
Thu Aug 22 17:10:57 IDT 2013	onReceipt(): entering.
Thu Aug 22 17:10:57 IDT 2013	onReceipt(): opponent's proposal: ({ chips  'CTRed':0 'CTPurple':3 'CTGreen':0 'grey78':0 'CTYellow':0 }, { chips  'CTRed':4 'CTPurple':0 'CTGreen':0 'grey78':0 'CTYellow':0 }).
Thu Aug 22 17:10:57 IDT 2013	responseToSend(): entering.
Thu Aug 22 17:10:57 IDT 2013	compareProposals(): decision: 0 utility 240.0
Thu Aug 22 17:10:57 IDT 2013	responseToSend(): accepting proposal ({ chips  'CTRed':5 'CTPurple':1 'CTGreen':0 'grey78':0 'CTYellow':0 }, { chips  'CTRed':0 'CTPurple':0 'CTGreen':0 'grey78':0 'CTYellow':0 }).
Thu Aug 22 17:10:57 IDT 2013	phaseAdvanced(): entering.
Thu Aug 22 17:10:57 IDT 2013	phaseAdvanced(): new phase is 'Movement Phase'.
Thu Aug 22 17:11:42 IDT 2013	phaseAdvanced(): entering.
Thu Aug 22 17:11:42 IDT 2013	phaseAdvanced(): new phase is 'Feedback Phase'.
Thu Aug 22 17:11:47 IDT 2013	phaseAdvanced(): entering.
Thu Aug 22 17:11:47 IDT 2013	phaseAdvanced(): new phase is 'Communication Phase'.
Thu Aug 22 17:12:27 IDT 2013	onReceipt(): entering.
Thu Aug 22 17:12:27 IDT 2013	phaseAdvanced(): entering.
Thu Aug 22 17:12:27 IDT 2013	phaseAdvanced(): new phase is 'Movement Phase'.
Thu Aug 22 17:13:11 IDT 2013	phaseAdvanced(): entering.
Thu Aug 22 17:13:11 IDT 2013	phaseAdvanced(): new phase is 'Feedback Phase'.
Thu Aug 22 17:13:16 IDT 2013	phaseAdvanced(): entering.
Thu Aug 22 17:13:16 IDT 2013	phaseAdvanced(): new phase is 'Communication Phase'.
Thu Aug 22 17:14:11 IDT 2013	onReceipt(): entering.
Thu Aug 22 17:14:11 IDT 2013	onReceipt(): opponent's proposal: ({ chips  'CTRed':3 'CTPurple':3 'CTGreen':0 'grey78':0 'CTYellow':0 }, { chips  'CTRed':0 'CTPurple':0 'CTGreen':0 'grey78':0 'CTYellow':0 }).
Thu Aug 22 17:15:57 IDT 2013	responseToSend(): entering.
Thu Aug 22 17:15:57 IDT 2013	compareProposals(): decision: 1 utility 265.0
Thu Aug 22 17:15:57 IDT 2013	responseToSend(): accepting proposal ({ chips  'CTRed':3 'CTPurple':3 'CTGreen':0 'grey78':0 'CTYellow':0 }, { chips  'CTRed':0 'CTPurple':0 'CTGreen':0 'grey78':0 'CTYellow':0 }).
Thu Aug 22 17:15:57 IDT 2013	phaseAdvanced(): entering.
Thu Aug 22 17:15:57 IDT 2013	phaseAdvanced(): new phase is 'Movement Phase'.
Thu Aug 22 17:16:41 IDT 2013	phaseAdvanced(): entering.
Thu Aug 22 17:16:41 IDT 2013	phaseAdvanced(): new phase is 'Feedback Phase'.
Thu Aug 22 17:16:46 IDT 2013	phaseAdvanced(): entering.
Thu Aug 22 17:16:46 IDT 2013	phaseAdvanced(): new phase is 'Communication Phase'.
Thu Aug 22 17:17:06 IDT 2013	onReceipt(): entering.
Thu Aug 22 17:17:06 IDT 2013	phaseAdvanced(): entering.
Thu Aug 22 17:17:06 IDT 2013	phaseAdvanced(): new phase is 'Movement Phase'.
Thu Aug 22 17:17:06 IDT 2013	phaseAdvanced(): found paths (20).
Thu Aug 22 17:17:51 IDT 2013	phaseAdvanced(): entering.
Thu Aug 22 17:17:51 IDT 2013	phaseAdvanced(): new phase is 'Feedback Phase'.
