Thu Feb 06 13:37:12 EST 2014	This is the CT debug logger; svn version 638; sep 27 09
Thu Feb 06 13:37:12 EST 2014	Thu Feb 06 13:37:12 EST 2014
Thu Feb 06 13:37:12 EST 2014	ID Number: 61969
Thu Feb 06 13:37:12 EST 2014	Creating board
Thu Feb 06 13:37:12 EST 2014	<colors>
Thu Feb 06 13:37:12 EST 2014	{ GamePalette  'CTPurple':0 'CTRed':1 'CTGreen':2 'grey78':3 'CTYellow':4 }
Thu Feb 06 13:37:12 EST 2014	<rows>
Thu Feb 06 13:37:12 EST 2014	6
Thu Feb 06 13:37:12 EST 2014	<columns>
Thu Feb 06 13:37:12 EST 2014	9
Thu Feb 06 13:37:12 EST 2014	<squaresColors>
Thu Feb 06 13:37:12 EST 2014	grey78 CTGreen CTGreen CTGreen CTGreen CTGreen CTGreen CTGreen CTYellow 
Thu Feb 06 13:37:12 EST 2014	grey78 CTPurple CTPurple CTPurple CTPurple CTPurple CTPurple CTPurple CTYellow 
Thu Feb 06 13:37:12 EST 2014	grey78 grey78 CTGreen CTGreen CTGreen CTGreen CTGreen CTYellow CTYellow 
Thu Feb 06 13:37:12 EST 2014	CTGreen grey78 grey78 CTPurple CTPurple CTPurple CTYellow CTYellow CTGreen 
Thu Feb 06 13:37:12 EST 2014	CTGreen CTGreen grey78 grey78 CTGreen CTYellow CTYellow CTGreen CTGreen 
Thu Feb 06 13:37:12 EST 2014	CTGreen CTGreen CTGreen grey78 CTGreen CTYellow CTGreen CTGreen CTGreen 
Thu Feb 06 13:37:12 EST 2014	</squareColors>
Thu Feb 06 13:37:12 EST 2014	<goalPosition>
Thu Feb 06 13:37:12 EST 2014	Goal position: (R:0,C:0)
Thu Feb 06 13:37:12 EST 2014	<goalPosition>
Thu Feb 06 13:37:12 EST 2014	Goal position: (R:0,C:0)
Thu Feb 06 13:37:12 EST 2014	<firstPlayerPossibleGoal1>
Thu Feb 06 13:37:12 EST 2014	0.5
Thu Feb 06 13:37:12 EST 2014	0
Thu Feb 06 13:37:12 EST 2014	0
Thu Feb 06 13:37:12 EST 2014	</firstPlayerPossibleGoal1>
Thu Feb 06 13:37:12 EST 2014	<firstPlayerPossibleGoal2>
Thu Feb 06 13:37:12 EST 2014	0.5
Thu Feb 06 13:37:12 EST 2014	0
Thu Feb 06 13:37:12 EST 2014	8
Thu Feb 06 13:37:12 EST 2014	</firstPlayerPossibleGoal2>
Thu Feb 06 13:37:12 EST 2014	<numberOfPlayers>
Thu Feb 06 13:37:12 EST 2014	3
Thu Feb 06 13:37:12 EST 2014	<firstPlayerChips>
Thu Feb 06 13:37:12 EST 2014	Setting chips for player: 500 id:0
Thu Feb 06 13:37:12 EST 2014	{ chips  'CTRed':0 'CTGreen':0 'CTPurple':0 'grey78':12 'CTYellow':12 }
Thu Feb 06 13:37:12 EST 2014	Player position: (R:5,C:4)
Thu Feb 06 13:37:12 EST 2014	Setting chips for player: 530 id:1
Thu Feb 06 13:37:12 EST 2014	{ chips  'CTRed':33 'CTGreen':0 'CTPurple':7 'grey78':0 'CTYellow':0 }
Thu Feb 06 13:37:12 EST 2014	Player position: (R:0,C:8)
Thu Feb 06 13:37:12 EST 2014	Setting chips for player: 540 id:2
Thu Feb 06 13:37:12 EST 2014	{ chips  'CTRed':33 'CTGreen':0 'CTPurple':7 'grey78':0 'CTYellow':0 }
Thu Feb 06 13:37:12 EST 2014	Player position: (R:0,C:0)
Thu Feb 06 13:37:12 EST 2014	Protocol: A New Phase Began: Strategy Prep Phase. loop is true
Thu Feb 06 13:37:12 EST 2014	---------- Beginning Strategy Prep Phase at round 0 ----------
Thu Feb 06 13:38:12 EST 2014	A Phase Ended: Strategy Prep Phase
Thu Feb 06 13:38:12 EST 2014	Protocol: A New Phase Began: Communication Phase. loop is true
Thu Feb 06 13:38:12 EST 2014	---------- Beginning Communication Phase at round 1 ----------
Thu Feb 06 13:38:17 EST 2014	Received communication message 
Thu Feb 06 13:38:17 EST 2014	From player: 530
Thu Feb 06 13:38:17 EST 2014	To player: 500
Thu Feb 06 13:38:17 EST 2014	Chips to send by proposer: { chips  'CTRed':33 'CTPurple':7 'CTYellow':0 }
Thu Feb 06 13:38:17 EST 2014	Chips to send by responder: { chips  'grey78':11 }
Thu Feb 06 13:38:52 EST 2014	Received communication message 
Thu Feb 06 13:38:52 EST 2014	From player: 540
Thu Feb 06 13:38:52 EST 2014	To player: 500
Thu Feb 06 13:38:52 EST 2014	Chips to send by proposer: { chips  'CTRed':0 'CTPurple':0 'CTGreen':0 'grey78':0 'CTYellow':0 }
Thu Feb 06 13:38:52 EST 2014	Chips to send by responder: { chips  'CTRed':0 'CTPurple':0 'CTGreen':0 'grey78':0 'CTYellow':0 }
Thu Feb 06 13:39:02 EST 2014	Received communication message 
Thu Feb 06 13:39:02 EST 2014	Proposer 1 accepted? false
Thu Feb 06 13:39:02 EST 2014	case that we had one reject, and one accept
Thu Feb 06 13:39:06 EST 2014	Received communication message 
Thu Feb 06 13:39:06 EST 2014	Proposer 0 accepted? true
Thu Feb 06 13:39:06 EST 2014	A Phase Ended: Communication Phase
Thu Feb 06 13:39:06 EST 2014	Protocol: A New Phase Began: Movement Phase. loop is true
Thu Feb 06 13:39:06 EST 2014	---------- Beginning Movement Phase at round 1 ----------
Thu Feb 06 13:39:06 EST 2014	remove strategy phase. 
Thu Feb 06 13:39:50 EST 2014	A Phase Ended: Movement Phase
Thu Feb 06 13:39:50 EST 2014	Protocol: A New Phase Began: Feedback Phase. loop is true
Thu Feb 06 13:39:50 EST 2014	---------- Beginning Feedback Phase at round 1 ----------
Thu Feb 06 13:39:50 EST 2014	Number of consecutive no movements for player 500 is 0
Thu Feb 06 13:39:50 EST 2014	TDPlayerPosition is(R:1,C:8)goal location 0(R:0,C:0)goal location 1(R:0,C:8)
Thu Feb 06 13:39:50 EST 2014	ended is false
Thu Feb 06 13:39:55 EST 2014	A Phase Ended: Feedback Phase
Thu Feb 06 13:39:55 EST 2014	 numberofMoves in round 1 is 8
Thu Feb 06 13:39:55 EST 2014	Swaping roles:
Thu Feb 06 13:39:55 EST 2014	Protocol: A New Phase Began: Communication Phase. loop is true
Thu Feb 06 13:39:55 EST 2014	---------- Beginning Communication Phase at round 2 ----------
Thu Feb 06 13:41:21 EST 2014	Received communication message 
Thu Feb 06 13:41:21 EST 2014	From player: 500
Thu Feb 06 13:41:21 EST 2014	To player: 540
Thu Feb 06 13:41:21 EST 2014	Chips to send by proposer: { chips  'CTRed':0 'CTPurple':0 'CTGreen':0 'grey78':0 'CTYellow':3 }
Thu Feb 06 13:41:21 EST 2014	Chips to send by responder: { chips  'CTRed':10 'CTPurple':7 'CTGreen':0 'grey78':0 'CTYellow':0 }
Thu Feb 06 13:41:44 EST 2014	Received communication message 
Thu Feb 06 13:41:44 EST 2014	Proposer 1 accepted? false
Thu Feb 06 13:41:44 EST 2014	case that we had one reject, and one accept
Thu Feb 06 13:41:44 EST 2014	A Phase Ended: Communication Phase
Thu Feb 06 13:41:44 EST 2014	Protocol: A New Phase Began: Movement Phase. loop is true
Thu Feb 06 13:41:44 EST 2014	---------- Beginning Movement Phase at round 2 ----------
Thu Feb 06 13:42:29 EST 2014	A Phase Ended: Movement Phase
Thu Feb 06 13:42:29 EST 2014	Protocol: A New Phase Began: Feedback Phase. loop is true
Thu Feb 06 13:42:29 EST 2014	---------- Beginning Feedback Phase at round 2 ----------
Thu Feb 06 13:42:29 EST 2014	The TD player reached the goal, end the game
Thu Feb 06 13:42:29 EST 2014	ended is true
Thu Feb 06 13:42:34 EST 2014	A Phase Ended: Feedback Phase
Thu Feb 06 13:42:34 EST 2014	 numberofMoves in round 2 is 1
Thu Feb 06 13:42:34 EST 2014	Loop status: false
Thu Feb 06 13:42:34 EST 2014	Player: 500 ,role: Proposer score is: 370
Thu Feb 06 13:42:34 EST 2014	Player: 500Game Ended
Thu Feb 06 13:42:34 EST 2014	Player: 540 ,role: Responder score is: 200
Thu Feb 06 13:42:34 EST 2014	Player: 540Game Ended
Thu Feb 06 13:42:34 EST 2014	Player: 530 ,role: Responder score is: 205
Thu Feb 06 13:42:34 EST 2014	Player: 530Game Ended
Thu Feb 06 13:42:34 EST 2014	Protocol: A New Phase Began: Communication Phase. loop is false
Thu Feb 06 13:42:34 EST 2014	---------- Beginning Communication Phase at round 2 ----------
