Tue Mar 05 14:47:09 IST 2013	This is the CT debug logger; svn version 638; sep 27 09
Tue Mar 05 14:47:09 IST 2013	Tue Mar 05 14:47:09 IST 2013
Tue Mar 05 14:47:09 IST 2013	ID Number: 69193
Tue Mar 05 14:47:09 IST 2013	Creating board
Tue Mar 05 14:47:09 IST 2013	<colors>
Tue Mar 05 14:47:09 IST 2013	{ GamePalette  'CTPurple':0 'CTRed':1 'CTGreen':2 'grey78':3 'CTYellow':4 }
Tue Mar 05 14:47:09 IST 2013	<rows>
Tue Mar 05 14:47:09 IST 2013	6
Tue Mar 05 14:47:09 IST 2013	<columns>
Tue Mar 05 14:47:09 IST 2013	9
Tue Mar 05 14:47:09 IST 2013	<squaresColors>
Tue Mar 05 14:47:09 IST 2013	grey78 CTGreen CTGreen CTGreen CTGreen CTGreen CTGreen CTGreen CTYellow 
Tue Mar 05 14:47:09 IST 2013	grey78 CTPurple CTPurple CTPurple CTPurple CTPurple CTPurple CTPurple CTYellow 
Tue Mar 05 14:47:09 IST 2013	grey78 grey78 CTGreen CTGreen CTGreen CTGreen CTGreen CTYellow CTYellow 
Tue Mar 05 14:47:09 IST 2013	CTGreen grey78 grey78 CTPurple CTPurple CTPurple CTYellow CTYellow CTGreen 
Tue Mar 05 14:47:09 IST 2013	CTGreen CTGreen grey78 grey78 CTGreen CTYellow CTYellow CTGreen CTGreen 
Tue Mar 05 14:47:09 IST 2013	CTGreen CTGreen CTGreen grey78 CTGreen CTYellow CTGreen CTGreen CTGreen 
Tue Mar 05 14:47:09 IST 2013	</squareColors>
Tue Mar 05 14:47:09 IST 2013	<goalPosition>
Tue Mar 05 14:47:09 IST 2013	Goal position: (R:0,C:0)
Tue Mar 05 14:47:09 IST 2013	<goalPosition>
Tue Mar 05 14:47:09 IST 2013	Goal position: (R:0,C:0)
Tue Mar 05 14:47:09 IST 2013	<firstPlayerPossibleGoal1>
Tue Mar 05 14:47:09 IST 2013	0.5
Tue Mar 05 14:47:09 IST 2013	0
Tue Mar 05 14:47:09 IST 2013	0
Tue Mar 05 14:47:09 IST 2013	</firstPlayerPossibleGoal1>
Tue Mar 05 14:47:09 IST 2013	<firstPlayerPossibleGoal2>
Tue Mar 05 14:47:09 IST 2013	0.5
Tue Mar 05 14:47:09 IST 2013	0
Tue Mar 05 14:47:09 IST 2013	8
Tue Mar 05 14:47:09 IST 2013	</firstPlayerPossibleGoal2>
Tue Mar 05 14:47:09 IST 2013	<numberOfPlayers>
Tue Mar 05 14:47:09 IST 2013	3
Tue Mar 05 14:47:09 IST 2013	<firstPlayerChips>
Tue Mar 05 14:47:09 IST 2013	Setting chips for player: 100 id:0
Tue Mar 05 14:47:09 IST 2013	{ chips  'CTRed':18 'CTGreen':0 'CTPurple':0 'grey78':0 'CTYellow':0 }
Tue Mar 05 14:47:09 IST 2013	Player position: (R:5,C:4)
Tue Mar 05 14:47:09 IST 2013	Setting chips for player: 200 id:1
Tue Mar 05 14:47:09 IST 2013	{ chips  'CTRed':33 'CTGreen':0 'CTPurple':7 'grey78':0 'CTYellow':9 }
Tue Mar 05 14:47:09 IST 2013	Player position: (R:0,C:8)
Tue Mar 05 14:47:09 IST 2013	Setting chips for player: 300 id:2
Tue Mar 05 14:47:09 IST 2013	{ chips  'CTRed':33 'CTGreen':0 'CTPurple':7 'grey78':9 'CTYellow':0 }
Tue Mar 05 14:47:09 IST 2013	Player position: (R:0,C:0)
Tue Mar 05 14:47:09 IST 2013	Protocol: A New Phase Began: Strategy Prep Phase. loop is true
Tue Mar 05 14:47:09 IST 2013	---------- Beginning Strategy Prep Phase at round 0 ----------
Tue Mar 05 14:48:09 IST 2013	A Phase Ended: Strategy Prep Phase
Tue Mar 05 14:48:09 IST 2013	Protocol: A New Phase Began: Communication Phase. loop is true
Tue Mar 05 14:48:09 IST 2013	---------- Beginning Communication Phase at round 1 ----------
Tue Mar 05 14:48:16 IST 2013	Received communication message 
Tue Mar 05 14:48:16 IST 2013	From player: 200
Tue Mar 05 14:48:16 IST 2013	To player: 100
Tue Mar 05 14:48:16 IST 2013	Chips to send by proposer: { chips  'CTRed':0 'CTPurple':0 'CTGreen':0 'grey78':0 'CTYellow':9 }
Tue Mar 05 14:48:16 IST 2013	Chips to send by responder: { chips  'CTRed':5 'CTPurple':0 'CTGreen':0 'grey78':0 'CTYellow':0 }
Tue Mar 05 14:48:21 IST 2013	Received communication message 
Tue Mar 05 14:48:21 IST 2013	From player: 300
Tue Mar 05 14:48:21 IST 2013	To player: 100
Tue Mar 05 14:48:21 IST 2013	Chips to send by proposer: { chips  'CTRed':6 'CTPurple':2 'CTGreen':0 'grey78':9 'CTYellow':0 }
Tue Mar 05 14:48:21 IST 2013	Chips to send by responder: { chips  'CTRed':0 'CTPurple':0 'CTGreen':0 'grey78':0 'CTYellow':0 }
Tue Mar 05 14:48:35 IST 2013	Received communication message 
Tue Mar 05 14:48:35 IST 2013	Proposer 1 accepted? true
Tue Mar 05 14:48:35 IST 2013	A Phase Ended: Communication Phase
Tue Mar 05 14:48:35 IST 2013	Protocol: A New Phase Began: Movement Phase. loop is true
Tue Mar 05 14:48:35 IST 2013	---------- Beginning Movement Phase at round 1 ----------
Tue Mar 05 14:48:55 IST 2013	The TD player reached the goal, end the game
Tue Mar 05 14:48:55 IST 2013	A Phase Ended: Movement Phase
Tue Mar 05 14:48:55 IST 2013	Protocol: A New Phase Began: Feedback Phase. loop is true
Tue Mar 05 14:48:55 IST 2013	---------- Beginning Feedback Phase at round 1 ----------
Tue Mar 05 14:48:55 IST 2013	Number of consecutive no movements for player 100 is 0
Tue Mar 05 14:48:55 IST 2013	TDPlayerPosition is(R:0,C:0)goal location 0(R:0,C:0)goal location 1(R:0,C:8)
Tue Mar 05 14:48:55 IST 2013	The TD player reached the goal, end the game
Tue Mar 05 14:48:55 IST 2013	ended is true
Tue Mar 05 14:48:59 IST 2013	A Phase Ended: Feedback Phase
Tue Mar 05 14:48:59 IST 2013	 numberofMoves in round 1 is 9
Tue Mar 05 14:48:59 IST 2013	Loop status: false
Tue Mar 05 14:48:59 IST 2013	Player: 300 ,role: Proposer score is: 310
Tue Mar 05 14:48:59 IST 2013	Player: 300Game Ended
Tue Mar 05 14:48:59 IST 2013	Player: 200 ,role: Proposer score is: 245
Tue Mar 05 14:48:59 IST 2013	Player: 200Game Ended
Tue Mar 05 14:48:59 IST 2013	Player: 100 ,role: Responder score is: 280
Tue Mar 05 14:48:59 IST 2013	Player: 100Game Ended
Tue Mar 05 14:48:59 IST 2013	Protocol: A New Phase Began: Communication Phase. loop is false
Tue Mar 05 14:48:59 IST 2013	---------- Beginning Communication Phase at round 1 ----------
