filename,round,propID,respID,IsPropCustomer,chipsToSend,chipsToReceive,accept,propCurrentScore,respCurrentScore,actualSent,ActualRcvd,propResultingScore,respResultingScore,#ofCustomerMovesInRound,customerRowPositionAfterMovePhase,customerColPositionAfterMovePhase,Player100ChipsAfterMovePhase,Player100ScoreAfterMovePhase,Player200ChipsAfterMovePhase,Player200ScoreAfterMovePhase,Player300ChipsAfterMovePhase,Player300ScoreAfterMovePhase,generosityLevel,ClientReachedGoal
CT_DbgLog_Agent_5_3_2013_14_22_132.72.66.35.csv,1,300,100,false,{ chips  'CTPurple':1 'grey78':2 },{ chips  },TRUE,245,0,{ chips  'CTRed':0 'CTPurple':1 'CTGreen':0 'grey78':2 'CTYellow':0 },{ chips  'CTRed':0 'CTPurple':0 'CTGreen':0 'grey78':0 'CTYellow':0 },230,15,0,(R:3,C:3),{ chips  'CTRed':18 'CTGreen':0 'CTPurple':0 'grey78':0 'CTYellow':0 },30,{ chips  'CTRed':33 'CTGreen':0 'CTPurple':7 'grey78':0 'CTYellow':9 },245,{ chips  'CTRed':33 'CTGreen':0 'CTPurple':6 'grey78':7 'CTYellow':0 },230
CT_DbgLog_Agent_5_3_2013_14_22_132.72.66.35.csv,,,,,,,,,,,,,,,,,,,,,,,,false
