filename,propID,respID,chipsToSend,chipsToReceive,accept,propCurrentScore,respCurrentScore,actualSent,ActualRcvd,propResultingScore,respResultingScore,generosityLevel,ClientReachedGoal,PlayerA,scoreA,PlayerB,ScoreB,PlayerC,ScoreC
CT_DbgLog_Agent_1342639771109.csv,300,100,{ chips  'CTRed':3 'grey78':3 },{ chips  },true,245,155,{ chips  'CTRed':3 'CTPurple':0 'CTGreen':0 'grey78':3 'CTYellow':0 },{ chips  'CTRed':0 'CTPurple':0 'CTGreen':0 'grey78':0 'CTYellow':0 },215,185,,,,,,,
CT_DbgLog_Agent_1342639771109.csv,200,100,{ chips  'CTYellow':5 },{ chips  },IGNORED,245,185,
CT_DbgLog_Agent_1342639771109.csv,100,200,{ chips  },{ chips  'CTPurple':2 'CTYellow':6 },true,200,245,{ chips  'CTRed':0 'CTPurple':0 'CTGreen':0 'grey78':0 'CTYellow':0 },{ chips  'CTRed':0 'CTPurple':2 'CTGreen':0 'grey78':0 'CTYellow':6 },240,205,,,,,,,
CT_DbgLog_Agent_1342639771109.csv,300,100,{ chips  'CTPurple':1 'grey78':5 },{ chips  },true,215,225,{ chips  'CTRed':0 'CTPurple':1 'CTGreen':0 'grey78':5 'CTYellow':0 },{ chips  'CTRed':0 'CTPurple':0 'CTGreen':0 'grey78':0 'CTYellow':0 },185,255,,,,,,,
CT_DbgLog_Agent_1342639771109.csv,200,100,{ chips  'CTPurple':2 },{ chips  },IGNORED,205,255,
CT_DbgLog_Agent_1342639771109.csv,100,200,{ chips  },{ chips  'CTPurple':10 },IGNORED,260,205,
CT_DbgLog_Agent_1342639771109.csv,200,100,{ chips  'CTPurple':15 },{ chips  'grey78':5 },true,205,265,{ chips  'CTRed':0 'CTPurple':15 'CTGreen':0 'grey78':0 'CTYellow':0 },{ chips  'CTRed':0 'CTPurple':0 'CTGreen':0 'grey78':5 'CTYellow':0 },155,315,,,,,,,
CT_DbgLog_Agent_1342639771109.csv,,,,,,,,,,,,,true,100,470,200,305,300,185
