filename,round,propID,respID,IsPropCustomer,chipsToSend,chipsToReceive,accept,propCurrentScore,respCurrentScore,actualSent,ActualRcvd,propResultingScore,respResultingScore,#ofCustomerMovesInRound,customerRowPositionAfterMovePhase,customerColPositionAfterMovePhase,Player100ChipsAfterMovePhase,Player100ScoreAfterMovePhase,Player200ChipsAfterMovePhase,Player200ScoreAfterMovePhase,Player300ChipsAfterMovePhase,Player300ScoreAfterMovePhase,generosityLevel,ClientReachedGoal
3playersLog_1390309543472.csv,1,560,500,false,{ chips  'CTRed':14 },{ chips  },TRUE,200,120,{ chips  'CTRed':14 },{ chips  'grey78':0 },130,190,3,(R:4,C:6),{ chips  'CTRed':14 'CTGreen':0 'CTPurple':0 'grey78':12 'CTYellow':9 },175,{ chips  'CTRed':19 'CTGreen':0 'CTPurple':7 'grey78':0 'CTYellow':0 },130,{ chips  'CTRed':33 'CTGreen':0 'CTPurple':7 'grey78':0 'CTYellow':0 },200
3playersLog_1390309543472.csv,2,500,540,true,{ chips  'grey78':4 },{ chips  'CTPurple':7 },TRUE,175,130,{ chips  'CTRed':0 'CTPurple':0 'CTGreen':0 'grey78':4 'CTYellow':0 },{ chips  'CTRed':0 'CTPurple':7 'CTGreen':0 'grey78':0 'CTYellow':0 },190,185,4,(R:2,C:8),{ chips  'CTRed':14 'CTGreen':0 'CTPurple':7 'grey78':8 'CTYellow':5 },170,{ chips  'CTRed':19 'CTGreen':0 'CTPurple':7 'grey78':0 'CTYellow':0 },130,{ chips  'CTRed':33 'CTGreen':0 'CTPurple':0 'grey78':4 'CTYellow':0 },185
3playersLog_1390309543472.csv,3,560,500,false,{ chips  'CTRed':15 },{ chips  },TRUE,130,170,{ chips  'CTRed':15 },{ chips  'grey78':0 },55,245,2,(R:0,C:8),{ chips  'CTRed':29 'CTGreen':0 'CTPurple':7 'grey78':8 'CTYellow':3 },385,{ chips  'CTRed':4 'CTGreen':0 'CTPurple':7 'grey78':0 'CTYellow':0 },205,{ chips  'CTRed':33 'CTGreen':0 'CTPurple':0 'grey78':4 'CTYellow':0 },185
3playersLog_1390309543472.csv,,,,,,,,,,,,,,,,,,,,,,,,true
