filename,round,propID,respID,IsPropCustomer,chipsToSend,chipsToReceive,accept,propCurrentScore,respCurrentScore,actualSent,ActualRcvd,propResultingScore,respResultingScore,#ofCustomerMovesInRound,customerRowPositionAfterMovePhase,customerColPositionAfterMovePhase,Player100ChipsAfterMovePhase,Player100ScoreAfterMovePhase,Player200ChipsAfterMovePhase,Player200ScoreAfterMovePhase,Player300ChipsAfterMovePhase,Player300ScoreAfterMovePhase,generosityLevel,ClientReachedGoal
3playersLog_1371375989165.csv,1,200,100,false,{ chips  'CTPurple':4 },{ chips  },TRUE,200,120,{ chips  'CTRed':0 'CTPurple':4 'CTGreen':0 'grey78':0 'CTYellow':0 },{ chips  'CTRed':0 'CTPurple':0 'CTGreen':0 'grey78':0 'CTYellow':0 },180,140,4,(R:3,C:2),{ chips  'CTRed':0 'CTGreen':0 'CTPurple':4 'grey78':8 'CTYellow':12 },120,{ chips  'CTRed':33 'CTGreen':0 'CTPurple':3 'grey78':0 'CTYellow':0 },180,{ chips  'CTRed':33 'CTGreen':0 'CTPurple':7 'grey78':0 'CTYellow':0 },200
3playersLog_1371375989165.csv,1,300,100,false,{ chips  'CTRed':15 },{ chips  'CTYellow':12 },IGNORED,200,140,,,,,4,(R:3,C:2),{ chips  'CTRed':0 'CTGreen':0 'CTPurple':4 'grey78':8 'CTYellow':12 },120,{ chips  'CTRed':33 'CTGreen':0 'CTPurple':3 'grey78':0 'CTYellow':0 },180,{ chips  'CTRed':33 'CTGreen':0 'CTPurple':7 'grey78':0 'CTYellow':0 },200
3playersLog_1371375989165.csv,2,100,300,true,{ chips  'CTYellow':10 },{ chips  'CTRed':33 'CTPurple':4 },FALSE,120,200,,,,,4,(R:1,C:0),{ chips  'CTRed':0 'CTGreen':0 'CTPurple':4 'grey78':4 'CTYellow':12 },100,{ chips  'CTRed':33 'CTGreen':0 'CTPurple':3 'grey78':0 'CTYellow':0 },180,{ chips  'CTRed':33 'CTGreen':0 'CTPurple':7 'grey78':0 'CTYellow':0 },200
3playersLog_1371375989165.csv,3,200,100,false,{ chips  'CTPurple':3 },{ chips  },TRUE,180,100,{ chips  'CTRed':0 'CTPurple':3 'CTGreen':0 'grey78':0 'CTYellow':0 },{ chips  'CTRed':0 'CTPurple':0 'CTGreen':0 'grey78':0 'CTYellow':0 },165,115,1,(R:1,C:1),{ chips  'CTRed':0 'CTGreen':0 'CTPurple':6 'grey78':4 'CTYellow':12 },110,{ chips  'CTRed':33 'CTGreen':0 'CTPurple':0 'grey78':0 'CTYellow':0 },165,{ chips  'CTRed':33 'CTGreen':0 'CTPurple':7 'grey78':0 'CTYellow':0 },200
3playersLog_1371375989165.csv,3,300,100,false,{ chips  'CTRed':5 },{ chips  'CTYellow':3 },IGNORED,200,115,,,,,1,(R:1,C:1),{ chips  'CTRed':0 'CTGreen':0 'CTPurple':6 'grey78':4 'CTYellow':12 },110,{ chips  'CTRed':33 'CTGreen':0 'CTPurple':0 'grey78':0 'CTYellow':0 },165,{ chips  'CTRed':33 'CTGreen':0 'CTPurple':7 'grey78':0 'CTYellow':0 },200
3playersLog_1371375989165.csv,4,100,200,true,{ chips  'grey78':3 },{ chips  'CTRed':33 },FALSE,110,165,,,,,1,(R:1,C:0),{ chips  'CTRed':0 'CTGreen':0 'CTPurple':6 'grey78':3 'CTYellow':12 },105,{ chips  'CTRed':33 'CTGreen':0 'CTPurple':0 'grey78':0 'CTYellow':0 },165,{ chips  'CTRed':33 'CTGreen':0 'CTPurple':7 'grey78':0 'CTYellow':0 },200
3playersLog_1371375989165.csv,5,200,100,false,{ chips  'CTRed':33 },{ chips  },TRUE,165,105,{ chips  'CTRed':33 'CTPurple':0 'CTGreen':0 'grey78':0 'CTYellow':0 },{ chips  'CTRed':0 'CTPurple':0 'CTGreen':0 'grey78':0 'CTYellow':0 },0,270,1,(R:0,C:0),{ chips  'CTRed':33 'CTGreen':0 'CTPurple':6 'grey78':2 'CTYellow':12 },415,{ chips  'CTRed':0 'CTGreen':0 'CTPurple':0 'grey78':0 'CTYellow':0 },0,{ chips  'CTRed':33 'CTGreen':0 'CTPurple':7 'grey78':0 'CTYellow':0 },350
3playersLog_1371375989165.csv,5,300,100,false,{ chips  'CTRed':8 },{ chips  'CTPurple':3 'CTYellow':3 },IGNORED,200,270,,,,,1,(R:0,C:0),{ chips  'CTRed':33 'CTGreen':0 'CTPurple':6 'grey78':2 'CTYellow':12 },415,{ chips  'CTRed':0 'CTGreen':0 'CTPurple':0 'grey78':0 'CTYellow':0 },0,{ chips  'CTRed':33 'CTGreen':0 'CTPurple':7 'grey78':0 'CTYellow':0 },350
3playersLog_1371375989165.csv,,,,,,,,,,,,,,,,,,,,,,,,true
