@relation 'IsraelHVsHAllOffersAcceptedModel-weka.filters.unsupervised.attribute.Remove-R1,8-12-weka.filters.unsupervised.attribute.Reorder-R1,2,3,4,6,5'

@attribute 'current score' numeric
@attribute 'resulting score' numeric
@attribute 'resp current' numeric
@attribute 'resp resulting' numeric
@attribute offerGenerousity numeric
@attribute accepted {FALSE,TRUE}

@data
45,30,45,70,1,FALSE
45,175,45,60,1,FALSE
45,185,45,60,0,TRUE
40,85,60,15,0,FALSE
60,100,40,20,0,TRUE
55,185,55,60,0,TRUE
55,65,55,65,0.5,TRUE
70,185,50,60,0.5,TRUE
50,95,70,140,0,TRUE
65,180,55,65,0.5,TRUE
45,180,45,180,0.5,TRUE
185,180,60,180,1,TRUE
45,60,45,50,1,FALSE
45,180,45,180,0.5,TRUE
65,180,45,55,0.5,TRUE
45,180,65,180,0.5,FALSE
65,180,45,55,0.5,FALSE
65,175,45,70,1,TRUE
45,50,45,70,1,TRUE
45,180,45,180,0.5,TRUE
45,50,45,70,1,TRUE
60,185,40,60,0.5,TRUE
55,60,55,185,1,TRUE
65,180,65,180,0.5,TRUE
185,185,60,175,0.5,TRUE
45,125,200,235,1,FALSE
200,160,45,200,1,TRUE
220,220,25,25,0.5,FALSE
25,135,220,225,1,FALSE
45,190,45,170,0,TRUE
45,165,75,195,1,FALSE
75,75,45,45,0.5,TRUE
80,80,40,40,0.5,TRUE
30,35,90,210,1,TRUE
90,205,40,155,0.5,TRUE
35,50,210,195,0,FALSE
210,210,35,35,0.5,TRUE
215,260,30,100,0,TRUE
45,70,45,50,0,FALSE
45,55,45,45,0.5,FALSE
45,55,45,55,0.5,FALSE
45,190,45,45,0,TRUE
60,45,40,190,1,TRUE
190,190,45,45,0.5,TRUE
35,10,200,225,1,TRUE
45,70,45,50,0,TRUE
50,190,70,170,0,FALSE
70,200,50,45,0,FALSE
70,195,50,50,0,TRUE
50,155,195,205,1,FALSE
195,230,50,130,0,TRUE
45,180,45,180,0.5,TRUE
195,170,30,55,1,FALSE
30,30,195,195,0.5,FALSE
30,15,195,210,1,TRUE
195,195,30,30,0.5,TRUE
45,180,45,180,0.5,TRUE
195,210,30,150,0,TRUE
60,180,185,180,0,FALSE
185,185,60,60,0.5,FALSE
185,185,60,60,0.5,FALSE
60,170,185,190,1,FALSE
60,155,185,205,1,FALSE
185,185,60,60,0.5,FALSE
185,185,60,60,0.5,FALSE
60,155,185,205,1,FALSE
60,150,185,210,1,FALSE
185,220,60,140,0,TRUE
185,220,60,140,0,FALSE
60,150,185,210,1,FALSE
60,165,185,195,1,FALSE
185,215,60,145,0,TRUE
45,180,45,180,0.5,TRUE
55,180,55,180,0.5,TRUE
70,185,50,60,0.5,TRUE
50,40,70,90,1,FALSE
70,180,50,180,1,TRUE
70,185,50,60,0.5,FALSE
50,235,70,5,0,TRUE
55,155,65,205,1,TRUE
75,185,55,175,1,FALSE
55,265,75,-10,0,TRUE
55,190,75,65,0,FALSE
75,190,55,170,0.5,FALSE
45,170,45,190,1,TRUE
45,190,45,45,0,FALSE
45,55,45,45,0.5,FALSE
45,65,45,25,0,FALSE
45,185,45,60,0,FALSE
40,180,50,65,0,FALSE
50,60,40,30,0,FALSE
50,60,40,50,0.5,TRUE
45,55,45,55,0.5,FALSE
45,180,45,180,0.5,FALSE
60,180,40,180,1,TRUE
40,220,60,15,0,TRUE
60,70,40,50,0.5,FALSE
40,275,60,-40,0,TRUE
45,65,45,65,0.5,TRUE
65,55,65,55,0.5,FALSE
65,75,65,55,0,FALSE
65,180,65,180,0.5,TRUE
65,180,65,180,0.5,TRUE
60,180,185,180,0,FALSE
185,260,60,100,0,TRUE
190,190,55,55,0.5,FALSE
55,170,190,190,0.5,FALSE
55,170,190,190,0.5,FALSE
190,260,55,100,0,TRUE
195,265,50,-10,0,FALSE
50,165,195,195,0.5,TRUE
45,180,45,180,0.5,TRUE
185,230,60,130,0,TRUE
10,130,235,230,0,FALSE
235,260,10,100,0,TRUE
45,175,45,185,1,TRUE
45,180,45,45,0.5,FALSE
45,65,45,35,0,TRUE
40,50,50,60,1,FALSE
50,70,40,60,0.5,TRUE
40,185,70,70,0,FALSE
70,70,40,50,0.5,TRUE
65,185,55,60,0,TRUE
65,180,65,180,0.5,FALSE
65,160,65,85,1,FALSE
65,145,65,100,1,FALSE
65,180,65,180,0.5,TRUE
65,175,65,185,1,TRUE
70,185,60,175,0.5,TRUE
55,180,190,180,0,FALSE
190,270,55,-20,0,FALSE
45,180,45,180,0.5,FALSE
45,55,45,55,0.5,TRUE
40,55,60,55,0,FALSE
60,180,40,180,1,FALSE
60,180,40,180,1,FALSE
40,55,60,55,0,TRUE
55,65,55,65,0.5,TRUE
65,180,65,180,0.5,FALSE
65,115,65,10,0,FALSE
65,65,65,70,1,FALSE
65,155,65,90,1,FALSE
65,140,65,105,1,FALSE
65,180,65,180,0.5,TRUE
45,55,45,190,1,FALSE
45,55,45,55,0.5,TRUE
40,45,60,190,1,TRUE
190,185,45,60,1,FALSE
45,55,190,190,0.5,FALSE
45,50,190,195,1,FALSE
190,235,45,10,0,FALSE
190,210,45,35,0,FALSE
45,45,190,200,1,TRUE
45,155,200,205,1,FALSE
200,230,45,130,0,FALSE
200,260,45,100,0,FALSE
45,20,200,225,1,TRUE
30,50,215,205,0,FALSE
215,180,30,65,1,FALSE
210,205,35,50,1,FALSE
35,35,210,220,1,TRUE
45,55,45,55,0.5,TRUE
60,185,40,40,0.5,TRUE
50,185,50,175,0.5,TRUE
40,160,195,200,1,TRUE
45,205,45,20,0,TRUE
45,65,45,65,0.5,TRUE
40,180,60,180,0,FALSE
60,190,40,45,0,FALSE
60,180,40,180,1,TRUE
45,180,45,180,0.5,FALSE
45,205,45,155,0,TRUE
50,220,70,140,0,FALSE
70,180,50,180,1,TRUE
65,180,65,180,0.5,FALSE
65,210,65,45,0,FALSE
65,205,65,50,0,TRUE
65,180,65,180,0.5,TRUE
65,185,65,70,0,FALSE
65,180,65,180,0.5,TRUE
65,185,65,60,0,FALSE
65,190,65,170,0,TRUE
65,180,65,180,0.5,TRUE
45,180,45,180,0.5,FALSE
45,210,45,150,0,TRUE
25,170,85,190,0,TRUE
85,190,25,170,1,TRUE
45,70,45,40,0,TRUE
40,175,70,185,0.5,TRUE
195,195,40,50,0.5,FALSE
40,170,195,190,0,FALSE
35,160,200,200,0.5,TRUE
205,215,40,145,0,TRUE
45,185,45,175,0,FALSE
45,70,45,60,0,TRUE
65,155,65,90,1,FALSE
65,180,65,180,0.5,TRUE
60,175,185,185,0.5,TRUE
185,220,60,140,0,TRUE
60,165,185,195,1,FALSE
185,220,60,140,0,TRUE
185,225,60,135,0,FALSE
60,175,185,185,0.5,FALSE
60,175,185,185,0.5,FALSE
185,225,60,135,0,FALSE
185,225,60,135,0,FALSE
60,175,185,185,0.5,TRUE
45,65,45,65,0.5,TRUE
45,65,45,65,0.5,TRUE
35,170,75,190,0.5,TRUE
185,205,60,155,0,FALSE
45,65,45,65,0.5,FALSE
60,190,40,55,0,TRUE
50,175,70,185,0.5,TRUE
65,180,65,180,0.5,TRUE
65,180,65,180,0.5,TRUE
185,205,60,155,0,TRUE
45,65,45,65,0.5,TRUE
35,170,75,190,0.5,FALSE
50,175,70,185,0.5,TRUE
185,200,60,160,0,FALSE
185,205,60,155,0,TRUE
45,65,45,65,0.5,TRUE
65,180,65,180,0.5,TRUE
55,180,55,180,0.5,FALSE
55,180,55,180,0.5,TRUE
60,165,185,195,1,FALSE
60,155,185,205,1,FALSE
60,170,185,190,1,TRUE
45,65,45,65,0.5,FALSE
45,65,45,65,0.5,TRUE
35,170,75,190,0.5,TRUE
65,180,65,180,0.5,TRUE
70,185,60,175,0.5,FALSE
70,185,60,175,0.5,FALSE
50,175,70,185,0.5,FALSE
55,165,190,195,1,TRUE
50,50,195,195,0.5,TRUE
45,65,45,65,0.5,TRUE
65,180,65,180,0.5,TRUE
40,175,60,185,0.5,FALSE
40,175,60,185,0.5,TRUE
70,190,50,170,0,TRUE
70,190,50,170,0,TRUE
70,190,50,170,0,TRUE
45,65,45,65,0.5,TRUE
65,180,65,180,0.5,TRUE
60,170,185,190,1,FALSE
60,60,185,185,0.5,FALSE
60,60,185,185,0.5,FALSE
-15,-15,260,260,0.5,TRUE
45,65,45,65,0.5,TRUE
65,180,65,180,0.5,TRUE
45,65,45,65,0.5,TRUE
65,180,65,180,0.5,TRUE
55,180,55,180,0.5,TRUE
45,165,190,195,1,TRUE
45,175,190,185,0,TRUE
45,175,190,185,0,FALSE
45,175,190,185,0,TRUE
45,175,190,185,0,TRUE
45,175,190,185,0,FALSE
55,180,55,180,0.5,FALSE
60,185,50,175,0.5,TRUE
45,65,45,65,0.5,TRUE
50,175,70,185,0.5,TRUE
45,65,45,65,0.5,TRUE
185,200,60,160,0,FALSE
185,200,60,160,0,TRUE
45,65,45,65,0.5,TRUE
65,180,65,180,0.5,TRUE
60,155,185,205,1,FALSE
60,60,185,185,0.5,TRUE
60,160,185,200,1,FALSE
60,165,185,195,1,FALSE
45,65,45,65,0.5,TRUE
50,175,70,185,0.5,TRUE
55,155,190,205,1,TRUE
45,65,45,65,0.5,FALSE
45,65,45,65,0.5,FALSE
45,65,45,65,0.5,FALSE
45,65,45,65,0.5,FALSE
85,190,160,170,1,FALSE
85,185,160,175,1,FALSE
85,190,160,170,1,FALSE
85,190,160,170,1,FALSE
45,65,45,65,0.5,TRUE
65,180,65,180,0.5,TRUE
45,65,45,65,0.5,TRUE
65,180,65,180,0.5,TRUE
45,65,45,65,0.5,TRUE
35,170,75,190,0.5,TRUE
50,175,70,185,0.5,FALSE
50,175,70,185,0.5,TRUE
70,185,60,175,0.5,TRUE
45,65,45,65,0.5,TRUE
50,175,70,185,0.5,TRUE
45,65,45,65,0.5,TRUE
65,180,65,180,0.5,TRUE
45,65,45,65,0.5,TRUE
35,170,75,190,0.5,TRUE
35,170,75,190,0.5,TRUE
50,175,70,185,0.5,TRUE
65,180,65,180,0.5,TRUE
65,180,65,180,0.5,TRUE