Tue Sep 03 15:29:58 IDT 2013	This is the CT debug logger; svn version 638; sep 27 09
Tue Sep 03 15:29:58 IDT 2013	Tue Sep 03 15:29:58 IDT 2013
Tue Sep 03 15:29:58 IDT 2013	ThreePlayersAgentPlayer(): entering.
Tue Sep 03 15:30:16 IDT 2013	phaseAdvanced(): entering.
Tue Sep 03 15:30:16 IDT 2013	phaseAdvanced(): new phase is 'Strategy Prep Phase'.
Tue Sep 03 15:31:16 IDT 2013	phaseAdvanced(): entering.
Tue Sep 03 15:31:16 IDT 2013	phaseAdvanced(): new phase is 'Communication Phase'.
Tue Sep 03 15:33:08 IDT 2013	onReceipt(): entering.
Tue Sep 03 15:33:10 IDT 2013	phaseAdvanced(): entering.
Tue Sep 03 15:33:10 IDT 2013	phaseAdvanced(): new phase is 'Movement Phase'.
Tue Sep 03 15:33:55 IDT 2013	phaseAdvanced(): entering.
Tue Sep 03 15:33:55 IDT 2013	phaseAdvanced(): new phase is 'Feedback Phase'.
Tue Sep 03 15:34:00 IDT 2013	phaseAdvanced(): entering.
Tue Sep 03 15:34:00 IDT 2013	phaseAdvanced(): new phase is 'Communication Phase'.
Tue Sep 03 15:34:28 IDT 2013	onReceipt(): entering.
Tue Sep 03 15:34:28 IDT 2013	onReceipt(): opponent's proposal: ({ chips  'CTRed':0 'CTPurple':0 'CTGreen':0 'grey78':2 'CTYellow':0 }, { chips  'CTRed':0 'CTPurple':5 'CTGreen':0 'grey78':0 'CTYellow':0 }).
Tue Sep 03 15:34:28 IDT 2013	respondToProposal(): entering.
Tue Sep 03 15:34:28 IDT 2013	respondToProposal(): my chips: ({ chips  'CTRed':33 'CTPurple':7 'CTGreen':0 'grey78':0 'CTYellow':0 }).
Tue Sep 03 15:34:28 IDT 2013	responseToSend(): entering.
Tue Sep 03 15:34:28 IDT 2013	responseToSend(): rejecting proposal
Tue Sep 03 15:34:28 IDT 2013	phaseAdvanced(): entering.
Tue Sep 03 15:34:28 IDT 2013	phaseAdvanced(): new phase is 'Movement Phase'.
Tue Sep 03 15:35:13 IDT 2013	phaseAdvanced(): entering.
Tue Sep 03 15:35:13 IDT 2013	phaseAdvanced(): new phase is 'Feedback Phase'.
Tue Sep 03 15:35:18 IDT 2013	phaseAdvanced(): entering.
Tue Sep 03 15:35:18 IDT 2013	phaseAdvanced(): new phase is 'Communication Phase'.
Tue Sep 03 15:36:17 IDT 2013	onReceipt(): entering.
Tue Sep 03 15:36:17 IDT 2013	phaseAdvanced(): entering.
Tue Sep 03 15:36:17 IDT 2013	phaseAdvanced(): new phase is 'Movement Phase'.
Tue Sep 03 15:37:02 IDT 2013	phaseAdvanced(): entering.
Tue Sep 03 15:37:02 IDT 2013	phaseAdvanced(): new phase is 'Feedback Phase'.
Tue Sep 03 15:37:07 IDT 2013	phaseAdvanced(): entering.
Tue Sep 03 15:37:07 IDT 2013	phaseAdvanced(): new phase is 'Communication Phase'.
Tue Sep 03 15:37:50 IDT 2013	phaseAdvanced(): entering.
Tue Sep 03 15:37:50 IDT 2013	phaseAdvanced(): new phase is 'Movement Phase'.
Tue Sep 03 15:38:35 IDT 2013	phaseAdvanced(): entering.
Tue Sep 03 15:38:35 IDT 2013	phaseAdvanced(): new phase is 'Feedback Phase'.
Tue Sep 03 15:38:40 IDT 2013	phaseAdvanced(): entering.
Tue Sep 03 15:38:40 IDT 2013	phaseAdvanced(): new phase is 'Communication Phase'.
Tue Sep 03 15:39:25 IDT 2013	phaseAdvanced(): entering.
Tue Sep 03 15:39:25 IDT 2013	phaseAdvanced(): new phase is 'Movement Phase'.
Tue Sep 03 15:40:10 IDT 2013	phaseAdvanced(): entering.
Tue Sep 03 15:40:10 IDT 2013	phaseAdvanced(): new phase is 'Feedback Phase'.
Tue Sep 03 15:40:15 IDT 2013	phaseAdvanced(): entering.
Tue Sep 03 15:40:15 IDT 2013	phaseAdvanced(): new phase is 'Communication Phase'.
Tue Sep 03 15:40:53 IDT 2013	onReceipt(): entering.
Tue Sep 03 15:40:53 IDT 2013	onReceipt(): opponent's proposal: ({ chips  'CTRed':0 'CTPurple':0 'CTGreen':0 'grey78':3 'CTYellow':0 }, { chips  'CTRed':1 'CTPurple':3 'CTGreen':0 'grey78':0 'CTYellow':0 }).
Tue Sep 03 15:40:53 IDT 2013	respondToProposal(): entering.
Tue Sep 03 15:40:53 IDT 2013	respondToProposal(): my chips: ({ chips  'CTRed':33 'CTPurple':7 'CTGreen':0 'grey78':0 'CTYellow':0 }).
Tue Sep 03 15:40:53 IDT 2013	responseToSend(): entering.
Tue Sep 03 15:40:53 IDT 2013	responseToSend(): rejecting proposal
Tue Sep 03 15:40:53 IDT 2013	phaseAdvanced(): entering.
Tue Sep 03 15:40:53 IDT 2013	phaseAdvanced(): new phase is 'Movement Phase'.
Tue Sep 03 15:41:38 IDT 2013	phaseAdvanced(): entering.
Tue Sep 03 15:41:38 IDT 2013	phaseAdvanced(): new phase is 'Feedback Phase'.
Tue Sep 03 15:41:43 IDT 2013	phaseAdvanced(): entering.
Tue Sep 03 15:41:43 IDT 2013	phaseAdvanced(): new phase is 'Communication Phase'.
Tue Sep 03 15:42:41 IDT 2013	phaseAdvanced(): entering.
Tue Sep 03 15:42:41 IDT 2013	phaseAdvanced(): new phase is 'Movement Phase'.
Tue Sep 03 15:43:25 IDT 2013	phaseAdvanced(): entering.
Tue Sep 03 15:43:25 IDT 2013	phaseAdvanced(): new phase is 'Feedback Phase'.
Tue Sep 03 15:43:30 IDT 2013	phaseAdvanced(): entering.
Tue Sep 03 15:43:30 IDT 2013	phaseAdvanced(): new phase is 'Communication Phase'.
Tue Sep 03 15:44:25 IDT 2013	phaseAdvanced(): entering.
Tue Sep 03 15:44:25 IDT 2013	phaseAdvanced(): new phase is 'Movement Phase'.
Tue Sep 03 15:45:10 IDT 2013	phaseAdvanced(): entering.
Tue Sep 03 15:45:10 IDT 2013	phaseAdvanced(): new phase is 'Feedback Phase'.
Tue Sep 03 15:45:15 IDT 2013	phaseAdvanced(): entering.
Tue Sep 03 15:45:15 IDT 2013	phaseAdvanced(): new phase is 'Communication Phase'.
Tue Sep 03 15:46:40 IDT 2013	onReceipt(): entering.
Tue Sep 03 15:46:40 IDT 2013	phaseAdvanced(): entering.
Tue Sep 03 15:46:40 IDT 2013	phaseAdvanced(): new phase is 'Movement Phase'.
Tue Sep 03 15:47:25 IDT 2013	phaseAdvanced(): entering.
Tue Sep 03 15:47:25 IDT 2013	phaseAdvanced(): new phase is 'Feedback Phase'.
Tue Sep 03 15:47:30 IDT 2013	phaseAdvanced(): entering.
Tue Sep 03 15:47:30 IDT 2013	phaseAdvanced(): new phase is 'Communication Phase'.
Tue Sep 03 15:48:18 IDT 2013	onReceipt(): entering.
Tue Sep 03 15:48:18 IDT 2013	onReceipt(): opponent's proposal: ({ chips  'CTRed':0 'CTPurple':0 'CTGreen':0 'grey78':6 'CTYellow':0 }, { chips  'CTRed':33 'CTPurple':7 'CTGreen':0 'grey78':0 'CTYellow':0 }).
Tue Sep 03 15:48:18 IDT 2013	respondToProposal(): entering.
Tue Sep 03 15:48:18 IDT 2013	respondToProposal(): my chips: ({ chips  'CTRed':33 'CTPurple':7 'CTGreen':0 'grey78':0 'CTYellow':0 }).
Tue Sep 03 15:48:18 IDT 2013	responseToSend(): entering.
Tue Sep 03 15:48:18 IDT 2013	responseToSend(): rejecting proposal
Tue Sep 03 15:48:18 IDT 2013	phaseAdvanced(): entering.
Tue Sep 03 15:48:18 IDT 2013	phaseAdvanced(): new phase is 'Movement Phase'.
Tue Sep 03 15:49:03 IDT 2013	phaseAdvanced(): entering.
Tue Sep 03 15:49:03 IDT 2013	phaseAdvanced(): new phase is 'Feedback Phase'.
Tue Sep 03 15:49:08 IDT 2013	phaseAdvanced(): entering.
Tue Sep 03 15:49:08 IDT 2013	phaseAdvanced(): new phase is 'Communication Phase'.
Tue Sep 03 15:49:52 IDT 2013	onReceipt(): entering.
Tue Sep 03 15:49:52 IDT 2013	phaseAdvanced(): entering.
Tue Sep 03 15:49:52 IDT 2013	phaseAdvanced(): new phase is 'Movement Phase'.
Tue Sep 03 15:50:36 IDT 2013	phaseAdvanced(): entering.
Tue Sep 03 15:50:36 IDT 2013	phaseAdvanced(): new phase is 'Feedback Phase'.
