Tue Sep 03 12:28:49 IDT 2013	This is the CT debug logger; svn version 638; sep 27 09
Tue Sep 03 12:28:49 IDT 2013	Tue Sep 03 12:28:49 IDT 2013
Tue Sep 03 12:28:49 IDT 2013	ID Number: 69123
Tue Sep 03 12:28:49 IDT 2013	Creating board
Tue Sep 03 12:28:49 IDT 2013	<colors>
Tue Sep 03 12:28:49 IDT 2013	{ GamePalette  'CTPurple':0 'CTRed':1 'CTGreen':2 'grey78':3 'CTYellow':4 }
Tue Sep 03 12:28:49 IDT 2013	<rows>
Tue Sep 03 12:28:49 IDT 2013	6
Tue Sep 03 12:28:49 IDT 2013	<columns>
Tue Sep 03 12:28:49 IDT 2013	9
Tue Sep 03 12:28:49 IDT 2013	<squaresColors>
Tue Sep 03 12:28:49 IDT 2013	grey78 CTGreen CTGreen CTGreen CTGreen CTGreen CTGreen CTGreen CTYellow 
Tue Sep 03 12:28:49 IDT 2013	grey78 CTPurple CTPurple CTPurple CTPurple CTPurple CTPurple CTPurple CTYellow 
Tue Sep 03 12:28:49 IDT 2013	grey78 grey78 CTGreen CTGreen CTGreen CTGreen CTGreen CTYellow CTYellow 
Tue Sep 03 12:28:49 IDT 2013	CTGreen grey78 grey78 CTPurple CTPurple CTPurple CTYellow CTYellow CTGreen 
Tue Sep 03 12:28:49 IDT 2013	CTGreen CTGreen grey78 grey78 CTGreen CTYellow CTYellow CTGreen CTGreen 
Tue Sep 03 12:28:49 IDT 2013	CTGreen CTGreen CTGreen grey78 CTGreen CTYellow CTGreen CTGreen CTGreen 
Tue Sep 03 12:28:49 IDT 2013	</squareColors>
Tue Sep 03 12:28:49 IDT 2013	<goalPosition>
Tue Sep 03 12:28:49 IDT 2013	Goal position: (R:0,C:0)
Tue Sep 03 12:28:49 IDT 2013	<goalPosition>
Tue Sep 03 12:28:49 IDT 2013	Goal position: (R:0,C:0)
Tue Sep 03 12:28:49 IDT 2013	<firstPlayerPossibleGoal1>
Tue Sep 03 12:28:49 IDT 2013	0.5
Tue Sep 03 12:28:49 IDT 2013	0
Tue Sep 03 12:28:49 IDT 2013	0
Tue Sep 03 12:28:49 IDT 2013	</firstPlayerPossibleGoal1>
Tue Sep 03 12:28:49 IDT 2013	<firstPlayerPossibleGoal2>
Tue Sep 03 12:28:49 IDT 2013	0.5
Tue Sep 03 12:28:49 IDT 2013	0
Tue Sep 03 12:28:49 IDT 2013	8
Tue Sep 03 12:28:49 IDT 2013	</firstPlayerPossibleGoal2>
Tue Sep 03 12:28:49 IDT 2013	<numberOfPlayers>
Tue Sep 03 12:28:49 IDT 2013	3
Tue Sep 03 12:28:49 IDT 2013	<firstPlayerChips>
Tue Sep 03 12:28:49 IDT 2013	Setting chips for player: 510 id:0
Tue Sep 03 12:28:49 IDT 2013	{ chips  'CTRed':0 'CTGreen':0 'CTPurple':0 'grey78':12 'CTYellow':12 }
Tue Sep 03 12:28:49 IDT 2013	Player position: (R:5,C:4)
Tue Sep 03 12:28:49 IDT 2013	Setting chips for player: 520 id:1
Tue Sep 03 12:28:49 IDT 2013	{ chips  'CTRed':33 'CTGreen':0 'CTPurple':7 'grey78':0 'CTYellow':0 }
Tue Sep 03 12:28:49 IDT 2013	Player position: (R:0,C:8)
Tue Sep 03 12:28:49 IDT 2013	Setting chips for player: 540 id:2
Tue Sep 03 12:28:49 IDT 2013	{ chips  'CTRed':33 'CTGreen':0 'CTPurple':7 'grey78':0 'CTYellow':0 }
Tue Sep 03 12:28:49 IDT 2013	Player position: (R:0,C:0)
Tue Sep 03 12:28:49 IDT 2013	Protocol: A New Phase Began: Strategy Prep Phase. loop is true
Tue Sep 03 12:28:49 IDT 2013	---------- Beginning Strategy Prep Phase at round 0 ----------
Tue Sep 03 12:29:49 IDT 2013	A Phase Ended: Strategy Prep Phase
Tue Sep 03 12:29:49 IDT 2013	Protocol: A New Phase Began: Communication Phase. loop is true
Tue Sep 03 12:29:49 IDT 2013	---------- Beginning Communication Phase at round 1 ----------
Tue Sep 03 12:30:53 IDT 2013	Received communication message 
Tue Sep 03 12:30:53 IDT 2013	From player: 540
Tue Sep 03 12:30:53 IDT 2013	To player: 510
Tue Sep 03 12:30:53 IDT 2013	Chips to send by proposer: { chips  'CTRed':5 'CTPurple':0 'CTGreen':0 'grey78':0 'CTYellow':0 }
Tue Sep 03 12:30:53 IDT 2013	Chips to send by responder: { chips  'CTRed':0 'CTPurple':0 'CTGreen':0 'grey78':0 'CTYellow':0 }
Tue Sep 03 12:31:44 IDT 2013	Received communication message 
Tue Sep 03 12:31:44 IDT 2013	From player: 520
Tue Sep 03 12:31:44 IDT 2013	To player: 510
Tue Sep 03 12:31:44 IDT 2013	Chips to send by proposer: { chips  'CTRed':0 'CTPurple':1 'CTGreen':0 'grey78':0 'CTYellow':0 }
Tue Sep 03 12:31:44 IDT 2013	Chips to send by responder: { chips  'CTRed':0 'CTPurple':0 'CTGreen':0 'grey78':1 'CTYellow':0 }
Tue Sep 03 12:31:44 IDT 2013	Received communication message 
Tue Sep 03 12:31:44 IDT 2013	Proposer 1 accepted? true
Tue Sep 03 12:31:44 IDT 2013	A Phase Ended: Communication Phase
Tue Sep 03 12:31:44 IDT 2013	Protocol: A New Phase Began: Movement Phase. loop is true
Tue Sep 03 12:31:44 IDT 2013	---------- Beginning Movement Phase at round 1 ----------
Tue Sep 03 12:31:44 IDT 2013	remove strategy phase. 
Tue Sep 03 12:31:44 IDT 2013	Received communication message 
Tue Sep 03 12:31:44 IDT 2013	Proposer 0 accepted? false
Tue Sep 03 12:32:29 IDT 2013	A Phase Ended: Movement Phase
Tue Sep 03 12:32:29 IDT 2013	Protocol: A New Phase Began: Feedback Phase. loop is true
Tue Sep 03 12:32:29 IDT 2013	---------- Beginning Feedback Phase at round 1 ----------
Tue Sep 03 12:32:29 IDT 2013	Number of consecutive no movements for player 510 is 1
Tue Sep 03 12:32:29 IDT 2013	TDPlayerPosition is(R:5,C:4)goal location 0(R:0,C:0)goal location 1(R:0,C:8)
Tue Sep 03 12:32:29 IDT 2013	ended is false
Tue Sep 03 12:32:34 IDT 2013	A Phase Ended: Feedback Phase
Tue Sep 03 12:32:34 IDT 2013	 numberofMoves in round 1 is 0
Tue Sep 03 12:32:34 IDT 2013	Swaping roles:
Tue Sep 03 12:32:34 IDT 2013	Protocol: A New Phase Began: Communication Phase. loop is true
Tue Sep 03 12:32:34 IDT 2013	---------- Beginning Communication Phase at round 2 ----------
Tue Sep 03 12:32:37 IDT 2013	Received communication message 
Tue Sep 03 12:32:37 IDT 2013	From player: 510
Tue Sep 03 12:32:37 IDT 2013	To player: 540
Tue Sep 03 12:32:37 IDT 2013	Chips to send by proposer: { chips  'CTYellow':11 }
Tue Sep 03 12:32:37 IDT 2013	Chips to send by responder: { chips  'CTRed':28 'CTPurple':7 'grey78':0 }
Tue Sep 03 12:33:11 IDT 2013	Received communication message 
Tue Sep 03 12:33:11 IDT 2013	Proposer 1 accepted? false
Tue Sep 03 12:33:11 IDT 2013	case that we had one reject, and one accept
Tue Sep 03 12:33:11 IDT 2013	A Phase Ended: Communication Phase
Tue Sep 03 12:33:11 IDT 2013	Protocol: A New Phase Began: Movement Phase. loop is true
Tue Sep 03 12:33:11 IDT 2013	---------- Beginning Movement Phase at round 2 ----------
Tue Sep 03 12:33:56 IDT 2013	A Phase Ended: Movement Phase
Tue Sep 03 12:33:56 IDT 2013	Protocol: A New Phase Began: Feedback Phase. loop is true
Tue Sep 03 12:33:56 IDT 2013	---------- Beginning Feedback Phase at round 2 ----------
Tue Sep 03 12:33:56 IDT 2013	Number of consecutive no movements for player 510 is 0
Tue Sep 03 12:33:56 IDT 2013	TDPlayerPosition is(R:5,C:3)goal location 0(R:0,C:0)goal location 1(R:0,C:8)
Tue Sep 03 12:33:56 IDT 2013	ended is false
Tue Sep 03 12:34:01 IDT 2013	A Phase Ended: Feedback Phase
Tue Sep 03 12:34:01 IDT 2013	 numberofMoves in round 2 is 1
Tue Sep 03 12:34:01 IDT 2013	Swaping roles:
Tue Sep 03 12:34:01 IDT 2013	Protocol: A New Phase Began: Communication Phase. loop is true
Tue Sep 03 12:34:01 IDT 2013	---------- Beginning Communication Phase at round 3 ----------
Tue Sep 03 12:34:31 IDT 2013	Received communication message 
Tue Sep 03 12:34:31 IDT 2013	From player: 520
Tue Sep 03 12:34:31 IDT 2013	To player: 510
Tue Sep 03 12:34:31 IDT 2013	Chips to send by proposer: { chips  'CTRed':0 'CTPurple':3 'CTGreen':0 'grey78':0 'CTYellow':0 }
Tue Sep 03 12:34:31 IDT 2013	Chips to send by responder: { chips  'CTRed':0 'CTPurple':0 'CTGreen':0 'grey78':1 'CTYellow':0 }
Tue Sep 03 12:35:06 IDT 2013	Received communication message 
Tue Sep 03 12:35:06 IDT 2013	From player: 540
Tue Sep 03 12:35:06 IDT 2013	To player: 510
Tue Sep 03 12:35:06 IDT 2013	Chips to send by proposer: { chips  'CTRed':11 'CTPurple':0 'CTGreen':0 'grey78':0 'CTYellow':0 }
Tue Sep 03 12:35:06 IDT 2013	Chips to send by responder: { chips  'CTRed':0 'CTPurple':0 'CTGreen':0 'grey78':0 'CTYellow':7 }
Tue Sep 03 12:35:07 IDT 2013	Received communication message 
Tue Sep 03 12:35:07 IDT 2013	Proposer 1 accepted? true
Tue Sep 03 12:35:07 IDT 2013	A Phase Ended: Communication Phase
Tue Sep 03 12:35:07 IDT 2013	Protocol: A New Phase Began: Movement Phase. loop is true
Tue Sep 03 12:35:07 IDT 2013	---------- Beginning Movement Phase at round 3 ----------
Tue Sep 03 12:35:07 IDT 2013	Received communication message 
Tue Sep 03 12:35:07 IDT 2013	Proposer 0 accepted? false
Tue Sep 03 12:35:51 IDT 2013	A Phase Ended: Movement Phase
Tue Sep 03 12:35:51 IDT 2013	Protocol: A New Phase Began: Feedback Phase. loop is true
Tue Sep 03 12:35:51 IDT 2013	---------- Beginning Feedback Phase at round 3 ----------
Tue Sep 03 12:35:51 IDT 2013	Number of consecutive no movements for player 510 is 1
Tue Sep 03 12:35:51 IDT 2013	TDPlayerPosition is(R:5,C:3)goal location 0(R:0,C:0)goal location 1(R:0,C:8)
Tue Sep 03 12:35:51 IDT 2013	ended is false
Tue Sep 03 12:35:56 IDT 2013	A Phase Ended: Feedback Phase
Tue Sep 03 12:35:56 IDT 2013	 numberofMoves in round 3 is 0
Tue Sep 03 12:35:56 IDT 2013	Swaping roles:
Tue Sep 03 12:35:56 IDT 2013	Protocol: A New Phase Began: Communication Phase. loop is true
Tue Sep 03 12:35:56 IDT 2013	---------- Beginning Communication Phase at round 4 ----------
Tue Sep 03 12:35:56 IDT 2013	Received communication message 
Tue Sep 03 12:35:56 IDT 2013	From player: 510
Tue Sep 03 12:35:56 IDT 2013	To player: 540
Tue Sep 03 12:35:56 IDT 2013	Chips to send by proposer: { chips  'CTYellow':4 }
Tue Sep 03 12:35:56 IDT 2013	Chips to send by responder: { chips  'CTRed':17 'CTPurple':7 'grey78':0 }
Tue Sep 03 12:36:05 IDT 2013	Received communication message 
Tue Sep 03 12:36:05 IDT 2013	Proposer 1 accepted? false
Tue Sep 03 12:36:05 IDT 2013	case that we had one reject, and one accept
Tue Sep 03 12:36:05 IDT 2013	A Phase Ended: Communication Phase
Tue Sep 03 12:36:05 IDT 2013	Protocol: A New Phase Began: Movement Phase. loop is true
Tue Sep 03 12:36:05 IDT 2013	---------- Beginning Movement Phase at round 4 ----------
Tue Sep 03 12:36:50 IDT 2013	A Phase Ended: Movement Phase
Tue Sep 03 12:36:50 IDT 2013	Protocol: A New Phase Began: Feedback Phase. loop is true
Tue Sep 03 12:36:50 IDT 2013	---------- Beginning Feedback Phase at round 4 ----------
Tue Sep 03 12:36:50 IDT 2013	Number of consecutive no movements for player 510 is 0
Tue Sep 03 12:36:50 IDT 2013	TDPlayerPosition is(R:4,C:3)goal location 0(R:0,C:0)goal location 1(R:0,C:8)
Tue Sep 03 12:36:50 IDT 2013	ended is false
Tue Sep 03 12:36:55 IDT 2013	A Phase Ended: Feedback Phase
Tue Sep 03 12:36:55 IDT 2013	 numberofMoves in round 4 is 1
Tue Sep 03 12:36:55 IDT 2013	Swaping roles:
Tue Sep 03 12:36:55 IDT 2013	Protocol: A New Phase Began: Communication Phase. loop is true
Tue Sep 03 12:36:55 IDT 2013	---------- Beginning Communication Phase at round 5 ----------
Tue Sep 03 12:37:39 IDT 2013	Received communication message 
Tue Sep 03 12:37:39 IDT 2013	From player: 540
Tue Sep 03 12:37:39 IDT 2013	To player: 510
Tue Sep 03 12:37:39 IDT 2013	Chips to send by proposer: { chips  'CTRed':7 'CTPurple':0 'CTGreen':0 'grey78':0 'CTYellow':0 }
Tue Sep 03 12:37:39 IDT 2013	Chips to send by responder: { chips  'CTRed':0 'CTPurple':0 'CTGreen':0 'grey78':0 'CTYellow':5 }
Tue Sep 03 12:39:42 IDT 2013	Received communication message 
Tue Sep 03 12:39:42 IDT 2013	From player: 520
Tue Sep 03 12:39:42 IDT 2013	To player: 510
Tue Sep 03 12:39:42 IDT 2013	Chips to send by proposer: { chips  'CTRed':10 'CTPurple':4 'CTGreen':0 'grey78':0 'CTYellow':0 }
Tue Sep 03 12:39:42 IDT 2013	Chips to send by responder: { chips  'CTRed':0 'CTPurple':0 'CTGreen':0 'grey78':4 'CTYellow':0 }
Tue Sep 03 12:39:55 IDT 2013	A Phase Ended: Communication Phase
Tue Sep 03 12:39:55 IDT 2013	Protocol: A New Phase Began: Movement Phase. loop is true
Tue Sep 03 12:39:55 IDT 2013	---------- Beginning Movement Phase at round 5 ----------
Tue Sep 03 12:40:40 IDT 2013	A Phase Ended: Movement Phase
Tue Sep 03 12:40:40 IDT 2013	Protocol: A New Phase Began: Feedback Phase. loop is true
Tue Sep 03 12:40:40 IDT 2013	---------- Beginning Feedback Phase at round 5 ----------
Tue Sep 03 12:40:40 IDT 2013	Number of consecutive no movements for player 510 is 1
Tue Sep 03 12:40:40 IDT 2013	TDPlayerPosition is(R:4,C:3)goal location 0(R:0,C:0)goal location 1(R:0,C:8)
Tue Sep 03 12:40:40 IDT 2013	ended is false
Tue Sep 03 12:40:45 IDT 2013	A Phase Ended: Feedback Phase
Tue Sep 03 12:40:45 IDT 2013	 numberofMoves in round 5 is 0
Tue Sep 03 12:40:45 IDT 2013	Swaping roles:
Tue Sep 03 12:40:45 IDT 2013	Protocol: A New Phase Began: Communication Phase. loop is true
Tue Sep 03 12:40:45 IDT 2013	---------- Beginning Communication Phase at round 6 ----------
Tue Sep 03 12:40:45 IDT 2013	Received communication message 
Tue Sep 03 12:40:45 IDT 2013	From player: 510
Tue Sep 03 12:40:45 IDT 2013	To player: 540
Tue Sep 03 12:40:45 IDT 2013	Chips to send by proposer: { chips  'CTYellow':4 }
Tue Sep 03 12:40:45 IDT 2013	Chips to send by responder: { chips  'CTRed':17 'CTPurple':7 'grey78':0 }
Tue Sep 03 12:40:49 IDT 2013	Received communication message 
Tue Sep 03 12:40:49 IDT 2013	Proposer 1 accepted? false
Tue Sep 03 12:40:49 IDT 2013	case that we had one reject, and one accept
Tue Sep 03 12:40:49 IDT 2013	A Phase Ended: Communication Phase
Tue Sep 03 12:40:49 IDT 2013	Protocol: A New Phase Began: Movement Phase. loop is true
Tue Sep 03 12:40:49 IDT 2013	---------- Beginning Movement Phase at round 6 ----------
Tue Sep 03 12:41:34 IDT 2013	A Phase Ended: Movement Phase
Tue Sep 03 12:41:34 IDT 2013	Protocol: A New Phase Began: Feedback Phase. loop is true
Tue Sep 03 12:41:34 IDT 2013	---------- Beginning Feedback Phase at round 6 ----------
Tue Sep 03 12:41:34 IDT 2013	Number of consecutive no movements for player 510 is 0
Tue Sep 03 12:41:34 IDT 2013	TDPlayerPosition is(R:4,C:2)goal location 0(R:0,C:0)goal location 1(R:0,C:8)
Tue Sep 03 12:41:34 IDT 2013	ended is false
Tue Sep 03 12:41:39 IDT 2013	A Phase Ended: Feedback Phase
Tue Sep 03 12:41:39 IDT 2013	 numberofMoves in round 6 is 1
Tue Sep 03 12:41:39 IDT 2013	Swaping roles:
Tue Sep 03 12:41:39 IDT 2013	Protocol: A New Phase Began: Communication Phase. loop is true
Tue Sep 03 12:41:39 IDT 2013	---------- Beginning Communication Phase at round 7 ----------
Tue Sep 03 12:41:51 IDT 2013	Received communication message 
Tue Sep 03 12:41:51 IDT 2013	From player: 540
Tue Sep 03 12:41:51 IDT 2013	To player: 510
Tue Sep 03 12:41:51 IDT 2013	Chips to send by proposer: { chips  'CTRed':6 'CTPurple':0 'CTGreen':0 'grey78':0 'CTYellow':0 }
Tue Sep 03 12:41:51 IDT 2013	Chips to send by responder: { chips  'CTRed':0 'CTPurple':0 'CTGreen':0 'grey78':0 'CTYellow':5 }
Tue Sep 03 12:43:10 IDT 2013	Received communication message 
Tue Sep 03 12:43:10 IDT 2013	From player: 520
Tue Sep 03 12:43:10 IDT 2013	To player: 510
Tue Sep 03 12:43:10 IDT 2013	Chips to send by proposer: { chips  'CTRed':13 'CTPurple':7 'CTGreen':0 'grey78':0 'CTYellow':0 }
Tue Sep 03 12:43:10 IDT 2013	Chips to send by responder: { chips  'CTRed':0 'CTPurple':0 'CTGreen':0 'grey78':4 'CTYellow':0 }
Tue Sep 03 12:43:10 IDT 2013	Received communication message 
Tue Sep 03 12:43:10 IDT 2013	Proposer 0 accepted? true
Tue Sep 03 12:43:10 IDT 2013	A Phase Ended: Communication Phase
Tue Sep 03 12:43:10 IDT 2013	Protocol: A New Phase Began: Movement Phase. loop is true
Tue Sep 03 12:43:10 IDT 2013	---------- Beginning Movement Phase at round 7 ----------
Tue Sep 03 12:43:10 IDT 2013	Received communication message 
Tue Sep 03 12:43:10 IDT 2013	Proposer 1 accepted? false
Tue Sep 03 12:43:55 IDT 2013	A Phase Ended: Movement Phase
Tue Sep 03 12:43:55 IDT 2013	Protocol: A New Phase Began: Feedback Phase. loop is true
Tue Sep 03 12:43:55 IDT 2013	---------- Beginning Feedback Phase at round 7 ----------
Tue Sep 03 12:43:55 IDT 2013	Number of consecutive no movements for player 510 is 1
Tue Sep 03 12:43:55 IDT 2013	TDPlayerPosition is(R:4,C:2)goal location 0(R:0,C:0)goal location 1(R:0,C:8)
Tue Sep 03 12:43:55 IDT 2013	ended is false
Tue Sep 03 12:44:00 IDT 2013	A Phase Ended: Feedback Phase
Tue Sep 03 12:44:00 IDT 2013	 numberofMoves in round 7 is 0
Tue Sep 03 12:44:00 IDT 2013	Swaping roles:
Tue Sep 03 12:44:00 IDT 2013	Protocol: A New Phase Began: Communication Phase. loop is true
Tue Sep 03 12:44:00 IDT 2013	---------- Beginning Communication Phase at round 8 ----------
Tue Sep 03 12:44:00 IDT 2013	Received communication message 
Tue Sep 03 12:44:00 IDT 2013	From player: 510
Tue Sep 03 12:44:00 IDT 2013	To player: 540
Tue Sep 03 12:44:00 IDT 2013	Chips to send by proposer: { chips  'CTYellow':4 }
Tue Sep 03 12:44:00 IDT 2013	Chips to send by responder: { chips  'CTRed':17 'CTPurple':7 'grey78':0 }
Tue Sep 03 12:44:24 IDT 2013	Received communication message 
Tue Sep 03 12:44:24 IDT 2013	Proposer 1 accepted? false
Tue Sep 03 12:44:24 IDT 2013	case that we had one reject, and one accept
Tue Sep 03 12:44:24 IDT 2013	A Phase Ended: Communication Phase
Tue Sep 03 12:44:24 IDT 2013	Protocol: A New Phase Began: Movement Phase. loop is true
Tue Sep 03 12:44:24 IDT 2013	---------- Beginning Movement Phase at round 8 ----------
Tue Sep 03 12:45:09 IDT 2013	A Phase Ended: Movement Phase
Tue Sep 03 12:45:09 IDT 2013	Protocol: A New Phase Began: Feedback Phase. loop is true
Tue Sep 03 12:45:09 IDT 2013	---------- Beginning Feedback Phase at round 8 ----------
Tue Sep 03 12:45:09 IDT 2013	Number of consecutive no movements for player 510 is 0
Tue Sep 03 12:45:09 IDT 2013	TDPlayerPosition is(R:3,C:2)goal location 0(R:0,C:0)goal location 1(R:0,C:8)
Tue Sep 03 12:45:09 IDT 2013	ended is false
Tue Sep 03 12:45:14 IDT 2013	A Phase Ended: Feedback Phase
Tue Sep 03 12:45:14 IDT 2013	 numberofMoves in round 8 is 1
Tue Sep 03 12:45:14 IDT 2013	Swaping roles:
Tue Sep 03 12:45:14 IDT 2013	Protocol: A New Phase Began: Communication Phase. loop is true
Tue Sep 03 12:45:14 IDT 2013	---------- Beginning Communication Phase at round 9 ----------
Tue Sep 03 12:45:54 IDT 2013	Received communication message 
Tue Sep 03 12:45:54 IDT 2013	From player: 520
Tue Sep 03 12:45:54 IDT 2013	To player: 510
Tue Sep 03 12:45:54 IDT 2013	Chips to send by proposer: { chips  'CTRed':8 'CTPurple':0 'CTGreen':0 'grey78':0 'CTYellow':0 }
Tue Sep 03 12:45:54 IDT 2013	Chips to send by responder: { chips  'CTRed':0 'CTPurple':1 'CTGreen':0 'grey78':0 'CTYellow':0 }
Tue Sep 03 12:46:53 IDT 2013	Received communication message 
Tue Sep 03 12:46:53 IDT 2013	From player: 540
Tue Sep 03 12:46:53 IDT 2013	To player: 510
Tue Sep 03 12:46:53 IDT 2013	Chips to send by proposer: { chips  'CTRed':17 'CTPurple':0 'CTGreen':0 'grey78':0 'CTYellow':0 }
Tue Sep 03 12:46:53 IDT 2013	Chips to send by responder: { chips  'CTRed':0 'CTPurple':7 'CTGreen':0 'grey78':0 'CTYellow':4 }
Tue Sep 03 12:46:53 IDT 2013	Received communication message 
Tue Sep 03 12:46:53 IDT 2013	Proposer 1 accepted? true
Tue Sep 03 12:46:53 IDT 2013	A Phase Ended: Communication Phase
Tue Sep 03 12:46:53 IDT 2013	Protocol: A New Phase Began: Movement Phase. loop is true
Tue Sep 03 12:46:53 IDT 2013	---------- Beginning Movement Phase at round 9 ----------
Tue Sep 03 12:46:53 IDT 2013	Received communication message 
Tue Sep 03 12:46:53 IDT 2013	Proposer 0 accepted? false
Tue Sep 03 12:47:38 IDT 2013	A Phase Ended: Movement Phase
Tue Sep 03 12:47:38 IDT 2013	Protocol: A New Phase Began: Feedback Phase. loop is true
Tue Sep 03 12:47:38 IDT 2013	---------- Beginning Feedback Phase at round 9 ----------
Tue Sep 03 12:47:38 IDT 2013	Number of consecutive no movements for player 510 is 0
Tue Sep 03 12:47:38 IDT 2013	TDPlayerPosition is(R:2,C:1)goal location 0(R:0,C:0)goal location 1(R:0,C:8)
Tue Sep 03 12:47:38 IDT 2013	ended is false
Tue Sep 03 12:47:43 IDT 2013	A Phase Ended: Feedback Phase
Tue Sep 03 12:47:43 IDT 2013	 numberofMoves in round 9 is 2
Tue Sep 03 12:47:43 IDT 2013	Swaping roles:
Tue Sep 03 12:47:43 IDT 2013	Protocol: A New Phase Began: Communication Phase. loop is true
Tue Sep 03 12:47:43 IDT 2013	---------- Beginning Communication Phase at round 10 ----------
Tue Sep 03 12:47:43 IDT 2013	Received communication message 
Tue Sep 03 12:47:43 IDT 2013	From player: 510
Tue Sep 03 12:47:43 IDT 2013	To player: 540
Tue Sep 03 12:47:43 IDT 2013	Chips to send by proposer: { chips  'CTYellow':0 }
Tue Sep 03 12:47:43 IDT 2013	Chips to send by responder: { chips  'CTRed':0 'CTPurple':14 'grey78':0 }
Tue Sep 03 12:48:28 IDT 2013	Received communication message 
Tue Sep 03 12:48:28 IDT 2013	Proposer 1 accepted? false
Tue Sep 03 12:48:28 IDT 2013	case that we had one reject, and one accept
Tue Sep 03 12:48:28 IDT 2013	A Phase Ended: Communication Phase
Tue Sep 03 12:48:28 IDT 2013	Protocol: A New Phase Began: Movement Phase. loop is true
Tue Sep 03 12:48:28 IDT 2013	---------- Beginning Movement Phase at round 10 ----------
Tue Sep 03 12:49:12 IDT 2013	A Phase Ended: Movement Phase
Tue Sep 03 12:49:12 IDT 2013	Protocol: A New Phase Began: Feedback Phase. loop is true
Tue Sep 03 12:49:12 IDT 2013	---------- Beginning Feedback Phase at round 10 ----------
Tue Sep 03 12:49:12 IDT 2013	Number of consecutive no movements for player 510 is 1
Tue Sep 03 12:49:12 IDT 2013	TDPlayerPosition is(R:2,C:1)goal location 0(R:0,C:0)goal location 1(R:0,C:8)
Tue Sep 03 12:49:12 IDT 2013	ended is false
Tue Sep 03 12:49:17 IDT 2013	A Phase Ended: Feedback Phase
Tue Sep 03 12:49:17 IDT 2013	 numberofMoves in round 10 is 0
Tue Sep 03 12:49:17 IDT 2013	Swaping roles:
Tue Sep 03 12:49:17 IDT 2013	Protocol: A New Phase Began: Communication Phase. loop is true
Tue Sep 03 12:49:17 IDT 2013	---------- Beginning Communication Phase at round 11 ----------
Tue Sep 03 12:49:42 IDT 2013	Received communication message 
Tue Sep 03 12:49:42 IDT 2013	From player: 540
Tue Sep 03 12:49:42 IDT 2013	To player: 510
Tue Sep 03 12:49:42 IDT 2013	Chips to send by proposer: { chips  'CTRed':0 'CTPurple':5 'CTGreen':0 'grey78':0 'CTYellow':0 }
Tue Sep 03 12:49:42 IDT 2013	Chips to send by responder: { chips  'CTRed':3 'CTPurple':0 'CTGreen':0 'grey78':0 'CTYellow':0 }
Tue Sep 03 12:52:17 IDT 2013	A Phase Ended: Communication Phase
Tue Sep 03 12:52:17 IDT 2013	Protocol: A New Phase Began: Movement Phase. loop is true
Tue Sep 03 12:52:17 IDT 2013	---------- Beginning Movement Phase at round 11 ----------
Tue Sep 03 12:53:02 IDT 2013	A Phase Ended: Movement Phase
Tue Sep 03 12:53:02 IDT 2013	Protocol: A New Phase Began: Feedback Phase. loop is true
Tue Sep 03 12:53:02 IDT 2013	---------- Beginning Feedback Phase at round 11 ----------
Tue Sep 03 12:53:02 IDT 2013	ended is true
Tue Sep 03 12:53:07 IDT 2013	A Phase Ended: Feedback Phase
Tue Sep 03 12:53:07 IDT 2013	 numberofMoves in round 11 is 0
Tue Sep 03 12:53:07 IDT 2013	Loop status: false
Tue Sep 03 12:53:07 IDT 2013	Player: 520 ,role: Proposer score is: 120
Tue Sep 03 12:53:07 IDT 2013	Player: 520Game Ended
Tue Sep 03 12:53:07 IDT 2013	Player: 510 ,role: Responder score is: 245
Tue Sep 03 12:53:07 IDT 2013	Player: 510Game Ended
Tue Sep 03 12:53:07 IDT 2013	Player: 540 ,role: Proposer score is: 125
Tue Sep 03 12:53:07 IDT 2013	Player: 540Game Ended
Tue Sep 03 12:53:07 IDT 2013	Protocol: A New Phase Began: Communication Phase. loop is false
Tue Sep 03 12:53:07 IDT 2013	---------- Beginning Communication Phase at round 11 ----------
