filename,round,propID,respID,IsPropCustomer,chipsToSend,chipsToReceive,accept,propCurrentScore,respCurrentScore,actualSent,ActualRcvd,propResultingScore,respResultingScore,#ofCustomerMovesInRound,customerRowPositionAfterMovePhase,customerColPositionAfterMovePhase,Player100ChipsAfterMovePhase,Player100ScoreAfterMovePhase,Player200ChipsAfterMovePhase,Player200ScoreAfterMovePhase,Player300ChipsAfterMovePhase,Player300ScoreAfterMovePhase,generosityLevel,ClientReachedGoal
3playersLog_1378885585275.csv,1,520,510,false,{ chips  'CTRed':15 'CTPurple':4 },{ chips  },TRUE,200,120,{ chips  'CTRed':15 'CTPurple':4 'CTGreen':0 'grey78':0 'CTYellow':0 },{ chips  'CTRed':0 'CTPurple':0 'CTGreen':0 'grey78':0 'CTYellow':0 },105,215,0,(R:5,C:4),{ chips  'CTRed':15 'CTGreen':0 'CTPurple':4 'grey78':12 'CTYellow':12 },215,{ chips  'CTRed':18 'CTGreen':0 'CTPurple':3 'grey78':0 'CTYellow':0 },105,{ chips  'CTRed':33 'CTGreen':0 'CTPurple':7 'grey78':0 'CTYellow':0 },200
3playersLog_1378885585275.csv,1,540,510,false,{ chips  'CTPurple':1 },{ chips  'CTYellow':1 },IGNORED,200,120,,,,,0,(R:5,C:4),{ chips  'CTRed':15 'CTGreen':0 'CTPurple':4 'grey78':12 'CTYellow':12 },215,{ chips  'CTRed':18 'CTGreen':0 'CTPurple':3 'grey78':0 'CTYellow':0 },105,{ chips  'CTRed':33 'CTGreen':0 'CTPurple':7 'grey78':0 'CTYellow':0 },200
3playersLog_1378885585275.csv,2,510,520,true,{ chips  'grey78':11 },{ chips  'CTRed':18 'CTPurple':3 },FALSE,215,105,,,,,1,(R:5,C:3),{ chips  'CTRed':15 'CTGreen':0 'CTPurple':4 'grey78':11 'CTYellow':12 },210,{ chips  'CTRed':18 'CTGreen':0 'CTPurple':3 'grey78':0 'CTYellow':0 },105,{ chips  'CTRed':33 'CTGreen':0 'CTPurple':7 'grey78':0 'CTYellow':0 },200
3playersLog_1378885585275.csv,3,520,510,false,{ chips  'CTPurple':3 },{ chips  },IGNORED,105,210,,,,,0,(R:5,C:3),{ chips  'CTRed':25 'CTGreen':0 'CTPurple':6 'grey78':9 'CTYellow':11 },255,{ chips  'CTRed':18 'CTGreen':0 'CTPurple':3 'grey78':0 'CTYellow':0 },105,{ chips  'CTRed':23 'CTGreen':0 'CTPurple':5 'grey78':2 'CTYellow':1 },155
3playersLog_1378885585275.csv,3,540,510,false,{ chips  'CTRed':10 'CTPurple':2 },{ chips  'grey78':2 'CTYellow':1 },TRUE,200,210,{ chips  'CTRed':10 'CTPurple':2 'CTGreen':0 'grey78':0 'CTYellow':0 },{ chips  'CTRed':0 'CTPurple':0 'CTGreen':0 'grey78':2 'CTYellow':1 },155,255,0,(R:5,C:3),{ chips  'CTRed':25 'CTGreen':0 'CTPurple':6 'grey78':9 'CTYellow':11 },255,{ chips  'CTRed':18 'CTGreen':0 'CTPurple':3 'grey78':0 'CTYellow':0 },105,{ chips  'CTRed':23 'CTGreen':0 'CTPurple':5 'grey78':2 'CTYellow':1 },155
3playersLog_1378885585275.csv,4,510,540,true,{ chips  'CTYellow':10 },{ chips  'CTRed':23 'CTPurple':5 'grey78':2 },FALSE,255,155,,,,,1,(R:4,C:3),{ chips  'CTRed':25 'CTGreen':0 'CTPurple':6 'grey78':8 'CTYellow':11 },250,{ chips  'CTRed':18 'CTGreen':0 'CTPurple':3 'grey78':0 'CTYellow':0 },105,{ chips  'CTRed':23 'CTGreen':0 'CTPurple':5 'grey78':2 'CTYellow':1 },155
3playersLog_1378885585275.csv,5,540,510,false,{ chips  'CTRed':4 'CTPurple':1 },{ chips  'CTYellow':1 },TRUE,155,250,{ chips  'CTRed':4 'CTPurple':1 'CTGreen':0 'grey78':0 'CTYellow':0 },{ chips  'CTRed':0 'CTPurple':0 'CTGreen':0 'grey78':0 'CTYellow':1 },135,270,0,(R:4,C:3),{ chips  'CTRed':29 'CTGreen':0 'CTPurple':7 'grey78':8 'CTYellow':10 },270,{ chips  'CTRed':18 'CTGreen':0 'CTPurple':3 'grey78':0 'CTYellow':0 },105,{ chips  'CTRed':19 'CTGreen':0 'CTPurple':4 'grey78':2 'CTYellow':2 },135
3playersLog_1378885585275.csv,6,510,540,true,{ chips  'CTYellow':9 },{ chips  'CTRed':19 'CTPurple':4 'grey78':2 },FALSE,270,135,,,,,1,(R:3,C:3),{ chips  'CTRed':29 'CTGreen':0 'CTPurple':6 'grey78':8 'CTYellow':10 },265,{ chips  'CTRed':18 'CTGreen':0 'CTPurple':3 'grey78':0 'CTYellow':0 },105,{ chips  'CTRed':19 'CTGreen':0 'CTPurple':4 'grey78':2 'CTYellow':2 },135
3playersLog_1378885585275.csv,7,520,510,false,{ chips  'CTPurple':3 },{ chips  'CTRed':1 'CTYellow':1 },IGNORED,105,265,,,,,0,(R:3,C:3),{ chips  'CTRed':31 'CTGreen':0 'CTPurple':7 'grey78':8 'CTYellow':10 },280,{ chips  'CTRed':18 'CTGreen':0 'CTPurple':3 'grey78':0 'CTYellow':0 },105,{ chips  'CTRed':17 'CTGreen':0 'CTPurple':3 'grey78':2 'CTYellow':2 },120
3playersLog_1378885585275.csv,7,540,510,false,{ chips  'CTRed':2 'CTPurple':1 },{ chips  },TRUE,135,265,{ chips  'CTRed':2 'CTPurple':1 'CTGreen':0 'grey78':0 'CTYellow':0 },{ chips  'CTRed':0 'CTPurple':0 'CTGreen':0 'grey78':0 'CTYellow':0 },120,280,0,(R:3,C:3),{ chips  'CTRed':31 'CTGreen':0 'CTPurple':7 'grey78':8 'CTYellow':10 },280,{ chips  'CTRed':18 'CTGreen':0 'CTPurple':3 'grey78':0 'CTYellow':0 },105,{ chips  'CTRed':17 'CTGreen':0 'CTPurple':3 'grey78':2 'CTYellow':2 },120
3playersLog_1378885585275.csv,8,510,540,true,{ chips  'CTYellow':9 },{ chips  'CTRed':17 'CTPurple':3 'grey78':2 },FALSE,280,120,,,,,1,(R:3,C:2),{ chips  'CTRed':31 'CTGreen':0 'CTPurple':7 'grey78':7 'CTYellow':10 },275,{ chips  'CTRed':18 'CTGreen':0 'CTPurple':3 'grey78':0 'CTYellow':0 },105,{ chips  'CTRed':17 'CTGreen':0 'CTPurple':3 'grey78':2 'CTYellow':2 },120
3playersLog_1378885585275.csv,9,520,510,false,{ chips  'CTRed':12 'CTPurple':3 },{ chips  'grey78':7 },TRUE,105,275,{ chips  'CTRed':12 'CTPurple':3 'CTGreen':0 'grey78':0 'CTYellow':0 },{ chips  'CTRed':0 'CTPurple':0 'CTGreen':0 'grey78':7 'CTYellow':0 },65,315,0,(R:3,C:2),{ chips  'CTRed':43 'CTGreen':0 'CTPurple':10 'grey78':0 'CTYellow':10 },315,{ chips  'CTRed':6 'CTGreen':0 'CTPurple':0 'grey78':7 'CTYellow':0 },65,{ chips  'CTRed':17 'CTGreen':0 'CTPurple':3 'grey78':2 'CTYellow':2 },120
3playersLog_1378885585275.csv,9,540,510,false,{ chips  'CTRed':3 },{ chips  'CTPurple':1 'CTYellow':2 },IGNORED,120,275,,,,,0,(R:3,C:2),{ chips  'CTRed':43 'CTGreen':0 'CTPurple':10 'grey78':0 'CTYellow':10 },315,{ chips  'CTRed':6 'CTGreen':0 'CTPurple':0 'grey78':7 'CTYellow':0 },65,{ chips  'CTRed':17 'CTGreen':0 'CTPurple':3 'grey78':2 'CTYellow':2 },120
3playersLog_1378885585275.csv,10,510,520,true,{ chips  },{ chips  'CTRed':4 },FALSE,315,65,,,,,1,(R:3,C:3),{ chips  'CTRed':43 'CTGreen':0 'CTPurple':9 'grey78':0 'CTYellow':10 },310,{ chips  'CTRed':6 'CTGreen':0 'CTPurple':0 'grey78':7 'CTYellow':0 },65,{ chips  'CTRed':17 'CTGreen':0 'CTPurple':3 'grey78':2 'CTYellow':2 },120
3playersLog_1378885585275.csv,11,520,510,false,{ chips  'CTRed':1 'grey78':3 },{ chips  'CTPurple':6 },FALSE,65,310,,,,,0,(R:3,C:3),{ chips  'CTRed':43 'CTGreen':0 'CTPurple':9 'grey78':0 'CTYellow':10 },310,{ chips  'CTRed':6 'CTGreen':0 'CTPurple':0 'grey78':7 'CTYellow':0 },65,{ chips  'CTRed':17 'CTGreen':0 'CTPurple':3 'grey78':2 'CTYellow':2 },120
3playersLog_1378885585275.csv,11,540,510,false,{ chips  'grey78':1 'CTYellow':1 },{ chips  'CTRed':4 },FALSE,120,310,,,,,0,(R:3,C:3),{ chips  'CTRed':43 'CTGreen':0 'CTPurple':9 'grey78':0 'CTYellow':10 },310,{ chips  'CTRed':6 'CTGreen':0 'CTPurple':0 'grey78':7 'CTYellow':0 },65,{ chips  'CTRed':17 'CTGreen':0 'CTPurple':3 'grey78':2 'CTYellow':2 },120
3playersLog_1378885585275.csv,12,510,520,true,{ chips  },{ chips  },TRUE,310,65,{ chips  'grey78':0 },{ chips  'CTRed':0 'CTPurple':0 'CTYellow':0 },310,65,1,(R:3,C:4),{ chips  'CTRed':43 'CTGreen':0 'CTPurple':8 'grey78':0 'CTYellow':10 },305,{ chips  'CTRed':6 'CTGreen':0 'CTPurple':0 'grey78':7 'CTYellow':0 },65,{ chips  'CTRed':17 'CTGreen':0 'CTPurple':3 'grey78':2 'CTYellow':2 },120
3playersLog_1378885585275.csv,13,520,510,false,{ chips  'CTRed':4 'grey78':1 },{ chips  'CTPurple':2 'CTYellow':3 },FALSE,65,305,,,,,0,(R:3,C:4),{ chips  'CTRed':43 'CTGreen':0 'CTPurple':8 'grey78':0 'CTYellow':10 },305,{ chips  'CTRed':6 'CTGreen':0 'CTPurple':0 'grey78':7 'CTYellow':0 },65,{ chips  'CTRed':17 'CTGreen':0 'CTPurple':3 'grey78':2 'CTYellow':2 },120
3playersLog_1378885585275.csv,13,540,510,false,{ chips  'grey78':2 },{ chips  'CTRed':2 },FALSE,120,305,,,,,0,(R:3,C:4),{ chips  'CTRed':43 'CTGreen':0 'CTPurple':8 'grey78':0 'CTYellow':10 },305,{ chips  'CTRed':6 'CTGreen':0 'CTPurple':0 'grey78':7 'CTYellow':0 },65,{ chips  'CTRed':17 'CTGreen':0 'CTPurple':3 'grey78':2 'CTYellow':2 },120
3playersLog_1378885585275.csv,14,510,520,true,{ chips  },{ chips  'CTRed':4 },FALSE,305,65,,,,,1,(R:3,C:5),{ chips  'CTRed':43 'CTGreen':0 'CTPurple':7 'grey78':0 'CTYellow':10 },300,{ chips  'CTRed':6 'CTGreen':0 'CTPurple':0 'grey78':7 'CTYellow':0 },65,{ chips  'CTRed':17 'CTGreen':0 'CTPurple':3 'grey78':2 'CTYellow':2 },120
3playersLog_1378885585275.csv,15,520,510,false,{ chips  'CTRed':3 },{ chips  'CTPurple':3 },IGNORED,65,300,,,,,0,(R:3,C:5),{ chips  'CTRed':41 'CTGreen':0 'CTPurple':9 'grey78':2 'CTYellow':10 },310,{ chips  'CTRed':6 'CTGreen':0 'CTPurple':0 'grey78':7 'CTYellow':0 },65,{ chips  'CTRed':19 'CTGreen':0 'CTPurple':1 'grey78':0 'CTYellow':2 },110
3playersLog_1378885585275.csv,15,540,510,false,{ chips  'CTPurple':2 'grey78':2 },{ chips  'CTRed':2 },TRUE,120,300,{ chips  'CTRed':0 'CTPurple':2 'CTGreen':0 'grey78':2 'CTYellow':0 },{ chips  'CTRed':2 'CTPurple':0 'CTGreen':0 'grey78':0 'CTYellow':0 },110,310,0,(R:3,C:5),{ chips  'CTRed':41 'CTGreen':0 'CTPurple':9 'grey78':2 'CTYellow':10 },310,{ chips  'CTRed':6 'CTGreen':0 'CTPurple':0 'grey78':7 'CTYellow':0 },65,{ chips  'CTRed':19 'CTGreen':0 'CTPurple':1 'grey78':0 'CTYellow':2 },110
3playersLog_1378885585275.csv,16,510,520,true,{ chips  'grey78':1 },{ chips  'CTRed':6 },FALSE,310,65,,,,,1,(R:3,C:6),{ chips  'CTRed':41 'CTGreen':0 'CTPurple':9 'grey78':2 'CTYellow':9 },305,{ chips  'CTRed':6 'CTGreen':0 'CTPurple':0 'grey78':7 'CTYellow':0 },65,{ chips  'CTRed':19 'CTGreen':0 'CTPurple':1 'grey78':0 'CTYellow':2 },110
3playersLog_1378885585275.csv,17,520,510,false,{ chips  'CTRed':3 },{ chips  'CTPurple':3 },IGNORED,65,305,,,,,0,(R:3,C:6),{ chips  'CTRed':51 'CTGreen':0 'CTPurple':10 'grey78':2 'CTYellow':4 },335,{ chips  'CTRed':6 'CTGreen':0 'CTPurple':0 'grey78':7 'CTYellow':0 },65,{ chips  'CTRed':9 'CTGreen':0 'CTPurple':0 'grey78':0 'CTYellow':7 },80
3playersLog_1378885585275.csv,17,540,510,false,{ chips  'CTRed':10 'CTPurple':1 },{ chips  'CTYellow':5 },TRUE,110,305,{ chips  'CTRed':10 'CTPurple':1 'CTGreen':0 'grey78':0 'CTYellow':0 },{ chips  'CTRed':0 'CTPurple':0 'CTGreen':0 'grey78':0 'CTYellow':5 },80,335,0,(R:3,C:6),{ chips  'CTRed':51 'CTGreen':0 'CTPurple':10 'grey78':2 'CTYellow':4 },335,{ chips  'CTRed':6 'CTGreen':0 'CTPurple':0 'grey78':7 'CTYellow':0 },65,{ chips  'CTRed':9 'CTGreen':0 'CTPurple':0 'grey78':0 'CTYellow':7 },80
3playersLog_1378885585275.csv,18,510,520,true,{ chips  'grey78':1 },{ chips  'CTRed':6 },FALSE,335,65,,,,,1,(R:3,C:7),{ chips  'CTRed':51 'CTGreen':0 'CTPurple':10 'grey78':2 'CTYellow':3 },330,{ chips  'CTRed':6 'CTGreen':0 'CTPurple':0 'grey78':7 'CTYellow':0 },65,{ chips  'CTRed':9 'CTGreen':0 'CTPurple':0 'grey78':0 'CTYellow':7 },80
3playersLog_1378885585275.csv,19,520,510,false,{ chips  'CTRed':3 },{ chips  'CTPurple':4 },IGNORED,65,330,,,,,0,(R:3,C:7),{ chips  'CTRed':53 'CTGreen':0 'CTPurple':10 'grey78':2 'CTYellow':3 },340,{ chips  'CTRed':6 'CTGreen':0 'CTPurple':0 'grey78':7 'CTYellow':0 },65,{ chips  'CTRed':7 'CTGreen':0 'CTPurple':0 'grey78':0 'CTYellow':7 },70
3playersLog_1378885585275.csv,19,540,510,false,{ chips  'CTRed':2 },{ chips  },TRUE,80,330,{ chips  'CTRed':2 'CTPurple':0 'CTGreen':0 'grey78':0 'CTYellow':0 },{ chips  'CTRed':0 'CTPurple':0 'CTGreen':0 'grey78':0 'CTYellow':0 },70,340,0,(R:3,C:7),{ chips  'CTRed':53 'CTGreen':0 'CTPurple':10 'grey78':2 'CTYellow':3 },340,{ chips  'CTRed':6 'CTGreen':0 'CTPurple':0 'grey78':7 'CTYellow':0 },65,{ chips  'CTRed':7 'CTGreen':0 'CTPurple':0 'grey78':0 'CTYellow':7 },70
3playersLog_1378885585275.csv,20,510,520,true,{ chips  'grey78':1 },{ chips  'CTRed':6 },FALSE,340,65,,,,,1,(R:2,C:7),{ chips  'CTRed':53 'CTGreen':0 'CTPurple':10 'grey78':2 'CTYellow':2 },335,{ chips  'CTRed':6 'CTGreen':0 'CTPurple':0 'grey78':7 'CTYellow':0 },65,{ chips  'CTRed':7 'CTGreen':0 'CTPurple':0 'grey78':0 'CTYellow':7 },70
3playersLog_1378885585275.csv,21,520,510,false,{ chips  'CTRed':6 },{ chips  'CTPurple':7 },IGNORED,65,335,,,,,0,(R:2,C:7),{ chips  'CTRed':54 'CTGreen':0 'CTPurple':10 'grey78':2 'CTYellow':2 },340,{ chips  'CTRed':6 'CTGreen':0 'CTPurple':0 'grey78':7 'CTYellow':0 },65,{ chips  'CTRed':6 'CTGreen':0 'CTPurple':0 'grey78':0 'CTYellow':7 },65
3playersLog_1378885585275.csv,21,540,510,false,{ chips  'CTRed':1 },{ chips  },TRUE,70,335,{ chips  'CTRed':1 'CTPurple':0 'CTGreen':0 'grey78':0 'CTYellow':0 },{ chips  'CTRed':0 'CTPurple':0 'CTGreen':0 'grey78':0 'CTYellow':0 },65,340,0,(R:2,C:7),{ chips  'CTRed':54 'CTGreen':0 'CTPurple':10 'grey78':2 'CTYellow':2 },340,{ chips  'CTRed':6 'CTGreen':0 'CTPurple':0 'grey78':7 'CTYellow':0 },65,{ chips  'CTRed':6 'CTGreen':0 'CTPurple':0 'grey78':0 'CTYellow':7 },65
3playersLog_1378885585275.csv,22,510,520,true,{ chips  'grey78':1 },{ chips  'CTRed':6 },FALSE,340,65,,,,,1,(R:1,C:7),{ chips  'CTRed':54 'CTGreen':0 'CTPurple':9 'grey78':2 'CTYellow':2 },335,{ chips  'CTRed':6 'CTGreen':0 'CTPurple':0 'grey78':7 'CTYellow':0 },65,{ chips  'CTRed':6 'CTGreen':0 'CTPurple':0 'grey78':0 'CTYellow':7 },65
3playersLog_1378885585275.csv,23,520,510,false,{ chips  'CTRed':3 },{ chips  'CTPurple':3 },FALSE,65,335,,,,,0,(R:1,C:7),{ chips  'CTRed':54 'CTGreen':0 'CTPurple':9 'grey78':2 'CTYellow':2 },335,{ chips  'CTRed':6 'CTGreen':0 'CTPurple':0 'grey78':7 'CTYellow':0 },65,{ chips  'CTRed':6 'CTGreen':0 'CTPurple':0 'grey78':0 'CTYellow':7 },65
3playersLog_1378885585275.csv,23,540,510,false,{ chips  'CTRed':6 },{ chips  'CTYellow':1 },FALSE,65,335,,,,,0,(R:1,C:7),{ chips  'CTRed':54 'CTGreen':0 'CTPurple':9 'grey78':2 'CTYellow':2 },335,{ chips  'CTRed':6 'CTGreen':0 'CTPurple':0 'grey78':7 'CTYellow':0 },65,{ chips  'CTRed':6 'CTGreen':0 'CTPurple':0 'grey78':0 'CTYellow':7 },65
3playersLog_1378885585275.csv,24,510,520,true,{ chips  'grey78':1 },{ chips  'CTRed':6 },FALSE,335,65,,,,,1,(R:1,C:8),{ chips  'CTRed':54 'CTGreen':0 'CTPurple':9 'grey78':2 'CTYellow':1 },330,{ chips  'CTRed':6 'CTGreen':0 'CTPurple':0 'grey78':7 'CTYellow':0 },65,{ chips  'CTRed':6 'CTGreen':0 'CTPurple':0 'grey78':0 'CTYellow':7 },65
3playersLog_1378885585275.csv,25,520,510,false,{ chips  'CTRed':6 },{ chips  'CTPurple':8 },FALSE,65,330,,,,,0,(R:1,C:8),{ chips  'CTRed':54 'CTGreen':0 'CTPurple':9 'grey78':2 'CTYellow':1 },330,{ chips  'CTRed':6 'CTGreen':0 'CTPurple':0 'grey78':7 'CTYellow':0 },65,{ chips  'CTRed':6 'CTGreen':0 'CTPurple':0 'grey78':0 'CTYellow':7 },65
3playersLog_1378885585275.csv,25,540,510,false,{ chips  'CTRed':6 },{ chips  'CTYellow':1 },FALSE,65,330,,,,,0,(R:1,C:8),{ chips  'CTRed':54 'CTGreen':0 'CTPurple':9 'grey78':2 'CTYellow':1 },330,{ chips  'CTRed':6 'CTGreen':0 'CTPurple':0 'grey78':7 'CTYellow':0 },65,{ chips  'CTRed':6 'CTGreen':0 'CTPurple':0 'grey78':0 'CTYellow':7 },65
3playersLog_1378885585275.csv,26,510,520,true,{ chips  'grey78':1 },{ chips  'CTRed':6 },FALSE,330,65,,,,,1,(R:0,C:8),{ chips  'CTRed':54 'CTGreen':0 'CTPurple':9 'grey78':2 'CTYellow':0 },475,{ chips  'CTRed':6 'CTGreen':0 'CTPurple':0 'grey78':7 'CTYellow':0 },215,{ chips  'CTRed':6 'CTGreen':0 'CTPurple':0 'grey78':0 'CTYellow':7 },65
3playersLog_1378885585275.csv,,,,,,,,,,,,,,,,,,,,,,,,true
