0,4,9,14,14,15,0,,,,,,,,,,,,,,,
9,-4,1,-1,-8,-6,-15,-2,6,-7,2,-36,-9,8,-15,-1,0,-14,-6,-29,-8,-4
5,3,3,3,15,5,6,17,1,0,4,10,8,5,-7,-7,1,1,4,,,
9,-4,1,-1,-8,-6,-15,-2,6,-7,2,-36,-9,8,-15,-1,0,-14,-6,-29,-8,-4
4,2,3,4,4,6,17,1,0,4,10,8,3,6,8,17,,,,,,
9,-4,1,-1,-8,-6,-15,-2,6,-7,2,-36,-9,8,-15,-1,0,-14,-6,-29,-8,-4
3,-4,4,13,6,17,1,0,4,10,8,1,5,,,,,,,,,
9,-4,1,-1,-8,-6,-15,-2,6,-7,2,-36,-9,8,-15,-1,0,-14,-6,-29,-8,-4
5,-1,-2,4,4,4,6,17,1,0,4,10,8,0,,,,,,,,
9,-4,1,-1,-8,-6,-15,-2,6,-7,2,-36,-9,8,-15,-1,0,-14,-6,-29,-8,-4
2,-1,5,6,17,1,0,4,10,8,1,3,,,,,,,,,,
9,-4,1,-1,-8,-6,-15,-2,6,-7,2,-36,-9,8,-15,-1,0,-14,-6,-29,-8,-4
0,6,17,1,0,4,10,8,1,8,,,,,,,,,,,,
9,-4,1,-1,-8,-6,-15,-2,6,-7,2,-36,-9,8,-15,-1,0,-14,-6,-29,-8,-4
0,6,17,1,0,4,10,8,1,4,,,,,,,,,,,,
9,-4,1,-1,-8,-6,-15,-2,6,-7,2,-36,-9,8,-15,-1,0,-14,-6,-29,-8,-4
1,3,6,17,1,0,4,10,8,0,,,,,,,,,,,,
9,-4,1,-1,-8,-6,-15,-2,6,-7,2,-36,-9,8,-15,-1,0,-14,-6,-29,-8,-4
0,6,17,1,0,4,10,8,0,,,,,,,,,,,,,
9,-4,1,-1,-8,-6,-15,-2,6,-7,2,-36,-9,8,-15,-1,0,-14,-6,-29,-8,-4
