filename,round,propID,respID,IsPropCustomer,chipsToSend,chipsToReceive,accept,propCurrentScore,respCurrentScore,actualSent,ActualRcvd,propResultingScore,respResultingScore,#ofCustomerMovesInRound,customerRowPositionAfterMovePhase,customerColPositionAfterMovePhase,Player100ChipsAfterMovePhase,Player100ScoreAfterMovePhase,Player200ChipsAfterMovePhase,Player200ScoreAfterMovePhase,Player300ChipsAfterMovePhase,Player300ScoreAfterMovePhase,generosityLevel,ClientReachedGoal
3playersLog_1383839627205.csv,1,200,100,false,{ chips  'CTRed':3 },{ chips  },TRUE,200,120,{ chips  'CTRed':3 'CTPurple':0 'CTGreen':0 'grey78':0 'CTYellow':0 },{ chips  'CTRed':0 'CTPurple':0 'CTGreen':0 'grey78':0 'CTYellow':0 },185,135,2,(R:4,C:5),{ chips  'CTRed':3 'CTGreen':0 'CTPurple':0 'grey78':12 'CTYellow':10 },125,{ chips  'CTRed':30 'CTGreen':0 'CTPurple':7 'grey78':0 'CTYellow':0 },185,{ chips  'CTRed':33 'CTGreen':0 'CTPurple':7 'grey78':0 'CTYellow':0 },200
3playersLog_1383839627205.csv,2,100,300,true,{ chips  },{ chips  'CTPurple':5 },TRUE,125,185,{ chips  'CTRed':0 'CTPurple':0 'CTGreen':0 'grey78':0 'CTYellow':0 },{ chips  'CTRed':0 'CTPurple':5 'CTGreen':0 'grey78':0 'CTYellow':0 },150,175,2,(R:3,C:4),{ chips  'CTRed':3 'CTGreen':0 'CTPurple':3 'grey78':12 'CTYellow':10 },140,{ chips  'CTRed':30 'CTGreen':0 'CTPurple':7 'grey78':0 'CTYellow':0 },185,{ chips  'CTRed':33 'CTGreen':0 'CTPurple':2 'grey78':0 'CTYellow':0 },175
3playersLog_1383839627205.csv,3,200,100,false,{ chips  'CTRed':3 'CTPurple':1 },{ chips  'grey78':2 },FALSE,185,140,,,,,3,(R:3,C:1),{ chips  'CTRed':3 'CTGreen':0 'CTPurple':2 'grey78':10 'CTYellow':10 },125,{ chips  'CTRed':30 'CTGreen':0 'CTPurple':7 'grey78':0 'CTYellow':0 },185,{ chips  'CTRed':33 'CTGreen':0 'CTPurple':2 'grey78':0 'CTYellow':0 },175
3playersLog_1383839627205.csv,3,300,100,false,{ chips  },{ chips  },FALSE,175,140,,,,,3,(R:3,C:1),{ chips  'CTRed':3 'CTGreen':0 'CTPurple':2 'grey78':10 'CTYellow':10 },125,{ chips  'CTRed':30 'CTGreen':0 'CTPurple':7 'grey78':0 'CTYellow':0 },185,{ chips  'CTRed':33 'CTGreen':0 'CTPurple':2 'grey78':0 'CTYellow':0 },175
3playersLog_1383839627205.csv,4,100,200,true,{ chips  },{ chips  'CTRed':30 },FALSE,125,185,,,,,4,(R:0,C:0),{ chips  'CTRed':3 'CTGreen':0 'CTPurple':2 'grey78':6 'CTYellow':10 },255,{ chips  'CTRed':30 'CTGreen':0 'CTPurple':7 'grey78':0 'CTYellow':0 },185,{ chips  'CTRed':33 'CTGreen':0 'CTPurple':2 'grey78':0 'CTYellow':0 },325
3playersLog_1383839627205.csv,,,,,,,,,,,,,,,,,,,,,,,,true
