filename,round,propID,respID,IsPropCustomer,chipsToSend,chipsToReceive,accept,propCurrentScore,respCurrentScore,actualSent,ActualRcvd,propResultingScore,respResultingScore,#ofCustomerMovesInRound,customerRowPositionAfterMovePhase,customerColPositionAfterMovePhase,Player100ChipsAfterMovePhase,Player100ScoreAfterMovePhase,Player200ChipsAfterMovePhase,Player200ScoreAfterMovePhase,Player300ChipsAfterMovePhase,Player300ScoreAfterMovePhase,generosityLevel,ClientReachedGoal
3playersLog_1384978600845.csv,1,200,100,false,{ chips  'CTPurple':2 },{ chips  },FALSE,200,120,,,,,10,(R:3,C:2),{ chips  'CTRed':10 'CTGreen':0 'CTPurple':2 'grey78':3 'CTYellow':12 },135,{ chips  'CTRed':33 'CTGreen':0 'CTPurple':7 'grey78':0 'CTYellow':0 },200,{ chips  'CTRed':23 'CTGreen':0 'CTPurple':4 'grey78':0 'CTYellow':0 },135
3playersLog_1384978600845.csv,1,300,100,false,{ chips  'CTRed':10 'CTPurple':3 },{ chips  },TRUE,200,120,{ chips  'CTRed':10 'CTPurple':3 'CTGreen':0 'grey78':0 'CTYellow':0 },{ chips  'CTRed':0 'CTPurple':0 'CTGreen':0 'grey78':0 'CTYellow':0 },135,185,10,(R:3,C:2),{ chips  'CTRed':10 'CTGreen':0 'CTPurple':2 'grey78':3 'CTYellow':12 },135,{ chips  'CTRed':33 'CTGreen':0 'CTPurple':7 'grey78':0 'CTYellow':0 },200,{ chips  'CTRed':23 'CTGreen':0 'CTPurple':4 'grey78':0 'CTYellow':0 },135
3playersLog_1384978600845.csv,2,100,200,true,{ chips  'grey78':2 },{ chips  'CTRed':18 'CTPurple':7 },TRUE,135,200,{ chips  'CTRed':0 'CTPurple':0 'CTGreen':0 'grey78':2 'CTYellow':0 },{ chips  'CTRed':18 'CTPurple':7 'CTGreen':0 'grey78':0 'CTYellow':0 },250,85,0,(R:3,C:2),{ chips  'CTRed':28 'CTGreen':0 'CTPurple':9 'grey78':1 'CTYellow':12 },250,{ chips  'CTRed':15 'CTGreen':0 'CTPurple':0 'grey78':2 'CTYellow':0 },85,{ chips  'CTRed':23 'CTGreen':0 'CTPurple':4 'grey78':0 'CTYellow':0 },135
3playersLog_1384978600845.csv,3,200,100,false,{ chips  'grey78':2 },{ chips  'CTRed':5 },TRUE,85,250,{ chips  'CTRed':0 'CTPurple':0 'CTGreen':0 'grey78':2 'CTYellow':0 },{ chips  'CTRed':5 'CTPurple':0 'CTGreen':0 'grey78':0 'CTYellow':0 },100,235,9,(R:0,C:8),{ chips  'CTRed':23 'CTGreen':0 'CTPurple':6 'grey78':3 'CTYellow':6 },340,{ chips  'CTRed':20 'CTGreen':0 'CTPurple':0 'grey78':0 'CTYellow':0 },250,{ chips  'CTRed':23 'CTGreen':0 'CTPurple':4 'grey78':0 'CTYellow':0 },135
3playersLog_1384978600845.csv,,,,,,,,,,,,,,,,,,,,,,,,true
