Wed Sep 11 12:04:34 IDT 2013	This is the CT debug logger; svn version 638; sep 27 09
Wed Sep 11 12:04:34 IDT 2013	Wed Sep 11 12:04:34 IDT 2013
Wed Sep 11 12:04:34 IDT 2013	ThreePlayersAgentPlayer(): entering.
Wed Sep 11 12:04:57 IDT 2013	phaseAdvanced(): entering.
Wed Sep 11 12:04:57 IDT 2013	phaseAdvanced(): new phase is 'Strategy Prep Phase'.
Wed Sep 11 12:05:57 IDT 2013	phaseAdvanced(): entering.
Wed Sep 11 12:05:57 IDT 2013	phaseAdvanced(): new phase is 'Communication Phase'.
Wed Sep 11 12:06:38 IDT 2013	onReceipt(): entering.
Wed Sep 11 12:06:38 IDT 2013	onReceipt(): opponent's proposal: ({ chips  'CTRed':10 'CTPurple':7 'CTGreen':0 'grey78':0 'CTYellow':0 }, { chips  'CTRed':0 'CTPurple':0 'CTGreen':0 'grey78':0 'CTYellow':10 }).
Wed Sep 11 12:07:33 IDT 2013	onReceipt(): entering.
Wed Sep 11 12:07:33 IDT 2013	onReceipt(): opponent's proposal: ({ chips  'CTRed':1 'CTPurple':5 'CTGreen':0 'grey78':0 'CTYellow':0 }, { chips  'CTRed':0 'CTPurple':0 'CTGreen':0 'grey78':0 'CTYellow':0 }).
Wed Sep 11 12:07:33 IDT 2013	responseToSend(): entering.
Wed Sep 11 12:07:33 IDT 2013	compareProposals(): decision: 1 utility 155.0
Wed Sep 11 12:07:33 IDT 2013	responseToSend(): accepting proposal ({ chips  'CTRed':10 'CTPurple':7 'CTGreen':0 'grey78':0 'CTYellow':0 }, { chips  'CTRed':0 'CTPurple':0 'CTGreen':0 'grey78':0 'CTYellow':10 }).
Wed Sep 11 12:07:33 IDT 2013	phaseAdvanced(): entering.
Wed Sep 11 12:07:33 IDT 2013	phaseAdvanced(): new phase is 'Movement Phase'.
Wed Sep 11 12:08:18 IDT 2013	phaseAdvanced(): entering.
Wed Sep 11 12:08:18 IDT 2013	phaseAdvanced(): new phase is 'Feedback Phase'.
Wed Sep 11 12:08:23 IDT 2013	phaseAdvanced(): entering.
Wed Sep 11 12:08:23 IDT 2013	phaseAdvanced(): new phase is 'Communication Phase'.
Wed Sep 11 12:09:13 IDT 2013	onReceipt(): entering.
Wed Sep 11 12:09:13 IDT 2013	phaseAdvanced(): entering.
Wed Sep 11 12:09:13 IDT 2013	phaseAdvanced(): new phase is 'Movement Phase'.
Wed Sep 11 12:09:58 IDT 2013	phaseAdvanced(): entering.
Wed Sep 11 12:09:58 IDT 2013	phaseAdvanced(): new phase is 'Feedback Phase'.
Wed Sep 11 12:10:03 IDT 2013	phaseAdvanced(): entering.
Wed Sep 11 12:10:03 IDT 2013	phaseAdvanced(): new phase is 'Communication Phase'.
Wed Sep 11 12:10:50 IDT 2013	onReceipt(): entering.
Wed Sep 11 12:10:50 IDT 2013	onReceipt(): opponent's proposal: ({ chips  'CTRed':8 'CTPurple':0 'CTGreen':0 'grey78':0 'CTYellow':0 }, { chips  'CTRed':0 'CTPurple':0 'CTGreen':0 'grey78':0 'CTYellow':2 }).
Wed Sep 11 12:11:01 IDT 2013	onReceipt(): entering.
Wed Sep 11 12:11:01 IDT 2013	onReceipt(): opponent's proposal: ({ chips  'CTRed':26 'CTPurple':7 'CTGreen':0 'grey78':0 'CTYellow':0 }, { chips  'CTRed':0 'CTPurple':0 'CTGreen':0 'grey78':0 'CTYellow':0 }).
Wed Sep 11 12:11:01 IDT 2013	responseToSend(): entering.
Wed Sep 11 12:11:01 IDT 2013	compareProposals(): decision: 0 utility 315.0
Wed Sep 11 12:11:01 IDT 2013	responseToSend(): accepting proposal ({ chips  'CTRed':26 'CTPurple':7 'CTGreen':0 'grey78':0 'CTYellow':0 }, { chips  'CTRed':0 'CTPurple':0 'CTGreen':0 'grey78':0 'CTYellow':0 }).
Wed Sep 11 12:11:01 IDT 2013	phaseAdvanced(): entering.
Wed Sep 11 12:11:01 IDT 2013	phaseAdvanced(): new phase is 'Movement Phase'.
Wed Sep 11 12:11:46 IDT 2013	phaseAdvanced(): entering.
Wed Sep 11 12:11:46 IDT 2013	phaseAdvanced(): new phase is 'Feedback Phase'.
Wed Sep 11 12:11:51 IDT 2013	phaseAdvanced(): entering.
Wed Sep 11 12:11:51 IDT 2013	phaseAdvanced(): new phase is 'Communication Phase'.
Wed Sep 11 12:12:03 IDT 2013	onReceipt(): entering.
Wed Sep 11 12:12:03 IDT 2013	phaseAdvanced(): entering.
Wed Sep 11 12:12:03 IDT 2013	phaseAdvanced(): new phase is 'Movement Phase'.
Wed Sep 11 12:12:48 IDT 2013	phaseAdvanced(): entering.
Wed Sep 11 12:12:48 IDT 2013	phaseAdvanced(): new phase is 'Feedback Phase'.
Wed Sep 11 12:12:53 IDT 2013	phaseAdvanced(): entering.
Wed Sep 11 12:12:53 IDT 2013	phaseAdvanced(): new phase is 'Communication Phase'.
Wed Sep 11 12:13:16 IDT 2013	onReceipt(): entering.
Wed Sep 11 12:13:16 IDT 2013	onReceipt(): opponent's proposal: ({ chips  'CTRed':0 'CTPurple':0 'CTGreen':0 'grey78':0 'CTYellow':0 }, { chips  'CTRed':0 'CTPurple':0 'CTGreen':0 'grey78':0 'CTYellow':0 }).
Wed Sep 11 12:13:21 IDT 2013	onReceipt(): entering.
Wed Sep 11 12:13:21 IDT 2013	onReceipt(): opponent's proposal: ({ chips  'CTRed':13 'CTPurple':0 'CTGreen':0 'grey78':0 'CTYellow':0 }, { chips  'CTRed':0 'CTPurple':0 'CTGreen':0 'grey78':0 'CTYellow':2 }).
Wed Sep 11 12:13:21 IDT 2013	responseToSend(): entering.
Wed Sep 11 12:13:21 IDT 2013	compareProposals(): decision: 0 utility 310.0
Wed Sep 11 12:13:21 IDT 2013	responseToSend(): rejecting both proposals
Wed Sep 11 12:13:21 IDT 2013	phaseAdvanced(): entering.
Wed Sep 11 12:13:21 IDT 2013	phaseAdvanced(): new phase is 'Movement Phase'.
Wed Sep 11 12:14:06 IDT 2013	phaseAdvanced(): entering.
Wed Sep 11 12:14:06 IDT 2013	phaseAdvanced(): new phase is 'Feedback Phase'.
Wed Sep 11 12:14:11 IDT 2013	phaseAdvanced(): entering.
Wed Sep 11 12:14:11 IDT 2013	phaseAdvanced(): new phase is 'Communication Phase'.
Wed Sep 11 12:14:36 IDT 2013	onReceipt(): entering.
Wed Sep 11 12:14:36 IDT 2013	phaseAdvanced(): entering.
Wed Sep 11 12:14:36 IDT 2013	phaseAdvanced(): new phase is 'Movement Phase'.
Wed Sep 11 12:15:21 IDT 2013	phaseAdvanced(): entering.
Wed Sep 11 12:15:21 IDT 2013	phaseAdvanced(): new phase is 'Feedback Phase'.
Wed Sep 11 12:15:26 IDT 2013	phaseAdvanced(): entering.
Wed Sep 11 12:15:26 IDT 2013	phaseAdvanced(): new phase is 'Communication Phase'.
Wed Sep 11 12:15:53 IDT 2013	onReceipt(): entering.
Wed Sep 11 12:15:53 IDT 2013	onReceipt(): opponent's proposal: ({ chips  'CTRed':15 'CTPurple':0 'CTGreen':0 'grey78':0 'CTYellow':0 }, { chips  'CTRed':0 'CTPurple':0 'CTGreen':0 'grey78':0 'CTYellow':1 }).
Wed Sep 11 12:16:12 IDT 2013	onReceipt(): entering.
Wed Sep 11 12:16:12 IDT 2013	onReceipt(): opponent's proposal: ({ chips  'CTRed':4 'CTPurple':0 'CTGreen':0 'grey78':0 'CTYellow':0 }, { chips  'CTRed':0 'CTPurple':0 'CTGreen':0 'grey78':0 'CTYellow':0 }).
Wed Sep 11 12:16:12 IDT 2013	responseToSend(): entering.
Wed Sep 11 12:16:12 IDT 2013	compareProposals(): decision: 0 utility 325.0
Wed Sep 11 12:16:12 IDT 2013	responseToSend(): accepting proposal ({ chips  'CTRed':4 'CTPurple':0 'CTGreen':0 'grey78':0 'CTYellow':0 }, { chips  'CTRed':0 'CTPurple':0 'CTGreen':0 'grey78':0 'CTYellow':0 }).
Wed Sep 11 12:16:12 IDT 2013	phaseAdvanced(): entering.
Wed Sep 11 12:16:12 IDT 2013	phaseAdvanced(): new phase is 'Movement Phase'.
Wed Sep 11 12:16:57 IDT 2013	phaseAdvanced(): entering.
Wed Sep 11 12:16:57 IDT 2013	phaseAdvanced(): new phase is 'Feedback Phase'.
Wed Sep 11 12:17:02 IDT 2013	phaseAdvanced(): entering.
Wed Sep 11 12:17:02 IDT 2013	phaseAdvanced(): new phase is 'Communication Phase'.
Wed Sep 11 12:17:19 IDT 2013	onReceipt(): entering.
Wed Sep 11 12:17:19 IDT 2013	phaseAdvanced(): entering.
Wed Sep 11 12:17:19 IDT 2013	phaseAdvanced(): new phase is 'Movement Phase'.
Wed Sep 11 12:18:03 IDT 2013	phaseAdvanced(): entering.
Wed Sep 11 12:18:03 IDT 2013	phaseAdvanced(): new phase is 'Feedback Phase'.
Wed Sep 11 12:18:08 IDT 2013	phaseAdvanced(): entering.
Wed Sep 11 12:18:08 IDT 2013	phaseAdvanced(): new phase is 'Communication Phase'.
Wed Sep 11 12:18:20 IDT 2013	onReceipt(): entering.
Wed Sep 11 12:18:20 IDT 2013	onReceipt(): opponent's proposal: ({ chips  'CTRed':20 'CTPurple':0 'CTGreen':0 'grey78':0 'CTYellow':0 }, { chips  'CTRed':0 'CTPurple':0 'CTGreen':0 'grey78':0 'CTYellow':2 }).
Wed Sep 11 12:18:42 IDT 2013	onReceipt(): entering.
Wed Sep 11 12:18:42 IDT 2013	onReceipt(): opponent's proposal: ({ chips  'CTRed':0 'CTPurple':0 'CTGreen':0 'grey78':0 'CTYellow':0 }, { chips  'CTRed':0 'CTPurple':0 'CTGreen':0 'grey78':0 'CTYellow':0 }).
Wed Sep 11 12:18:42 IDT 2013	responseToSend(): entering.
Wed Sep 11 12:18:42 IDT 2013	compareProposals(): decision: 0 utility 320.0
Wed Sep 11 12:18:42 IDT 2013	responseToSend(): rejecting both proposals
Wed Sep 11 12:18:42 IDT 2013	phaseAdvanced(): entering.
Wed Sep 11 12:18:42 IDT 2013	phaseAdvanced(): new phase is 'Movement Phase'.
Wed Sep 11 12:19:27 IDT 2013	phaseAdvanced(): entering.
Wed Sep 11 12:19:27 IDT 2013	phaseAdvanced(): new phase is 'Feedback Phase'.
Wed Sep 11 12:19:32 IDT 2013	phaseAdvanced(): entering.
Wed Sep 11 12:19:32 IDT 2013	phaseAdvanced(): new phase is 'Communication Phase'.
Wed Sep 11 12:19:54 IDT 2013	onReceipt(): entering.
Wed Sep 11 12:19:54 IDT 2013	phaseAdvanced(): entering.
Wed Sep 11 12:19:54 IDT 2013	phaseAdvanced(): new phase is 'Movement Phase'.
