filename,round,propID,respID,IsPropCustomer,chipsToSend,chipsToReceive,accept,propCurrentScore,respCurrentScore,actualSent,ActualRcvd,propResultingScore,respResultingScore,#ofCustomerMovesInRound,customerRowPositionAfterMovePhase,customerColPositionAfterMovePhase,Player100ChipsAfterMovePhase,Player100ScoreAfterMovePhase,Player200ChipsAfterMovePhase,Player200ScoreAfterMovePhase,Player300ChipsAfterMovePhase,Player300ScoreAfterMovePhase,generosityLevel,ClientReachedGoal
3playersLog_1377179575865.csv,1,530,500,false,{ chips  'CTRed':33 'CTPurple':7 },{ chips  'grey78':11 },FALSE,200,120,,,,,0,(R:5,C:4),{ chips  'CTRed':10 'CTGreen':0 'CTPurple':0 'grey78':12 'CTYellow':7 },145,{ chips  'CTRed':33 'CTGreen':0 'CTPurple':7 'grey78':0 'CTYellow':0 },200,{ chips  'CTRed':23 'CTGreen':0 'CTPurple':7 'grey78':0 'CTYellow':5 },175
3playersLog_1377179575865.csv,1,540,500,false,{ chips  'CTRed':10 },{ chips  'CTYellow':5 },TRUE,200,120,{ chips  'CTRed':10 'CTPurple':0 'CTGreen':0 'grey78':0 'CTYellow':0 },{ chips  'CTRed':0 'CTPurple':0 'CTGreen':0 'grey78':0 'CTYellow':5 },175,145,0,(R:5,C:4),{ chips  'CTRed':10 'CTGreen':0 'CTPurple':0 'grey78':12 'CTYellow':7 },145,{ chips  'CTRed':33 'CTGreen':0 'CTPurple':7 'grey78':0 'CTYellow':0 },200,{ chips  'CTRed':23 'CTGreen':0 'CTPurple':7 'grey78':0 'CTYellow':5 },175
filename,round,propID,respID,IsPropCustomer,chipsToSend,chipsToReceive,accept,propCurrentScore,respCurrentScore,actualSent,ActualRcvd,propResultingScore,respResultingScore,#ofCustomerMovesInRound,customerRowPositionAfterMovePhase,customerColPositionAfterMovePhase,Player100ChipsAfterMovePhase,Player100ScoreAfterMovePhase,Player200ChipsAfterMovePhase,Player200ScoreAfterMovePhase,Player300ChipsAfterMovePhase,Player300ScoreAfterMovePhase,generosityLevel,ClientReachedGoal
3playersLog_1377180047084.csv,1,530,500,false,{ chips  'CTRed':33 'CTPurple':7 },{ chips  'grey78':11 },FALSE,200,120,,,,,9,(R:0,C:0),{ chips  'CTRed':0 'CTGreen':0 'CTPurple':3 'grey78':1 'CTYellow':11 },225,{ chips  'CTRed':33 'CTGreen':0 'CTPurple':7 'grey78':0 'CTYellow':0 },200,{ chips  'CTRed':33 'CTGreen':0 'CTPurple':4 'grey78':2 'CTYellow':1 },350
3playersLog_1377180047084.csv,1,540,500,false,{ chips  'CTPurple':3 },{ chips  'grey78':2 'CTYellow':1 },TRUE,200,120,{ chips  'CTRed':0 'CTPurple':3 'CTGreen':0 'grey78':0 'CTYellow':0 },{ chips  'CTRed':0 'CTPurple':0 'CTGreen':0 'grey78':2 'CTYellow':1 },200,120,9,(R:0,C:0),{ chips  'CTRed':0 'CTGreen':0 'CTPurple':3 'grey78':1 'CTYellow':11 },225,{ chips  'CTRed':33 'CTGreen':0 'CTPurple':7 'grey78':0 'CTYellow':0 },200,{ chips  'CTRed':33 'CTGreen':0 'CTPurple':4 'grey78':2 'CTYellow':1 },350
3playersLog_1377180047084.csv,,,,,,,,,,,,,,,,,,,,,,,,true
filename,round,propID,respID,IsPropCustomer,chipsToSend,chipsToReceive,accept,propCurrentScore,respCurrentScore,actualSent,ActualRcvd,propResultingScore,respResultingScore,#ofCustomerMovesInRound,customerRowPositionAfterMovePhase,customerColPositionAfterMovePhase,Player100ChipsAfterMovePhase,Player100ScoreAfterMovePhase,Player200ChipsAfterMovePhase,Player200ScoreAfterMovePhase,Player300ChipsAfterMovePhase,Player300ScoreAfterMovePhase,generosityLevel,ClientReachedGoal
3playersLog_1377180309001.csv,1,530,500,false,{ chips  'CTRed':33 'CTPurple':7 },{ chips  'grey78':11 },TRUE,200,120,{ chips  'CTRed':33 'CTPurple':7 },{ chips  'grey78':11 },55,265,9,(R:0,C:8),{ chips  'CTRed':33 'CTGreen':0 'CTPurple':7 'grey78':1 'CTYellow':3 },370,{ chips  'CTRed':0 'CTGreen':0 'CTPurple':0 'grey78':11 'CTYellow':0 },205,{ chips  'CTRed':33 'CTGreen':0 'CTPurple':7 'grey78':0 'CTYellow':0 },200
3playersLog_1377180309001.csv,1,540,500,false,{ chips  'CTRed':2 'CTPurple':3 },{ chips  'grey78':2 'CTYellow':2 },IGNORED,200,120,,,,,9,(R:0,C:8),{ chips  'CTRed':33 'CTGreen':0 'CTPurple':7 'grey78':1 'CTYellow':3 },370,{ chips  'CTRed':0 'CTGreen':0 'CTPurple':0 'grey78':11 'CTYellow':0 },205,{ chips  'CTRed':33 'CTGreen':0 'CTPurple':7 'grey78':0 'CTYellow':0 },200
3playersLog_1377180309001.csv,,,,,,,,,,,,,,,,,,,,,,,,true
filename,round,propID,respID,IsPropCustomer,chipsToSend,chipsToReceive,accept,propCurrentScore,respCurrentScore,actualSent,ActualRcvd,propResultingScore,respResultingScore,#ofCustomerMovesInRound,customerRowPositionAfterMovePhase,customerColPositionAfterMovePhase,Player100ChipsAfterMovePhase,Player100ScoreAfterMovePhase,Player200ChipsAfterMovePhase,Player200ScoreAfterMovePhase,Player300ChipsAfterMovePhase,Player300ScoreAfterMovePhase,generosityLevel,ClientReachedGoal
3playersLog_1377180725410.csv,1,530,500,false,{ chips  'CTRed':33 'CTPurple':7 },{ chips  'grey78':11 },TRUE,200,120,{ chips  'CTRed':33 'CTPurple':7 },{ chips  'grey78':11 },55,265,3,(R:4,C:6),{ chips  'CTRed':33 'CTGreen':0 'CTPurple':7 'grey78':1 'CTYellow':9 },250,{ chips  'CTRed':0 'CTGreen':0 'CTPurple':0 'grey78':11 'CTYellow':0 },55,{ chips  'CTRed':33 'CTGreen':0 'CTPurple':7 'grey78':0 'CTYellow':0 },200
3playersLog_1377180725410.csv,2,500,540,true,{ chips  'grey78':1 },{ chips  'CTRed':15 'CTPurple':5 },FALSE,250,200,,,,,2,(R:3,C:7),{ chips  'CTRed':33 'CTGreen':0 'CTPurple':7 'grey78':1 'CTYellow':7 },240,{ chips  'CTRed':0 'CTGreen':0 'CTPurple':0 'grey78':11 'CTYellow':0 },55,{ chips  'CTRed':33 'CTGreen':0 'CTPurple':7 'grey78':0 'CTYellow':0 },200
3playersLog_1377180725410.csv,3,530,500,false,{ chips  },{ chips  },FALSE,55,240,,,,,4,(R:0,C:8),{ chips  'CTRed':40 'CTGreen':0 'CTPurple':7 'grey78':0 'CTYellow':1 },390,{ chips  'CTRed':0 'CTGreen':0 'CTPurple':0 'grey78':11 'CTYellow':0 },205,{ chips  'CTRed':26 'CTGreen':0 'CTPurple':6 'grey78':1 'CTYellow':3 },180
3playersLog_1377180725410.csv,3,540,500,false,{ chips  'CTRed':7 'CTPurple':1 },{ chips  'grey78':1 'CTYellow':3 },TRUE,200,240,{ chips  'CTRed':7 'CTPurple':1 'CTGreen':0 'grey78':0 'CTYellow':0 },{ chips  'CTRed':0 'CTPurple':0 'CTGreen':0 'grey78':1 'CTYellow':3 },180,260,4,(R:0,C:8),{ chips  'CTRed':40 'CTGreen':0 'CTPurple':7 'grey78':0 'CTYellow':1 },390,{ chips  'CTRed':0 'CTGreen':0 'CTPurple':0 'grey78':11 'CTYellow':0 },205,{ chips  'CTRed':26 'CTGreen':0 'CTPurple':6 'grey78':1 'CTYellow':3 },180
3playersLog_1377180725410.csv,,,,,,,,,,,,,,,,,,,,,,,,true
filename,round,propID,respID,IsPropCustomer,chipsToSend,chipsToReceive,accept,propCurrentScore,respCurrentScore,actualSent,ActualRcvd,propResultingScore,respResultingScore,#ofCustomerMovesInRound,customerRowPositionAfterMovePhase,customerColPositionAfterMovePhase,Player100ChipsAfterMovePhase,Player100ScoreAfterMovePhase,Player200ChipsAfterMovePhase,Player200ScoreAfterMovePhase,Player300ChipsAfterMovePhase,Player300ScoreAfterMovePhase,generosityLevel,ClientReachedGoal
3playersLog_1377183378640.csv,1,530,500,false,{ chips  'CTRed':33 'CTPurple':7 },{ chips  'grey78':11 },FALSE,200,120,,,,,0,(R:5,C:4),{ chips  'CTRed':0 'CTGreen':0 'CTPurple':0 'grey78':12 'CTYellow':12 },120,{ chips  'CTRed':33 'CTGreen':0 'CTPurple':7 'grey78':0 'CTYellow':0 },200,{ chips  'CTRed':33 'CTGreen':0 'CTPurple':7 'grey78':0 'CTYellow':0 },200
3playersLog_1377183378640.csv,1,540,500,false,{ chips  'CTRed':20 'CTPurple':5 },{ chips  'CTYellow':12 },FALSE,200,120,,,,,0,(R:5,C:4),{ chips  'CTRed':0 'CTGreen':0 'CTPurple':0 'grey78':12 'CTYellow':12 },120,{ chips  'CTRed':33 'CTGreen':0 'CTPurple':7 'grey78':0 'CTYellow':0 },200,{ chips  'CTRed':33 'CTGreen':0 'CTPurple':7 'grey78':0 'CTYellow':0 },200
3playersLog_1377183378640.csv,2,500,530,true,{ chips  'CTYellow':6 },{ chips  'CTPurple':7 },FALSE,120,200,,,,,7,(R:2,C:0),{ chips  'CTRed':0 'CTGreen':0 'CTPurple':0 'grey78':5 'CTYellow':12 },85,{ chips  'CTRed':33 'CTGreen':0 'CTPurple':7 'grey78':0 'CTYellow':0 },200,{ chips  'CTRed':33 'CTGreen':0 'CTPurple':7 'grey78':0 'CTYellow':0 },200
3playersLog_1377183378640.csv,3,530,500,false,{ chips  },{ chips  },IGNORED,200,80,,,,,1,(R:2,C:0),{ chips  'CTRed':24 'CTGreen':0 'CTPurple':0 'grey78':3 'CTYellow':0 },135,{ chips  'CTRed':33 'CTGreen':0 'CTPurple':7 'grey78':0 'CTYellow':0 },200,{ chips  'CTRed':9 'CTGreen':0 'CTPurple':7 'grey78':0 'CTYellow':12 },140
3playersLog_1377183378640.csv,3,540,500,false,{ chips  'CTRed':24 },{ chips  'CTYellow':12 },TRUE,200,80,{ chips  'CTRed':24 'CTPurple':0 'CTGreen':0 'grey78':0 'CTYellow':0 },{ chips  'CTRed':0 'CTPurple':0 'CTGreen':0 'grey78':0 'CTYellow':12 },140,140,1,(R:2,C:0),{ chips  'CTRed':24 'CTGreen':0 'CTPurple':0 'grey78':3 'CTYellow':0 },135,{ chips  'CTRed':33 'CTGreen':0 'CTPurple':7 'grey78':0 'CTYellow':0 },200,{ chips  'CTRed':9 'CTGreen':0 'CTPurple':7 'grey78':0 'CTYellow':12 },140
3playersLog_1377183378640.csv,4,500,540,true,{ chips  'CTRed':7 },{ chips  'CTPurple':7 },FALSE,135,140,,,,,0,(R:2,C:0),{ chips  'CTRed':24 'CTGreen':0 'CTPurple':0 'grey78':3 'CTYellow':0 },135,{ chips  'CTRed':33 'CTGreen':0 'CTPurple':7 'grey78':0 'CTYellow':0 },200,{ chips  'CTRed':9 'CTGreen':0 'CTPurple':7 'grey78':0 'CTYellow':12 },140
3playersLog_1377183378640.csv,5,530,500,false,{ chips  },{ chips  },FALSE,200,135,,,,,1,(R:1,C:0),{ chips  'CTRed':24 'CTGreen':0 'CTPurple':0 'grey78':2 'CTYellow':0 },130,{ chips  'CTRed':33 'CTGreen':0 'CTPurple':7 'grey78':0 'CTYellow':0 },200,{ chips  'CTRed':9 'CTGreen':0 'CTPurple':7 'grey78':0 'CTYellow':12 },140
3playersLog_1377183378640.csv,5,540,500,false,{ chips  'CTPurple':7 },{ chips  'CTRed':24 },FALSE,140,135,,,,,1,(R:1,C:0),{ chips  'CTRed':24 'CTGreen':0 'CTPurple':0 'grey78':2 'CTYellow':0 },130,{ chips  'CTRed':33 'CTGreen':0 'CTPurple':7 'grey78':0 'CTYellow':0 },200,{ chips  'CTRed':9 'CTGreen':0 'CTPurple':7 'grey78':0 'CTYellow':12 },140
3playersLog_1377183378640.csv,6,500,540,true,{ chips  'CTRed':7 },{ chips  'CTPurple':7 },FALSE,130,140,,,,,0,(R:1,C:0),{ chips  'CTRed':24 'CTGreen':0 'CTPurple':0 'grey78':2 'CTYellow':0 },130,{ chips  'CTRed':33 'CTGreen':0 'CTPurple':7 'grey78':0 'CTYellow':0 },200,{ chips  'CTRed':9 'CTGreen':0 'CTPurple':7 'grey78':0 'CTYellow':12 },140
3playersLog_1377183378640.csv,7,530,500,false,{ chips  },{ chips  },FALSE,200,130,,,,,1,(R:0,C:0),{ chips  'CTRed':24 'CTGreen':0 'CTPurple':0 'grey78':1 'CTYellow':0 },275,{ chips  'CTRed':33 'CTGreen':0 'CTPurple':7 'grey78':0 'CTYellow':0 },200,{ chips  'CTRed':9 'CTGreen':0 'CTPurple':7 'grey78':0 'CTYellow':12 },290
3playersLog_1377183378640.csv,7,540,500,false,{ chips  'CTPurple':2 },{ chips  'CTRed':10 },FALSE,140,130,,,,,1,(R:0,C:0),{ chips  'CTRed':24 'CTGreen':0 'CTPurple':0 'grey78':1 'CTYellow':0 },275,{ chips  'CTRed':33 'CTGreen':0 'CTPurple':7 'grey78':0 'CTYellow':0 },200,{ chips  'CTRed':9 'CTGreen':0 'CTPurple':7 'grey78':0 'CTYellow':12 },290
3playersLog_1377183378640.csv,,,,,,,,,,,,,,,,,,,,,,,,true
filename,round,propID,respID,IsPropCustomer,chipsToSend,chipsToReceive,accept,propCurrentScore,respCurrentScore,actualSent,ActualRcvd,propResultingScore,respResultingScore,#ofCustomerMovesInRound,customerRowPositionAfterMovePhase,customerColPositionAfterMovePhase,Player100ChipsAfterMovePhase,Player100ScoreAfterMovePhase,Player200ChipsAfterMovePhase,Player200ScoreAfterMovePhase,Player300ChipsAfterMovePhase,Player300ScoreAfterMovePhase,generosityLevel,ClientReachedGoal
3playersLog_1377183385501.csv,1,530,500,false,{ chips  'CTRed':33 'CTPurple':7 },{ chips  'grey78':11 },IGNORED,200,A120,,,,,0,(R:5,C:4),{ chips  'CTRed':0 'CTGreen':0 'CTPurple':0 'grey78':12 'CTYellow':12 },120,{ chips  'CTRed':33 'CTGreen':0 'CTPurple':7 'grey78':0 'CTYellow':0 },200,{ chips  'CTRed':33 'CTGreen':0 'CTPurple':7 'grey78':0 'CTYellow':0 },200
3playersLog_1377183385501.csv,1,540,500,false,{ chips  'CTRed':3 'CTPurple':1 },{ chips  'grey78':5 },IGNORED,200,B120,,,,,0,(R:5,C:4),{ chips  'CTRed':0 'CTGreen':0 'CTPurple':0 'grey78':12 'CTYellow':12 },120,{ chips  'CTRed':33 'CTGreen':0 'CTPurple':7 'grey78':0 'CTYellow':0 },200,{ chips  'CTRed':33 'CTGreen':0 'CTPurple':7 'grey78':0 'CTYellow':0 },200
3playersLog_1377183385501.csv,2,500,540,true,{ chips  'grey78':2 'CTYellow':3 },{ chips  'CTRed':6 },TRUE,120,200,{ chips  'CTRed':0 'CTPurple':0 'CTGreen':0 'grey78':2 'CTYellow':3 },{ chips  'CTRed':6 'CTPurple':0 'CTGreen':0 'grey78':0 'CTYellow':0 },125,195,0,(R:5,C:4),{ chips  'CTRed':6 'CTGreen':0 'CTPurple':0 'grey78':10 'CTYellow':9 },125,{ chips  'CTRed':33 'CTGreen':0 'CTPurple':7 'grey78':0 'CTYellow':0 },200,{ chips  'CTRed':27 'CTGreen':0 'CTPurple':7 'grey78':2 'CTYellow':3 },195
3playersLog_1377183385501.csv,,,,,,,,,,,,,,,,,,,,,,,,false
filename,round,propID,respID,IsPropCustomer,chipsToSend,chipsToReceive,accept,propCurrentScore,respCurrentScore,actualSent,ActualRcvd,propResultingScore,respResultingScore,#ofCustomerMovesInRound,customerRowPositionAfterMovePhase,customerColPositionAfterMovePhase,Player100ChipsAfterMovePhase,Player100ScoreAfterMovePhase,Player200ChipsAfterMovePhase,Player200ScoreAfterMovePhase,Player300ChipsAfterMovePhase,Player300ScoreAfterMovePhase,generosityLevel,ClientReachedGoal
3playersLog_1377183934902.csv,1,530,500,false,{ chips  'CTRed':33 'CTPurple':7 },{ chips  'grey78':11 },TRUE,200,120,{ chips  'CTRed':33 'CTPurple':7 },{ chips  'grey78':11 },55,265,2,(R:4,C:5),{ chips  'CTRed':33 'CTGreen':0 'CTPurple':7 'grey78':1 'CTYellow':10 },255,{ chips  'CTRed':0 'CTGreen':0 'CTPurple':0 'grey78':11 'CTYellow':0 },55,{ chips  'CTRed':33 'CTGreen':0 'CTPurple':7 'grey78':0 'CTYellow':0 },200
3playersLog_1377183934902.csv,2,500,530,true,{ chips  'CTRed':3 'CTPurple':1 },{ chips  'grey78':6 },FALSE,255,55,,,,,1,(R:4,C:6),{ chips  'CTRed':33 'CTGreen':0 'CTPurple':7 'grey78':1 'CTYellow':9 },250,{ chips  'CTRed':0 'CTGreen':0 'CTPurple':0 'grey78':11 'CTYellow':0 },55,{ chips  'CTRed':33 'CTGreen':0 'CTPurple':7 'grey78':0 'CTYellow':0 },200
3playersLog_1377183934902.csv,3,530,500,false,{ chips  },{ chips  },TRUE,55,250,{ chips  'CTRed':0 'CTPurple':0 },{ chips  'grey78':0 },55,250,2,(R:3,C:7),{ chips  'CTRed':33 'CTGreen':0 'CTPurple':7 'grey78':1 'CTYellow':7 },240,{ chips  'CTRed':0 'CTGreen':0 'CTPurple':0 'grey78':11 'CTYellow':0 },55,{ chips  'CTRed':33 'CTGreen':0 'CTPurple':7 'grey78':0 'CTYellow':0 },200
3playersLog_1377183934902.csv,4,500,540,true,{ chips  'CTRed':5 'CTYellow':1 },{ chips  'CTRed':12 },FALSE,240,200,,,,,3,(R:2,C:7),{ chips  'CTRed':33 'CTGreen':0 'CTPurple':7 'grey78':1 'CTYellow':4 },225,{ chips  'CTRed':0 'CTGreen':0 'CTPurple':0 'grey78':11 'CTYellow':0 },55,{ chips  'CTRed':33 'CTGreen':0 'CTPurple':7 'grey78':0 'CTYellow':0 },200
3playersLog_1377183934902.csv,5,530,500,false,{ chips  },{ chips  },FALSE,55,225,,,,,1,(R:2,C:8),{ chips  'CTRed':30 'CTGreen':0 'CTPurple':13 'grey78':0 'CTYellow':3 },230,{ chips  'CTRed':0 'CTGreen':0 'CTPurple':0 'grey78':11 'CTYellow':0 },55,{ chips  'CTRed':36 'CTGreen':0 'CTPurple':1 'grey78':1 'CTYellow':0 },190
3playersLog_1377183934902.csv,5,540,500,false,{ chips  'CTPurple':6 },{ chips  'CTRed':3 'grey78':1 },TRUE,200,225,{ chips  'CTRed':0 'CTPurple':6 'CTGreen':0 'grey78':0 'CTYellow':0 },{ chips  'CTRed':3 'CTPurple':0 'CTGreen':0 'grey78':1 'CTYellow':0 },190,235,1,(R:2,C:8),{ chips  'CTRed':30 'CTGreen':0 'CTPurple':13 'grey78':0 'CTYellow':3 },230,{ chips  'CTRed':0 'CTGreen':0 'CTPurple':0 'grey78':11 'CTYellow':0 },55,{ chips  'CTRed':36 'CTGreen':0 'CTPurple':1 'grey78':1 'CTYellow':0 },190
3playersLog_1377183934902.csv,6,500,540,true,{ chips  'CTRed':1 'CTPurple':2 },{ chips  'CTRed':7 },TRUE,230,55,{ chips  'CTRed':1 'CTPurple':2 'CTGreen':0 'grey78':0 'CTYellow':0 },{ chips  'CTRed':7 'CTPurple':0 'CTGreen':0 'grey78':0 'CTYellow':0 },250,170,0,(R:2,C:8),{ chips  'CTRed':36 'CTGreen':0 'CTPurple':11 'grey78':0 'CTYellow':3 },250,{ chips  'CTRed':0 'CTGreen':0 'CTPurple':0 'grey78':11 'CTYellow':0 },55,{ chips  'CTRed':30 'CTGreen':0 'CTPurple':3 'grey78':1 'CTYellow':0 },170
3playersLog_1377183934902.csv,7,530,500,false,{ chips  },{ chips  },FALSE,55,250,,,,,1,(R:1,C:8),{ chips  'CTRed':36 'CTGreen':0 'CTPurple':11 'grey78':0 'CTYellow':2 },245,{ chips  'CTRed':0 'CTGreen':0 'CTPurple':0 'grey78':11 'CTYellow':0 },55,{ chips  'CTRed':30 'CTGreen':0 'CTPurple':3 'grey78':1 'CTYellow':0 },170
3playersLog_1377183934902.csv,7,540,500,false,{ chips  'CTRed':3 'CTPurple':2 },{ chips  'CTRed':2 'CTYellow':3 },FALSE,170,250,,,,,1,(R:1,C:8),{ chips  'CTRed':36 'CTGreen':0 'CTPurple':11 'grey78':0 'CTYellow':2 },245,{ chips  'CTRed':0 'CTGreen':0 'CTPurple':0 'grey78':11 'CTYellow':0 },55,{ chips  'CTRed':30 'CTGreen':0 'CTPurple':3 'grey78':1 'CTYellow':0 },170
3playersLog_1377183934902.csv,8,500,530,true,{ chips  'CTRed':2 'CTPurple':1 },{ chips  'grey78':5 },FALSE,245,55,,,,,0,(R:1,C:8),{ chips  'CTRed':36 'CTGreen':0 'CTPurple':11 'grey78':0 'CTYellow':2 },245,{ chips  'CTRed':0 'CTGreen':0 'CTPurple':0 'grey78':11 'CTYellow':0 },55,{ chips  'CTRed':30 'CTGreen':0 'CTPurple':3 'grey78':1 'CTYellow':0 },170
3playersLog_1377183934902.csv,9,530,500,false,{ chips  },{ chips  },FALSE,55,245,,,,,1,(R:0,C:8),{ chips  'CTRed':36 'CTGreen':0 'CTPurple':11 'grey78':0 'CTYellow':1 },390,{ chips  'CTRed':0 'CTGreen':0 'CTPurple':0 'grey78':11 'CTYellow':0 },205,{ chips  'CTRed':30 'CTGreen':0 'CTPurple':3 'grey78':1 'CTYellow':0 },170
3playersLog_1377183934902.csv,9,540,500,false,{ chips  'CTPurple':3 'grey78':1 },{ chips  'CTRed':3 'CTPurple':1 'CTYellow':2 },FALSE,170,245,,,,,1,(R:0,C:8),{ chips  'CTRed':36 'CTGreen':0 'CTPurple':11 'grey78':0 'CTYellow':1 },390,{ chips  'CTRed':0 'CTGreen':0 'CTPurple':0 'grey78':11 'CTYellow':0 },205,{ chips  'CTRed':30 'CTGreen':0 'CTPurple':3 'grey78':1 'CTYellow':0 },170
3playersLog_1377183934902.csv,,,,,,,,,,,,,,,,,,,,,,,,true
filename,round,propID,respID,IsPropCustomer,chipsToSend,chipsToReceive,accept,propCurrentScore,respCurrentScore,actualSent,ActualRcvd,propResultingScore,respResultingScore,#ofCustomerMovesInRound,customerRowPositionAfterMovePhase,customerColPositionAfterMovePhase,Player100ChipsAfterMovePhase,Player100ScoreAfterMovePhase,Player200ChipsAfterMovePhase,Player200ScoreAfterMovePhase,Player300ChipsAfterMovePhase,Player300ScoreAfterMovePhase,generosityLevel,ClientReachedGoal
3playersLog_1377184378782.csv,1,530,500,false,{ chips  'CTRed':33 'CTPurple':7 },{ chips  'grey78':11 },TRUE,200,120,{ chips  'CTRed':33 'CTPurple':7 },{ chips  'grey78':11 },55,265,1,(R:5,C:5),{ chips  'CTRed':33 'CTGreen':0 'CTPurple':7 'grey78':1 'CTYellow':11 },260,{ chips  'CTRed':0 'CTGreen':0 'CTPurple':0 'grey78':11 'CTYellow':0 },55,{ chips  'CTRed':33 'CTGreen':0 'CTPurple':7 'grey78':0 'CTYellow':0 },200
3playersLog_1377184378782.csv,2,500,530,true,{ chips  'CTPurple':7 },{ chips  'grey78':7 },TRUE,260,55,{ chips  'CTRed':0 'CTPurple':7 'CTGreen':0 'grey78':0 'CTYellow':0 },{ chips  'CTRed':0 'CTPurple':0 'CTGreen':0 'grey78':7 'CTYellow':0 },260,55,0,(R:5,C:5),{ chips  'CTRed':33 'CTGreen':0 'CTPurple':0 'grey78':8 'CTYellow':11 },260,{ chips  'CTRed':0 'CTGreen':0 'CTPurple':7 'grey78':4 'CTYellow':0 },55,{ chips  'CTRed':33 'CTGreen':0 'CTPurple':7 'grey78':0 'CTYellow':0 },200
3playersLog_1377184378782.csv,3,530,500,false,{ chips  },{ chips  },FALSE,55,260,,,,,1,(R:4,C:5),{ chips  'CTRed':33 'CTGreen':0 'CTPurple':0 'grey78':8 'CTYellow':10 },255,{ chips  'CTRed':0 'CTGreen':0 'CTPurple':7 'grey78':4 'CTYellow':0 },55,{ chips  'CTRed':33 'CTGreen':0 'CTPurple':7 'grey78':0 'CTYellow':0 },200
3playersLog_1377184378782.csv,3,540,500,false,{ chips  'CTRed':24 'CTPurple':7 },{ chips  'CTYellow':7 },FALSE,200,260,,,,,1,(R:4,C:5),{ chips  'CTRed':33 'CTGreen':0 'CTPurple':0 'grey78':8 'CTYellow':10 },255,{ chips  'CTRed':0 'CTGreen':0 'CTPurple':7 'grey78':4 'CTYellow':0 },55,{ chips  'CTRed':33 'CTGreen':0 'CTPurple':7 'grey78':0 'CTYellow':0 },200
3playersLog_1377184378782.csv,4,500,540,true,{ chips  'grey78':8 },{ chips  'CTRed':16 },FALSE,255,200,,,,,0,(R:4,C:5),{ chips  'CTRed':33 'CTGreen':0 'CTPurple':0 'grey78':8 'CTYellow':10 },255,{ chips  'CTRed':0 'CTGreen':0 'CTPurple':7 'grey78':4 'CTYellow':0 },55,{ chips  'CTRed':33 'CTGreen':0 'CTPurple':7 'grey78':0 'CTYellow':0 },200
3playersLog_1377184378782.csv,5,530,500,false,{ chips  },{ chips  },FALSE,55,255,,,,,3,(R:3,C:7),{ chips  'CTRed':33 'CTGreen':0 'CTPurple':0 'grey78':8 'CTYellow':7 },240,{ chips  'CTRed':0 'CTGreen':0 'CTPurple':7 'grey78':4 'CTYellow':0 },55,{ chips  'CTRed':33 'CTGreen':0 'CTPurple':7 'grey78':0 'CTYellow':0 },200
3playersLog_1377184378782.csv,5,540,500,false,{ chips  'CTRed':24 'CTPurple':7 },{ chips  'CTYellow':10 },FALSE,200,255,,,,,3,(R:3,C:7),{ chips  'CTRed':33 'CTGreen':0 'CTPurple':0 'grey78':8 'CTYellow':7 },240,{ chips  'CTRed':0 'CTGreen':0 'CTPurple':7 'grey78':4 'CTYellow':0 },55,{ chips  'CTRed':33 'CTGreen':0 'CTPurple':7 'grey78':0 'CTYellow':0 },200
3playersLog_1377184378782.csv,6,500,540,true,{ chips  'CTYellow':2 },{ chips  'CTRed':10 },FALSE,235,200,,,,,2,(R:1,C:8),{ chips  'CTRed':33 'CTGreen':0 'CTPurple':0 'grey78':8 'CTYellow':4 },225,{ chips  'CTRed':0 'CTGreen':0 'CTPurple':7 'grey78':4 'CTYellow':0 },55,{ chips  'CTRed':33 'CTGreen':0 'CTPurple':7 'grey78':0 'CTYellow':0 },200
3playersLog_1377184378782.csv,7,530,500,false,{ chips  },{ chips  },FALSE,55,225,,,,,1,(R:0,C:8),{ chips  'CTRed':33 'CTGreen':0 'CTPurple':0 'grey78':8 'CTYellow':3 },370,{ chips  'CTRed':0 'CTGreen':0 'CTPurple':7 'grey78':4 'CTYellow':0 },205,{ chips  'CTRed':33 'CTGreen':0 'CTPurple':7 'grey78':0 'CTYellow':0 },200
3playersLog_1377184378782.csv,7,540,500,false,{ chips  'CTRed':16 'CTPurple':7 },{ chips  'CTYellow':4 },FALSE,200,225,,,,,1,(R:0,C:8),{ chips  'CTRed':33 'CTGreen':0 'CTPurple':0 'grey78':8 'CTYellow':3 },370,{ chips  'CTRed':0 'CTGreen':0 'CTPurple':7 'grey78':4 'CTYellow':0 },205,{ chips  'CTRed':33 'CTGreen':0 'CTPurple':7 'grey78':0 'CTYellow':0 },200
3playersLog_1377184378782.csv,,,,,,,,,,,,,,,,,,,,,,,,true
