Tue Sep 03 15:36:37 IDT 2013	This is the CT debug logger; svn version 638; sep 27 09
Tue Sep 03 15:36:37 IDT 2013	Tue Sep 03 15:36:37 IDT 2013
Tue Sep 03 15:36:37 IDT 2013	ThreePlayersAgentPlayer(): entering.
Tue Sep 03 15:36:49 IDT 2013	phaseAdvanced(): entering.
Tue Sep 03 15:36:49 IDT 2013	phaseAdvanced(): new phase is 'Strategy Prep Phase'.
Tue Sep 03 15:37:49 IDT 2013	phaseAdvanced(): entering.
Tue Sep 03 15:37:49 IDT 2013	phaseAdvanced(): new phase is 'Communication Phase'.
Tue Sep 03 15:38:04 IDT 2013	onReceipt(): entering.
Tue Sep 03 15:38:04 IDT 2013	phaseAdvanced(): entering.
Tue Sep 03 15:38:04 IDT 2013	phaseAdvanced(): new phase is 'Movement Phase'.
Tue Sep 03 15:38:48 IDT 2013	phaseAdvanced(): entering.
Tue Sep 03 15:38:48 IDT 2013	phaseAdvanced(): new phase is 'Feedback Phase'.
Tue Sep 03 15:38:53 IDT 2013	phaseAdvanced(): entering.
Tue Sep 03 15:38:53 IDT 2013	phaseAdvanced(): new phase is 'Communication Phase'.
Tue Sep 03 15:40:26 IDT 2013	phaseAdvanced(): entering.
Tue Sep 03 15:40:26 IDT 2013	phaseAdvanced(): new phase is 'Movement Phase'.
Tue Sep 03 15:41:11 IDT 2013	phaseAdvanced(): entering.
Tue Sep 03 15:41:11 IDT 2013	phaseAdvanced(): new phase is 'Feedback Phase'.
Tue Sep 03 15:41:16 IDT 2013	phaseAdvanced(): entering.
Tue Sep 03 15:41:16 IDT 2013	phaseAdvanced(): new phase is 'Communication Phase'.
Tue Sep 03 15:41:41 IDT 2013	onReceipt(): entering.
Tue Sep 03 15:41:46 IDT 2013	phaseAdvanced(): entering.
Tue Sep 03 15:41:46 IDT 2013	phaseAdvanced(): new phase is 'Movement Phase'.
Tue Sep 03 15:42:30 IDT 2013	phaseAdvanced(): entering.
Tue Sep 03 15:42:30 IDT 2013	phaseAdvanced(): new phase is 'Feedback Phase'.
Tue Sep 03 15:42:35 IDT 2013	phaseAdvanced(): entering.
Tue Sep 03 15:42:35 IDT 2013	phaseAdvanced(): new phase is 'Communication Phase'.
Tue Sep 03 15:43:03 IDT 2013	phaseAdvanced(): entering.
Tue Sep 03 15:43:03 IDT 2013	phaseAdvanced(): new phase is 'Movement Phase'.
Tue Sep 03 15:43:47 IDT 2013	phaseAdvanced(): entering.
Tue Sep 03 15:43:47 IDT 2013	phaseAdvanced(): new phase is 'Feedback Phase'.
Tue Sep 03 15:43:52 IDT 2013	phaseAdvanced(): entering.
Tue Sep 03 15:43:52 IDT 2013	phaseAdvanced(): new phase is 'Communication Phase'.
Tue Sep 03 15:43:58 IDT 2013	onReceipt(): entering.
Tue Sep 03 15:45:00 IDT 2013	phaseAdvanced(): entering.
Tue Sep 03 15:45:00 IDT 2013	phaseAdvanced(): new phase is 'Movement Phase'.
Tue Sep 03 15:45:44 IDT 2013	phaseAdvanced(): entering.
Tue Sep 03 15:45:44 IDT 2013	phaseAdvanced(): new phase is 'Feedback Phase'.
Tue Sep 03 15:45:49 IDT 2013	phaseAdvanced(): entering.
Tue Sep 03 15:45:49 IDT 2013	phaseAdvanced(): new phase is 'Communication Phase'.
Tue Sep 03 15:47:44 IDT 2013	phaseAdvanced(): entering.
Tue Sep 03 15:47:44 IDT 2013	phaseAdvanced(): new phase is 'Movement Phase'.
Tue Sep 03 15:48:28 IDT 2013	phaseAdvanced(): entering.
Tue Sep 03 15:48:28 IDT 2013	phaseAdvanced(): new phase is 'Feedback Phase'.
Tue Sep 03 15:48:33 IDT 2013	phaseAdvanced(): entering.
Tue Sep 03 15:48:33 IDT 2013	phaseAdvanced(): new phase is 'Communication Phase'.
Tue Sep 03 15:48:37 IDT 2013	onReceipt(): entering.
Tue Sep 03 15:49:32 IDT 2013	phaseAdvanced(): entering.
Tue Sep 03 15:49:32 IDT 2013	phaseAdvanced(): new phase is 'Movement Phase'.
Tue Sep 03 15:50:16 IDT 2013	phaseAdvanced(): entering.
Tue Sep 03 15:50:16 IDT 2013	phaseAdvanced(): new phase is 'Feedback Phase'.
Tue Sep 03 15:50:21 IDT 2013	phaseAdvanced(): entering.
Tue Sep 03 15:50:21 IDT 2013	phaseAdvanced(): new phase is 'Communication Phase'.
Tue Sep 03 15:51:37 IDT 2013	phaseAdvanced(): entering.
Tue Sep 03 15:51:37 IDT 2013	phaseAdvanced(): new phase is 'Movement Phase'.
Tue Sep 03 15:52:21 IDT 2013	phaseAdvanced(): entering.
Tue Sep 03 15:52:21 IDT 2013	phaseAdvanced(): new phase is 'Feedback Phase'.
