filename,round,propID,respID,IsPropCustomer,chipsToSend,chipsToReceive,accept,propCurrentScore,respCurrentScore,actualSent,ActualRcvd,propResultingScore,respResultingScore,#ofCustomerMovesInRound,customerRowPositionAfterMovePhase,customerColPositionAfterMovePhase,Player100ChipsAfterMovePhase,Player100ScoreAfterMovePhase,Player200ChipsAfterMovePhase,Player200ScoreAfterMovePhase,Player300ChipsAfterMovePhase,Player300ScoreAfterMovePhase,generosityLevel,ClientReachedGoal
3playersLog_1388319849687.csv,1,530,500,false,{ chips  'CTRed':33 'CTPurple':7 },{ chips  'grey78':11 },TRUE,200,120,{ chips  'CTRed':33 'CTPurple':7 'CTYellow':0 },{ chips  'grey78':11 },55,265,2,(R:4,C:5),{ chips  'CTRed':33 'CTGreen':0 'CTPurple':7 'grey78':1 'CTYellow':10 },255,{ chips  'CTRed':0 'CTGreen':0 'CTPurple':0 'grey78':11 'CTYellow':0 },55,{ chips  'CTRed':33 'CTGreen':0 'CTPurple':7 'grey78':0 'CTYellow':0 },200
3playersLog_1388319849687.csv,2,500,530,true,{ chips  'CTRed':5 'CTYellow':3 },{ chips  'grey78':7 },TRUE,255,55,{ chips  'CTRed':5 'CTPurple':0 'CTGreen':0 'grey78':0 'CTYellow':3 },{ chips  'CTRed':0 'CTPurple':0 'CTGreen':0 'grey78':7 'CTYellow':0 },250,60,0,(R:4,C:5),{ chips  'CTRed':28 'CTGreen':0 'CTPurple':7 'grey78':8 'CTYellow':7 },250,{ chips  'CTRed':5 'CTGreen':0 'CTPurple':0 'grey78':4 'CTYellow':3 },60,{ chips  'CTRed':33 'CTGreen':0 'CTPurple':7 'grey78':0 'CTYellow':0 },200
3playersLog_1388319849687.csv,3,530,500,false,{ chips  'CTRed':5 'CTYellow':3 },{ chips  'grey78':7 },TRUE,60,250,{ chips  'CTRed':5 'CTPurple':0 'CTYellow':3 },{ chips  'grey78':7 },55,255,1,(R:3,C:5),{ chips  'CTRed':33 'CTGreen':0 'CTPurple':6 'grey78':1 'CTYellow':10 },250,{ chips  'CTRed':0 'CTGreen':0 'CTPurple':0 'grey78':11 'CTYellow':0 },55,{ chips  'CTRed':33 'CTGreen':0 'CTPurple':7 'grey78':0 'CTYellow':0 },200
3playersLog_1388319849687.csv,3,540,500,false,{ chips  'CTRed':28 'CTPurple':7 },{ chips  'CTYellow':7 },IGNORED,200,250,,,,,1,(R:3,C:5),{ chips  'CTRed':33 'CTGreen':0 'CTPurple':6 'grey78':1 'CTYellow':10 },250,{ chips  'CTRed':0 'CTGreen':0 'CTPurple':0 'grey78':11 'CTYellow':0 },55,{ chips  'CTRed':33 'CTGreen':0 'CTPurple':7 'grey78':0 'CTYellow':0 },200
3playersLog_1388319849687.csv,4,500,540,true,{ chips  },{ chips  'CTPurple':5 },TRUE,250,55,{ chips  'CTRed':0 'CTPurple':0 'CTGreen':0 'grey78':0 'CTYellow':0 },{ chips  'CTRed':0 'CTPurple':5 'CTGreen':0 'grey78':0 'CTYellow':0 },275,175,1,(R:3,C:4),{ chips  'CTRed':33 'CTGreen':0 'CTPurple':10 'grey78':1 'CTYellow':10 },270,{ chips  'CTRed':0 'CTGreen':0 'CTPurple':0 'grey78':11 'CTYellow':0 },55,{ chips  'CTRed':33 'CTGreen':0 'CTPurple':2 'grey78':0 'CTYellow':0 },175
3playersLog_1388319849687.csv,5,530,500,false,{ chips  },{ chips  },FALSE,55,270,,,,,0,(R:3,C:4),{ chips  'CTRed':33 'CTGreen':0 'CTPurple':10 'grey78':1 'CTYellow':10 },270,{ chips  'CTRed':0 'CTGreen':0 'CTPurple':0 'grey78':11 'CTYellow':0 },55,{ chips  'CTRed':33 'CTGreen':0 'CTPurple':2 'grey78':0 'CTYellow':0 },175
3playersLog_1388319849687.csv,5,540,500,false,{ chips  'CTRed':30 },{ chips  'CTYellow':5 },FALSE,175,270,,,,,0,(R:3,C:4),{ chips  'CTRed':33 'CTGreen':0 'CTPurple':10 'grey78':1 'CTYellow':10 },270,{ chips  'CTRed':0 'CTGreen':0 'CTPurple':0 'grey78':11 'CTYellow':0 },55,{ chips  'CTRed':33 'CTGreen':0 'CTPurple':2 'grey78':0 'CTYellow':0 },175
3playersLog_1388319849687.csv,6,500,530,true,{ chips  'CTYellow':2 },{ chips  'grey78':5 },FALSE,270,55,,,,,0,(R:3,C:4),{ chips  'CTRed':33 'CTGreen':0 'CTPurple':10 'grey78':1 'CTYellow':10 },270,{ chips  'CTRed':0 'CTGreen':0 'CTPurple':0 'grey78':11 'CTYellow':0 },55,{ chips  'CTRed':33 'CTGreen':0 'CTPurple':2 'grey78':0 'CTYellow':0 },175
3playersLog_1388319849687.csv,,,,,,,,,,,,,,,,,,,,,,,,false
