@relation LogsAnalysys_AGENT_TI_offers_PAL_ARG_Model

@attribute playerI_CS numeric
@attribute playerJ_CS numeric
@attribute playerI_Role {TI,TD}
@attribute playerJ_Role {TI,TD}
@attribute playerI_PR numeric
@attribute playerJ_PR numeric
@attribute playerI_Dormant numeric
@attribute playerJ_Dormant numeric
@attribute playerI_ReachedGoal {TRUE,FALSE}

@data
180.0,45.0,TI,TD,0.5,0.5,0,0,TRUE
190.0,45.0,TI,TD,1.0,1.0,0,1,TRUE
215.0,20.0,TI,TD,0.0,1.0,0,2,TRUE
215.0,20.0,TI,TD,0.0,1.0,0,2,TRUE
180.0,45.0,TI,TD,0.5,0.5,0,0,TRUE
195.0,40.0,TI,TD,0.5,1.0,0,1,TRUE
205.0,30.0,TI,TD,0.0,0.5,0,2,TRUE
205.0,30.0,TI,TD,0.0,0.5,0,2,TRUE
180.0,45.0,TI,TD,0.5,0.5,0,0,TRUE
185.0,50.0,TI,TD,1.0,1.0,0,1,TRUE
185.0,50.0,TI,TD,1.0,1.0,0,1,TRUE
195.0,40.0,TI,TD,0.0,1.0,0,2,TRUE
180.0,45.0,TI,TD,0.5,0.5,0,0,TRUE
190.0,45.0,TI,TD,0.5,1.0,0,1,TRUE
205.0,30.0,TI,TD,0.0,0.6,0,2,TRUE
180.0,45.0,TI,TD,0.5,0.5,0,0,TRUE
180.0,45.0,TI,TD,0.5,0.5,0,0,TRUE
190.0,55.0,TI,TD,1.0,1.0,0,1,TRUE
180.0,45.0,TI,TD,0.5,0.5,0,0,TRUE
180.0,45.0,TI,TD,0.5,0.5,0,0,TRUE
190.0,55.0,TI,TD,1.0,1.0,0,1,TRUE
190.0,55.0,TI,TD,1.0,1.0,0,1,TRUE
190.0,55.0,TI,TD,1.0,1.0,0,2,TRUE
180.0,45.0,TI,TD,0.5,0.5,0,0,TRUE
190.0,55.0,TI,TD,1.0,1.0,0,1,TRUE
190.0,55.0,TI,TD,1.0,1.0,0,1,TRUE
190.0,55.0,TI,TD,1.0,1.0,0,2,TRUE
180.0,45.0,TI,TD,0.5,0.5,0,0,TRUE
180.0,45.0,TI,TD,0.5,0.5,0,0,TRUE
195.0,50.0,TI,TD,1.0,1.0,0,1,TRUE
180.0,45.0,TI,TD,0.5,0.5,0,0,TRUE
185.0,60.0,TI,TD,1.0,1.0,0,1,TRUE
185.0,60.0,TI,TD,1.0,1.0,0,1,TRUE
180.0,45.0,TI,TD,0.5,0.5,0,0,TRUE
185.0,60.0,TI,TD,1.0,1.0,0,1,TRUE
180.0,45.0,TI,TD,0.5,0.5,0,0,TRUE
180.0,45.0,TI,TD,0.5,0.5,0,0,TRUE
190.0,55.0,TI,TD,1.0,1.0,0,1,TRUE
190.0,55.0,TI,TD,1.0,1.0,0,1,TRUE
190.0,55.0,TI,TD,1.0,1.0,0,2,TRUE
180.0,45.0,TI,TD,0.5,0.5,0,0,TRUE
195.0,40.0,TI,TD,0.5,1.0,0,1,TRUE
215.0,20.0,TI,TD,0.0,1.0,0,2,TRUE
180.0,45.0,TI,TD,0.5,0.5,0,0,TRUE
185.0,60.0,TI,TD,1.0,1.0,0,1,TRUE
185.0,60.0,TI,TD,1.0,1.0,0,1,TRUE
180.0,45.0,TI,TD,0.5,0.5,0,0,TRUE
185.0,60.0,TI,TD,1.0,1.0,0,1,TRUE
185.0,60.0,TI,TD,1.0,1.0,0,1,TRUE
180.0,45.0,TI,TD,0.5,0.5,0,0,TRUE
185.0,60.0,TI,TD,1.0,1.0,0,1,TRUE
185.0,60.0,TI,TD,1.0,1.0,0,1,TRUE
180.0,45.0,TI,TD,0.5,0.5,0,0,TRUE
185.0,60.0,TI,TD,1.0,1.0,0,1,TRUE
180.0,45.0,TI,TD,0.5,0.5,0,0,TRUE
180.0,45.0,TI,TD,0.5,0.5,0,0,TRUE
190.0,55.0,TI,TD,1.0,1.0,0,1,TRUE
190.0,55.0,TI,TD,1.0,1.0,0,1,TRUE
180.0,45.0,TI,TD,0.5,0.5,0,0,TRUE
180.0,45.0,TI,TD,0.5,0.5,0,0,TRUE
190.0,55.0,TI,TD,1.0,1.0,0,1,TRUE
190.0,55.0,TI,TD,1.0,1.0,0,1,TRUE
190.0,55.0,TI,TD,1.0,1.0,0,2,TRUE
190.0,55.0,TI,TD,1.0,1.0,0,2,TRUE
180.0,45.0,TI,TD,0.5,0.5,0,0,TRUE
185.0,60.0,TI,TD,1.0,1.0,0,1,TRUE
180.0,45.0,TI,TD,0.5,0.5,0,0,TRUE
180.0,45.0,TI,TD,0.5,0.5,0,0,TRUE
195.0,30.0,TI,TD,0.5,0.5,0,1,TRUE
205.0,40.0,TI,TD,1.0,1.0,0,2,TRUE
205.0,40.0,TI,TD,1.0,1.0,0,2,TRUE
180.0,45.0,TI,TD,0.5,0.5,0,0,TRUE
180.0,45.0,TI,TD,0.5,0.5,0,0,TRUE
180.0,45.0,TI,TD,0.5,0.5,0,1,TRUE
190.0,55.0,TI,TD,1.0,1.0,0,2,TRUE
190.0,55.0,TI,TD,1.0,1.0,0,2,TRUE
180.0,45.0,TI,TD,0.5,0.5,0,0,TRUE
180.0,45.0,TI,TD,0.5,0.5,0,0,TRUE
190.0,55.0,TI,TD,1.0,1.0,0,1,TRUE
190.0,55.0,TI,TD,1.0,1.0,0,1,TRUE
190.0,55.0,TI,TD,1.0,1.0,0,2,TRUE
180.0,45.0,TI,TD,0.5,0.5,0,0,TRUE
205.0,30.0,TI,TD,0.5,1.0,0,1,TRUE
210.0,25.0,TI,TD,0.0,0.2,0,2,TRUE
210.0,25.0,TI,TD,0.0,0.2,0,2,TRUE
180.0,45.0,TI,TD,0.5,0.5,0,0,TRUE
185.0,60.0,TI,TD,1.0,1.0,0,1,TRUE
185.0,60.0,TI,TD,1.0,1.0,0,1,TRUE
180.0,45.0,TI,TD,0.5,0.5,0,0,TRUE
180.0,45.0,TI,TD,0.5,0.5,0,0,TRUE
195.0,50.0,TI,TD,1.0,1.0,0,1,TRUE
195.0,50.0,TI,TD,1.0,1.0,0,1,TRUE
180.0,45.0,TI,TD,0.5,0.5,0,0,TRUE
180.0,45.0,TI,TD,0.5,0.5,0,0,TRUE
180.0,45.0,TI,TD,0.5,0.5,0,1,TRUE
190.0,55.0,TI,TD,1.0,1.0,0,2,TRUE
190.0,55.0,TI,TD,1.0,1.0,0,2,TRUE
180.0,45.0,TI,TD,0.5,0.5,0,0,TRUE
180.0,45.0,TI,TD,0.5,0.5,0,0,TRUE
190.0,55.0,TI,TD,1.0,1.0,0,1,TRUE
190.0,55.0,TI,TD,1.0,1.0,0,1,TRUE
180.0,45.0,TI,TD,0.5,0.5,0,0,TRUE
185.0,60.0,TI,TD,1.0,1.0,0,1,TRUE
185.0,60.0,TI,TD,1.0,1.0,0,1,TRUE
180.0,45.0,TI,TD,0.5,0.5,0,0,TRUE
180.0,45.0,TI,TD,0.5,0.5,0,0,TRUE
190.0,55.0,TI,TD,1.0,1.0,0,1,TRUE
190.0,55.0,TI,TD,1.0,1.0,0,1,TRUE
180.0,45.0,TI,TD,0.5,0.5,0,0,TRUE
180.0,45.0,TI,TD,0.5,0.5,0,0,TRUE
195.0,50.0,TI,TD,1.0,1.0,0,1,TRUE
195.0,50.0,TI,TD,1.0,1.0,0,1,TRUE
180.0,45.0,TI,TD,0.5,0.5,0,0,TRUE
180.0,45.0,TI,TD,0.5,0.5,0,0,TRUE
195.0,50.0,TI,TD,1.0,1.0,0,1,TRUE
195.0,50.0,TI,TD,1.0,1.0,0,1,TRUE
195.0,50.0,TI,TD,1.0,1.0,0,2,TRUE
180.0,45.0,TI,TD,0.5,0.5,0,0,TRUE
185.0,60.0,TI,TD,1.0,1.0,0,1,TRUE
185.0,60.0,TI,TD,1.0,1.0,0,1,TRUE
180.0,45.0,TI,TD,0.5,0.5,0,0,TRUE
180.0,45.0,TI,TD,0.5,0.5,0,0,TRUE
195.0,50.0,TI,TD,1.0,1.0,0,1,TRUE
180.0,45.0,TI,TD,0.5,0.5,0,0,TRUE
180.0,45.0,TI,TD,0.5,0.5,0,0,TRUE
195.0,40.0,TI,TD,0.5,1.0,0,1,TRUE
195.0,40.0,TI,TD,0.5,1.0,0,1,TRUE
210.0,25.0,TI,TD,0.0,0.6,0,2,TRUE
210.0,25.0,TI,TD,0.0,0.6,0,2,TRUE
180.0,45.0,TI,TD,0.5,0.5,0,0,TRUE
185.0,60.0,TI,TD,1.0,1.0,0,1,TRUE
185.0,60.0,TI,TD,1.0,1.0,0,1,TRUE
180.0,45.0,TI,TD,0.5,0.5,0,0,TRUE
180.0,45.0,TI,TD,0.5,0.5,0,0,TRUE
190.0,55.0,TI,TD,1.0,1.0,0,1,TRUE
180.0,45.0,TI,TD,0.5,0.5,0,0,TRUE
185.0,60.0,TI,TD,1.0,1.0,0,1,TRUE
180.0,45.0,TI,TD,0.5,0.5,0,0,TRUE
195.0,40.0,TI,TD,0.5,1.0,0,1,TRUE
200.0,35.0,TI,TD,0.0,0.25,0,2,TRUE
200.0,35.0,TI,TD,0.0,0.25,0,2,TRUE
180.0,45.0,TI,TD,0.5,0.5,0,0,TRUE
180.0,45.0,TI,TD,0.5,0.5,0,0,TRUE
195.0,40.0,TI,TD,0.5,1.0,0,1,TRUE
195.0,40.0,TI,TD,0.5,1.0,0,1,TRUE
195.0,40.0,TI,TD,0.0,0.0,0,2,TRUE
180.0,45.0,TI,TD,0.5,0.5,0,0,TRUE
180.0,45.0,TI,TD,0.5,0.5,0,0,TRUE
195.0,50.0,TI,TD,1.0,1.0,0,1,TRUE
195.0,50.0,TI,TD,1.0,1.0,0,1,TRUE
180.0,45.0,TI,TD,0.5,0.5,0,0,TRUE
180.0,45.0,TI,TD,0.5,0.5,0,0,TRUE
195.0,50.0,TI,TD,1.0,1.0,0,1,TRUE
195.0,50.0,TI,TD,1.0,1.0,0,1,TRUE
205.0,40.0,TI,TD,1.0,0.6666666666666666,0,2,TRUE
205.0,40.0,TI,TD,1.0,0.6666666666666666,0,2,TRUE
180.0,45.0,TI,TD,0.5,0.5,0,0,TRUE
180.0,45.0,TI,TD,0.5,0.5,0,0,TRUE
190.0,55.0,TI,TD,1.0,1.0,0,1,TRUE
180.0,45.0,TI,TD,0.5,0.5,0,0,TRUE
185.0,60.0,TI,TD,1.0,1.0,0,1,TRUE
180.0,45.0,TI,TD,0.5,0.5,0,0,TRUE
180.0,45.0,TI,TD,0.5,0.5,0,0,TRUE
185.0,50.0,TI,TD,0.5,0.5,0,1,TRUE
185.0,50.0,TI,TD,0.5,0.5,0,1,TRUE
195.0,40.0,TI,TD,0.0,1.0,0,2,TRUE
195.0,40.0,TI,TD,0.0,1.0,0,2,TRUE
180.0,45.0,TI,TD,0.5,0.5,0,0,TRUE
190.0,45.0,TI,TD,0.5,1.0,0,1,TRUE
200.0,35.0,TI,TD,0.0,0.5,0,2,TRUE
180.0,45.0,TI,TD,0.5,0.5,0,0,TRUE
180.0,45.0,TI,TD,0.5,0.5,0,0,TRUE
195.0,40.0,TI,TD,0.5,1.0,0,1,TRUE
200.0,35.0,TI,TD,0.0,0.2,0,2,TRUE
200.0,35.0,TI,TD,0.0,0.2,0,2,TRUE
180.0,45.0,TI,TD,0.5,0.5,0,0,TRUE
180.0,45.0,TI,TD,0.5,0.5,0,0,TRUE
195.0,40.0,TI,TD,0.5,1.0,0,1,TRUE
215.0,20.0,TI,TD,0.0,1.0,0,2,TRUE
180.0,45.0,TI,TD,0.5,0.5,0,0,TRUE
190.0,45.0,TI,TD,1.0,1.0,0,1,TRUE
190.0,45.0,TI,TD,1.0,1.0,0,1,TRUE
200.0,35.0,TI,TD,0.0,1.0,0,2,TRUE
200.0,35.0,TI,TD,0.0,1.0,0,2,TRUE
