Thu Nov 14 17:29:12 EST 2013	This is the CT debug logger; svn version 638; sep 27 09
Thu Nov 14 17:29:12 EST 2013	Thu Nov 14 17:29:12 EST 2013
Thu Nov 14 17:29:12 EST 2013	ID Number: 62176
Thu Nov 14 17:29:12 EST 2013	Creating board
Thu Nov 14 17:29:12 EST 2013	<colors>
Thu Nov 14 17:29:12 EST 2013	{ GamePalette  'CTPurple':0 'CTRed':1 'CTGreen':2 'grey78':3 'CTYellow':4 }
Thu Nov 14 17:29:12 EST 2013	<rows>
Thu Nov 14 17:29:12 EST 2013	6
Thu Nov 14 17:29:12 EST 2013	<columns>
Thu Nov 14 17:29:12 EST 2013	9
Thu Nov 14 17:29:12 EST 2013	<squaresColors>
Thu Nov 14 17:29:12 EST 2013	grey78 CTGreen CTGreen CTGreen CTGreen CTGreen CTGreen CTGreen CTYellow 
Thu Nov 14 17:29:12 EST 2013	grey78 CTPurple CTPurple CTPurple CTPurple CTPurple CTPurple CTPurple CTYellow 
Thu Nov 14 17:29:12 EST 2013	grey78 grey78 CTGreen CTGreen CTGreen CTGreen CTGreen CTYellow CTYellow 
Thu Nov 14 17:29:12 EST 2013	CTGreen grey78 grey78 CTPurple CTPurple CTPurple CTYellow CTYellow CTGreen 
Thu Nov 14 17:29:12 EST 2013	CTGreen CTGreen grey78 grey78 CTGreen CTYellow CTYellow CTGreen CTGreen 
Thu Nov 14 17:29:12 EST 2013	CTGreen CTGreen CTGreen grey78 CTGreen CTYellow CTGreen CTGreen CTGreen 
Thu Nov 14 17:29:12 EST 2013	</squareColors>
Thu Nov 14 17:29:12 EST 2013	<goalPosition>
Thu Nov 14 17:29:12 EST 2013	Goal position: (R:0,C:0)
Thu Nov 14 17:29:12 EST 2013	<goalPosition>
Thu Nov 14 17:29:12 EST 2013	Goal position: (R:0,C:0)
Thu Nov 14 17:29:12 EST 2013	<firstPlayerPossibleGoal1>
Thu Nov 14 17:29:12 EST 2013	0.5
Thu Nov 14 17:29:12 EST 2013	0
Thu Nov 14 17:29:12 EST 2013	0
Thu Nov 14 17:29:12 EST 2013	</firstPlayerPossibleGoal1>
Thu Nov 14 17:29:12 EST 2013	<firstPlayerPossibleGoal2>
Thu Nov 14 17:29:12 EST 2013	0.5
Thu Nov 14 17:29:12 EST 2013	0
Thu Nov 14 17:29:12 EST 2013	8
Thu Nov 14 17:29:12 EST 2013	</firstPlayerPossibleGoal2>
Thu Nov 14 17:29:12 EST 2013	<numberOfPlayers>
Thu Nov 14 17:29:12 EST 2013	3
Thu Nov 14 17:29:12 EST 2013	<firstPlayerChips>
Thu Nov 14 17:29:12 EST 2013	Setting chips for player: 100 id:0
Thu Nov 14 17:29:12 EST 2013	{ chips  'CTRed':0 'CTGreen':0 'CTPurple':0 'grey78':12 'CTYellow':12 }
Thu Nov 14 17:29:12 EST 2013	Player position: (R:5,C:4)
Thu Nov 14 17:29:12 EST 2013	Setting chips for player: 200 id:1
Thu Nov 14 17:29:12 EST 2013	{ chips  'CTRed':33 'CTGreen':0 'CTPurple':7 'grey78':0 'CTYellow':0 }
Thu Nov 14 17:29:12 EST 2013	Player position: (R:0,C:8)
Thu Nov 14 17:29:12 EST 2013	Setting chips for player: 300 id:2
Thu Nov 14 17:29:12 EST 2013	{ chips  'CTRed':33 'CTGreen':0 'CTPurple':7 'grey78':0 'CTYellow':0 }
Thu Nov 14 17:29:12 EST 2013	Player position: (R:0,C:0)
Thu Nov 14 17:29:12 EST 2013	Protocol: A New Phase Began: Strategy Prep Phase. loop is true
Thu Nov 14 17:29:12 EST 2013	---------- Beginning Strategy Prep Phase at round 0 ----------
Thu Nov 14 17:30:12 EST 2013	A Phase Ended: Strategy Prep Phase
Thu Nov 14 17:30:12 EST 2013	Protocol: A New Phase Began: Communication Phase. loop is true
Thu Nov 14 17:30:12 EST 2013	---------- Beginning Communication Phase at round 1 ----------
Thu Nov 14 17:30:31 EST 2013	Received communication message 
Thu Nov 14 17:30:31 EST 2013	From player: 300
Thu Nov 14 17:30:31 EST 2013	To player: 100
Thu Nov 14 17:30:31 EST 2013	Chips to send by proposer: { chips  'CTRed':20 'CTPurple':3 'CTGreen':0 'grey78':0 'CTYellow':0 }
Thu Nov 14 17:30:31 EST 2013	Chips to send by responder: { chips  'CTRed':0 'CTPurple':0 'CTGreen':0 'grey78':0 'CTYellow':0 }
Thu Nov 14 17:30:43 EST 2013	Received communication message 
Thu Nov 14 17:30:43 EST 2013	Proposer 1 accepted? true
Thu Nov 14 17:30:43 EST 2013	A Phase Ended: Communication Phase
Thu Nov 14 17:30:43 EST 2013	Protocol: A New Phase Began: Movement Phase. loop is true
Thu Nov 14 17:30:43 EST 2013	---------- Beginning Movement Phase at round 1 ----------
Thu Nov 14 17:30:43 EST 2013	remove strategy phase. 
Thu Nov 14 17:31:28 EST 2013	A Phase Ended: Movement Phase
Thu Nov 14 17:31:28 EST 2013	Protocol: A New Phase Began: Feedback Phase. loop is true
Thu Nov 14 17:31:28 EST 2013	---------- Beginning Feedback Phase at round 1 ----------
Thu Nov 14 17:31:28 EST 2013	Number of consecutive no movements for player 100 is 0
Thu Nov 14 17:31:28 EST 2013	TDPlayerPosition is(R:4,C:5)goal location 0(R:0,C:0)goal location 1(R:0,C:8)
Thu Nov 14 17:31:28 EST 2013	ended is false
Thu Nov 14 17:31:33 EST 2013	A Phase Ended: Feedback Phase
Thu Nov 14 17:31:33 EST 2013	 numberofMoves in round 1 is 7
Thu Nov 14 17:31:33 EST 2013	Swaping roles:
Thu Nov 14 17:31:33 EST 2013	Protocol: A New Phase Began: Communication Phase. loop is true
Thu Nov 14 17:31:33 EST 2013	---------- Beginning Communication Phase at round 2 ----------
Thu Nov 14 17:32:05 EST 2013	Received communication message 
Thu Nov 14 17:32:05 EST 2013	From player: 100
Thu Nov 14 17:32:05 EST 2013	To player: 200
Thu Nov 14 17:32:05 EST 2013	Chips to send by proposer: { chips  'CTRed':0 'CTPurple':1 'CTGreen':0 'grey78':1 'CTYellow':0 }
Thu Nov 14 17:32:05 EST 2013	Chips to send by responder: { chips  'CTRed':0 'CTPurple':0 'CTGreen':0 'grey78':0 'CTYellow':0 }
Thu Nov 14 17:32:25 EST 2013	Received communication message 
Thu Nov 14 17:32:25 EST 2013	Proposer 0 accepted? true
Thu Nov 14 17:32:25 EST 2013	A Phase Ended: Communication Phase
Thu Nov 14 17:32:25 EST 2013	Protocol: A New Phase Began: Movement Phase. loop is true
Thu Nov 14 17:32:25 EST 2013	---------- Beginning Movement Phase at round 2 ----------
Thu Nov 14 17:33:10 EST 2013	A Phase Ended: Movement Phase
Thu Nov 14 17:33:10 EST 2013	Protocol: A New Phase Began: Feedback Phase. loop is true
Thu Nov 14 17:33:10 EST 2013	---------- Beginning Feedback Phase at round 2 ----------
Thu Nov 14 17:33:10 EST 2013	The TD player reached the goal, end the game
Thu Nov 14 17:33:10 EST 2013	ended is true
Thu Nov 14 17:33:15 EST 2013	A Phase Ended: Feedback Phase
Thu Nov 14 17:33:15 EST 2013	 numberofMoves in round 2 is 2
Thu Nov 14 17:33:15 EST 2013	Loop status: false
Thu Nov 14 17:33:15 EST 2013	Player: 300 ,role: Responder score is: 85
Thu Nov 14 17:33:15 EST 2013	Player: 300Game Ended
Thu Nov 14 17:33:15 EST 2013	Player: 200 ,role: Responder score is: 360
Thu Nov 14 17:33:15 EST 2013	Player: 200Game Ended
Thu Nov 14 17:33:15 EST 2013	Player: 100 ,role: Proposer score is: 330
Thu Nov 14 17:33:15 EST 2013	Player: 100Game Ended
Thu Nov 14 17:33:15 EST 2013	Protocol: A New Phase Began: Communication Phase. loop is false
Thu Nov 14 17:33:15 EST 2013	---------- Beginning Communication Phase at round 2 ----------
Thu Nov 14 17:36:15 EST 2013	A Phase Ended: Communication Phase
Thu Nov 14 17:36:15 EST 2013	Protocol: A New Phase Began: Movement Phase. loop is false
Thu Nov 14 17:36:15 EST 2013	---------- Beginning Movement Phase at round 2 ----------
Thu Nov 14 17:37:00 EST 2013	A Phase Ended: Movement Phase
Thu Nov 14 17:37:00 EST 2013	Protocol: A New Phase Began: Feedback Phase. loop is false
Thu Nov 14 17:37:00 EST 2013	---------- Beginning Feedback Phase at round 2 ----------
Thu Nov 14 17:37:00 EST 2013	The TD player reached the goal, end the game
Thu Nov 14 17:37:00 EST 2013	ended is true
Thu Nov 14 17:37:05 EST 2013	A Phase Ended: Feedback Phase
Thu Nov 14 17:37:05 EST 2013	 numberofMoves in round 2 is 0
Thu Nov 14 17:37:05 EST 2013	Loop status: false
Thu Nov 14 17:37:05 EST 2013	Player: 300 ,role: GameEnded score is: 85
Thu Nov 14 17:37:05 EST 2013	Player: 300Game Ended
Thu Nov 14 17:37:05 EST 2013	Player: 200 ,role: GameEnded score is: 360
Thu Nov 14 17:37:05 EST 2013	Player: 200Game Ended
Thu Nov 14 17:37:05 EST 2013	Player: 100 ,role: GameEnded score is: 330
Thu Nov 14 17:37:05 EST 2013	Player: 100Game Ended
