filename,round,propID,respID,IsPropCustomer,chipsToSend,chipsToReceive,accept,propCurrentScore,respCurrentScore,actualSent,ActualRcvd,propResultingScore,respResultingScore,#ofCustomerMovesInRound,customerRowPositionAfterMovePhase,customerColPositionAfterMovePhase,Player100ChipsAfterMovePhase,Player100ScoreAfterMovePhase,Player200ChipsAfterMovePhase,Player200ScoreAfterMovePhase,Player300ChipsAfterMovePhase,Player300ScoreAfterMovePhase,generosityLevel,ClientReachedGoal
3playersLog_1388925839953.csv,1,520,510,false,{ chips  'CTRed':6 'CTPurple':7 },{ chips  'grey78':8 },TRUE,200,120,{ chips  'CTRed':6 'CTPurple':7 'CTGreen':0 'grey78':0 'CTYellow':0 },{ chips  'CTRed':0 'CTPurple':0 'CTGreen':0 'grey78':8 'CTYellow':0 },175,145,0,(R:5,C:4),{ chips  'CTRed':6 'CTGreen':0 'CTPurple':7 'grey78':4 'CTYellow':12 },145,{ chips  'CTRed':27 'CTGreen':0 'CTPurple':0 'grey78':8 'CTYellow':0 },175,{ chips  'CTRed':33 'CTGreen':0 'CTPurple':7 'grey78':0 'CTYellow':0 },200
3playersLog_1388925839953.csv,1,540,510,false,{ chips  'CTRed':20 },{ chips  'CTYellow':12 },IGNORED,200,120,,,,,0,(R:5,C:4),{ chips  'CTRed':6 'CTGreen':0 'CTPurple':7 'grey78':4 'CTYellow':12 },145,{ chips  'CTRed':27 'CTGreen':0 'CTPurple':0 'grey78':8 'CTYellow':0 },175,{ chips  'CTRed':33 'CTGreen':0 'CTPurple':7 'grey78':0 'CTYellow':0 },200
3playersLog_1388925839953.csv,2,510,520,true,{ chips  'grey78':3 },{ chips  'CTRed':27 },TRUE,145,175,{ chips  'grey78':3 },{ chips  'CTRed':27 'CTPurple':0 'CTYellow':0 },265,55,9,(R:0,C:8),{ chips  'CTRed':33 'CTGreen':0 'CTPurple':7 'grey78':1 'CTYellow':3 },370,{ chips  'CTRed':0 'CTGreen':0 'CTPurple':0 'grey78':11 'CTYellow':0 },205,{ chips  'CTRed':33 'CTGreen':0 'CTPurple':7 'grey78':0 'CTYellow':0 },200
3playersLog_1388925839953.csv,,,,,,,,,,,,,,,,,,,,,,,,true
