Wed Sep 11 11:08:10 IST 2013	This is the CT debug logger; svn version 638; sep 27 09
Wed Sep 11 11:08:10 IST 2013	Wed Sep 11 11:08:10 IST 2013
Wed Sep 11 11:08:10 IST 2013	ID Number: 60034
Wed Sep 11 11:08:10 IST 2013	Creating board
Wed Sep 11 11:08:10 IST 2013	<colors>
Wed Sep 11 11:08:10 IST 2013	{ GamePalette  'CTPurple':0 'CTRed':1 'CTGreen':2 'grey78':3 'CTYellow':4 }
Wed Sep 11 11:08:10 IST 2013	<rows>
Wed Sep 11 11:08:10 IST 2013	6
Wed Sep 11 11:08:10 IST 2013	<columns>
Wed Sep 11 11:08:10 IST 2013	9
Wed Sep 11 11:08:10 IST 2013	<squaresColors>
Wed Sep 11 11:08:10 IST 2013	grey78 CTGreen CTGreen CTGreen CTGreen CTGreen CTGreen CTGreen CTYellow 
Wed Sep 11 11:08:10 IST 2013	grey78 CTPurple CTPurple CTPurple CTPurple CTPurple CTPurple CTPurple CTYellow 
Wed Sep 11 11:08:10 IST 2013	grey78 grey78 CTGreen CTGreen CTGreen CTGreen CTGreen CTYellow CTYellow 
Wed Sep 11 11:08:10 IST 2013	CTGreen grey78 grey78 CTPurple CTPurple CTPurple CTYellow CTYellow CTGreen 
Wed Sep 11 11:08:10 IST 2013	CTGreen CTGreen grey78 grey78 CTGreen CTYellow CTYellow CTGreen CTGreen 
Wed Sep 11 11:08:10 IST 2013	CTGreen CTGreen CTGreen grey78 CTGreen CTYellow CTGreen CTGreen CTGreen 
Wed Sep 11 11:08:10 IST 2013	</squareColors>
Wed Sep 11 11:08:10 IST 2013	<goalPosition>
Wed Sep 11 11:08:10 IST 2013	Goal position: (R:0,C:0)
Wed Sep 11 11:08:10 IST 2013	<goalPosition>
Wed Sep 11 11:08:10 IST 2013	Goal position: (R:0,C:0)
Wed Sep 11 11:08:10 IST 2013	<firstPlayerPossibleGoal1>
Wed Sep 11 11:08:10 IST 2013	0.5
Wed Sep 11 11:08:10 IST 2013	0
Wed Sep 11 11:08:10 IST 2013	0
Wed Sep 11 11:08:10 IST 2013	</firstPlayerPossibleGoal1>
Wed Sep 11 11:08:10 IST 2013	<firstPlayerPossibleGoal2>
Wed Sep 11 11:08:10 IST 2013	0.5
Wed Sep 11 11:08:10 IST 2013	0
Wed Sep 11 11:08:10 IST 2013	8
Wed Sep 11 11:08:10 IST 2013	</firstPlayerPossibleGoal2>
Wed Sep 11 11:08:10 IST 2013	<numberOfPlayers>
Wed Sep 11 11:08:10 IST 2013	3
Wed Sep 11 11:08:10 IST 2013	<firstPlayerChips>
Wed Sep 11 11:08:10 IST 2013	Setting chips for player: 510 id:0
Wed Sep 11 11:08:10 IST 2013	{ chips  'CTRed':0 'CTGreen':0 'CTPurple':0 'grey78':12 'CTYellow':12 }
Wed Sep 11 11:08:10 IST 2013	Player position: (R:5,C:4)
Wed Sep 11 11:08:10 IST 2013	Setting chips for player: 520 id:1
Wed Sep 11 11:08:10 IST 2013	{ chips  'CTRed':33 'CTGreen':0 'CTPurple':7 'grey78':0 'CTYellow':0 }
Wed Sep 11 11:08:10 IST 2013	Player position: (R:0,C:8)
Wed Sep 11 11:08:10 IST 2013	Setting chips for player: 540 id:2
Wed Sep 11 11:08:10 IST 2013	{ chips  'CTRed':33 'CTGreen':0 'CTPurple':7 'grey78':0 'CTYellow':0 }
Wed Sep 11 11:08:10 IST 2013	Player position: (R:0,C:0)
Wed Sep 11 11:08:10 IST 2013	Protocol: A New Phase Began: Strategy Prep Phase. loop is true
Wed Sep 11 11:08:10 IST 2013	---------- Beginning Strategy Prep Phase at round 0 ----------
Wed Sep 11 11:09:10 IST 2013	A Phase Ended: Strategy Prep Phase
Wed Sep 11 11:09:10 IST 2013	Protocol: A New Phase Began: Communication Phase. loop is true
Wed Sep 11 11:09:10 IST 2013	---------- Beginning Communication Phase at round 1 ----------
Wed Sep 11 11:09:31 IST 2013	Received communication message 
Wed Sep 11 11:09:31 IST 2013	From player: 520
Wed Sep 11 11:09:31 IST 2013	To player: 510
Wed Sep 11 11:09:31 IST 2013	Chips to send by proposer: { chips  'CTRed':8 'CTPurple':2 'CTGreen':0 'grey78':0 'CTYellow':0 }
Wed Sep 11 11:09:31 IST 2013	Chips to send by responder: { chips  'CTRed':0 'CTPurple':0 'CTGreen':0 'grey78':4 'CTYellow':0 }
Wed Sep 11 11:11:06 IST 2013	Received communication message 
Wed Sep 11 11:11:06 IST 2013	From player: 540
Wed Sep 11 11:11:06 IST 2013	To player: 510
Wed Sep 11 11:11:06 IST 2013	Chips to send by proposer: { chips  'CTRed':14 'CTPurple':0 'CTGreen':0 'grey78':0 'CTYellow':0 }
Wed Sep 11 11:11:06 IST 2013	Chips to send by responder: { chips  'CTRed':0 'CTPurple':0 'CTGreen':0 'grey78':0 'CTYellow':7 }
Wed Sep 11 11:11:07 IST 2013	Received communication message 
Wed Sep 11 11:11:07 IST 2013	Proposer 1 accepted? true
Wed Sep 11 11:11:07 IST 2013	A Phase Ended: Communication Phase
Wed Sep 11 11:11:07 IST 2013	Protocol: A New Phase Began: Movement Phase. loop is true
Wed Sep 11 11:11:07 IST 2013	---------- Beginning Movement Phase at round 1 ----------
Wed Sep 11 11:11:07 IST 2013	remove strategy phase. 
Wed Sep 11 11:11:07 IST 2013	Received communication message 
Wed Sep 11 11:11:07 IST 2013	Proposer 0 accepted? false
Wed Sep 11 11:11:51 IST 2013	A Phase Ended: Movement Phase
Wed Sep 11 11:11:51 IST 2013	Protocol: A New Phase Began: Feedback Phase. loop is true
Wed Sep 11 11:11:51 IST 2013	---------- Beginning Feedback Phase at round 1 ----------
Wed Sep 11 11:11:51 IST 2013	Number of consecutive no movements for player 510 is 1
Wed Sep 11 11:11:51 IST 2013	TDPlayerPosition is(R:5,C:4)goal location 0(R:0,C:0)goal location 1(R:0,C:8)
Wed Sep 11 11:11:51 IST 2013	ended is false
Wed Sep 11 11:11:56 IST 2013	A Phase Ended: Feedback Phase
Wed Sep 11 11:11:56 IST 2013	 numberofMoves in round 1 is 0
Wed Sep 11 11:11:56 IST 2013	Swaping roles:
Wed Sep 11 11:11:56 IST 2013	Protocol: A New Phase Began: Communication Phase. loop is true
Wed Sep 11 11:11:56 IST 2013	---------- Beginning Communication Phase at round 2 ----------
Wed Sep 11 11:11:57 IST 2013	Received communication message 
Wed Sep 11 11:11:57 IST 2013	From player: 510
Wed Sep 11 11:11:57 IST 2013	To player: 540
Wed Sep 11 11:11:57 IST 2013	Chips to send by proposer: { chips  'CTYellow':4 }
Wed Sep 11 11:11:57 IST 2013	Chips to send by responder: { chips  'CTRed':19 'CTPurple':7 'grey78':0 }
Wed Sep 11 11:12:39 IST 2013	Received communication message 
Wed Sep 11 11:12:39 IST 2013	Proposer 1 accepted? false
Wed Sep 11 11:12:39 IST 2013	case that we had one reject, and one accept
Wed Sep 11 11:12:39 IST 2013	A Phase Ended: Communication Phase
Wed Sep 11 11:12:39 IST 2013	Protocol: A New Phase Began: Movement Phase. loop is true
Wed Sep 11 11:12:39 IST 2013	---------- Beginning Movement Phase at round 2 ----------
Wed Sep 11 11:13:24 IST 2013	A Phase Ended: Movement Phase
Wed Sep 11 11:13:24 IST 2013	Protocol: A New Phase Began: Feedback Phase. loop is true
Wed Sep 11 11:13:24 IST 2013	---------- Beginning Feedback Phase at round 2 ----------
Wed Sep 11 11:13:24 IST 2013	Number of consecutive no movements for player 510 is 0
Wed Sep 11 11:13:24 IST 2013	TDPlayerPosition is(R:5,C:3)goal location 0(R:0,C:0)goal location 1(R:0,C:8)
Wed Sep 11 11:13:24 IST 2013	ended is false
Wed Sep 11 11:13:29 IST 2013	A Phase Ended: Feedback Phase
Wed Sep 11 11:13:29 IST 2013	 numberofMoves in round 2 is 1
Wed Sep 11 11:13:29 IST 2013	Swaping roles:
Wed Sep 11 11:13:29 IST 2013	Protocol: A New Phase Began: Communication Phase. loop is true
Wed Sep 11 11:13:29 IST 2013	---------- Beginning Communication Phase at round 3 ----------
Wed Sep 11 11:13:58 IST 2013	Received communication message 
Wed Sep 11 11:13:58 IST 2013	From player: 520
Wed Sep 11 11:13:58 IST 2013	To player: 510
Wed Sep 11 11:13:58 IST 2013	Chips to send by proposer: { chips  'CTRed':10 'CTPurple':0 'CTGreen':0 'grey78':0 'CTYellow':0 }
Wed Sep 11 11:13:58 IST 2013	Chips to send by responder: { chips  'CTRed':0 'CTPurple':0 'CTGreen':0 'grey78':3 'CTYellow':0 }
Wed Sep 11 11:14:41 IST 2013	Received communication message 
Wed Sep 11 11:14:41 IST 2013	From player: 540
Wed Sep 11 11:14:41 IST 2013	To player: 510
Wed Sep 11 11:14:41 IST 2013	Chips to send by proposer: { chips  'CTRed':5 'CTPurple':0 'CTGreen':0 'grey78':0 'CTYellow':0 }
Wed Sep 11 11:14:41 IST 2013	Chips to send by responder: { chips  'CTRed':0 'CTPurple':0 'CTGreen':0 'grey78':0 'CTYellow':2 }
Wed Sep 11 11:14:41 IST 2013	Received communication message 
Wed Sep 11 11:14:41 IST 2013	Proposer 0 accepted? true
Wed Sep 11 11:14:41 IST 2013	A Phase Ended: Communication Phase
Wed Sep 11 11:14:41 IST 2013	Protocol: A New Phase Began: Movement Phase. loop is true
Wed Sep 11 11:14:41 IST 2013	---------- Beginning Movement Phase at round 3 ----------
Wed Sep 11 11:14:41 IST 2013	Received communication message 
Wed Sep 11 11:14:41 IST 2013	Proposer 1 accepted? false
Wed Sep 11 11:15:26 IST 2013	A Phase Ended: Movement Phase
Wed Sep 11 11:15:26 IST 2013	Protocol: A New Phase Began: Feedback Phase. loop is true
Wed Sep 11 11:15:26 IST 2013	---------- Beginning Feedback Phase at round 3 ----------
Wed Sep 11 11:15:26 IST 2013	Number of consecutive no movements for player 510 is 1
Wed Sep 11 11:15:26 IST 2013	TDPlayerPosition is(R:5,C:3)goal location 0(R:0,C:0)goal location 1(R:0,C:8)
Wed Sep 11 11:15:26 IST 2013	ended is false
Wed Sep 11 11:15:31 IST 2013	A Phase Ended: Feedback Phase
Wed Sep 11 11:15:31 IST 2013	 numberofMoves in round 3 is 0
Wed Sep 11 11:15:31 IST 2013	Swaping roles:
Wed Sep 11 11:15:31 IST 2013	Protocol: A New Phase Began: Communication Phase. loop is true
Wed Sep 11 11:15:31 IST 2013	---------- Beginning Communication Phase at round 4 ----------
Wed Sep 11 11:15:31 IST 2013	Received communication message 
Wed Sep 11 11:15:31 IST 2013	From player: 510
Wed Sep 11 11:15:31 IST 2013	To player: 540
Wed Sep 11 11:15:31 IST 2013	Chips to send by proposer: { chips  'CTYellow':4 }
Wed Sep 11 11:15:31 IST 2013	Chips to send by responder: { chips  'CTRed':19 'CTPurple':7 'grey78':0 }
Wed Sep 11 11:17:19 IST 2013	Received communication message 
Wed Sep 11 11:17:19 IST 2013	Proposer 1 accepted? false
Wed Sep 11 11:17:19 IST 2013	case that we had one reject, and one accept
Wed Sep 11 11:17:19 IST 2013	A Phase Ended: Communication Phase
Wed Sep 11 11:17:19 IST 2013	Protocol: A New Phase Began: Movement Phase. loop is true
Wed Sep 11 11:17:19 IST 2013	---------- Beginning Movement Phase at round 4 ----------
Wed Sep 11 11:18:04 IST 2013	A Phase Ended: Movement Phase
Wed Sep 11 11:18:04 IST 2013	Protocol: A New Phase Began: Feedback Phase. loop is true
Wed Sep 11 11:18:04 IST 2013	---------- Beginning Feedback Phase at round 4 ----------
Wed Sep 11 11:18:04 IST 2013	Number of consecutive no movements for player 510 is 0
Wed Sep 11 11:18:04 IST 2013	TDPlayerPosition is(R:4,C:3)goal location 0(R:0,C:0)goal location 1(R:0,C:8)
Wed Sep 11 11:18:04 IST 2013	ended is false
Wed Sep 11 11:18:09 IST 2013	A Phase Ended: Feedback Phase
Wed Sep 11 11:18:09 IST 2013	 numberofMoves in round 4 is 1
Wed Sep 11 11:18:09 IST 2013	Swaping roles:
Wed Sep 11 11:18:09 IST 2013	Protocol: A New Phase Began: Communication Phase. loop is true
Wed Sep 11 11:18:09 IST 2013	---------- Beginning Communication Phase at round 5 ----------
Wed Sep 11 11:18:20 IST 2013	Received communication message 
Wed Sep 11 11:18:20 IST 2013	From player: 520
Wed Sep 11 11:18:20 IST 2013	To player: 510
Wed Sep 11 11:18:20 IST 2013	Chips to send by proposer: { chips  'CTRed':0 'CTPurple':6 'CTGreen':0 'grey78':0 'CTYellow':0 }
Wed Sep 11 11:18:20 IST 2013	Chips to send by responder: { chips  'CTRed':0 'CTPurple':0 'CTGreen':0 'grey78':2 'CTYellow':0 }
Wed Sep 11 11:18:44 IST 2013	Received communication message 
Wed Sep 11 11:18:44 IST 2013	From player: 540
Wed Sep 11 11:18:44 IST 2013	To player: 510
Wed Sep 11 11:18:44 IST 2013	Chips to send by proposer: { chips  'CTRed':15 'CTPurple':0 'CTGreen':0 'grey78':0 'CTYellow':0 }
Wed Sep 11 11:18:44 IST 2013	Chips to send by responder: { chips  'CTRed':0 'CTPurple':0 'CTGreen':0 'grey78':0 'CTYellow':4 }
Wed Sep 11 11:18:44 IST 2013	Received communication message 
Wed Sep 11 11:18:44 IST 2013	Proposer 0 accepted? true
Wed Sep 11 11:18:44 IST 2013	A Phase Ended: Communication Phase
Wed Sep 11 11:18:44 IST 2013	Protocol: A New Phase Began: Movement Phase. loop is true
Wed Sep 11 11:18:44 IST 2013	---------- Beginning Movement Phase at round 5 ----------
Wed Sep 11 11:18:44 IST 2013	Received communication message 
Wed Sep 11 11:18:44 IST 2013	Proposer 1 accepted? false
Wed Sep 11 11:19:29 IST 2013	A Phase Ended: Movement Phase
Wed Sep 11 11:19:29 IST 2013	Protocol: A New Phase Began: Feedback Phase. loop is true
Wed Sep 11 11:19:29 IST 2013	---------- Beginning Feedback Phase at round 5 ----------
Wed Sep 11 11:19:29 IST 2013	Number of consecutive no movements for player 510 is 1
Wed Sep 11 11:19:29 IST 2013	TDPlayerPosition is(R:4,C:3)goal location 0(R:0,C:0)goal location 1(R:0,C:8)
Wed Sep 11 11:19:29 IST 2013	ended is false
Wed Sep 11 11:19:34 IST 2013	A Phase Ended: Feedback Phase
Wed Sep 11 11:19:34 IST 2013	 numberofMoves in round 5 is 0
Wed Sep 11 11:19:34 IST 2013	Swaping roles:
Wed Sep 11 11:19:34 IST 2013	Protocol: A New Phase Began: Communication Phase. loop is true
Wed Sep 11 11:19:34 IST 2013	---------- Beginning Communication Phase at round 6 ----------
Wed Sep 11 11:19:34 IST 2013	Received communication message 
Wed Sep 11 11:19:34 IST 2013	From player: 510
Wed Sep 11 11:19:34 IST 2013	To player: 540
Wed Sep 11 11:19:34 IST 2013	Chips to send by proposer: { chips  'CTYellow':4 }
Wed Sep 11 11:19:34 IST 2013	Chips to send by responder: { chips  'CTRed':19 'CTPurple':7 'grey78':0 }
Wed Sep 11 11:19:58 IST 2013	Received communication message 
Wed Sep 11 11:19:58 IST 2013	Proposer 1 accepted? true
Wed Sep 11 11:19:58 IST 2013	A Phase Ended: Communication Phase
Wed Sep 11 11:19:58 IST 2013	Protocol: A New Phase Began: Movement Phase. loop is true
Wed Sep 11 11:19:58 IST 2013	---------- Beginning Movement Phase at round 6 ----------
