Fri Nov 15 16:33:43 EST 2013	This is the CT debug logger; svn version 638; sep 27 09
Fri Nov 15 16:33:43 EST 2013	Fri Nov 15 16:33:43 EST 2013
Fri Nov 15 16:33:43 EST 2013	ID Number: 63755
Fri Nov 15 16:33:43 EST 2013	Creating board
Fri Nov 15 16:33:43 EST 2013	<colors>
Fri Nov 15 16:33:43 EST 2013	{ GamePalette  'CTPurple':0 'CTRed':1 'CTGreen':2 'grey78':3 'CTYellow':4 }
Fri Nov 15 16:33:43 EST 2013	<rows>
Fri Nov 15 16:33:43 EST 2013	6
Fri Nov 15 16:33:43 EST 2013	<columns>
Fri Nov 15 16:33:43 EST 2013	9
Fri Nov 15 16:33:43 EST 2013	<squaresColors>
Fri Nov 15 16:33:43 EST 2013	grey78 CTGreen CTGreen CTGreen CTGreen CTGreen CTGreen CTGreen CTYellow 
Fri Nov 15 16:33:43 EST 2013	grey78 CTPurple CTPurple CTPurple CTPurple CTPurple CTPurple CTPurple CTYellow 
Fri Nov 15 16:33:43 EST 2013	grey78 grey78 CTGreen CTGreen CTGreen CTGreen CTGreen CTYellow CTYellow 
Fri Nov 15 16:33:43 EST 2013	CTGreen grey78 grey78 CTPurple CTPurple CTPurple CTYellow CTYellow CTGreen 
Fri Nov 15 16:33:43 EST 2013	CTGreen CTGreen grey78 grey78 CTGreen CTYellow CTYellow CTGreen CTGreen 
Fri Nov 15 16:33:43 EST 2013	CTGreen CTGreen CTGreen grey78 CTGreen CTYellow CTGreen CTGreen CTGreen 
Fri Nov 15 16:33:43 EST 2013	</squareColors>
Fri Nov 15 16:33:43 EST 2013	<goalPosition>
Fri Nov 15 16:33:43 EST 2013	Goal position: (R:0,C:0)
Fri Nov 15 16:33:43 EST 2013	<goalPosition>
Fri Nov 15 16:33:43 EST 2013	Goal position: (R:0,C:0)
Fri Nov 15 16:33:43 EST 2013	<firstPlayerPossibleGoal1>
Fri Nov 15 16:33:43 EST 2013	0.5
Fri Nov 15 16:33:43 EST 2013	0
Fri Nov 15 16:33:43 EST 2013	0
Fri Nov 15 16:33:43 EST 2013	</firstPlayerPossibleGoal1>
Fri Nov 15 16:33:43 EST 2013	<firstPlayerPossibleGoal2>
Fri Nov 15 16:33:43 EST 2013	0.5
Fri Nov 15 16:33:43 EST 2013	0
Fri Nov 15 16:33:43 EST 2013	8
Fri Nov 15 16:33:43 EST 2013	</firstPlayerPossibleGoal2>
Fri Nov 15 16:33:43 EST 2013	<numberOfPlayers>
Fri Nov 15 16:33:43 EST 2013	3
Fri Nov 15 16:33:43 EST 2013	<firstPlayerChips>
Fri Nov 15 16:33:43 EST 2013	Setting chips for player: 100 id:0
Fri Nov 15 16:33:43 EST 2013	{ chips  'CTRed':0 'CTGreen':0 'CTPurple':0 'grey78':12 'CTYellow':12 }
Fri Nov 15 16:33:43 EST 2013	Player position: (R:5,C:4)
Fri Nov 15 16:33:43 EST 2013	Setting chips for player: 200 id:1
Fri Nov 15 16:33:43 EST 2013	{ chips  'CTRed':33 'CTGreen':0 'CTPurple':7 'grey78':0 'CTYellow':0 }
Fri Nov 15 16:33:43 EST 2013	Player position: (R:0,C:8)
Fri Nov 15 16:33:43 EST 2013	Setting chips for player: 300 id:2
Fri Nov 15 16:33:43 EST 2013	{ chips  'CTRed':33 'CTGreen':0 'CTPurple':7 'grey78':0 'CTYellow':0 }
Fri Nov 15 16:33:43 EST 2013	Player position: (R:0,C:0)
Fri Nov 15 16:33:43 EST 2013	Protocol: A New Phase Began: Strategy Prep Phase. loop is true
Fri Nov 15 16:33:43 EST 2013	---------- Beginning Strategy Prep Phase at round 0 ----------
Fri Nov 15 16:34:43 EST 2013	A Phase Ended: Strategy Prep Phase
Fri Nov 15 16:34:43 EST 2013	Protocol: A New Phase Began: Communication Phase. loop is true
Fri Nov 15 16:34:43 EST 2013	---------- Beginning Communication Phase at round 1 ----------
Fri Nov 15 16:35:03 EST 2013	Received communication message 
Fri Nov 15 16:35:03 EST 2013	From player: 300
Fri Nov 15 16:35:03 EST 2013	To player: 100
Fri Nov 15 16:35:03 EST 2013	Chips to send by proposer: { chips  'CTRed':0 'CTPurple':0 'CTGreen':0 'grey78':0 'CTYellow':0 }
Fri Nov 15 16:35:03 EST 2013	Chips to send by responder: { chips  'CTRed':0 'CTPurple':0 'CTGreen':0 'grey78':0 'CTYellow':0 }
Fri Nov 15 16:35:04 EST 2013	Received communication message 
Fri Nov 15 16:35:04 EST 2013	From player: 200
Fri Nov 15 16:35:04 EST 2013	To player: 100
Fri Nov 15 16:35:04 EST 2013	Chips to send by proposer: { chips  'CTRed':0 'CTPurple':0 'CTGreen':0 'grey78':0 'CTYellow':0 }
Fri Nov 15 16:35:04 EST 2013	Chips to send by responder: { chips  'CTRed':0 'CTPurple':0 'CTGreen':0 'grey78':0 'CTYellow':0 }
Fri Nov 15 16:35:08 EST 2013	Received communication message 
Fri Nov 15 16:35:08 EST 2013	Proposer 0 accepted? false
Fri Nov 15 16:35:08 EST 2013	case that we had one reject, and one accept
Fri Nov 15 16:35:10 EST 2013	Received communication message 
Fri Nov 15 16:35:10 EST 2013	Proposer 1 accepted? false
Fri Nov 15 16:35:10 EST 2013	case that we had one reject, and one accept
Fri Nov 15 16:35:10 EST 2013	A Phase Ended: Communication Phase
Fri Nov 15 16:35:10 EST 2013	Protocol: A New Phase Began: Movement Phase. loop is true
Fri Nov 15 16:35:10 EST 2013	---------- Beginning Movement Phase at round 1 ----------
Fri Nov 15 16:35:10 EST 2013	remove strategy phase. 
Fri Nov 15 16:35:54 EST 2013	A Phase Ended: Movement Phase
Fri Nov 15 16:35:54 EST 2013	Protocol: A New Phase Began: Feedback Phase. loop is true
Fri Nov 15 16:35:54 EST 2013	---------- Beginning Feedback Phase at round 1 ----------
Fri Nov 15 16:35:54 EST 2013	Number of consecutive no movements for player 100 is 0
Fri Nov 15 16:35:54 EST 2013	TDPlayerPosition is(R:5,C:5)goal location 0(R:0,C:0)goal location 1(R:0,C:8)
Fri Nov 15 16:35:54 EST 2013	ended is false
Fri Nov 15 16:35:59 EST 2013	A Phase Ended: Feedback Phase
Fri Nov 15 16:35:59 EST 2013	 numberofMoves in round 1 is 1
Fri Nov 15 16:35:59 EST 2013	Swaping roles:
Fri Nov 15 16:35:59 EST 2013	Protocol: A New Phase Began: Communication Phase. loop is true
Fri Nov 15 16:35:59 EST 2013	---------- Beginning Communication Phase at round 2 ----------
Fri Nov 15 16:36:40 EST 2013	Received communication message 
Fri Nov 15 16:36:40 EST 2013	From player: 100
Fri Nov 15 16:36:40 EST 2013	To player: 300
Fri Nov 15 16:36:40 EST 2013	Chips to send by proposer: { chips  'CTRed':0 'CTPurple':0 'CTGreen':0 'grey78':0 'CTYellow':0 }
Fri Nov 15 16:36:40 EST 2013	Chips to send by responder: { chips  'CTRed':1 'CTPurple':2 'CTGreen':0 'grey78':0 'CTYellow':0 }
Fri Nov 15 16:37:19 EST 2013	Received communication message 
Fri Nov 15 16:37:19 EST 2013	Proposer 1 accepted? false
Fri Nov 15 16:37:19 EST 2013	case that we had one reject, and one accept
Fri Nov 15 16:37:19 EST 2013	A Phase Ended: Communication Phase
Fri Nov 15 16:37:19 EST 2013	Protocol: A New Phase Began: Movement Phase. loop is true
Fri Nov 15 16:37:19 EST 2013	---------- Beginning Movement Phase at round 2 ----------
Fri Nov 15 16:38:03 EST 2013	A Phase Ended: Movement Phase
Fri Nov 15 16:38:03 EST 2013	Protocol: A New Phase Began: Feedback Phase. loop is true
Fri Nov 15 16:38:03 EST 2013	---------- Beginning Feedback Phase at round 2 ----------
Fri Nov 15 16:38:03 EST 2013	Number of consecutive no movements for player 100 is 0
Fri Nov 15 16:38:03 EST 2013	TDPlayerPosition is(R:4,C:6)goal location 0(R:0,C:0)goal location 1(R:0,C:8)
Fri Nov 15 16:38:03 EST 2013	ended is false
Fri Nov 15 16:38:08 EST 2013	A Phase Ended: Feedback Phase
Fri Nov 15 16:38:08 EST 2013	 numberofMoves in round 2 is 2
Fri Nov 15 16:38:08 EST 2013	Swaping roles:
Fri Nov 15 16:38:08 EST 2013	Protocol: A New Phase Began: Communication Phase. loop is true
Fri Nov 15 16:38:08 EST 2013	---------- Beginning Communication Phase at round 3 ----------
Fri Nov 15 16:38:20 EST 2013	Received communication message 
Fri Nov 15 16:38:20 EST 2013	From player: 200
Fri Nov 15 16:38:20 EST 2013	To player: 100
Fri Nov 15 16:38:20 EST 2013	Chips to send by proposer: { chips  'CTRed':0 'CTPurple':0 'CTGreen':0 'grey78':0 'CTYellow':0 }
Fri Nov 15 16:38:20 EST 2013	Chips to send by responder: { chips  'CTRed':0 'CTPurple':0 'CTGreen':0 'grey78':0 'CTYellow':0 }
Fri Nov 15 16:38:25 EST 2013	Received communication message 
Fri Nov 15 16:38:25 EST 2013	Proposer 0 accepted? false
Fri Nov 15 16:38:25 EST 2013	case that we had one reject, and one accept
Fri Nov 15 16:38:31 EST 2013	Received communication message 
Fri Nov 15 16:38:31 EST 2013	From player: 300
Fri Nov 15 16:38:31 EST 2013	To player: 100
Fri Nov 15 16:38:31 EST 2013	Chips to send by proposer: { chips  'CTRed':0 'CTPurple':3 'CTGreen':0 'grey78':0 'CTYellow':0 }
Fri Nov 15 16:38:31 EST 2013	Chips to send by responder: { chips  'CTRed':0 'CTPurple':0 'CTGreen':0 'grey78':0 'CTYellow':0 }
Fri Nov 15 16:38:40 EST 2013	Received communication message 
Fri Nov 15 16:38:40 EST 2013	Proposer 1 accepted? true
Fri Nov 15 16:38:40 EST 2013	A Phase Ended: Communication Phase
Fri Nov 15 16:38:40 EST 2013	Protocol: A New Phase Began: Movement Phase. loop is true
Fri Nov 15 16:38:40 EST 2013	---------- Beginning Movement Phase at round 3 ----------
Fri Nov 15 16:39:24 EST 2013	A Phase Ended: Movement Phase
Fri Nov 15 16:39:24 EST 2013	Protocol: A New Phase Began: Feedback Phase. loop is true
Fri Nov 15 16:39:24 EST 2013	---------- Beginning Feedback Phase at round 3 ----------
Fri Nov 15 16:39:24 EST 2013	Number of consecutive no movements for player 100 is 0
Fri Nov 15 16:39:24 EST 2013	TDPlayerPosition is(R:3,C:5)goal location 0(R:0,C:0)goal location 1(R:0,C:8)
Fri Nov 15 16:39:24 EST 2013	ended is false
Fri Nov 15 16:39:29 EST 2013	A Phase Ended: Feedback Phase
Fri Nov 15 16:39:29 EST 2013	 numberofMoves in round 3 is 2
Fri Nov 15 16:39:29 EST 2013	Swaping roles:
Fri Nov 15 16:39:29 EST 2013	Protocol: A New Phase Began: Communication Phase. loop is true
Fri Nov 15 16:39:29 EST 2013	---------- Beginning Communication Phase at round 4 ----------
Fri Nov 15 16:40:17 EST 2013	Received communication message 
Fri Nov 15 16:40:17 EST 2013	From player: 100
Fri Nov 15 16:40:17 EST 2013	To player: 300
Fri Nov 15 16:40:17 EST 2013	Chips to send by proposer: { chips  'CTRed':0 'CTPurple':0 'CTGreen':0 'grey78':0 'CTYellow':0 }
Fri Nov 15 16:40:17 EST 2013	Chips to send by responder: { chips  'CTRed':3 'CTPurple':0 'CTGreen':0 'grey78':0 'CTYellow':0 }
Fri Nov 15 16:40:20 EST 2013	Received communication message 
Fri Nov 15 16:40:20 EST 2013	Proposer 1 accepted? true
Fri Nov 15 16:40:20 EST 2013	A Phase Ended: Communication Phase
Fri Nov 15 16:40:20 EST 2013	Protocol: A New Phase Began: Movement Phase. loop is true
Fri Nov 15 16:40:20 EST 2013	---------- Beginning Movement Phase at round 4 ----------
Fri Nov 15 16:41:04 EST 2013	A Phase Ended: Movement Phase
Fri Nov 15 16:41:04 EST 2013	Protocol: A New Phase Began: Feedback Phase. loop is true
Fri Nov 15 16:41:04 EST 2013	---------- Beginning Feedback Phase at round 4 ----------
Fri Nov 15 16:41:04 EST 2013	Number of consecutive no movements for player 100 is 0
Fri Nov 15 16:41:04 EST 2013	TDPlayerPosition is(R:3,C:4)goal location 0(R:0,C:0)goal location 1(R:0,C:8)
Fri Nov 15 16:41:04 EST 2013	ended is false
Fri Nov 15 16:41:09 EST 2013	A Phase Ended: Feedback Phase
Fri Nov 15 16:41:09 EST 2013	 numberofMoves in round 4 is 1
Fri Nov 15 16:41:09 EST 2013	Swaping roles:
Fri Nov 15 16:41:09 EST 2013	Protocol: A New Phase Began: Communication Phase. loop is true
Fri Nov 15 16:41:09 EST 2013	---------- Beginning Communication Phase at round 5 ----------
Fri Nov 15 16:41:26 EST 2013	Received communication message 
Fri Nov 15 16:41:26 EST 2013	From player: 200
Fri Nov 15 16:41:26 EST 2013	To player: 100
Fri Nov 15 16:41:26 EST 2013	Chips to send by proposer: { chips  'CTRed':0 'CTPurple':0 'CTGreen':0 'grey78':0 'CTYellow':0 }
Fri Nov 15 16:41:26 EST 2013	Chips to send by responder: { chips  'CTRed':0 'CTPurple':0 'CTGreen':0 'grey78':0 'CTYellow':0 }
Fri Nov 15 16:41:28 EST 2013	Received communication message 
Fri Nov 15 16:41:28 EST 2013	From player: 300
Fri Nov 15 16:41:28 EST 2013	To player: 100
Fri Nov 15 16:41:28 EST 2013	Chips to send by proposer: { chips  'CTRed':0 'CTPurple':1 'CTGreen':0 'grey78':0 'CTYellow':0 }
Fri Nov 15 16:41:28 EST 2013	Chips to send by responder: { chips  'CTRed':0 'CTPurple':0 'CTGreen':0 'grey78':0 'CTYellow':0 }
Fri Nov 15 16:41:34 EST 2013	Received communication message 
Fri Nov 15 16:41:34 EST 2013	Proposer 0 accepted? false
Fri Nov 15 16:41:34 EST 2013	case that we had one reject, and one accept
Fri Nov 15 16:41:40 EST 2013	Received communication message 
Fri Nov 15 16:41:40 EST 2013	Proposer 1 accepted? true
Fri Nov 15 16:41:40 EST 2013	A Phase Ended: Communication Phase
Fri Nov 15 16:41:40 EST 2013	Protocol: A New Phase Began: Movement Phase. loop is true
Fri Nov 15 16:41:40 EST 2013	---------- Beginning Movement Phase at round 5 ----------
Fri Nov 15 16:42:24 EST 2013	A Phase Ended: Movement Phase
Fri Nov 15 16:42:24 EST 2013	Protocol: A New Phase Began: Feedback Phase. loop is true
Fri Nov 15 16:42:24 EST 2013	---------- Beginning Feedback Phase at round 5 ----------
Fri Nov 15 16:42:24 EST 2013	Number of consecutive no movements for player 100 is 0
Fri Nov 15 16:42:24 EST 2013	TDPlayerPosition is(R:3,C:2)goal location 0(R:0,C:0)goal location 1(R:0,C:8)
Fri Nov 15 16:42:24 EST 2013	ended is false
Fri Nov 15 16:42:29 EST 2013	A Phase Ended: Feedback Phase
Fri Nov 15 16:42:29 EST 2013	 numberofMoves in round 5 is 2
Fri Nov 15 16:42:29 EST 2013	Swaping roles:
Fri Nov 15 16:42:29 EST 2013	Protocol: A New Phase Began: Communication Phase. loop is true
Fri Nov 15 16:42:29 EST 2013	---------- Beginning Communication Phase at round 6 ----------
Fri Nov 15 16:42:56 EST 2013	Received communication message 
Fri Nov 15 16:42:56 EST 2013	From player: 100
Fri Nov 15 16:42:56 EST 2013	To player: 200
Fri Nov 15 16:42:56 EST 2013	Chips to send by proposer: { chips  'CTRed':0 'CTPurple':0 'CTGreen':0 'grey78':0 'CTYellow':0 }
Fri Nov 15 16:42:56 EST 2013	Chips to send by responder: { chips  'CTRed':5 'CTPurple':3 'CTGreen':0 'grey78':0 'CTYellow':0 }
Fri Nov 15 16:43:15 EST 2013	Received communication message 
Fri Nov 15 16:43:15 EST 2013	Proposer 0 accepted? true
Fri Nov 15 16:43:15 EST 2013	A Phase Ended: Communication Phase
Fri Nov 15 16:43:15 EST 2013	Protocol: A New Phase Began: Movement Phase. loop is true
Fri Nov 15 16:43:15 EST 2013	---------- Beginning Movement Phase at round 6 ----------
Fri Nov 15 16:43:59 EST 2013	A Phase Ended: Movement Phase
Fri Nov 15 16:43:59 EST 2013	Protocol: A New Phase Began: Feedback Phase. loop is true
Fri Nov 15 16:43:59 EST 2013	---------- Beginning Feedback Phase at round 6 ----------
Fri Nov 15 16:43:59 EST 2013	Number of consecutive no movements for player 100 is 0
Fri Nov 15 16:43:59 EST 2013	TDPlayerPosition is(R:1,C:1)goal location 0(R:0,C:0)goal location 1(R:0,C:8)
Fri Nov 15 16:43:59 EST 2013	ended is false
Fri Nov 15 16:44:04 EST 2013	A Phase Ended: Feedback Phase
Fri Nov 15 16:44:04 EST 2013	 numberofMoves in round 6 is 3
Fri Nov 15 16:44:04 EST 2013	Swaping roles:
Fri Nov 15 16:44:04 EST 2013	Protocol: A New Phase Began: Communication Phase. loop is true
Fri Nov 15 16:44:04 EST 2013	---------- Beginning Communication Phase at round 7 ----------
Fri Nov 15 16:44:19 EST 2013	Received communication message 
Fri Nov 15 16:44:19 EST 2013	From player: 300
Fri Nov 15 16:44:19 EST 2013	To player: 100
Fri Nov 15 16:44:19 EST 2013	Chips to send by proposer: { chips  'CTRed':3 'CTPurple':0 'CTGreen':0 'grey78':0 'CTYellow':0 }
Fri Nov 15 16:44:19 EST 2013	Chips to send by responder: { chips  'CTRed':0 'CTPurple':0 'CTGreen':0 'grey78':0 'CTYellow':0 }
Fri Nov 15 16:44:42 EST 2013	Received communication message 
Fri Nov 15 16:44:42 EST 2013	From player: 200
Fri Nov 15 16:44:42 EST 2013	To player: 100
Fri Nov 15 16:44:42 EST 2013	Chips to send by proposer: { chips  'CTRed':0 'CTPurple':0 'CTGreen':0 'grey78':0 'CTYellow':0 }
Fri Nov 15 16:44:42 EST 2013	Chips to send by responder: { chips  'CTRed':0 'CTPurple':0 'CTGreen':0 'grey78':0 'CTYellow':0 }
Fri Nov 15 16:44:47 EST 2013	Received communication message 
Fri Nov 15 16:44:47 EST 2013	Proposer 0 accepted? false
Fri Nov 15 16:44:47 EST 2013	case that we had one reject, and one accept
Fri Nov 15 16:44:48 EST 2013	Received communication message 
Fri Nov 15 16:44:48 EST 2013	Proposer 1 accepted? true
Fri Nov 15 16:44:48 EST 2013	A Phase Ended: Communication Phase
Fri Nov 15 16:44:48 EST 2013	Protocol: A New Phase Began: Movement Phase. loop is true
Fri Nov 15 16:44:48 EST 2013	---------- Beginning Movement Phase at round 7 ----------
Fri Nov 15 16:45:32 EST 2013	A Phase Ended: Movement Phase
Fri Nov 15 16:45:32 EST 2013	Protocol: A New Phase Began: Feedback Phase. loop is true
Fri Nov 15 16:45:32 EST 2013	---------- Beginning Feedback Phase at round 7 ----------
Fri Nov 15 16:45:32 EST 2013	The TD player reached the goal, end the game
Fri Nov 15 16:45:32 EST 2013	ended is true
Fri Nov 15 16:45:37 EST 2013	A Phase Ended: Feedback Phase
Fri Nov 15 16:45:37 EST 2013	 numberofMoves in round 7 is 2
Fri Nov 15 16:45:37 EST 2013	Loop status: false
Fri Nov 15 16:45:37 EST 2013	Player: 300 ,role: Proposer score is: 300
Fri Nov 15 16:45:37 EST 2013	Player: 300Game Ended
Fri Nov 15 16:45:37 EST 2013	Player: 200 ,role: Proposer score is: 160
Fri Nov 15 16:45:37 EST 2013	Player: 200Game Ended
Fri Nov 15 16:45:37 EST 2013	Player: 100 ,role: Responder score is: 295
Fri Nov 15 16:45:37 EST 2013	Player: 100Game Ended
Fri Nov 15 16:45:37 EST 2013	Protocol: A New Phase Began: Communication Phase. loop is false
Fri Nov 15 16:45:37 EST 2013	---------- Beginning Communication Phase at round 7 ----------
