filename,round,propID,respID,IsPropCustomer,chipsToSend,chipsToReceive,accept,propCurrentScore,respCurrentScore,actualSent,ActualRcvd,propResultingScore,respResultingScore,#ofCustomerMovesInRound,customerRowPositionAfterMovePhase,customerColPositionAfterMovePhase,Player100ChipsAfterMovePhase,Player100ScoreAfterMovePhase,Player200ChipsAfterMovePhase,Player200ScoreAfterMovePhase,Player300ChipsAfterMovePhase,Player300ScoreAfterMovePhase,generosityLevel,ClientReachedGoal
3playersLog_1384530470989.csv,1,200,100,false,{ chips  'CTRed':7 'CTPurple':2 },{ chips  },TRUE,200,120,{ chips  'CTRed':7 'CTPurple':2 'CTGreen':0 'grey78':0 'CTYellow':0 },{ chips  'CTRed':0 'CTPurple':0 'CTGreen':0 'grey78':0 'CTYellow':0 },155,165,4,(R:3,C:6),{ chips  'CTRed':7 'CTGreen':0 'CTPurple':1 'grey78':12 'CTYellow':9 },145,{ chips  'CTRed':26 'CTGreen':0 'CTPurple':5 'grey78':0 'CTYellow':0 },155,{ chips  'CTRed':33 'CTGreen':0 'CTPurple':7 'grey78':0 'CTYellow':0 },200
3playersLog_1384530470989.csv,1,300,100,false,{ chips  'CTPurple':2 },{ chips  },IGNORED,200,120,,,,,4,(R:3,C:6),{ chips  'CTRed':7 'CTGreen':0 'CTPurple':1 'grey78':12 'CTYellow':9 },145,{ chips  'CTRed':26 'CTGreen':0 'CTPurple':5 'grey78':0 'CTYellow':0 },155,{ chips  'CTRed':33 'CTGreen':0 'CTPurple':7 'grey78':0 'CTYellow':0 },200
3playersLog_1384530470989.csv,2,100,300,true,{ chips  'CTYellow':3 },{ chips  'CTRed':1 'CTPurple':4 },TRUE,145,155,{ chips  'CTRed':0 'CTPurple':0 'CTGreen':0 'grey78':0 'CTYellow':3 },{ chips  'CTRed':1 'CTPurple':4 'CTGreen':0 'grey78':0 'CTYellow':0 },155,190,9,(R:0,C:0),{ chips  'CTRed':8 'CTGreen':0 'CTPurple':2 'grey78':6 'CTYellow':6 },260,{ chips  'CTRed':26 'CTGreen':0 'CTPurple':5 'grey78':0 'CTYellow':0 },155,{ chips  'CTRed':32 'CTGreen':0 'CTPurple':3 'grey78':0 'CTYellow':3 },340
3playersLog_1384530470989.csv,,,,,,,,,,,,,,,,,,,,,,,,true
