filename,round,propID,respID,IsPropCustomer,chipsToSend,chipsToReceive,accept,propCurrentScore,respCurrentScore,actualSent,ActualRcvd,propResultingScore,respResultingScore,#ofCustomerMovesInRound,customerRowPositionAfterMovePhase,customerColPositionAfterMovePhase,Player100ChipsAfterMovePhase,Player100ScoreAfterMovePhase,Player200ChipsAfterMovePhase,Player200ScoreAfterMovePhase,Player300ChipsAfterMovePhase,Player300ScoreAfterMovePhase,generosityLevel,ClientReachedGoal
3playersLog_1369581482712.csv,1,200,100,false,{ chips  'CTRed':5 },{ chips  'grey78':1 'CTYellow':2 },FALSE,200,145,,,,,9,(R:0,C:0),{ chips  'CTRed':4 'CTGreen':0 'CTPurple':1 'grey78':3 'CTYellow':12 },250,{ chips  'CTRed':33 'CTGreen':0 'CTPurple':7 'grey78':0 'CTYellow':0 },200,{ chips  'CTRed':29 'CTGreen':0 'CTPurple':6 'grey78':0 'CTYellow':0 },325
3playersLog_1369581482712.csv,1,300,100,false,{ chips  'CTRed':4 'CTPurple':1 },{ chips  },TRUE,200,120,{ chips  'CTRed':4 'CTPurple':1 'CTGreen':0 'grey78':0 'CTYellow':0 },{ chips  'CTRed':0 'CTPurple':0 'CTGreen':0 'grey78':0 'CTYellow':0 },175,145,9,(R:0,C:0),{ chips  'CTRed':4 'CTGreen':0 'CTPurple':1 'grey78':3 'CTYellow':12 },250,{ chips  'CTRed':33 'CTGreen':0 'CTPurple':7 'grey78':0 'CTYellow':0 },200,{ chips  'CTRed':29 'CTGreen':0 'CTPurple':6 'grey78':0 'CTYellow':0 },325
3playersLog_1369581482712.csv,,,,,,,,,,,,,,,,,,,,,,,,true
