filename,round,propID,respID,IsPropCustomer,chipsToSend,chipsToReceive,accept,propCurrentScore,respCurrentScore,actualSent,ActualRcvd,propResultingScore,respResultingScore,#ofCustomerMovesInRound,customerRowPositionAfterMovePhase,customerColPositionAfterMovePhase,Player100ChipsAfterMovePhase,Player100ScoreAfterMovePhase,Player200ChipsAfterMovePhase,Player200ScoreAfterMovePhase,Player300ChipsAfterMovePhase,Player300ScoreAfterMovePhase,generosityLevel,ClientReachedGoal
3playersLog_1390914888224.csv,1,560,500,false,{ chips  'CTRed':14 },{ chips  },FALSE,200,120,,,,,1,(R:5,C:5),{ chips  'CTRed':5 'CTGreen':0 'CTPurple':3 'grey78':12 'CTYellow':4 },120,{ chips  'CTRed':33 'CTGreen':0 'CTPurple':7 'grey78':0 'CTYellow':0 },200,{ chips  'CTRed':28 'CTGreen':0 'CTPurple':4 'grey78':0 'CTYellow':7 },195
3playersLog_1390914888224.csv,1,540,500,false,{ chips  'CTRed':5 'CTPurple':3 },{ chips  'CTYellow':7 },TRUE,200,120,{ chips  'CTRed':5 'CTPurple':3 'CTGreen':0 'grey78':0 'CTYellow':0 },{ chips  'CTRed':0 'CTPurple':0 'CTGreen':0 'grey78':0 'CTYellow':7 },195,125,1,(R:5,C:5),{ chips  'CTRed':5 'CTGreen':0 'CTPurple':3 'grey78':12 'CTYellow':4 },120,{ chips  'CTRed':33 'CTGreen':0 'CTPurple':7 'grey78':0 'CTYellow':0 },200,{ chips  'CTRed':28 'CTGreen':0 'CTPurple':4 'grey78':0 'CTYellow':7 },195
3playersLog_1390914888224.csv,2,500,540,true,{ chips  'CTYellow':1 },{ chips  'CTRed':7 'CTPurple':1 },FALSE,120,195,,,,,1,(R:4,C:5),{ chips  'CTRed':5 'CTGreen':0 'CTPurple':3 'grey78':12 'CTYellow':3 },115,{ chips  'CTRed':33 'CTGreen':0 'CTPurple':7 'grey78':0 'CTYellow':0 },200,{ chips  'CTRed':28 'CTGreen':0 'CTPurple':4 'grey78':0 'CTYellow':7 },195
3playersLog_1390914888224.csv,3,560,500,false,{ chips  'CTRed':3 },{ chips  },TRUE,200,110,{ chips  'CTRed':3 },{ chips  'grey78':0 },185,125,0,(R:3,C:5),{ chips  'CTRed':8 'CTGreen':0 'CTPurple':2 'grey78':12 'CTYellow':3 },125,{ chips  'CTRed':30 'CTGreen':0 'CTPurple':7 'grey78':0 'CTYellow':0 },185,{ chips  'CTRed':28 'CTGreen':0 'CTPurple':4 'grey78':0 'CTYellow':7 },195
3playersLog_1390914888224.csv,3,540,500,false,{ chips  'CTRed':10 },{ chips  'CTYellow':3 },FALSE,195,110,,,,,0,(R:3,C:5),{ chips  'CTRed':8 'CTGreen':0 'CTPurple':2 'grey78':12 'CTYellow':3 },125,{ chips  'CTRed':30 'CTGreen':0 'CTPurple':7 'grey78':0 'CTYellow':0 },185,{ chips  'CTRed':28 'CTGreen':0 'CTPurple':4 'grey78':0 'CTYellow':7 },195
3playersLog_1390914888224.csv,4,500,540,true,{ chips  'grey78':4 },{ chips  'CTRed':10 },FALSE,125,195,,,,,2,(R:3,C:3),{ chips  'CTRed':8 'CTGreen':0 'CTPurple':0 'grey78':12 'CTYellow':3 },115,{ chips  'CTRed':30 'CTGreen':0 'CTPurple':7 'grey78':0 'CTYellow':0 },185,{ chips  'CTRed':28 'CTGreen':0 'CTPurple':4 'grey78':0 'CTYellow':7 },195
3playersLog_1390914888224.csv,5,560,500,false,{ chips  'CTRed':14 'CTPurple':3 },{ chips  },TRUE,185,115,{ chips  'CTRed':14 'CTPurple':3 },{ chips  'grey78':0 },100,200,0,(R:3,C:3),{ chips  'CTRed':22 'CTGreen':0 'CTPurple':3 'grey78':12 'CTYellow':3 },200,{ chips  'CTRed':16 'CTGreen':0 'CTPurple':4 'grey78':0 'CTYellow':0 },100,{ chips  'CTRed':28 'CTGreen':0 'CTPurple':4 'grey78':0 'CTYellow':7 },195
3playersLog_1390914888224.csv,5,540,500,false,{ chips  'CTRed':9 },{ chips  'CTYellow':2 },FALSE,195,115,,,,,0,(R:3,C:3),{ chips  'CTRed':22 'CTGreen':0 'CTPurple':3 'grey78':12 'CTYellow':3 },200,{ chips  'CTRed':16 'CTGreen':0 'CTPurple':4 'grey78':0 'CTYellow':0 },100,{ chips  'CTRed':28 'CTGreen':0 'CTPurple':4 'grey78':0 'CTYellow':7 },195
3playersLog_1390914888224.csv,6,500,560,true,{ chips  'grey78':3 },{ chips  'CTRed':5 },FALSE,200,100,,,,,1,(R:3,C:2),{ chips  'CTRed':22 'CTGreen':0 'CTPurple':3 'grey78':11 'CTYellow':3 },195,{ chips  'CTRed':16 'CTGreen':0 'CTPurple':4 'grey78':0 'CTYellow':0 },100,{ chips  'CTRed':28 'CTGreen':0 'CTPurple':4 'grey78':0 'CTYellow':7 },195
3playersLog_1390914888224.csv,7,560,500,false,{ chips  'CTRed':5 },{ chips  },TRUE,100,195,{ chips  'CTRed':5 'CTPurple':0 },{ chips  'grey78':0 },75,220,0,(R:3,C:2),{ chips  'CTRed':27 'CTGreen':0 'CTPurple':3 'grey78':11 'CTYellow':3 },220,{ chips  'CTRed':11 'CTGreen':0 'CTPurple':4 'grey78':0 'CTYellow':0 },75,{ chips  'CTRed':28 'CTGreen':0 'CTPurple':4 'grey78':0 'CTYellow':7 },195
3playersLog_1390914888224.csv,7,540,500,false,{ chips  'CTRed':11 },{ chips  'CTYellow':2 },FALSE,195,195,,,,,0,(R:3,C:2),{ chips  'CTRed':27 'CTGreen':0 'CTPurple':3 'grey78':11 'CTYellow':3 },220,{ chips  'CTRed':11 'CTGreen':0 'CTPurple':4 'grey78':0 'CTYellow':0 },75,{ chips  'CTRed':28 'CTGreen':0 'CTPurple':4 'grey78':0 'CTYellow':7 },195
3playersLog_1390914888224.csv,8,500,560,true,{ chips  'grey78':4 },{ chips  'CTRed':6 },FALSE,220,75,,,,,1,(R:3,C:1),{ chips  'CTRed':27 'CTGreen':0 'CTPurple':3 'grey78':10 'CTYellow':3 },215,{ chips  'CTRed':11 'CTGreen':0 'CTPurple':4 'grey78':0 'CTYellow':0 },75,{ chips  'CTRed':28 'CTGreen':0 'CTPurple':4 'grey78':0 'CTYellow':7 },195
3playersLog_1390914888224.csv,9,560,500,false,{ chips  'CTPurple':3 },{ chips  },FALSE,75,215,,,,,0,(R:3,C:1),{ chips  'CTRed':27 'CTGreen':0 'CTPurple':3 'grey78':10 'CTYellow':3 },215,{ chips  'CTRed':11 'CTGreen':0 'CTPurple':4 'grey78':0 'CTYellow':0 },75,{ chips  'CTRed':28 'CTGreen':0 'CTPurple':4 'grey78':0 'CTYellow':7 },195
3playersLog_1390914888224.csv,9,540,500,false,{ chips  'CTRed':6 },{ chips  'CTPurple':1 },FALSE,195,215,,,,,0,(R:3,C:1),{ chips  'CTRed':27 'CTGreen':0 'CTPurple':3 'grey78':10 'CTYellow':3 },215,{ chips  'CTRed':11 'CTGreen':0 'CTPurple':4 'grey78':0 'CTYellow':0 },75,{ chips  'CTRed':28 'CTGreen':0 'CTPurple':4 'grey78':0 'CTYellow':7 },195
3playersLog_1390914888224.csv,10,500,560,true,{ chips  },{ chips  },TRUE,215,75,{ chips  'CTRed':0 'CTPurple':0 'CTGreen':0 'grey78':0 'CTYellow':0 },{ chips  'CTRed':0 'CTPurple':0 'CTGreen':0 'grey78':0 'CTYellow':0 },215,75,1,(R:2,C:1),{ chips  'CTRed':27 'CTGreen':0 'CTPurple':3 'grey78':9 'CTYellow':3 },210,{ chips  'CTRed':11 'CTGreen':0 'CTPurple':4 'grey78':0 'CTYellow':0 },75,{ chips  'CTRed':28 'CTGreen':0 'CTPurple':4 'grey78':0 'CTYellow':7 },195
3playersLog_1390914888224.csv,11,560,500,false,{ chips  'CTPurple':3 },{ chips  },FALSE,75,210,,,,,0,(R:2,C:1),{ chips  'CTRed':27 'CTGreen':0 'CTPurple':3 'grey78':9 'CTYellow':3 },210,{ chips  'CTRed':11 'CTGreen':0 'CTPurple':4 'grey78':0 'CTYellow':0 },75,{ chips  'CTRed':28 'CTGreen':0 'CTPurple':4 'grey78':0 'CTYellow':7 },195
3playersLog_1390914888224.csv,11,540,500,false,{ chips  'CTRed':6 },{ chips  'CTPurple':1 },FALSE,195,210,,,,,0,(R:2,C:1),{ chips  'CTRed':27 'CTGreen':0 'CTPurple':3 'grey78':9 'CTYellow':3 },210,{ chips  'CTRed':11 'CTGreen':0 'CTPurple':4 'grey78':0 'CTYellow':0 },75,{ chips  'CTRed':28 'CTGreen':0 'CTPurple':4 'grey78':0 'CTYellow':7 },195
3playersLog_1390914888224.csv,12,500,540,true,{ chips  'CTYellow':1 },{ chips  'CTRed':6 },FALSE,210,195,,,,,1,(R:1,C:1),{ chips  'CTRed':27 'CTGreen':0 'CTPurple':2 'grey78':9 'CTYellow':3 },205,{ chips  'CTRed':11 'CTGreen':0 'CTPurple':4 'grey78':0 'CTYellow':0 },75,{ chips  'CTRed':28 'CTGreen':0 'CTPurple':4 'grey78':0 'CTYellow':7 },195
3playersLog_1390914888224.csv,13,560,500,false,{ chips  },{ chips  },FALSE,75,205,,,,,0,(R:1,C:1),{ chips  'CTRed':27 'CTGreen':0 'CTPurple':2 'grey78':9 'CTYellow':3 },205,{ chips  'CTRed':11 'CTGreen':0 'CTPurple':4 'grey78':0 'CTYellow':0 },75,{ chips  'CTRed':28 'CTGreen':0 'CTPurple':4 'grey78':0 'CTYellow':7 },195
3playersLog_1390914888224.csv,13,540,500,false,{ chips  'CTRed':10 },{ chips  'CTPurple':1 },FALSE,195,205,,,,,0,(R:1,C:1),{ chips  'CTRed':27 'CTGreen':0 'CTPurple':2 'grey78':9 'CTYellow':3 },205,{ chips  'CTRed':11 'CTGreen':0 'CTPurple':4 'grey78':0 'CTYellow':0 },75,{ chips  'CTRed':28 'CTGreen':0 'CTPurple':4 'grey78':0 'CTYellow':7 },195
3playersLog_1390914888224.csv,14,500,540,true,{ chips  'CTPurple':1 },{ chips  'CTRed':12 },TRUE,205,75,{ chips  'CTRed':0 'CTPurple':1 'CTGreen':0 'grey78':0 'CTYellow':0 },{ chips  'CTRed':12 'CTPurple':0 'CTGreen':0 'grey78':0 'CTYellow':0 },260,140,1,(R:1,C:0),{ chips  'CTRed':39 'CTGreen':0 'CTPurple':1 'grey78':8 'CTYellow':3 },255,{ chips  'CTRed':11 'CTGreen':0 'CTPurple':4 'grey78':0 'CTYellow':0 },75,{ chips  'CTRed':16 'CTGreen':0 'CTPurple':5 'grey78':0 'CTYellow':7 },140
3playersLog_1390914888224.csv,15,560,500,false,{ chips  },{ chips  },FALSE,75,255,,,,,1,(R:0,C:0),{ chips  'CTRed':39 'CTGreen':0 'CTPurple':1 'grey78':7 'CTYellow':3 },400,{ chips  'CTRed':11 'CTGreen':0 'CTPurple':4 'grey78':0 'CTYellow':0 },75,{ chips  'CTRed':16 'CTGreen':0 'CTPurple':5 'grey78':0 'CTYellow':7 },290
3playersLog_1390914888224.csv,15,540,500,false,{ chips  },{ chips  },FALSE,140,255,,,,,1,(R:0,C:0),{ chips  'CTRed':39 'CTGreen':0 'CTPurple':1 'grey78':7 'CTYellow':3 },400,{ chips  'CTRed':11 'CTGreen':0 'CTPurple':4 'grey78':0 'CTYellow':0 },75,{ chips  'CTRed':16 'CTGreen':0 'CTPurple':5 'grey78':0 'CTYellow':7 },290
3playersLog_1390914888224.csv,,,,,,,,,,,,,,,,,,,,,,,,true
