filename,round,propID,respID,IsPropCustomer,chipsToSend,chipsToReceive,accept,propCurrentScore,respCurrentScore,actualSent,ActualRcvd,propResultingScore,respResultingScore,#ofCustomerMovesInRound,customerRowPositionAfterMovePhase,customerColPositionAfterMovePhase,Player100ChipsAfterMovePhase,Player100ScoreAfterMovePhase,Player200ChipsAfterMovePhase,Player200ScoreAfterMovePhase,Player300ChipsAfterMovePhase,Player300ScoreAfterMovePhase,generosityLevel,ClientReachedGoal
3playersLog_1387802471390.csv,1,200,100,false,{ chips  'CTRed':10 'CTPurple':5 },{ chips  },TRUE,200,120,{ chips  'CTRed':10 'CTPurple':5 'CTGreen':0 'grey78':0 'CTYellow':0 },{ chips  'CTRed':0 'CTPurple':0 'CTGreen':0 'grey78':0 'CTYellow':0 },125,195,2,(R:4,C:5),{ chips  'CTRed':10 'CTGreen':0 'CTPurple':5 'grey78':12 'CTYellow':10 },185,{ chips  'CTRed':23 'CTGreen':0 'CTPurple':2 'grey78':0 'CTYellow':0 },125,{ chips  'CTRed':33 'CTGreen':0 'CTPurple':7 'grey78':0 'CTYellow':0 },200
3playersLog_1387802471390.csv,1,300,100,false,{ chips  'CTRed':3 'CTPurple':1 },{ chips  },IGNORED,200,120,,,,,2,(R:4,C:5),{ chips  'CTRed':10 'CTGreen':0 'CTPurple':5 'grey78':12 'CTYellow':10 },185,{ chips  'CTRed':23 'CTGreen':0 'CTPurple':2 'grey78':0 'CTYellow':0 },125,{ chips  'CTRed':33 'CTGreen':0 'CTPurple':7 'grey78':0 'CTYellow':0 },200
3playersLog_1387802471390.csv,2,100,200,true,{ chips  'CTRed':10 },{ chips  'CTRed':2 },TRUE,185,125,{ chips  'CTRed':10 'CTPurple':0 'CTGreen':0 'grey78':0 'CTYellow':0 },{ chips  'CTRed':2 'CTPurple':0 'CTGreen':0 'grey78':0 'CTYellow':0 },145,165,0,(R:4,C:5),{ chips  'CTRed':2 'CTGreen':0 'CTPurple':5 'grey78':12 'CTYellow':10 },145,{ chips  'CTRed':31 'CTGreen':0 'CTPurple':2 'grey78':0 'CTYellow':0 },165,{ chips  'CTRed':33 'CTGreen':0 'CTPurple':7 'grey78':0 'CTYellow':0 },200
3playersLog_1387802471390.csv,3,200,100,false,{ chips  },{ chips  'CTRed':2 'CTPurple':5 },IGNORED,165,145,,,,,2,(R:3,C:4),{ chips  'CTRed':7 'CTGreen':0 'CTPurple':6 'grey78':12 'CTYellow':10 },175,{ chips  'CTRed':31 'CTGreen':0 'CTPurple':2 'grey78':0 'CTYellow':0 },165,{ chips  'CTRed':28 'CTGreen':0 'CTPurple':4 'grey78':0 'CTYellow':0 },160
3playersLog_1387802471390.csv,3,300,100,false,{ chips  'CTRed':5 'CTPurple':3 },{ chips  },TRUE,200,145,{ chips  'CTRed':5 'CTPurple':3 'CTGreen':0 'grey78':0 'CTYellow':0 },{ chips  'CTRed':0 'CTPurple':0 'CTGreen':0 'grey78':0 'CTYellow':0 },160,185,2,(R:3,C:4),{ chips  'CTRed':7 'CTGreen':0 'CTPurple':6 'grey78':12 'CTYellow':10 },175,{ chips  'CTRed':31 'CTGreen':0 'CTPurple':2 'grey78':0 'CTYellow':0 },165,{ chips  'CTRed':28 'CTGreen':0 'CTPurple':4 'grey78':0 'CTYellow':0 },160
3playersLog_1387802471390.csv,4,100,200,true,{ chips  },{ chips  'CTRed':20 'CTPurple':1 },TRUE,175,165,{ chips  'CTRed':0 'CTPurple':0 'CTGreen':0 'grey78':0 'CTYellow':0 },{ chips  'CTRed':20 'CTPurple':1 'CTGreen':0 'grey78':0 'CTYellow':0 },280,60,7,(R:0,C:8),{ chips  'CTRed':27 'CTGreen':0 'CTPurple':6 'grey78':12 'CTYellow':4 },395,{ chips  'CTRed':11 'CTGreen':0 'CTPurple':1 'grey78':0 'CTYellow':0 },210,{ chips  'CTRed':28 'CTGreen':0 'CTPurple':4 'grey78':0 'CTYellow':0 },160
3playersLog_1387802471390.csv,,,,,,,,,,,,,,,,,,,,,,,,true
