filename,round,propID,respID,IsPropCustomer,chipsToSend,chipsToReceive,accept,propCurrentScore,respCurrentScore,actualSent,ActualRcvd,propResultingScore,respResultingScore,#ofCustomerMovesInRound,customerRowPositionAfterMovePhase,customerColPositionAfterMovePhase,Player100ChipsAfterMovePhase,Player100ScoreAfterMovePhase,Player200ChipsAfterMovePhase,Player200ScoreAfterMovePhase,Player300ChipsAfterMovePhase,Player300ScoreAfterMovePhase,generosityLevel,ClientReachedGoal
3playersLog_1388925455687.csv,1,300,100,false,{ chips  'CTRed':15 },{ chips  },TRUE,200,120,{ chips  'CTRed':15 'CTPurple':0 'CTGreen':0 'grey78':0 'CTYellow':0 },{ chips  'CTRed':0 'CTPurple':0 'CTGreen':0 'grey78':0 'CTYellow':0 },125,195,1,(R:5,C:3),{ chips  'CTRed':15 'CTGreen':0 'CTPurple':0 'grey78':11 'CTYellow':12 },190,{ chips  'CTRed':33 'CTGreen':0 'CTPurple':7 'grey78':0 'CTYellow':0 },200,{ chips  'CTRed':18 'CTGreen':0 'CTPurple':7 'grey78':0 'CTYellow':0 },125
3playersLog_1388925455687.csv,2,100,300,true,{ chips  'CTRed':3 'grey78':3 },{ chips  },TRUE,190,200,{ chips  'CTRed':3 'CTPurple':0 'CTGreen':0 'grey78':3 'CTYellow':0 },{ chips  'CTRed':0 'CTPurple':0 'CTGreen':0 'grey78':0 'CTYellow':0 },160,155,1,(R:4,C:3),{ chips  'CTRed':12 'CTGreen':0 'CTPurple':0 'grey78':7 'CTYellow':12 },155,{ chips  'CTRed':33 'CTGreen':0 'CTPurple':7 'grey78':0 'CTYellow':0 },200,{ chips  'CTRed':21 'CTGreen':0 'CTPurple':7 'grey78':3 'CTYellow':0 },155
3playersLog_1388925455687.csv,3,200,100,false,{ chips  'CTPurple':1 },{ chips  'CTRed':3 'CTYellow':1 },FALSE,200,155,,,,,1,(R:4,C:2),{ chips  'CTRed':14 'CTGreen':0 'CTPurple':0 'grey78':7 'CTYellow':12 },165,{ chips  'CTRed':33 'CTGreen':0 'CTPurple':7 'grey78':0 'CTYellow':0 },200,{ chips  'CTRed':19 'CTGreen':0 'CTPurple':7 'grey78':2 'CTYellow':0 },140
3playersLog_1388925455687.csv,3,300,100,false,{ chips  'CTRed':2 'grey78':1 },{ chips  },TRUE,155,155,{ chips  'CTRed':2 'CTPurple':0 'CTGreen':0 'grey78':1 'CTYellow':0 },{ chips  'CTRed':0 'CTPurple':0 'CTGreen':0 'grey78':0 'CTYellow':0 },140,170,1,(R:4,C:2),{ chips  'CTRed':14 'CTGreen':0 'CTPurple':0 'grey78':7 'CTYellow':12 },165,{ chips  'CTRed':33 'CTGreen':0 'CTPurple':7 'grey78':0 'CTYellow':0 },200,{ chips  'CTRed':19 'CTGreen':0 'CTPurple':7 'grey78':2 'CTYellow':0 },140
3playersLog_1388925455687.csv,4,100,300,true,{ chips  'CTRed':1 },{ chips  'grey78':2 },TRUE,165,200,{ chips  'CTRed':1 'CTPurple':0 'CTGreen':0 'grey78':0 'CTYellow':0 },{ chips  'CTRed':0 'CTPurple':0 'CTGreen':0 'grey78':2 'CTYellow':0 },170,135,1,(R:3,C:2),{ chips  'CTRed':13 'CTGreen':0 'CTPurple':0 'grey78':8 'CTYellow':12 },165,{ chips  'CTRed':33 'CTGreen':0 'CTPurple':7 'grey78':0 'CTYellow':0 },200,{ chips  'CTRed':20 'CTGreen':0 'CTPurple':7 'grey78':0 'CTYellow':0 },135
3playersLog_1388925455687.csv,5,200,100,false,{ chips  'CTRed':9 'CTPurple':1 },{ chips  'CTRed':3 'CTYellow':3 },IGNORED,200,165,,,,,5,(R:0,C:0),{ chips  'CTRed':33 'CTGreen':0 'CTPurple':0 'grey78':3 'CTYellow':0 },330,{ chips  'CTRed':33 'CTGreen':0 'CTPurple':7 'grey78':0 'CTYellow':0 },200,{ chips  'CTRed':0 'CTGreen':0 'CTPurple':7 'grey78':0 'CTYellow':12 },245
3playersLog_1388925455687.csv,5,300,100,false,{ chips  'CTRed':20 },{ chips  'CTYellow':12 },TRUE,135,165,{ chips  'CTRed':20 'CTPurple':0 'CTGreen':0 'grey78':0 'CTYellow':0 },{ chips  'CTRed':0 'CTPurple':0 'CTGreen':0 'grey78':0 'CTYellow':12 },95,205,5,(R:0,C:0),{ chips  'CTRed':33 'CTGreen':0 'CTPurple':0 'grey78':3 'CTYellow':0 },330,{ chips  'CTRed':33 'CTGreen':0 'CTPurple':7 'grey78':0 'CTYellow':0 },200,{ chips  'CTRed':0 'CTGreen':0 'CTPurple':7 'grey78':0 'CTYellow':12 },245
3playersLog_1388925455687.csv,,,,,,,,,,,,,,,,,,,,,,,,true
